PhysicalThicknessNV,PhysicalThicknessSTD,YoungModulusNV,YoungModulusSTD,PoissonRatioNV,PoissonRatioSTD,LossAngleNV,LossAngleSTD,LossAngleShearNV,LossAngleShearSTD,HeatConductivityNV,HeatConductivitySTD,HeatCapacityNV,HeatCapacitySTD,RefractiveIndexNV,RefractiveIndexSTD,CTENV,CTESTD,CTRNV,CTRSTD,PETNV,PETSTD,MaterialName
5.8E-08,5E-11,100000000000,20000000000,0.311,0.0622,1.00E-04,2.00E-05,2.1E-07,2.1E-07,55,3,1750000,90000,3.48,0.03,5.97E-06,5.97E-07,0.000366,7E-06,-0.072,0.001, GaAs
4.01E-08,5E-11,100000000000,20000000000,0.32388,0.064776054,1.00E-04,2.00E-05,2.1E-07,2.1E-07,69.8672,5.021360183,1698200.016,1419.7824,2.94824,0.004217467,5.24E-06,5.24E-07,0.00017924,1.34E-06,-0.072,0.001,Al$_{0.92}$Ga$_{0.08}$As
1.52E-07,5E-11,100000000000,20000000000,0.311,0.0622,1.00E-04,2.00E-05,2.1E-07,2.1E-07,55,3,1750000,90000,3.48,0.03,5.97E-06,5.97E-07,0.000366,7E-06,-0.072,0.001, GaAs
3.58E-08,5E-11,100000000000,20000000000,0.32388,0.064776054,1.00E-04,2.00E-05,2.1E-07,2.1E-07,69.8672,5.021360183,1698200.016,1419.7824,2.94824,0.004217467,5.24E-06,5.24E-07,0.00017924,1.34E-06,-0.072,0.001,Al$_{0.92}$Ga$_{0.08}$As
1.41E-07,5E-11,100000000000,20000000000,0.311,0.0622,1.00E-04,2.00E-05,2.1E-07,2.1E-07,55,3,1750000,90000,3.48,0.03,5.97E-06,5.97E-07,0.000366,7E-06,-0.072,0.001, GaAs
6.06E-08,5E-11,100000000000,20000000000,0.32388,0.064776054,1.00E-04,2.00E-05,2.1E-07,2.1E-07,69.8672,5.021360183,1698200.016,1419.7824,2.94824,0.004217467,5.24E-06,5.24E-07,0.00017924,1.34E-06,-0.072,0.001,Al$_{0.92}$Ga$_{0.08}$As
8.44E-08,5E-11,100000000000,20000000000,0.311,0.0622,1.00E-04,2.00E-05,2.1E-07,2.1E-07,55,3,1750000,90000,3.48,0.03,5.97E-06,5.97E-07,0.000366,7E-06,-0.072,0.001, GaAs
7.67E-08,5E-11,100000000000,20000000000,0.32388,0.064776054,1.00E-04,2.00E-05,2.1E-07,2.1E-07,69.8672,5.021360183,1698200.016,1419.7824,2.94824,0.004217467,5.24E-06,5.24E-07,0.00017924,1.34E-06,-0.072,0.001,Al$_{0.92}$Ga$_{0.08}$As
7.68E-08,5E-11,100000000000,20000000000,0.311,0.0622,1.00E-04,2.00E-05,2.1E-07,2.1E-07,55,3,1750000,90000,3.48,0.03,5.97E-06,5.97E-07,0.000366,7E-06,-0.072,0.001, GaAs
8.53E-08,5E-11,100000000000,20000000000,0.32388,0.064776054,1.00E-04,2.00E-05,2.1E-07,2.1E-07,69.8672,5.021360183,1698200.016,1419.7824,2.94824,0.004217467,5.24E-06,5.24E-07,0.00017924,1.34E-06,-0.072,0.001,Al$_{0.92}$Ga$_{0.08}$As
7.35E-08,5E-11,100000000000,20000000000,0.311,0.0622,1.00E-04,2.00E-05,2.1E-07,2.1E-07,55,3,1750000,90000,3.48,0.03,5.97E-06,5.97E-07,0.000366,7E-06,-0.072,0.001, GaAs
8.95E-08,5E-11,100000000000,20000000000,0.32388,0.064776054,1.00E-04,2.00E-05,2.1E-07,2.1E-07,69.8672,5.021360183,1698200.016,1419.7824,2.94824,0.004217467,5.24E-06,5.24E-07,0.00017924,1.34E-06,-0.072,0.001,Al$_{0.92}$Ga$_{0.08}$As
7.24E-08,5E-11,100000000000,20000000000,0.311,0.0622,1.00E-04,2.00E-05,2.1E-07,2.1E-07,55,3,1750000,90000,3.48,0.03,5.97E-06,5.97E-07,0.000366,7E-06,-0.072,0.001, GaAs
9.13E-08,5E-11,100000000000,20000000000,0.32388,0.064776054,1.00E-04,2.00E-05,2.1E-07,2.1E-07,69.8672,5.021360183,1698200.016,1419.7824,2.94824,0.004217467,5.24E-06,5.24E-07,0.00017924,1.34E-06,-0.072,0.001,Al$_{0.92}$Ga$_{0.08}$As
7.26E-08,5E-11,100000000000,20000000000,0.311,0.0622,1.00E-04,2.00E-05,2.1E-07,2.1E-07,55,3,1750000,90000,3.48,0.03,5.97E-06,5.97E-07,0.000366,7E-06,-0.072,0.001, GaAs
9.19E-08,5E-11,100000000000,20000000000,0.32388,0.064776054,1.00E-04,2.00E-05,2.1E-07,2.1E-07,69.8672,5.021360183,1698200.016,1419.7824,2.94824,0.004217467,5.24E-06,5.24E-07,0.00017924,1.34E-06,-0.072,0.001,Al$_{0.92}$Ga$_{0.08}$As
7.32E-08,5E-11,100000000000,20000000000,0.311,0.0622,1.00E-04,2.00E-05,2.1E-07,2.1E-07,55,3,1750000,90000,3.48,0.03,5.97E-06,5.97E-07,0.000366,7E-06,-0.072,0.001, GaAs
9.17E-08,5E-11,100000000000,20000000000,0.32388,0.064776054,1.00E-04,2.00E-05,2.1E-07,2.1E-07,69.8672,5.021360183,1698200.016,1419.7824,2.94824,0.004217467,5.24E-06,5.24E-07,0.00017924,1.34E-06,-0.072,0.001,Al$_{0.92}$Ga$_{0.08}$As
7.38E-08,5E-11,100000000000,20000000000,0.311,0.0622,1.00E-04,2.00E-05,2.1E-07,2.1E-07,55,3,1750000,90000,3.48,0.03,5.97E-06,5.97E-07,0.000366,7E-06,-0.072,0.001, GaAs
9.12E-08,5E-11,100000000000,20000000000,0.32388,0.064776054,1.00E-04,2.00E-05,2.1E-07,2.1E-07,69.8672,5.021360183,1698200.016,1419.7824,2.94824,0.004217467,5.24E-06,5.24E-07,0.00017924,1.34E-06,-0.072,0.001,Al$_{0.92}$Ga$_{0.08}$As
7.45E-08,5E-11,100000000000,20000000000,0.311,0.0622,1.00E-04,2.00E-05,2.1E-07,2.1E-07,55,3,1750000,90000,3.48,0.03,5.97E-06,5.97E-07,0.000366,7E-06,-0.072,0.001, GaAs
9.05E-08,5E-11,100000000000,20000000000,0.32388,0.064776054,1.00E-04,2.00E-05,2.1E-07,2.1E-07,69.8672,5.021360183,1698200.016,1419.7824,2.94824,0.004217467,5.24E-06,5.24E-07,0.00017924,1.34E-06,-0.072,0.001,Al$_{0.92}$Ga$_{0.08}$As
7.52E-08,5E-11,100000000000,20000000000,0.311,0.0622,1.00E-04,2.00E-05,2.1E-07,2.1E-07,55,3,1750000,90000,3.48,0.03,5.97E-06,5.97E-07,0.000366,7E-06,-0.072,0.001, GaAs
8.99E-08,5E-11,100000000000,20000000000,0.32388,0.064776054,1.00E-04,2.00E-05,2.1E-07,2.1E-07,69.8672,5.021360183,1698200.016,1419.7824,2.94824,0.004217467,5.24E-06,5.24E-07,0.00017924,1.34E-06,-0.072,0.001,Al$_{0.92}$Ga$_{0.08}$As
7.59E-08,5E-11,100000000000,20000000000,0.311,0.0622,1.00E-04,2.00E-05,2.1E-07,2.1E-07,55,3,1750000,90000,3.48,0.03,5.97E-06,5.97E-07,0.000366,7E-06,-0.072,0.001, GaAs
8.93E-08,5E-11,100000000000,20000000000,0.32388,0.064776054,1.00E-04,2.00E-05,2.1E-07,2.1E-07,69.8672,5.021360183,1698200.016,1419.7824,2.94824,0.004217467,5.24E-06,5.24E-07,0.00017924,1.34E-06,-0.072,0.001,Al$_{0.92}$Ga$_{0.08}$As
7.63E-08,5E-11,100000000000,20000000000,0.311,0.0622,1.00E-04,2.00E-05,2.1E-07,2.1E-07,55,3,1750000,90000,3.48,0.03,5.97E-06,5.97E-07,0.000366,7E-06,-0.072,0.001, GaAs
8.87E-08,5E-11,100000000000,20000000000,0.32388,0.064776054,1.00E-04,2.00E-05,2.1E-07,2.1E-07,69.8672,5.021360183,1698200.016,1419.7824,2.94824,0.004217467,5.24E-06,5.24E-07,0.00017924,1.34E-06,-0.072,0.001,Al$_{0.92}$Ga$_{0.08}$As
7.68E-08,5E-11,100000000000,20000000000,0.311,0.0622,1.00E-04,2.00E-05,2.1E-07,2.1E-07,55,3,1750000,90000,3.48,0.03,5.97E-06,5.97E-07,0.000366,7E-06,-0.072,0.001, GaAs
8.83E-08,5E-11,100000000000,20000000000,0.32388,0.064776054,1.00E-04,2.00E-05,2.1E-07,2.1E-07,69.8672,5.021360183,1698200.016,1419.7824,2.94824,0.004217467,5.24E-06,5.24E-07,0.00017924,1.34E-06,-0.072,0.001,Al$_{0.92}$Ga$_{0.08}$As
7.73E-08,5E-11,100000000000,20000000000,0.311,0.0622,1.00E-04,2.00E-05,2.1E-07,2.1E-07,55,3,1750000,90000,3.48,0.03,5.97E-06,5.97E-07,0.000366,7E-06,-0.072,0.001, GaAs
8.78E-08,5E-11,100000000000,20000000000,0.32388,0.064776054,1.00E-04,2.00E-05,2.1E-07,2.1E-07,69.8672,5.021360183,1698200.016,1419.7824,2.94824,0.004217467,5.24E-06,5.24E-07,0.00017924,1.34E-06,-0.072,0.001,Al$_{0.92}$Ga$_{0.08}$As
7.77E-08,5E-11,100000000000,20000000000,0.311,0.0622,1.00E-04,2.00E-05,2.1E-07,2.1E-07,55,3,1750000,90000,3.48,0.03,5.97E-06,5.97E-07,0.000366,7E-06,-0.072,0.001, GaAs
8.74E-08,5E-11,100000000000,20000000000,0.32388,0.064776054,1.00E-04,2.00E-05,2.1E-07,2.1E-07,69.8672,5.021360183,1698200.016,1419.7824,2.94824,0.004217467,5.24E-06,5.24E-07,0.00017924,1.34E-06,-0.072,0.001,Al$_{0.92}$Ga$_{0.08}$As
7.79E-08,5E-11,100000000000,20000000000,0.311,0.0622,1.00E-04,2.00E-05,2.1E-07,2.1E-07,55,3,1750000,90000,3.48,0.03,5.97E-06,5.97E-07,0.000366,7E-06,-0.072,0.001, GaAs
8.72E-08,5E-11,100000000000,20000000000,0.32388,0.064776054,1.00E-04,2.00E-05,2.1E-07,2.1E-07,69.8672,5.021360183,1698200.016,1419.7824,2.94824,0.004217467,5.24E-06,5.24E-07,0.00017924,1.34E-06,-0.072,0.001,Al$_{0.92}$Ga$_{0.08}$As
7.82E-08,5E-11,100000000000,20000000000,0.311,0.0622,1.00E-04,2.00E-05,2.1E-07,2.1E-07,55,3,1750000,90000,3.48,0.03,5.97E-06,5.97E-07,0.000366,7E-06,-0.072,0.001, GaAs
8.7E-08,5E-11,100000000000,20000000000,0.32388,0.064776054,1.00E-04,2.00E-05,2.1E-07,2.1E-07,69.8672,5.021360183,1698200.016,1419.7824,2.94824,0.004217467,5.24E-06,5.24E-07,0.00017924,1.34E-06,-0.072,0.001,Al$_{0.92}$Ga$_{0.08}$As
7.84E-08,5E-11,100000000000,20000000000,0.311,0.0622,1.00E-04,2.00E-05,2.1E-07,2.1E-07,55,3,1750000,90000,3.48,0.03,5.97E-06,5.97E-07,0.000366,7E-06,-0.072,0.001, GaAs
8.68E-08,5E-11,100000000000,20000000000,0.32388,0.064776054,1.00E-04,2.00E-05,2.1E-07,2.1E-07,69.8672,5.021360183,1698200.016,1419.7824,2.94824,0.004217467,5.24E-06,5.24E-07,0.00017924,1.34E-06,-0.072,0.001,Al$_{0.92}$Ga$_{0.08}$As
7.84E-08,5E-11,100000000000,20000000000,0.311,0.0622,1.00E-04,2.00E-05,2.1E-07,2.1E-07,55,3,1750000,90000,3.48,0.03,5.97E-06,5.97E-07,0.000366,7E-06,-0.072,0.001, GaAs
8.66E-08,5E-11,100000000000,20000000000,0.32388,0.064776054,1.00E-04,2.00E-05,2.1E-07,2.1E-07,69.8672,5.021360183,1698200.016,1419.7824,2.94824,0.004217467,5.24E-06,5.24E-07,0.00017924,1.34E-06,-0.072,0.001,Al$_{0.92}$Ga$_{0.08}$As
7.86E-08,5E-11,100000000000,20000000000,0.311,0.0622,1.00E-04,2.00E-05,2.1E-07,2.1E-07,55,3,1750000,90000,3.48,0.03,5.97E-06,5.97E-07,0.000366,7E-06,-0.072,0.001, GaAs
8.65E-08,5E-11,100000000000,20000000000,0.32388,0.064776054,1.00E-04,2.00E-05,2.1E-07,2.1E-07,69.8672,5.021360183,1698200.016,1419.7824,2.94824,0.004217467,5.24E-06,5.24E-07,0.00017924,1.34E-06,-0.072,0.001,Al$_{0.92}$Ga$_{0.08}$As
7.87E-08,5E-11,100000000000,20000000000,0.311,0.0622,1.00E-04,2.00E-05,2.1E-07,2.1E-07,55,3,1750000,90000,3.48,0.03,5.97E-06,5.97E-07,0.000366,7E-06,-0.072,0.001, GaAs
8.64E-08,5E-11,100000000000,20000000000,0.32388,0.064776054,1.00E-04,2.00E-05,2.1E-07,2.1E-07,69.8672,5.021360183,1698200.016,1419.7824,2.94824,0.004217467,5.24E-06,5.24E-07,0.00017924,1.34E-06,-0.072,0.001,Al$_{0.92}$Ga$_{0.08}$As
7.88E-08,5E-11,100000000000,20000000000,0.311,0.0622,1.00E-04,2.00E-05,2.1E-07,2.1E-07,55,3,1750000,90000,3.48,0.03,5.97E-06,5.97E-07,0.000366,7E-06,-0.072,0.001, GaAs
8.63E-08,5E-11,100000000000,20000000000,0.32388,0.064776054,1.00E-04,2.00E-05,2.1E-07,2.1E-07,69.8672,5.021360183,1698200.016,1419.7824,2.94824,0.004217467,5.24E-06,5.24E-07,0.00017924,1.34E-06,-0.072,0.001,Al$_{0.92}$Ga$_{0.08}$As
7.89E-08,5E-11,100000000000,20000000000,0.311,0.0622,1.00E-04,2.00E-05,2.1E-07,2.1E-07,55,3,1750000,90000,3.48,0.03,5.97E-06,5.97E-07,0.000366,7E-06,-0.072,0.001, GaAs
8.62E-08,5E-11,100000000000,20000000000,0.32388,0.064776054,1.00E-04,2.00E-05,2.1E-07,2.1E-07,69.8672,5.021360183,1698200.016,1419.7824,2.94824,0.004217467,5.24E-06,5.24E-07,0.00017924,1.34E-06,-0.072,0.001,Al$_{0.92}$Ga$_{0.08}$As
7.89E-08,5E-11,100000000000,20000000000,0.311,0.0622,1.00E-04,2.00E-05,2.1E-07,2.1E-07,55,3,1750000,90000,3.48,0.03,5.97E-06,5.97E-07,0.000366,7E-06,-0.072,0.001, GaAs
8.61E-08,5E-11,100000000000,20000000000,0.32388,0.064776054,1.00E-04,2.00E-05,2.1E-07,2.1E-07,69.8672,5.021360183,1698200.016,1419.7824,2.94824,0.004217467,5.24E-06,5.24E-07,0.00017924,1.34E-06,-0.072,0.001,Al$_{0.92}$Ga$_{0.08}$As
7.91E-08,5E-11,100000000000,20000000000,0.311,0.0622,1.00E-04,2.00E-05,2.1E-07,2.1E-07,55,3,1750000,90000,3.48,0.03,5.97E-06,5.97E-07,0.000366,7E-06,-0.072,0.001, GaAs
8.6E-08,5E-11,100000000000,20000000000,0.32388,0.064776054,1.00E-04,2.00E-05,2.1E-07,2.1E-07,69.8672,5.021360183,1698200.016,1419.7824,2.94824,0.004217467,5.24E-06,5.24E-07,0.00017924,1.34E-06,-0.072,0.001,Al$_{0.92}$Ga$_{0.08}$As
7.91E-08,5E-11,100000000000,20000000000,0.311,0.0622,1.00E-04,2.00E-05,2.1E-07,2.1E-07,55,3,1750000,90000,3.48,0.03,5.97E-06,5.97E-07,0.000366,7E-06,-0.072,0.001, GaAs
8.58E-08,5E-11,100000000000,20000000000,0.32388,0.064776054,1.00E-04,2.00E-05,2.1E-07,2.1E-07,69.8672,5.021360183,1698200.016,1419.7824,2.94824,0.004217467,5.24E-06,5.24E-07,0.00017924,1.34E-06,-0.072,0.001,Al$_{0.92}$Ga$_{0.08}$As
7.82E-08,5E-11,100000000000,20000000000,0.311,0.0622,1.00E-04,2.00E-05,2.1E-07,2.1E-07,55,3,1750000,90000,3.48,0.03,5.97E-06,5.97E-07,0.000366,7E-06,-0.072,0.001, GaAs
0.00635,0.000254,72000000000,1000000000,0.17,0.005,1E-07,1E-08,1E-07,1E-08,1.38,0.2,1600000,100000,1.45,0.1,5.1E-07,3E-08,0,0,0.269,0.001, FusedSilica
