# Duration of measurement: 120.013432 s
# Comments from moku data file:
# % Moku:Phasemeter 
# 
# % Ch 1 - DC coupling, 50 Ohm impedance, 1 V range
# 
# % Ch 1 bandwidth = 1.0000000000e+04 (Hz)
# 
# % Acquisition rate: 1.2500000000e+05 Hz
# 
# % External 10 MHz clock
# 
# % Acquired 2020-05-27 T 16:38:43 -0700
# 
# % Time, Set frequency 1 (Hz), Frequency 1 (Hz), Phase 1 (cyc), I 1 (V), Q 1 (V)
# 
# #########################################################
# ASD calculated by mokuReadFreqNoise.py
# Frequency [Hz]         Freq ASD1 [Hz/rtHz]      Freq ASDlb1 [Hz/rtHz]    Freq ASDub1 [Hz/rtHz]    
# 
0.000000000000000000e+00 3.691849107332439530e+02 3.691849107332439530e+02 3.691849107332439530e+02
1.000000000000000021e-02 5.334025455459694740e+02 5.334025455459694740e+02 5.334025455459694740e+02
2.000000000000000042e-02 6.936374737093716476e+02 6.936374737093716476e+02 6.936374737093716476e+02
2.999999999999999889e-02 7.220600928584206031e+02 7.220600928584206031e+02 7.220600928584206031e+02
4.000000000000000083e-02 4.350056546446899119e+02 4.350056546446899119e+02 4.350056546446899119e+02
5.000000000000000278e-02 4.141250230462175637e+02 4.141250230462175637e+02 4.141250230462175637e+02
5.999999999999999778e-02 5.394067929572197500e+02 5.394067929572197500e+02 5.394067929572197500e+02
7.000000000000000666e-02 3.909241838774244115e+02 3.909241838774244115e+02 3.909241838774244115e+02
8.000000000000000167e-02 1.625079552943361421e+02 1.625079552943361421e+02 1.625079552943361421e+02
8.999999999999999667e-02 2.530009163869824533e+02 2.530009163869824533e+02 2.530009163869824533e+02
1.000000000000000056e-01 1.005141674955987128e+02 1.005141674955987128e+02 1.005141674955987128e+02
1.100000000000000006e-01 1.820149582889803810e+02 1.820149582889803810e+02 1.820149582889803810e+02
1.199999999999999956e-01 2.447100844275840643e+02 2.447100844275840643e+02 2.447100844275840643e+02
1.300000000000000044e-01 5.898622488751772153e+01 5.898622488751772153e+01 5.898622488751772153e+01
1.400000000000000133e-01 1.598775730218534363e+02 1.598775730218534363e+02 1.598775730218534363e+02
1.499999999999999944e-01 9.741053029182847922e+01 9.741053029182847922e+01 9.741053029182847922e+01
1.600000000000000033e-01 8.939144157741608865e+01 8.939144157741608865e+01 8.939144157741608865e+01
1.700000000000000122e-01 1.973495263518658192e+02 1.973495263518658192e+02 1.973495263518658192e+02
1.799999999999999933e-01 2.727571313383895131e+02 2.727571313383895131e+02 2.727571313383895131e+02
1.900000000000000022e-01 2.899560084938667046e+02 2.899560084938667046e+02 2.899560084938667046e+02
2.000000000000000111e-01 2.640684791795074489e+02 2.640684791795074489e+02 2.640684791795074489e+02
2.099999999999999922e-01 1.602304882649094395e+02 1.602304882649094395e+02 1.602304882649094395e+02
2.200000000000000011e-01 8.025218958128904490e+01 8.025218958128904490e+01 8.025218958128904490e+01
2.300000000000000100e-01 3.526534453265649915e+01 3.526534453265649915e+01 3.526534453265649915e+01
2.399999999999999911e-01 1.360570370278469454e+02 1.360570370278469454e+02 1.360570370278469454e+02
2.500000000000000000e-01 1.008681887746892301e+02 1.008681887746892301e+02 1.008681887746892301e+02
2.600000000000000089e-01 7.504820696611406561e+01 7.504820696611406561e+01 7.504820696611406561e+01
2.700000000000000178e-01 1.516728136471938626e+02 1.516728136471938626e+02 1.516728136471938626e+02
2.800000000000000266e-01 1.691946318374951943e+02 1.691946318374951943e+02 1.691946318374951943e+02
2.899999999999999800e-01 9.610741340748080574e+01 9.610741340748080574e+01 9.610741340748080574e+01
2.999999999999999889e-01 1.592574306331564458e+02 1.592574306331564458e+02 1.592574306331564458e+02
3.099999999999999978e-01 1.423126680534351465e+02 1.423126680534351465e+02 1.423126680534351465e+02
3.200000000000000067e-01 1.689948958359488245e+02 1.689948958359488245e+02 1.689948958359488245e+02
3.300000000000000155e-01 2.072677415867630373e+02 2.072677415867630373e+02 2.072677415867630373e+02
3.400000000000000244e-01 1.654498330013184386e+02 1.654498330013184386e+02 1.654498330013184386e+02
3.500000000000000333e-01 9.371197150980033541e+01 9.371197150980033541e+01 9.371197150980033541e+01
3.599999999999999867e-01 1.204170232202179136e+02 1.204170232202179136e+02 1.204170232202179136e+02
3.699999999999999956e-01 1.564466473723475417e+02 1.564466473723475417e+02 1.564466473723475417e+02
3.800000000000000044e-01 1.615969737560588442e+02 1.615969737560588442e+02 1.615969737560588442e+02
3.900000000000000133e-01 6.756046810273349479e+01 6.756046810273349479e+01 6.756046810273349479e+01
4.000000000000000222e-01 4.464477240297227212e+01 4.464477240297227212e+01 4.464477240297227212e+01
4.100000000000000311e-01 6.959485807577284788e+01 6.959485807577284788e+01 6.959485807577284788e+01
4.199999999999999845e-01 8.537941782307673577e+01 8.537941782307673577e+01 8.537941782307673577e+01
4.299999999999999933e-01 2.770939274934873353e+01 2.770939274934873353e+01 2.770939274934873353e+01
4.400000000000000022e-01 1.057408199212300985e+02 1.057408199212300985e+02 1.057408199212300985e+02
4.500000000000000111e-01 1.485855946943088099e+02 1.485855946943088099e+02 1.485855946943088099e+02
4.600000000000000200e-01 8.201240031804709929e+01 8.201240031804709929e+01 8.201240031804709929e+01
4.700000000000000289e-01 7.550370553541866059e+01 7.550370553541866059e+01 7.550370553541866059e+01
4.799999999999999822e-01 9.489017197583275731e+01 9.489017197583275731e+01 9.489017197583275731e+01
4.899999999999999911e-01 8.976327184360567912e+01 8.976327184360567912e+01 8.976327184360567912e+01
5.000000000000000000e-01 3.173665736908214541e+01 3.173665736908214541e+01 3.173665736908214541e+01
5.100000000000000089e-01 2.477666170365414899e+01 2.477666170365414899e+01 2.477666170365414899e+01
5.200000000000000178e-01 5.328148704396655688e+01 5.328148704396655688e+01 5.328148704396655688e+01
5.300000000000000266e-01 4.023218671289838255e+01 4.023218671289838255e+01 4.023218671289838255e+01
5.400000000000000355e-01 4.240657152040189004e+01 4.240657152040189004e+01 4.240657152040189004e+01
5.500000000000000444e-01 6.016937946418064342e+01 6.016937946418064342e+01 6.016937946418064342e+01
5.600000000000000533e-01 1.173886037409409226e+02 1.173886037409409226e+02 1.173886037409409226e+02
5.700000000000000622e-01 9.980369582822160623e+01 9.980369582822160623e+01 9.980369582822160623e+01
5.799999999999999600e-01 1.010514103285821790e+02 1.010514103285821790e+02 1.010514103285821790e+02
5.899999999999999689e-01 5.818321286518924040e+01 5.818321286518924040e+01 5.818321286518924040e+01
5.999999999999999778e-01 1.395460896324236799e+01 1.395460896324236799e+01 1.395460896324236799e+01
6.099999999999999867e-01 2.754794522237395782e+01 2.754794522237395782e+01 2.754794522237395782e+01
6.199999999999999956e-01 6.232809073618636830e+01 6.232809073618636830e+01 6.232809073618636830e+01
6.300000000000000044e-01 9.621223500175378263e+01 9.621223500175378263e+01 9.621223500175378263e+01
6.400000000000000133e-01 5.898748228186534703e+01 5.898748228186534703e+01 5.898748228186534703e+01
6.500000000000000222e-01 5.576950430470789399e+01 5.576950430470789399e+01 5.576950430470789399e+01
6.600000000000000311e-01 9.984226401963297803e+01 9.984226401963297803e+01 9.984226401963297803e+01
6.700000000000000400e-01 5.690338119452380994e+01 5.690338119452380994e+01 5.690338119452380994e+01
6.800000000000000488e-01 2.359063748988119613e+01 2.359063748988119613e+01 2.359063748988119613e+01
6.900000000000000577e-01 6.564629445302851707e+01 6.564629445302851707e+01 6.564629445302851707e+01
7.000000000000000666e-01 9.179161488382358414e+01 9.179161488382358414e+01 9.179161488382358414e+01
7.099999999999999645e-01 8.843855233141498218e+01 8.843855233141498218e+01 8.843855233141498218e+01
7.199999999999999734e-01 6.877504493839630584e+01 6.877504493839630584e+01 6.877504493839630584e+01
7.299999999999999822e-01 4.427858475068412503e+01 4.427858475068412503e+01 4.427858475068412503e+01
7.399999999999999911e-01 3.195678264370602051e+01 3.195678264370602051e+01 3.195678264370602051e+01
7.500000000000000000e-01 3.044477031313335758e+01 3.044477031313335758e+01 3.044477031313335758e+01
7.600000000000000089e-01 3.020197269462900636e+01 3.020197269462900636e+01 3.020197269462900636e+01
7.700000000000000178e-01 5.274019155602908882e+01 5.274019155602908882e+01 5.274019155602908882e+01
7.800000000000000266e-01 3.550675091025478025e+01 3.550675091025478025e+01 3.550675091025478025e+01
7.900000000000000355e-01 1.198583387578479886e+01 1.198583387578479886e+01 1.198583387578479886e+01
8.000000000000000444e-01 5.527673550394545288e+01 5.527673550394545288e+01 5.527673550394545288e+01
8.100000000000000533e-01 5.864085220064950477e+01 5.864085220064950477e+01 5.864085220064950477e+01
8.200000000000000622e-01 4.594759849371357063e+01 4.594759849371357063e+01 4.594759849371357063e+01
8.300000000000000711e-01 2.666652374858259833e+01 2.666652374858259833e+01 2.666652374858259833e+01
8.399999999999999689e-01 3.843082692014545643e+01 3.843082692014545643e+01 3.843082692014545643e+01
8.499999999999999778e-01 1.198350583173924022e+01 1.198350583173924022e+01 1.198350583173924022e+01
8.599999999999999867e-01 3.689995407105107716e+01 3.689995407105107716e+01 3.689995407105107716e+01
8.699999999999999956e-01 3.543080638586164355e+01 3.543080638586164355e+01 3.543080638586164355e+01
8.800000000000000044e-01 8.284198881929164315e+01 8.284198881929164315e+01 8.284198881929164315e+01
8.900000000000000133e-01 4.396393396499490791e+01 4.396393396499490791e+01 4.396393396499490791e+01
9.000000000000000222e-01 3.045648366599480994e+01 3.045648366599480994e+01 3.045648366599480994e+01
9.100000000000000311e-01 6.218081982386301831e+01 6.218081982386301831e+01 6.218081982386301831e+01
9.200000000000000400e-01 7.019954275647596376e+01 7.019954275647596376e+01 7.019954275647596376e+01
9.300000000000000488e-01 5.814221166995685763e+01 5.814221166995685763e+01 5.814221166995685763e+01
9.400000000000000577e-01 3.893743613048700070e+01 3.893743613048700070e+01 3.893743613048700070e+01
9.500000000000000666e-01 2.802899179801521967e+01 2.802899179801521967e+01 2.802899179801521967e+01
9.599999999999999645e-01 3.212910891297888583e+01 3.212910891297888583e+01 3.212910891297888583e+01
9.699999999999999734e-01 2.380477654976473190e+01 2.380477654976473190e+01 2.380477654976473190e+01
9.799999999999999822e-01 2.436990577503172517e+01 2.436990577503172517e+01 2.436990577503172517e+01
9.899999999999999911e-01 9.334145527544778886e+00 9.334145527544778886e+00 9.334145527544778886e+00
1.000000000000000000e+00 2.281260939498238827e+01 1.417605438295888298e+01 5.590736220237953091e+01
1.100000000000000089e+00 2.764219843457797410e+01 1.376604933278523468e+01 4.975858287776713240e+01
1.200000000000000178e+00 2.169951877153231123e+01 1.052057739405258197e+01 4.012463814478729063e+01
1.300000000000000044e+00 2.536334707169037728e+01 1.115210355136668241e+01 4.203279722804607843e+01
1.400000000000000133e+00 2.156570061906220914e+01 1.216507538675057098e+01 3.346841950470621896e+01
1.500000000000000000e+00 1.617337928665952873e+01 6.880931286391396284e+00 2.679268344733291940e+01
1.600000000000000089e+00 1.194585006591985810e+01 6.882911464354787512e+00 2.674313163384126923e+01
1.700000000000000178e+00 1.497053352229630541e+01 5.535904828892901364e+00 2.596254419862024321e+01
1.800000000000000044e+00 1.223208854820511249e+01 5.154158086594639698e+00 2.741483510066498042e+01
1.900000000000000133e+00 1.740687365862235936e+01 8.884239216337173062e+00 2.223057058496900140e+01
2.000000000000000000e+00 1.693232843281041866e+01 1.125704365851115085e+01 2.431480491814328460e+01
2.100000000000000089e+00 1.154884154655747608e+01 5.742234141550123461e+00 2.263737726403722661e+01
2.200000000000000178e+00 1.204057076951810856e+01 5.193158787926097197e+00 2.282302583598306711e+01
2.300000000000000266e+00 1.339303551543366133e+01 5.501697935703889542e+00 2.333404020775373411e+01
2.400000000000000355e+00 1.100753845641589912e+01 7.585728381267513143e+00 2.195826434990182108e+01
2.500000000000000000e+00 1.138137702767588699e+01 5.184462627412388613e+00 1.500132225576693834e+01
2.600000000000000089e+00 8.769871127760385576e+00 3.778746327951910455e+00 1.595569898514283125e+01
2.700000000000000178e+00 1.341597574432894824e+01 5.627354985830664624e+00 1.720159476126305975e+01
2.800000000000000266e+00 1.210230249210305153e+01 7.822810547758784594e+00 2.036382698317950712e+01
2.900000000000000355e+00 1.013412528043627781e+01 6.204466082073830435e+00 1.924267349918731895e+01
3.000000000000000000e+00 7.988947230393995014e+00 4.224773003393843318e+00 1.278045676504740769e+01
3.100000000000000089e+00 9.297098440363845029e+00 2.915346830928669419e+00 1.438989297312379989e+01
3.200000000000000178e+00 1.032681248127648921e+01 5.751915576406025465e+00 1.671559976705082207e+01
3.300000000000000266e+00 1.137161385022215931e+01 5.801307980690294741e+00 1.662308562122450795e+01
3.400000000000000355e+00 1.142383233308915358e+01 7.119960964043495544e+00 1.520093625897022882e+01
3.500000000000000000e+00 1.029723777040901034e+01 4.360596472858511596e+00 1.830709473988457603e+01
3.600000000000000089e+00 1.127976795261997367e+01 5.009607239458546246e+00 1.493303060600503329e+01
3.700000000000000178e+00 7.531817722052335462e+00 4.836309598482896988e+00 1.618552674997049579e+01
3.800000000000000266e+00 7.653582132412880767e+00 4.334632745406890031e+00 1.525024201725578799e+01
3.900000000000000355e+00 6.966546585753441434e+00 3.233080125383629877e+00 1.142163797297807371e+01
4.000000000000000000e+00 4.712833176547993830e+00 2.876259554724356349e+00 7.231273725658349250e+00
4.100000000000000533e+00 4.682018986102195690e+00 2.643213675197959134e+00 7.676123005947946609e+00
4.200000000000000178e+00 5.454614097164077080e+00 3.563612384422425450e+00 9.826755894850780493e+00
4.299999999999999822e+00 4.762900448732645842e+00 3.170016817942181486e+00 9.829293027134719196e+00
4.400000000000000355e+00 5.623476704889897704e+00 2.874927861679799079e+00 8.321057679900439652e+00
4.500000000000000000e+00 4.996760695012732789e+00 2.154441185553803262e+00 6.798633514831746716e+00
4.600000000000000533e+00 5.185299447476415580e+00 3.145031723766237075e+00 7.905479897701576775e+00
4.700000000000000178e+00 4.476463780265703463e+00 2.463618669747971612e+00 6.983784229549993228e+00
4.800000000000000711e+00 4.957116264993061350e+00 3.114241647089244669e+00 7.535348405046841336e+00
4.900000000000000355e+00 4.502150362052232069e+00 2.501919044112895119e+00 8.474057219006184027e+00
5.000000000000000000e+00 4.785578958834761920e+00 2.501714173517055606e+00 7.972177627773287867e+00
5.100000000000000533e+00 5.300154805702684158e+00 2.499306679416934962e+00 1.011463839209624815e+01
5.200000000000000178e+00 6.362886879615907709e+00 3.623446779419023489e+00 9.325086393467058699e+00
5.300000000000000711e+00 6.311231775460128368e+00 2.695624927615776212e+00 9.128935907192555987e+00
5.400000000000000355e+00 6.283903851763326109e+00 3.808475854548814876e+00 1.022792910524518817e+01
5.500000000000000000e+00 7.188576609944616891e+00 2.912733285945649619e+00 1.148664260716901531e+01
5.600000000000000533e+00 6.069487175611678609e+00 3.709458561253744957e+00 1.027639758118816538e+01
5.700000000000000178e+00 4.570274511950408680e+00 2.715688493573271245e+00 1.038554775408634256e+01
5.800000000000000711e+00 4.504578600039405245e+00 1.833734826804607643e+00 7.584315205278109318e+00
5.900000000000000355e+00 4.425722989612911107e+00 2.162080776215792977e+00 7.190975689735266130e+00
6.000000000000000000e+00 4.315400068192287719e+00 2.435900224542733916e+00 6.080361816629895166e+00
6.100000000000000533e+00 3.986877658064037711e+00 1.683380339757924782e+00 5.748329468642708662e+00
6.200000000000000178e+00 3.099267417556036186e+00 1.702990163511518773e+00 4.780274676507880294e+00
6.300000000000000711e+00 2.895498535140836438e+00 1.632966456234746788e+00 5.315947197844019811e+00
6.400000000000000355e+00 4.146410291080705690e+00 1.526977480811657628e+00 7.097687864605638275e+00
6.500000000000000000e+00 3.355984252037014670e+00 1.934155709816612001e+00 5.265428436087197461e+00
6.600000000000000533e+00 3.696544028856399766e+00 2.071873060235991382e+00 5.184712528000882337e+00
6.700000000000000178e+00 3.415080745798766415e+00 1.452731279261042063e+00 4.993759427906613091e+00
6.800000000000000711e+00 4.709431083548515140e+00 1.858946109739266550e+00 8.064834135990277986e+00
6.900000000000000355e+00 5.770622498536484457e+00 3.311913630595388014e+00 1.081339797476428188e+01
7.000000000000000000e+00 5.233900128765160531e+00 3.086546877849554171e+00 9.064019116823736510e+00
7.100000000000000533e+00 6.669062054301740261e+00 2.778099990471709635e+00 9.858403273886596097e+00
7.200000000000000178e+00 4.862874168813242193e+00 2.597586522309260015e+00 9.183998721355690620e+00
7.300000000000000711e+00 4.014581033288402878e+00 1.893715475711424512e+00 6.957233390465453304e+00
7.400000000000000355e+00 4.328494270292686075e+00 2.802303131336854491e+00 6.248542553628007923e+00
7.500000000000000000e+00 4.486215656166125498e+00 2.400720293146201278e+00 6.943936504993502012e+00
7.600000000000000533e+00 4.525609272971347075e+00 2.764414766709403448e+00 7.494163142001863065e+00
7.700000000000000178e+00 4.464937661950105330e+00 2.759025716339021717e+00 6.658369048704992466e+00
7.800000000000000711e+00 3.932525234735260611e+00 2.346848115562527148e+00 5.812322297031942142e+00
7.900000000000000355e+00 3.556387174611855606e+00 1.994016580776589276e+00 5.900746323646036018e+00
8.000000000000000000e+00 4.090265980928906586e+00 1.569732984022966793e+00 6.711733403986678503e+00
8.099999999999999645e+00 3.791678283095019086e+00 2.126060335408048729e+00 5.568680276916207816e+00
8.200000000000001066e+00 3.444670107405231274e+00 2.408289545125700482e+00 4.055913404097733377e+00
8.300000000000000711e+00 3.340539607359080954e+00 1.214075789085911961e+00 4.964647381379315938e+00
8.400000000000000355e+00 2.941243769861077162e+00 1.842838929321644503e+00 5.473400168065933435e+00
8.500000000000000000e+00 3.306101429267309211e+00 2.103634159830432893e+00 5.011138359167386369e+00
8.599999999999999645e+00 3.666493382471782692e+00 2.565986820865628903e+00 6.806801886685973635e+00
8.700000000000001066e+00 4.161264313144724447e+00 2.730544307356351119e+00 6.449903947080718680e+00
8.800000000000000711e+00 3.353123802672699938e+00 2.059478693579148700e+00 7.961224551336101740e+00
8.900000000000000355e+00 5.430005223267997394e+00 2.206232808206483487e+00 8.346700864851921864e+00
9.000000000000000000e+00 4.549296909273627065e+00 2.479072187949103778e+00 8.094782502331035801e+00
9.099999999999999645e+00 3.836240413945996686e+00 2.378377186026189971e+00 6.424571966902306031e+00
9.200000000000001066e+00 3.364614337580659864e+00 1.641470456329396033e+00 4.907432302381772971e+00
9.300000000000000711e+00 4.018429778293101329e+00 2.320618088752345987e+00 5.528653314624211390e+00
9.400000000000000355e+00 3.603054578647253869e+00 2.194683386883469645e+00 6.986320251477724952e+00
9.500000000000000000e+00 4.039767663322627378e+00 2.478050446312584754e+00 6.275332617361512710e+00
9.600000000000001421e+00 4.031578946508501460e+00 2.787874658202662559e+00 6.313947967169980302e+00
9.700000000000001066e+00 4.879921861687247286e+00 1.950124995705734499e+00 7.862525418083772699e+00
9.800000000000000711e+00 4.957508609026198165e+00 2.085186013511915348e+00 6.957886904306714193e+00
9.900000000000000355e+00 3.187661337706842790e+00 2.123709590710525674e+00 7.114594834446243077e+00
1.000000000000000000e+01 4.369007436394356070e+00 1.910054303806883569e+00 7.924513906656327933e+00
1.100000000000000000e+01 3.412656414894277734e+00 1.348860324379667741e+00 7.563356673479186831e+00
1.200000000000000000e+01 2.624205685742496019e+00 9.199850190283039852e-01 5.125359249302183784e+00
1.300000000000000000e+01 1.874842770220600530e+00 7.478043669528035009e-01 4.506428915514264055e+00
1.400000000000000000e+01 1.925495219822475734e+00 6.351306151340430084e-01 4.347215955730298731e+00
1.500000000000000000e+01 1.649089574533573410e+00 5.911929932047034209e-01 4.381662962267640182e+00
1.600000000000000000e+01 1.441904328710225114e+00 4.968321899246003204e-01 4.902671314505644418e+00
1.700000000000000000e+01 1.176325838951916225e+00 4.432978311679187655e-01 4.451688805941420135e+00
1.800000000000000000e+01 9.657720190914177438e-01 3.357134763340605121e-01 3.279978286733408854e+00
1.900000000000000000e+01 7.692415845725825152e-01 3.304252463485010671e-01 2.392347614873225670e+00
2.000000000000000000e+01 6.639752350943972647e-01 2.927664655975805719e-01 1.737236591626479365e+00
2.100000000000000000e+01 6.198000585757968972e-01 2.697919210991368000e-01 1.916575761089689856e+00
2.200000000000000000e+01 5.312937881187337341e-01 2.379346378612370860e-01 1.765822376387647052e+00
2.300000000000000000e+01 4.498460132034399206e-01 1.848944760083719996e-01 1.680908495148523585e+00
2.400000000000000000e+01 3.787599067955044196e-01 1.697296719206976834e-01 1.221613502411119434e+00
2.500000000000000000e+01 3.760794733385756650e-01 1.711571911658405221e-01 9.706593192428113470e-01
2.600000000000000000e+01 3.469517505740762897e-01 1.761438809577414166e-01 7.374332632331872528e-01
2.700000000000000000e+01 3.227995916736089432e-01 1.583747864805090388e-01 6.529075583288831419e-01
2.800000000000000000e+01 2.808912919764996463e-01 1.407032875246529702e-01 5.424524601309916871e-01
2.900000000000000000e+01 2.498189489158524346e-01 1.310519612792570288e-01 4.649825937786782881e-01
3.000000000000000000e+01 2.139245643242060346e-01 1.077963782686364030e-01 4.310653672067639719e-01
3.100000000000000000e+01 2.115806078003374113e-01 1.220340023625747783e-01 4.024819283110726564e-01
3.200000000000000000e+01 2.075652401120130219e-01 9.849869391662491314e-02 3.853597148268785855e-01
3.300000000000000000e+01 1.990005444085580222e-01 9.284375348331451450e-02 3.752968508778976586e-01
3.400000000000000000e+01 1.895553773940686360e-01 8.509127181550689423e-02 3.097652481352787257e-01
3.500000000000000000e+01 1.814562299210166763e-01 8.274354300092602588e-02 2.953603598995199753e-01
3.600000000000000000e+01 1.670023650974178098e-01 8.572487834877634549e-02 2.661747785652886500e-01
3.700000000000000000e+01 1.504290203669393922e-01 7.848078508541110609e-02 2.597805192247403250e-01
3.800000000000000000e+01 1.404263555551090725e-01 6.520041641899812501e-02 2.361071947406804539e-01
3.900000000000000000e+01 1.211673263864069539e-01 6.282250123542108822e-02 2.281431444644304862e-01
4.000000000000000000e+01 1.353837102655459090e-01 5.775669114054324954e-02 2.051049088391781461e-01
4.100000000000000000e+01 1.191319325176612154e-01 5.427444996378884973e-02 1.949840733946916205e-01
4.200000000000000000e+01 1.159210942976321851e-01 5.956431694148437567e-02 1.960253938459643741e-01
4.300000000000000000e+01 1.164082659764043154e-01 6.324768569299767107e-02 1.905398186501504609e-01
4.400000000000000000e+01 1.141407820813580831e-01 5.751779501531838201e-02 1.962210987695975073e-01
4.500000000000000000e+01 1.183382284243239269e-01 6.285483608313095771e-02 1.881680071071588634e-01
4.600000000000000000e+01 1.126940583794647788e-01 6.151755905987729700e-02 1.840690104717715436e-01
4.700000000000000000e+01 1.096191232986983566e-01 4.783385489751686842e-02 1.946306162908351123e-01
4.800000000000000000e+01 1.215564210957640473e-01 6.659042450558710913e-02 1.892885327688485775e-01
4.900000000000000000e+01 1.373050778271942551e-01 6.575245285694160391e-02 2.086517932840968592e-01
5.000000000000000000e+01 1.134724525868052447e-01 5.312645025366089652e-02 1.921978839707547404e-01
5.100000000000000000e+01 1.127617378349175387e-01 5.362675213451292139e-02 1.838359814751356902e-01
5.200000000000000000e+01 1.136973521523122477e-01 5.966194174762146779e-02 1.881882566648871435e-01
5.300000000000000000e+01 1.117730868104290787e-01 5.543916542763861754e-02 1.835739653477678757e-01
5.400000000000000000e+01 1.126231946773780940e-01 6.034568230750453344e-02 1.914130106681079524e-01
5.500000000000000000e+01 1.186222262985889564e-01 5.555368665645155773e-02 1.861056428134102991e-01
5.600000000000000000e+01 1.187887627184645023e-01 6.118985225264920308e-02 1.967243516043171714e-01
5.700000000000000000e+01 1.179704947971310647e-01 6.400596488816573393e-02 1.781564793658107493e-01
5.800000000000000000e+01 9.215213364297872300e-02 5.384305173580443415e-02 1.655723431844102755e-01
5.900000000000000000e+01 1.035535081872227953e-01 5.165197734537436969e-02 1.634211676057275298e-01
6.000000000000000000e+01 1.241661493019445839e-01 6.787068196722832736e-02 2.030399231159499829e-01
6.100000000000000000e+01 1.115916973465704426e-01 5.336341483628830734e-02 2.020303906668048655e-01
6.200000000000000000e+01 1.082140169565922461e-01 5.281699500350069132e-02 1.828107085663240594e-01
6.300000000000000000e+01 9.548295117670584087e-02 4.506049243311223418e-02 1.618415702884263008e-01
6.400000000000000000e+01 9.563333716439099963e-02 5.010456761898117450e-02 1.485171510824060681e-01
6.500000000000000000e+01 8.243641223071976332e-02 4.626007970917797585e-02 1.429131461643964041e-01
6.600000000000000000e+01 8.463049851667132917e-02 4.073429254848344450e-02 1.390492857231496182e-01
6.700000000000000000e+01 8.553307144539559759e-02 4.025900434899252339e-02 1.327836463347797369e-01
6.800000000000000000e+01 7.752594530826954766e-02 3.962918735541245963e-02 1.324574908927029504e-01
6.900000000000000000e+01 7.614326590611865397e-02 3.986629747664938855e-02 1.119193277335099879e-01
7.000000000000000000e+01 6.812199132262819479e-02 3.353112329534465447e-02 1.103120480790734520e-01
7.100000000000000000e+01 7.184754160745664142e-02 3.556301819654571206e-02 1.071998102164749556e-01
7.200000000000000000e+01 6.630244085757243389e-02 3.238267853502142801e-02 1.097258411792311344e-01
7.300000000000000000e+01 6.392820952131621215e-02 3.232215864453627518e-02 9.758041475004278209e-02
7.400000000000000000e+01 5.876209358826708917e-02 2.822420719212941076e-02 1.022629219987560012e-01
7.500000000000000000e+01 5.639227469013258914e-02 2.769439082305855809e-02 9.495057252955967086e-02
7.600000000000000000e+01 6.022270857606575045e-02 3.091303790374116955e-02 9.704757834592646348e-02
7.700000000000000000e+01 6.026883307813207802e-02 3.029911525550639528e-02 9.911469559529173523e-02
7.800000000000000000e+01 6.137923812855870798e-02 2.911716460453374344e-02 9.635314884120110834e-02
7.900000000000000000e+01 5.647904125850673057e-02 2.944559780453612913e-02 9.387751446236586306e-02
8.000000000000000000e+01 5.606376735581594661e-02 2.628731276310951326e-02 9.837318529738024731e-02
8.100000000000000000e+01 5.446256608380408565e-02 2.688670936601427960e-02 9.611944024181535984e-02
8.200000000000000000e+01 5.282173798620812960e-02 2.329743903114288653e-02 9.483462121423359703e-02
8.300000000000000000e+01 5.818836874384349794e-02 3.123948288299248366e-02 9.219529948657753660e-02
8.400000000000000000e+01 5.536516230555864337e-02 2.755210458984599931e-02 9.271085859599657863e-02
8.500000000000000000e+01 6.262698518743328724e-02 2.850801757239676895e-02 1.110515426330779820e-01
8.600000000000000000e+01 7.236542931733266903e-02 3.695664900322050833e-02 1.221602124743295659e-01
8.700000000000000000e+01 7.151638668729930204e-02 3.661826886248149837e-02 1.162809247610043506e-01
8.800000000000000000e+01 5.947955398734287163e-02 2.885752937749012925e-02 1.004799476402864905e-01
8.900000000000000000e+01 5.790257302564236208e-02 2.754018500483969983e-02 9.390237299018730499e-02
9.000000000000000000e+01 5.478941501277873050e-02 2.603282649854128314e-02 9.146518587531350664e-02
9.100000000000000000e+01 6.075627984074927213e-02 2.587595718094128777e-02 9.753962629112149230e-02
9.200000000000000000e+01 6.464762327710744938e-02 3.587905597316190520e-02 1.082651901978369940e-01
9.300000000000000000e+01 7.807152435328226781e-02 4.734074219771643166e-02 1.210875029641387407e-01
9.400000000000000000e+01 8.176239487832628883e-02 3.533375710782365314e-02 1.164620279752603127e-01
9.500000000000000000e+01 6.504453678975577469e-02 3.161427906968528739e-02 1.038363450384447578e-01
9.600000000000000000e+01 5.588154826791672664e-02 2.873468750018533940e-02 8.789366523154396038e-02
9.700000000000000000e+01 4.744031110498571346e-02 2.475556515462224230e-02 8.230367902952456793e-02
9.800000000000000000e+01 5.109522866688782222e-02 2.501244883270959882e-02 8.450728992126033123e-02
9.900000000000000000e+01 5.147155684748919852e-02 2.851303234079795648e-02 8.007867157333509178e-02
1.000000000000000000e+02 5.607823193643129284e-02 2.844304488615826548e-02 9.122676663545403741e-02
1.100000000000000000e+02 5.916046655476721317e-02 2.958127102320623480e-02 9.601200454573384502e-02
1.200000000000000000e+02 7.154006690076454567e-02 3.650352670869250193e-02 1.122283782295116356e-01
1.300000000000000000e+02 5.543755406811156500e-02 2.761729529687827200e-02 9.020245597939416382e-02
1.400000000000000000e+02 5.166566040287039890e-02 2.511662980112495946e-02 8.346225507770151097e-02
1.500000000000000000e+02 5.865946802294554063e-02 2.834844714517289338e-02 9.462391609216384836e-02
1.600000000000000000e+02 5.038409202675140502e-02 2.524792574924758504e-02 8.209137660555537730e-02
1.700000000000000000e+02 4.571866044871732149e-02 2.146949088870221331e-02 7.366375997082316718e-02
1.800000000000000000e+02 4.902482935966038374e-02 2.459557612475813879e-02 7.976702959631321033e-02
1.900000000000000000e+02 4.430387022687089921e-02 2.285687208311804747e-02 7.091075862400957053e-02
2.000000000000000000e+02 4.757705727417376601e-02 2.352564961452029493e-02 7.719286681831666330e-02
2.100000000000000000e+02 5.504203061676876674e-02 2.745910081640369829e-02 8.887763371711704385e-02
2.200000000000000000e+02 4.752757432786079012e-02 2.301804499645161359e-02 7.661826602849867995e-02
2.300000000000000000e+02 4.837296668329917060e-02 2.390540534655133040e-02 7.821511639002087790e-02
2.400000000000000000e+02 6.536780106824521819e-02 3.406415400770514135e-02 1.007365854141743788e-01
2.500000000000000000e+02 4.852528065656533385e-02 2.410726976650755943e-02 7.836640081894469256e-02
2.600000000000000000e+02 5.319209345672872707e-02 2.650800776442781281e-02 8.420055800366113563e-02
2.700000000000000000e+02 7.464816367083909610e-02 3.748652903203900794e-02 1.284415134170745487e-01
2.800000000000000000e+02 7.080444848523333168e-02 3.488521829226880894e-02 1.250535190357768556e-01
2.900000000000000000e+02 5.040802334910134824e-02 2.357126506709025099e-02 8.244579039443833413e-02
3.000000000000000000e+02 4.632991771886033061e-02 2.279016870362742322e-02 7.691322197243594117e-02
3.100000000000000000e+02 4.214969140240764495e-02 2.126085896551054011e-02 6.971049654330375989e-02
3.200000000000000000e+02 4.669840065082418723e-02 2.425498965248432809e-02 7.613596782049301959e-02
3.300000000000000000e+02 5.416684028927799127e-02 2.713710265846083422e-02 8.786394668726128787e-02
3.400000000000000000e+02 4.613875471373123094e-02 2.349556484906422521e-02 7.680256502803940732e-02
3.500000000000000000e+02 4.134440168489521977e-02 2.079682205713704463e-02 6.903332645806663226e-02
3.600000000000000000e+02 4.080885009381424872e-02 2.093482897723737343e-02 6.849997439181945702e-02
3.700000000000000000e+02 3.930037238847953335e-02 1.904157764044370552e-02 6.602941444770928092e-02
3.800000000000000000e+02 4.531931145139326406e-02 2.276943637705233434e-02 7.455404828882025714e-02
3.900000000000000000e+02 5.434608406132546837e-02 2.692898590906057585e-02 8.819659470753091202e-02
4.000000000000000000e+02 4.808192657723673463e-02 2.486219483058795324e-02 7.722170502144500015e-02
4.100000000000000000e+02 4.332811813672184792e-02 2.156250696201059830e-02 6.962097555740888455e-02
4.200000000000000000e+02 4.725788303602957569e-02 2.280771051200072494e-02 7.723085985864081016e-02
4.300000000000000000e+02 4.673537727661727231e-02 2.354717555183244090e-02 7.433665446810873434e-02
4.400000000000000000e+02 4.760317572944931797e-02 2.465578225099776533e-02 7.718628756509945954e-02
4.500000000000000000e+02 5.386292519449603633e-02 2.723676485356087487e-02 8.497771108837950949e-02
4.600000000000000000e+02 4.559240901307977378e-02 2.365210509908344597e-02 7.325935536484282085e-02
4.700000000000000000e+02 4.277448374925351543e-02 2.159368113227398342e-02 7.187001790790123468e-02
4.800000000000000000e+02 5.300889796881608912e-02 2.706057003207893927e-02 8.443983037885363641e-02
4.900000000000000000e+02 4.412772865145221657e-02 2.179321792385773351e-02 7.165428337187539076e-02
5.000000000000000000e+02 4.634643369281759434e-02 2.274121939765238673e-02 7.488144013445119374e-02
5.100000000000000000e+02 5.292150454092332812e-02 2.670040551466620199e-02 8.652172702151325612e-02
5.200000000000000000e+02 4.655923756956051318e-02 2.321799649867219498e-02 7.600733674430347475e-02
5.300000000000000000e+02 4.183737927993576300e-02 2.080932639589730751e-02 6.921883321399882605e-02
5.400000000000000000e+02 4.432225182617725162e-02 2.112880613102654723e-02 7.489925707341905936e-02
5.500000000000000000e+02 4.273636292439774581e-02 2.113684983928278138e-02 7.091344534125183785e-02
5.600000000000000000e+02 4.732723483140222065e-02 2.333943278015125633e-02 7.682169882905755254e-02
5.700000000000000000e+02 5.435770862160829719e-02 2.674650776753842094e-02 8.650923999110500529e-02
5.800000000000000000e+02 4.677061458229082175e-02 2.361116811652259895e-02 7.507289300752524597e-02
5.900000000000000000e+02 4.252314508411587229e-02 2.142990769968064479e-02 7.059906822488265510e-02
6.000000000000000000e+02 4.906255233933961429e-02 2.447146577774067522e-02 7.960494366975542913e-02
6.100000000000000000e+02 4.423264680104225383e-02 2.314630934544072843e-02 7.259811105795113684e-02
6.200000000000000000e+02 4.598540448555772653e-02 2.367823092379094801e-02 7.607812499072420798e-02
6.300000000000000000e+02 6.553740855696423007e-02 3.280202474716058247e-02 1.071637968343032432e-01
6.400000000000000000e+02 7.015764513608400976e-02 3.468790758850078676e-02 1.144642955125491079e-01
6.500000000000000000e+02 6.522873827959481396e-02 3.311899115538926436e-02 1.094585535493322187e-01
6.600000000000000000e+02 5.892101380496141128e-02 2.808436330711740550e-02 9.658516876854653099e-02
6.700000000000000000e+02 5.209355493641859569e-02 2.618580223706520188e-02 8.702726089366506768e-02
6.800000000000000000e+02 5.437153903446727277e-02 2.797124534053472764e-02 9.045798328542900557e-02
6.900000000000000000e+02 5.847378760991610996e-02 2.843799431483028453e-02 9.592491214710983927e-02
7.000000000000000000e+02 4.983897255518100755e-02 2.456828393899255711e-02 8.131668030457396557e-02
7.100000000000000000e+02 4.650813104395577074e-02 2.212306818958872587e-02 7.587230004666470351e-02
7.200000000000000000e+02 4.987058827571445863e-02 2.466491897636526043e-02 8.004254803901997284e-02
7.300000000000000000e+02 4.548182356826572376e-02 2.297041365860505099e-02 7.469619822420067723e-02
7.400000000000000000e+02 4.561284634521620140e-02 2.275358989353720024e-02 7.430945889650565628e-02
7.500000000000000000e+02 5.259899254542480668e-02 2.628459989559158577e-02 8.363062978819754689e-02
7.600000000000000000e+02 4.701361036407831345e-02 2.374430841160792699e-02 7.710917757058712019e-02
7.700000000000000000e+02 4.602537166649301598e-02 2.306529463382258824e-02 7.400079294923804507e-02
7.800000000000000000e+02 4.920016619410353537e-02 2.479007183627832817e-02 7.956067187112113304e-02
7.900000000000000000e+02 6.309315865928082079e-02 3.086593025529041356e-02 1.051425585050589362e-01
8.000000000000000000e+02 1.546042348678188516e-01 8.028470041687549297e-02 2.499070240093971551e-01
8.100000000000000000e+02 1.838860090374593581e-01 9.644320247112712907e-02 2.777636551937547327e-01
8.200000000000000000e+02 7.912481076599253704e-02 3.798794132922669875e-02 1.334427680369880964e-01
8.300000000000000000e+02 4.817424827906525292e-02 2.534975654761475669e-02 7.991422460012048701e-02
8.400000000000000000e+02 5.919171233241616453e-02 2.964963377795911542e-02 9.723719585087353678e-02
8.500000000000000000e+02 7.246730515721137855e-02 3.713483774316029412e-02 1.205554719367474964e-01
8.600000000000000000e+02 7.272669674760663672e-02 3.779992539265414342e-02 1.201609863294529623e-01
8.700000000000000000e+02 7.158473955260606647e-02 3.460979236633567047e-02 1.144207004296970004e-01
8.800000000000000000e+02 5.170192812906214408e-02 2.566241220457465833e-02 8.314938124106058259e-02
8.900000000000000000e+02 4.467072046541110258e-02 2.345831250430540846e-02 7.307909007244611788e-02
9.000000000000000000e+02 4.770108563788117567e-02 2.400527796381594567e-02 7.819642382223367105e-02
9.100000000000000000e+02 4.927496887278696308e-02 2.526170366920390056e-02 8.074785721749656864e-02
9.200000000000000000e+02 5.158120812401556510e-02 2.524569164617877434e-02 8.351165119663203629e-02
9.300000000000000000e+02 5.518127045711487821e-02 2.871719307055753748e-02 9.092651240847984817e-02
9.400000000000000000e+02 5.011596968962385434e-02 2.516477503522553810e-02 8.081312279835156653e-02
9.500000000000000000e+02 4.335635999484663272e-02 2.252073544800605245e-02 7.234608333197778407e-02
9.600000000000000000e+02 4.510299965849855208e-02 2.285343243726501578e-02 7.478887838975439850e-02
9.700000000000000000e+02 4.723059541782220067e-02 2.381228886018145127e-02 7.654239840683217666e-02
9.800000000000000000e+02 4.965931746547228021e-02 2.441428431490169290e-02 8.230878058546971243e-02
9.900000000000000000e+02 5.710652538368653913e-02 2.887736224376581326e-02 9.344379036933488092e-02
1.000000000000000000e+03 6.084194108247154703e-02 3.086812867813872388e-02 1.010796992872221023e-01
1.100000000000000000e+03 5.669081944414905427e-02 2.839895488424667991e-02 9.463915034514748525e-02
1.200000000000000000e+03 5.074395211494474311e-02 2.523443549679705786e-02 8.478886843466972023e-02
1.300000000000000000e+03 4.934112603274469488e-02 2.427440414300272020e-02 8.311276816811836998e-02
1.400000000000000000e+03 5.012195516181822130e-02 2.502754600530652379e-02 8.481120810725019388e-02
1.500000000000000000e+03 5.288188174105721423e-02 2.589632152847751168e-02 8.885493566642248264e-02
1.600000000000000000e+03 5.432770074650321995e-02 2.685857774540142268e-02 9.233232160932079713e-02
1.700000000000000000e+03 5.526852507508554779e-02 2.699192896506202519e-02 9.280713476203940326e-02
1.800000000000000000e+03 5.781473506332347051e-02 2.858545629155850518e-02 9.719889951198250333e-02
1.900000000000000000e+03 5.912959508592507268e-02 2.914399209021318118e-02 1.005037185598037369e-01
2.000000000000000000e+03 6.047839904129603122e-02 2.977561333133266208e-02 1.018428702788683055e-01
2.100000000000000000e+03 6.368115117946662740e-02 3.119478507205632536e-02 1.067617131704224481e-01
2.200000000000000000e+03 6.683436321917821110e-02 3.322048738842306448e-02 1.123518500935689751e-01
2.300000000000000000e+03 6.951945849567044144e-02 3.466720382548355711e-02 1.158198219787565236e-01
2.400000000000000000e+03 7.056636564845826520e-02 3.448757501231206751e-02 1.181100605550621380e-01
2.500000000000000000e+03 7.012383966688205683e-02 3.478576834300681903e-02 1.173853311107294906e-01
2.600000000000000000e+03 7.036695210172140558e-02 3.459614016067350667e-02 1.171044612184330286e-01
2.700000000000000000e+03 7.146502198801486794e-02 3.524183496899421092e-02 1.188800675897284664e-01
2.800000000000000000e+03 7.268222588889042268e-02 3.618667745672712183e-02 1.204657402760517387e-01
2.900000000000000000e+03 7.454619153880522042e-02 3.679307487955855299e-02 1.242613023548309603e-01
3.000000000000000000e+03 7.696496747645562020e-02 3.850352239825747397e-02 1.275846296798840429e-01
3.100000000000000000e+03 7.645847943915681788e-02 3.780580446258686306e-02 1.269934488907753234e-01
3.200000000000000000e+03 7.760116961502423749e-02 3.856090564161780698e-02 1.285586415816635519e-01
3.300000000000000000e+03 7.980898976461198169e-02 3.974489889731657594e-02 1.316483316223429623e-01
3.400000000000000000e+03 8.060449150081430703e-02 3.991999467099504456e-02 1.338037626408669911e-01
3.500000000000000000e+03 8.234375788995221268e-02 4.078200662119959435e-02 1.364102024114202671e-01
3.600000000000000000e+03 8.838948292150194952e-02 4.414251615164475201e-02 1.464322030823727305e-01
3.700000000000000000e+03 9.334929926358066787e-02 4.637147287832649872e-02 1.521157550480928544e-01
3.800000000000000000e+03 8.720300426970983843e-02 4.292392602810838481e-02 1.438351050183804547e-01
3.900000000000000000e+03 8.606605223100494140e-02 4.329782500168023046e-02 1.414978699817493468e-01
4.000000000000000000e+03 8.680464820473847432e-02 4.294215269103600352e-02 1.446982703791228619e-01
4.100000000000000000e+03 8.834923849924707084e-02 4.410286358709239463e-02 1.472513755382070244e-01
4.200000000000000000e+03 9.076870411961038276e-02 4.506158265584517958e-02 1.503646383318265334e-01
4.300000000000000000e+03 9.450378898853020737e-02 4.631758901610009277e-02 1.556539059630758226e-01
4.400000000000000000e+03 9.991681076272748707e-02 5.007353295290035283e-02 1.646437985528962922e-01
4.500000000000000000e+03 1.096448564877159498e-01 5.469969950607565107e-02 1.800456563270967647e-01
4.600000000000000000e+03 1.083496671920226306e-01 5.455154648117374605e-02 1.788279343041096481e-01
4.700000000000000000e+03 1.046728733775339759e-01 5.097137252529330975e-02 1.738522931397991911e-01
4.800000000000000000e+03 1.114559380705384684e-01 5.442312715595373079e-02 1.851283922095326162e-01
4.900000000000000000e+03 1.227135192470284741e-01 6.175032273104313213e-02 1.979384245428523759e-01
5.000000000000000000e+03 1.130392943671858913e-01 5.603428970489983396e-02 1.877839217933602312e-01
5.100000000000000000e+03 1.054694524164537101e-01 5.226457732873083378e-02 1.767906237111352696e-01
5.200000000000000000e+03 1.050599137729566201e-01 5.119722187213186781e-02 1.760540067127291386e-01
5.300000000000000000e+03 1.066654328092100090e-01 5.254471486846864353e-02 1.793563712109925157e-01
5.400000000000000000e+03 1.158137386479368702e-01 5.597136138832708302e-02 1.932447090124167211e-01
5.500000000000000000e+03 1.203838316921937573e-01 5.922317697631539896e-02 1.999288249419337027e-01
5.600000000000000000e+03 1.164824074076268312e-01 5.678831998843019563e-02 1.962172509161704825e-01
5.700000000000000000e+03 1.184012363713126542e-01 5.744449661962370418e-02 2.007760042626027530e-01
5.800000000000000000e+03 1.218026448273148016e-01 5.979432637029034187e-02 2.062488182543938120e-01
5.900000000000000000e+03 1.262728633286624436e-01 6.136359212639234256e-02 2.123740154269260216e-01
6.000000000000000000e+03 1.299894378932623940e-01 6.402036010820047474e-02 2.196732677084687890e-01
6.100000000000000000e+03 1.337549699672316017e-01 6.483621362957683876e-02 2.254232577569499352e-01
6.200000000000000000e+03 1.376971600030065523e-01 6.781663037625304535e-02 2.326055961245398207e-01
6.300000000000000000e+03 1.404503464049500494e-01 6.934087607934882880e-02 2.364337073188221283e-01
6.400000000000000000e+03 1.433037038326854251e-01 7.019916590818568725e-02 2.412744736547685065e-01
6.500000000000000000e+03 1.485709333059890835e-01 7.313433751420216067e-02 2.474643616895483011e-01
6.600000000000000000e+03 1.514835492023062224e-01 7.432137347201879518e-02 2.502978251321271719e-01
6.700000000000000000e+03 1.537392886817745274e-01 7.574876833665170062e-02 2.545123721945721784e-01
6.800000000000000000e+03 1.561142509620551122e-01 7.708555123496721451e-02 2.579067170040267865e-01
6.900000000000000000e+03 1.577233256900649194e-01 7.767535136833608744e-02 2.610281982445227800e-01
7.000000000000000000e+03 1.609571563904123037e-01 8.147806888701696060e-02 2.639103250791660638e-01
7.100000000000000000e+03 1.653744148948435855e-01 8.319680686681370230e-02 2.733915266170552916e-01
7.200000000000000000e+03 1.773057390347909934e-01 8.753349575557244078e-02 2.898663355479446091e-01
7.300000000000000000e+03 1.930009992720923273e-01 9.686789339780174646e-02 3.137668458286222428e-01
7.400000000000000000e+03 1.963136717198615822e-01 9.819058842485553495e-02 3.219225288908145188e-01
7.500000000000000000e+03 1.864626838374744688e-01 9.297640115611932599e-02 3.091064037102803641e-01
7.600000000000000000e+03 1.839941861821618452e-01 9.069585416662787059e-02 3.031185407608610327e-01
7.700000000000000000e+03 1.868963988062395110e-01 9.222361858598147888e-02 3.057113157637434409e-01
7.800000000000000000e+03 1.879142570980470994e-01 9.222105363943547407e-02 3.113347774096134057e-01
7.900000000000000000e+03 1.910178485842122798e-01 9.513071824063761006e-02 3.170170921442865275e-01
8.000000000000000000e+03 1.943195871836824462e-01 9.547399973010790852e-02 3.227624417019418490e-01
8.100000000000000000e+03 1.970788228189966074e-01 9.651355499571519225e-02 3.286351026086968274e-01
8.200000000000000000e+03 2.011972257346740234e-01 9.955454033538611858e-02 3.405311382825704780e-01
8.300000000000000000e+03 2.170733837902810714e-01 1.054842279344875844e-01 3.699999707301587781e-01
8.400000000000000000e+03 2.550879681597380544e-01 1.221481005170206857e-01 4.610484315734595384e-01
8.500000000000000000e+03 3.526684473924624474e-01 1.653999330466428552e-01 5.789294035987438969e-01
8.600000000000000000e+03 3.889073020164138805e-01 1.886914601536967828e-01 6.101485821009009491e-01
8.700000000000000000e+03 3.020244129853818515e-01 1.401499719741102767e-01 5.383232221727320965e-01
8.800000000000000000e+03 2.323484928116310855e-01 1.120670191514687580e-01 4.142508220763135851e-01
8.900000000000000000e+03 2.116977321428786807e-01 1.056513040039461643e-01 3.656629111976257840e-01
9.000000000000000000e+03 2.081467535384788348e-01 1.017264957779655393e-01 3.540222953962304797e-01
9.100000000000000000e+03 2.057801449524440940e-01 1.014552114115285231e-01 3.534419066455428138e-01
9.200000000000000000e+03 2.060751343255596835e-01 1.008437999156912845e-01 3.514516021030097970e-01
9.300000000000000000e+03 2.067840248857446828e-01 1.004822965748447400e-01 3.494335069374366332e-01
9.400000000000000000e+03 2.069859725098820158e-01 1.019261897487154095e-01 3.509007564578928706e-01
9.500000000000000000e+03 2.095829398371248653e-01 1.042490537944046614e-01 3.530516096636129864e-01
9.600000000000000000e+03 2.172591360565794549e-01 1.065626330315910114e-01 3.613332145497628045e-01
9.700000000000000000e+03 2.294151006165808249e-01 1.133161869604741440e-01 3.764118075717973744e-01
9.800000000000000000e+03 2.349254483427002937e-01 1.202216173232985574e-01 3.860195530926096574e-01
9.900000000000000000e+03 2.288559567365816838e-01 1.138851694786750940e-01 3.758011523610048643e-01
1.000000000000000000e+04 2.194316661460314899e-01 1.103672798009274203e-01 3.633612722589226185e-01
1.010000000000000000e+04 2.151220958617422463e-01 1.076867383170875686e-01 3.481808459864272343e-01
1.020000000000000000e+04 2.108013239476801137e-01 1.040508631599704054e-01 3.438966060985428896e-01
1.030000000000000000e+04 2.092389943199478852e-01 1.038079294465565489e-01 3.429830591809444051e-01
1.040000000000000000e+04 2.075139280619096305e-01 1.038915364604952873e-01 3.390262533865662786e-01
1.050000000000000000e+04 2.039656394354336100e-01 1.011836306968574573e-01 3.329928242676523098e-01
1.060000000000000000e+04 2.055238051156400569e-01 1.024690931796591320e-01 3.313042646358652088e-01
1.070000000000000000e+04 2.067824582345449691e-01 1.031968266319346073e-01 3.412660215796979313e-01
1.080000000000000000e+04 2.249942077972530985e-01 1.110103064430695008e-01 3.841898671063981308e-01
1.090000000000000000e+04 2.652702193446314083e-01 1.282587474372611502e-01 4.607509284612529843e-01
1.100000000000000000e+04 3.066115921499583674e-01 1.469056001046989968e-01 5.088711663387399664e-01
1.110000000000000000e+04 2.922652975501618955e-01 1.378768125500207387e-01 4.971330252910862724e-01
1.120000000000000000e+04 2.443262328741676870e-01 1.185048583704735453e-01 4.310496949095650177e-01
1.130000000000000000e+04 2.098614297593799638e-01 1.024843368032960916e-01 3.552254933540896498e-01
1.140000000000000000e+04 1.942357847387472247e-01 9.472961105752102096e-02 3.256480534657266168e-01
1.150000000000000000e+04 1.898686175850390900e-01 9.328302279151071130e-02 3.160707703959332315e-01
1.160000000000000000e+04 1.917339017832595527e-01 9.463943953175806001e-02 3.183789735876593752e-01
1.170000000000000000e+04 1.894537139257249647e-01 9.368340304255652617e-02 3.147900411197199211e-01
1.180000000000000000e+04 1.856092261666598131e-01 9.146935512477259722e-02 3.081023013174438163e-01
1.190000000000000000e+04 1.816943598984947505e-01 9.055069757025777100e-02 3.045009265724911152e-01
1.200000000000000000e+04 1.830304480336865103e-01 9.024977561152668082e-02 3.059171402985212951e-01
1.210000000000000000e+04 1.836466635222374633e-01 9.114068183555416869e-02 3.040484134754639634e-01
1.220000000000000000e+04 1.826295420516294565e-01 8.897672768020571665e-02 3.033143079897060446e-01
1.230000000000000000e+04 1.818210220556641388e-01 8.933072790871253444e-02 3.028709658875999300e-01
1.240000000000000000e+04 1.805404123273212091e-01 8.979119101411846271e-02 3.037706397361398802e-01
1.250000000000000000e+04 1.785668454485747347e-01 8.839387242916021958e-02 2.993810909081016658e-01
1.260000000000000000e+04 1.764407639694978158e-01 8.656662269889177364e-02 2.948534483625797620e-01
1.270000000000000000e+04 1.757701584607855860e-01 8.631470823047472651e-02 2.965753549058988692e-01
1.280000000000000000e+04 1.759974243362111834e-01 8.677632173887095401e-02 2.971036789588931692e-01
1.290000000000000000e+04 1.768606789965074810e-01 8.727656078044551680e-02 2.947931699975113173e-01
1.300000000000000000e+04 1.765879028959144170e-01 8.820231526853895831e-02 2.954651256183724595e-01
1.310000000000000000e+04 1.789225600393479221e-01 8.719847396497827641e-02 2.989622503613715288e-01
1.320000000000000000e+04 1.816394702217416779e-01 8.943577774995924157e-02 3.037431202415354914e-01
1.330000000000000000e+04 1.827901959202780924e-01 8.950301242665070767e-02 3.051498294026419034e-01
1.340000000000000000e+04 1.854244364021336577e-01 9.175806103511884027e-02 3.091142469374159596e-01
1.350000000000000000e+04 1.911219894664952512e-01 9.421928956233005525e-02 3.166098707111822397e-01
1.360000000000000000e+04 1.926748096271191646e-01 9.458093710578946434e-02 3.223361929186898678e-01
1.370000000000000000e+04 7.622094302644054631e-01 5.959588651636623657e-01 9.275056491215986076e-01
1.380000000000000000e+04 1.719880650254347998e+00 1.547969694441375221e+00 1.897737935004151000e+00
1.390000000000000000e+04 9.980959744335738959e-01 8.216757261148798230e-01 1.177377276150412433e+00
1.400000000000000000e+04 2.161450849726138379e-01 1.081435541151580249e-01 3.610462137508351765e-01
1.410000000000000000e+04 2.192471154435482461e-01 1.081774325172935314e-01 3.637356099998028114e-01
1.420000000000000000e+04 2.071321617552171201e-01 1.010258507467492184e-01 3.477195588120101100e-01
1.430000000000000000e+04 2.063525011863342473e-01 1.017999518381466073e-01 3.454082058956334245e-01
1.440000000000000000e+04 2.096086999151526020e-01 1.025806629165150058e-01 3.522086528735997035e-01
1.450000000000000000e+04 2.157226117035981605e-01 1.059420270526414964e-01 3.617375111272426724e-01
1.460000000000000000e+04 2.225748626586068757e-01 1.114996048385028526e-01 3.714165171491877748e-01
1.470000000000000000e+04 2.312400452849689425e-01 1.141913714519775108e-01 3.822407610918548970e-01
1.480000000000000000e+04 2.409029561188034962e-01 1.190468944588165129e-01 3.992363722871599130e-01
1.490000000000000000e+04 2.483445867785906425e-01 1.241444732898668996e-01 4.134402414541160642e-01
1.500000000000000000e+04 2.566601185816027031e-01 1.267577096462339792e-01 4.314540444498035643e-01
1.510000000000000000e+04 2.683952502306425347e-01 1.343205237962505350e-01 4.506661310769852768e-01
1.520000000000000000e+04 2.831130556487815308e-01 1.394704064655312714e-01 4.710757941405760985e-01
1.530000000000000000e+04 2.944686805657740769e-01 1.467534992651194359e-01 4.930295036527825303e-01
1.540000000000000000e+04 3.020221404397064324e-01 1.509942102752077631e-01 4.996180962623513189e-01
1.550000000000000000e+04 3.065638859291391349e-01 1.529577300502499571e-01 5.102625400319573679e-01
1.560000000000000000e+04 3.104275331991853681e-01 1.529918376615808095e-01 5.166362923176447408e-01
1.570000000000000000e+04 3.140539651550428579e-01 1.556009883102759117e-01 5.258365634440481662e-01
1.580000000000000000e+04 3.279678711726294327e-01 1.635149230925220243e-01 5.447981278359994572e-01
1.590000000000000000e+04 3.501450710576965442e-01 1.744902803387882451e-01 5.775360829768114712e-01
1.600000000000000000e+04 3.702147753586405021e-01 1.837242561717958578e-01 6.097161109675819368e-01
1.610000000000000000e+04 3.838767603559208874e-01 1.881510708041477520e-01 6.330777823991764475e-01
1.620000000000000000e+04 3.966470820701680777e-01 1.964399255775054198e-01 6.546786585680118842e-01
1.630000000000000000e+04 4.135749237454149352e-01 2.037159665856881074e-01 6.852897557256114602e-01
1.640000000000000000e+04 4.385917752968847005e-01 2.197339242553461303e-01 7.278651660117425592e-01
1.650000000000000000e+04 4.671499433419057379e-01 2.312501729894889391e-01 7.793171690045136435e-01
1.660000000000000000e+04 5.047411715937115684e-01 2.503276313841127920e-01 8.471696554194486639e-01
1.670000000000000000e+04 5.466950801133012572e-01 2.688577900696410006e-01 9.108947610501664238e-01
1.680000000000000000e+04 5.688258500527867412e-01 2.829742461855337954e-01 9.554063652154833886e-01
1.690000000000000000e+04 6.095360078907688939e-01 3.014672217847063074e-01 1.021216952733564387e+00
1.700000000000000000e+04 6.672620328014930990e-01 3.326154474545237605e-01 1.116167077083343839e+00
1.710000000000000000e+04 7.612752004648588589e-01 3.753187109157728463e-01 1.259043385269117632e+00
1.720000000000000000e+04 9.227452186523820155e-01 4.609245149590622259e-01 1.523819336625483301e+00
1.730000000000000000e+04 9.921013735221763108e-01 4.921980924675851687e-01 1.674441488109011056e+00
1.740000000000000000e+04 1.023446067393888992e+00 4.979938809156914115e-01 1.774391985039119213e+00
1.750000000000000000e+04 1.112375875995013530e+00 5.348921404213219377e-01 1.954148331536377459e+00
1.760000000000000000e+04 1.203101091779757104e+00 5.889116658185437059e-01 2.121482235751002587e+00
1.770000000000000000e+04 1.255005832087262574e+00 6.141661339009850673e-01 2.175512853086256193e+00
1.780000000000000000e+04 1.341573113405702511e+00 6.383810778657954543e-01 2.316918489504372847e+00
1.790000000000000000e+04 1.650917483921251039e+00 7.972528729677001991e-01 2.873643138211070536e+00
1.800000000000000000e+04 1.994010105081694961e+00 9.718831473026615653e-01 3.502667796529320032e+00
1.810000000000000000e+04 2.544286344865600569e+00 1.234271994355662150e+00 4.428097741461655801e+00
1.820000000000000000e+04 3.503565798122672437e+00 1.739692183260576064e+00 5.785143949292145926e+00
1.830000000000000000e+04 5.277715422103577581e+00 2.764127424969815117e+00 7.516244293019049394e+00
1.840000000000000000e+04 4.977492309743009713e+00 2.526608314160833313e+00 7.416656219133928474e+00
1.850000000000000000e+04 3.431495505171636928e+00 1.675856235158770913e+00 5.796835755409326829e+00
1.860000000000000000e+04 2.660378515108618558e+00 1.194451398943778608e+00 4.897126330551683004e+00
1.870000000000000000e+04 2.484995393414224374e+00 1.196022423759565578e+00 3.950709004640739597e+00
1.880000000000000000e+04 2.180096249522640139e+00 1.103537390645756844e+00 3.386316313366789732e+00
1.890000000000000000e+04 1.869780507509526624e+00 9.350300711147931931e-01 3.002434430038651847e+00
1.900000000000000000e+04 1.571406307899089638e+00 7.848209885460964985e-01 2.534721099978822778e+00
1.910000000000000000e+04 1.315135001062950115e+00 6.627905748789211238e-01 2.135832542082790830e+00
1.920000000000000000e+04 1.337028771721721965e+00 6.796657580900998807e-01 2.142881587737811344e+00
1.930000000000000000e+04 1.355934556777296685e+00 7.144280234093762783e-01 2.091662932297520872e+00
1.940000000000000000e+04 8.600191906307547152e-01 4.221485978998270605e-01 1.410992260183186575e+00
1.950000000000000000e+04 7.132137407512358918e-01 3.526541990846914776e-01 1.182668567553261774e+00
1.960000000000000000e+04 6.360788174162324005e-01 3.136837480511286969e-01 1.063719540779070938e+00
1.970000000000000000e+04 5.737736288770994841e-01 2.847341317172174535e-01 9.649041505723203738e-01
1.980000000000000000e+04 5.171155689730281280e-01 2.515319184411193287e-01 8.846505533949040601e-01
1.990000000000000000e+04 4.823574953043206492e-01 2.337157000220107528e-01 8.264959596221371774e-01
2.000000000000000000e+04 6.569387144194912542e-01 3.436241827703583329e-01 1.068151611182192706e+00
2.010000000000000000e+04 5.363953209208418560e-01 2.756231107811702441e-01 8.923890408952878106e-01
2.020000000000000000e+04 3.270327985427693429e-01 1.569759491699703191e-01 5.675558521670619472e-01
2.030000000000000000e+04 2.889465974894728784e-01 1.412372897489082568e-01 5.010393133130136567e-01
2.040000000000000000e+04 2.623310127537106795e-01 1.275419272190931597e-01 4.536918199691647446e-01
2.050000000000000000e+04 2.352123490330735311e-01 1.159024123278651341e-01 4.059288727218428039e-01
2.060000000000000000e+04 2.140485196136644175e-01 1.048681042161034166e-01 3.676667156692108307e-01
2.070000000000000000e+04 1.965680915339022283e-01 9.669579979666345637e-02 3.368135235498856961e-01
2.080000000000000000e+04 1.810383756319089710e-01 9.002398127428033747e-02 3.068445531825919059e-01
2.090000000000000000e+04 1.671906665204022091e-01 8.299104671954744827e-02 2.812979601675404950e-01
2.100000000000000000e+04 1.575154882090671615e-01 7.804539918427758072e-02 2.624815689658062667e-01
2.110000000000000000e+04 1.515441024954982119e-01 7.556895710158421930e-02 2.482934142555940915e-01
2.120000000000000000e+04 1.472080417811653108e-01 7.351606767140272947e-02 2.427113574210726654e-01
2.130000000000000000e+04 1.554951499087614264e-01 7.700632794773024092e-02 2.530016382851025258e-01
2.140000000000000000e+04 1.453488718207691099e-01 7.322343941538042578e-02 2.369888938580439475e-01
2.150000000000000000e+04 1.352413523115758853e-01 6.769899026140210885e-02 2.204734423766488705e-01
2.160000000000000000e+04 1.272831520151679607e-01 6.328239084368472711e-02 2.082360155502304966e-01
2.170000000000000000e+04 1.220874011896772166e-01 6.082567801610538200e-02 2.009707139902063566e-01
2.180000000000000000e+04 1.189132511840663708e-01 5.938083501380036350e-02 1.952892673857464512e-01
2.190000000000000000e+04 1.170949045381055875e-01 5.791838113928560877e-02 1.913981195599490648e-01
2.200000000000000000e+04 1.148185958302672394e-01 5.616876178068165582e-02 1.892885599600588609e-01
2.210000000000000000e+04 1.137483481990634315e-01 5.648017418736843431e-02 1.858231069270611935e-01
2.220000000000000000e+04 1.118198019742760868e-01 5.589511707397976092e-02 1.825132079568334842e-01
2.230000000000000000e+04 1.105646317285698954e-01 5.520630672057571381e-02 1.818496834414183028e-01
2.240000000000000000e+04 1.104538777360010299e-01 5.565078935062662407e-02 1.803340341242258282e-01
2.250000000000000000e+04 1.096000526653922030e-01 5.453834885784447639e-02 1.795978734845071478e-01
2.260000000000000000e+04 1.094053192941293051e-01 5.457512776572744778e-02 1.787934267873136363e-01
2.270000000000000000e+04 1.089873967622320972e-01 5.435682118534573837e-02 1.795029246802999079e-01
2.280000000000000000e+04 1.086148419441361479e-01 5.452647373037395467e-02 1.779741659895019701e-01
2.290000000000000000e+04 1.085362536595499972e-01 5.433520598964641790e-02 1.779034192623966115e-01
2.300000000000000000e+04 1.096667906553509264e-01 5.430751612359363545e-02 1.784349696956683273e-01
2.310000000000000000e+04 1.092847230748838633e-01 5.318663626799435135e-02 1.796872355783527275e-01
2.320000000000000000e+04 1.106210184869137469e-01 5.528353846159524132e-02 1.807016704521088590e-01
2.330000000000000000e+04 1.112876947439932901e-01 5.537879690311190567e-02 1.825675684572690693e-01
2.340000000000000000e+04 1.090999744708241737e-01 5.409833128626107684e-02 1.789348411328293420e-01
2.350000000000000000e+04 1.087380349669994778e-01 5.404309431880011810e-02 1.783188984988416104e-01
2.360000000000000000e+04 1.068599456596283775e-01 5.396504098017777806e-02 1.765506237857733529e-01
2.370000000000000000e+04 1.080794045600835113e-01 5.394928772737325046e-02 1.775875656796532254e-01
2.380000000000000000e+04 1.109690306552218175e-01 5.509322300813817436e-02 1.806375513442320391e-01
2.390000000000000000e+04 1.106833125984907490e-01 5.497105990924383567e-02 1.813291439579823028e-01
2.400000000000000000e+04 1.121124056269727221e-01 5.569592427213917313e-02 1.823821043485827631e-01
2.410000000000000000e+04 1.110136510157020001e-01 5.515525566215454673e-02 1.821643586949749649e-01
2.420000000000000000e+04 1.105917600564416958e-01 5.496519353672319613e-02 1.808016949195756784e-01
2.430000000000000000e+04 1.089892372947254134e-01 5.360827757924923470e-02 1.806937322617358233e-01
2.440000000000000000e+04 1.082876872589220579e-01 5.384677254032136512e-02 1.804960565577053422e-01
2.450000000000000000e+04 1.092464466034185483e-01 5.415856094984177610e-02 1.811072219017061669e-01
2.460000000000000000e+04 1.116006219236447966e-01 5.585228107205490733e-02 1.831305644905733832e-01
2.470000000000000000e+04 1.111305363189762641e-01 5.489978842807280435e-02 1.847000651872700849e-01
2.480000000000000000e+04 1.116857250374781590e-01 5.606498774877632235e-02 1.866181160842828313e-01
2.490000000000000000e+04 1.133183286108690319e-01 5.536704739072049325e-02 1.899133829527584749e-01
2.500000000000000000e+04 1.149041487179643245e-01 5.660688141939887452e-02 1.913140799540311299e-01
2.510000000000000000e+04 1.160038372430614168e-01 5.688587912531230251e-02 1.927339895210588017e-01
2.520000000000000000e+04 1.168372184238548050e-01 5.747483002979345695e-02 1.936982352737368629e-01
2.530000000000000000e+04 1.174378222927874998e-01 5.793053913982738889e-02 1.962415967480415357e-01
2.540000000000000000e+04 1.189141447198350382e-01 5.802078785768022967e-02 1.995875484606619565e-01
2.550000000000000000e+04 1.205562399302714804e-01 5.955455379440164482e-02 2.020416878302202235e-01
2.560000000000000000e+04 1.223582575295800168e-01 5.988417763583409048e-02 2.033090575251120802e-01
2.570000000000000000e+04 1.236012036843200518e-01 6.180974614401479189e-02 2.043114047698942615e-01
2.580000000000000000e+04 1.246408295107904046e-01 6.175264266817215297e-02 2.066283132473516748e-01
2.590000000000000000e+04 1.264791464017161193e-01 6.188050095658368527e-02 2.091920905815173315e-01
2.600000000000000000e+04 1.279558548881554458e-01 6.358364846005283566e-02 2.119644478765453643e-01
2.610000000000000000e+04 1.291682784914117976e-01 6.433335878490532844e-02 2.122375956682761855e-01
2.620000000000000000e+04 1.296161348456389140e-01 6.414176140129491943e-02 2.129455587512229797e-01
2.630000000000000000e+04 1.311295041103434089e-01 6.496732051335293856e-02 2.141147473737750329e-01
2.640000000000000000e+04 1.318672583754016692e-01 6.479135637577668194e-02 2.171373843821368110e-01
2.650000000000000000e+04 1.322923734616950620e-01 6.628608903801375130e-02 2.161416678326580354e-01
2.660000000000000000e+04 1.335233607180593696e-01 6.723603035415741391e-02 2.184935658642137013e-01
2.670000000000000000e+04 1.366406425545801384e-01 6.720349466095344726e-02 2.226939247434798763e-01
2.680000000000000000e+04 1.377669483694062558e-01 6.878117783454106016e-02 2.241975319002369460e-01
2.690000000000000000e+04 1.366789576456162447e-01 6.716874178506866688e-02 2.236022616735592050e-01
2.700000000000000000e+04 1.384157047163226406e-01 6.916406654279198818e-02 2.235279438083342674e-01
2.710000000000000000e+04 1.376068728336240499e-01 6.905880669723463150e-02 2.225678345402103409e-01
2.720000000000000000e+04 1.361352109499575080e-01 6.820656579453884816e-02 2.218657611875947122e-01
2.730000000000000000e+04 1.347349233458939033e-01 6.705455286526862402e-02 2.213064435270586661e-01
2.740000000000000000e+04 1.349712193310629582e-01 6.648934641191302231e-02 2.217929668604849136e-01
2.750000000000000000e+04 1.357595437229724700e-01 6.779168221320096277e-02 2.234203475198900113e-01
2.760000000000000000e+04 1.449094245919542168e-01 7.215744371418901515e-02 2.361559732509489473e-01
2.770000000000000000e+04 1.396392227662504038e-01 7.052391565373689053e-02 2.311190042530390509e-01
2.780000000000000000e+04 1.289521499221180090e-01 6.209984297801036945e-02 2.271785087770076539e-01
2.790000000000000000e+04 1.386557783456002502e-01 6.834356511747945173e-02 2.292518224017182082e-01
2.800000000000000000e+04 1.406065450261901051e-01 6.993883278343041021e-02 2.308302965264529549e-01
2.810000000000000000e+04 1.404230268284769323e-01 7.039128271945957471e-02 2.303327039694734735e-01
2.820000000000000000e+04 1.397857246056603275e-01 6.989715348553264540e-02 2.316155300051270516e-01
2.830000000000000000e+04 1.402624038817463781e-01 6.817066660365757313e-02 2.315848035262902394e-01
2.840000000000000000e+04 1.425721070489776032e-01 7.081568223142206686e-02 2.327588311992586367e-01
2.850000000000000000e+04 1.444107028113003344e-01 7.087363651588879376e-02 2.367303708443719013e-01
2.860000000000000000e+04 1.481303689074116026e-01 7.300277412687659895e-02 2.433490391160462452e-01
2.870000000000000000e+04 5.389729199205591792e-01 4.134816645776906996e-01 6.636973241157229086e-01
2.880000000000000000e+04 1.494726689351242310e+00 1.369804106313466718e+00 1.620195850182241992e+00
2.890000000000000000e+04 1.027229787846858589e+00 9.008853380572634517e-01 1.156916561266435162e+00
2.900000000000000000e+04 1.621289682635414231e-01 8.063972603907698655e-02 2.644139947079442443e-01
2.910000000000000000e+04 1.441008866588456561e-01 7.107017132551309013e-02 2.368228422319110793e-01
2.920000000000000000e+04 1.408202086036441647e-01 6.959871289416272311e-02 2.332988438695422495e-01
2.930000000000000000e+04 1.402646507379181617e-01 7.028903470717560997e-02 2.297027380796546614e-01
2.940000000000000000e+04 1.384331873769379384e-01 6.844921588433297566e-02 2.266126433639772120e-01
2.950000000000000000e+04 1.366284205619196501e-01 6.777200270061065068e-02 2.239826757505441468e-01
2.960000000000000000e+04 1.361841269428111512e-01 6.799277072171659719e-02 2.216687948272016706e-01
2.970000000000000000e+04 1.360331187722111645e-01 6.809045149796459639e-02 2.245078570890690628e-01
2.980000000000000000e+04 1.377767875785652352e-01 6.849693186186572857e-02 2.243540540490252255e-01
2.990000000000000000e+04 1.407818868279094304e-01 6.978855521817754759e-02 2.287363223962873837e-01
3.000000000000000000e+04 1.373850413828301975e-01 6.818818353578762204e-02 2.257068654692141463e-01
3.010000000000000000e+04 1.368658861342552657e-01 6.847970156716674806e-02 2.256126739992432850e-01
3.020000000000000000e+04 1.417267729695251832e-01 6.962206561532297000e-02 2.321334202835373672e-01
3.030000000000000000e+04 1.430006185506282335e-01 7.119254474566867608e-02 2.367604751050809420e-01
3.040000000000000000e+04 1.534088844042282296e-01 7.710413778075235480e-02 2.521317882744349426e-01
3.050000000000000000e+04 1.668983589756950492e-01 8.301520874715347109e-02 2.754111294144327982e-01
3.060000000000000000e+04 1.601870109762094929e-01 7.942278538833642820e-02 2.636813459411793681e-01
3.070000000000000000e+04 1.706209715991806875e-01 8.481383751789789427e-02 2.823519442408719549e-01
3.080000000000000000e+04 1.720868329265580754e-01 8.557526009129513833e-02 2.864538868866724486e-01
3.090000000000000000e+04 1.941797930052028831e-01 9.718610259166657328e-02 3.188037013105514683e-01
3.100000000000000000e+04 2.332093595988817547e-01 1.170507006888036189e-01 3.800817147882969427e-01
3.110000000000000000e+04 2.323557688407376087e-01 1.157084131717435876e-01 3.862725867807332292e-01
3.120000000000000000e+04 2.317852995525673532e-01 1.131993313801281514e-01 3.996428071630440115e-01
3.130000000000000000e+04 2.496975079154128419e-01 1.220643195648396240e-01 4.288910488477613581e-01
3.140000000000000000e+04 2.675104204787869810e-01 1.294769316139107729e-01 4.672949200451812501e-01
3.150000000000000000e+04 2.779304603813391727e-01 1.367872929242144597e-01 4.799680051228414346e-01
3.160000000000000000e+04 2.879979898449093745e-01 1.402023901447591869e-01 4.983117824261057982e-01
3.170000000000000000e+04 3.498417950274030908e-01 1.703041326077021633e-01 6.100341987724857695e-01
3.180000000000000000e+04 4.184698828379758706e-01 2.050563721997285815e-01 7.287086602582401040e-01
3.190000000000000000e+04 5.295166915644202721e-01 2.560646141148631427e-01 9.177935829302947823e-01
3.200000000000000000e+04 7.124714837913631582e-01 3.520389071464295472e-01 1.193735836914165738e+00
3.210000000000000000e+04 1.083065637958037453e+00 5.650949837607588400e-01 1.566217975643740878e+00
3.220000000000000000e+04 1.082297553547540092e+00 5.522171815784649995e-01 1.604116368335461784e+00
3.230000000000000000e+04 7.483844715981098350e-01 3.648370696674871905e-01 1.278051871854359867e+00
3.240000000000000000e+04 5.909535172730606689e-01 2.675266880342124232e-01 1.077765971498775954e+00
3.250000000000000000e+04 5.472791442751402391e-01 2.597375656762168084e-01 8.921268567475156841e-01
3.260000000000000000e+04 4.910925712802305387e-01 2.479946410789072297e-01 7.691275718330371491e-01
3.270000000000000000e+04 4.318766043476983674e-01 2.171011375931354292e-01 6.954230918712502874e-01
3.280000000000000000e+04 3.757660171482052336e-01 1.878940898193028897e-01 6.043187468833326470e-01
3.290000000000000000e+04 3.221303709492029932e-01 1.598631501091870855e-01 5.253684540173222395e-01
3.300000000000000000e+04 2.863649933185382079e-01 1.447148654480763519e-01 4.702414351148153093e-01
3.310000000000000000e+04 2.611575480902250668e-01 1.316206407560739089e-01 4.312133261727976730e-01
3.320000000000000000e+04 2.296068594974348953e-01 1.138978020632826493e-01 3.796647906356516722e-01
3.330000000000000000e+04 2.058449369467139078e-01 1.001853385597486490e-01 3.391788369766935429e-01
3.340000000000000000e+04 1.896131281873190966e-01 9.461877989038847137e-02 3.149910992398343712e-01
3.350000000000000000e+04 1.782820895087012247e-01 8.652011352390992505e-02 2.964068867783788974e-01
3.360000000000000000e+04 1.676633775684712446e-01 8.176509828693567794e-02 2.829697056738021410e-01
3.370000000000000000e+04 1.615794416470819894e-01 7.828266941387056199e-02 2.770366612017789998e-01
3.380000000000000000e+04 2.200373386853491930e-01 1.127804107377097104e-01 3.586974239293470590e-01
3.390000000000000000e+04 1.997128487151460241e-01 1.017317195795503504e-01 3.301704132089490207e-01
3.400000000000000000e+04 1.357740389435048711e-01 6.591603487224506619e-02 2.327519315030407709e-01
3.410000000000000000e+04 1.279835274025526437e-01 6.330300609849547067e-02 2.194138432998867239e-01
3.420000000000000000e+04 1.254061825062946778e-01 6.129895384790956525e-02 2.147166162971249070e-01
3.430000000000000000e+04 1.230396643554597103e-01 5.966098304568417943e-02 2.106622276109663960e-01
3.440000000000000000e+04 1.182122207876610820e-01 5.826694415911225222e-02 2.029098449025928952e-01
3.450000000000000000e+04 1.166535816482326682e-01 5.654009425354672436e-02 1.981161254377441783e-01
3.460000000000000000e+04 1.152224344501809883e-01 5.714829459122366256e-02 1.979512684118863997e-01
3.470000000000000000e+04 1.052383843511162514e-01 4.942374171130919230e-02 1.999551165265534003e-01
3.480000000000000000e+04 1.178981775804320009e-01 5.740256423779539763e-02 2.031081438827948560e-01
3.490000000000000000e+04 1.227711810072808357e-01 6.023298140528959843e-02 2.106824310641142728e-01
3.500000000000000000e+04 1.276925747764657282e-01 6.205063762022051954e-02 2.182652647198099483e-01
3.510000000000000000e+04 1.342916290465840379e-01 6.569168183501676583e-02 2.311415164362397301e-01
3.520000000000000000e+04 1.407550189425338383e-01 6.880448347003237375e-02 2.422943680432802505e-01
3.530000000000000000e+04 1.489011314744521364e-01 7.255413549662940997e-02 2.561642301170189429e-01
3.540000000000000000e+04 1.619009834030217254e-01 7.969132450846216909e-02 2.775502158786130602e-01
3.550000000000000000e+04 2.538882491809230091e-01 1.301956927848012535e-01 4.163358900763783343e-01
3.560000000000000000e+04 2.932455102888594789e-01 1.531962545946114473e-01 4.728670710554095380e-01
3.570000000000000000e+04 2.107337311166364857e-01 1.024651889471232119e-01 3.634931521203114690e-01
3.580000000000000000e+04 2.216904173738516171e-01 1.063738876879945505e-01 3.774861817202214698e-01
3.590000000000000000e+04 2.382651647369121439e-01 1.160994678776910288e-01 4.023463115036866045e-01
3.600000000000000000e+04 2.582958737589939879e-01 1.300466138045156539e-01 4.327401791049772517e-01
3.610000000000000000e+04 2.843086803745970559e-01 1.396667490690966240e-01 4.742357353099728723e-01
3.620000000000000000e+04 3.195829143765963609e-01 1.587382619425212193e-01 5.298619964578363817e-01
3.630000000000000000e+04 3.710089745527848093e-01 1.832615126041737263e-01 6.146712431621828010e-01
3.640000000000000000e+04 4.230778776834923649e-01 2.142674280981329282e-01 7.019811336408516844e-01
3.650000000000000000e+04 4.898361704812035922e-01 2.438490292863630116e-01 7.995449845854686322e-01
3.660000000000000000e+04 5.752882031044080913e-01 2.878506268359962150e-01 9.340638525402510384e-01
3.670000000000000000e+04 6.788267322604868426e-01 3.378563124574560650e-01 1.086257125333000229e+00
3.680000000000000000e+04 7.787940201396996720e-01 3.958152458057819234e-01 1.216279020937378608e+00
3.690000000000000000e+04 8.791385986208551939e-01 4.201662873666554554e-01 1.418712477441212982e+00
3.700000000000000000e+04 9.520591670632901904e-01 4.313700723841880635e-01 1.732498188788036853e+00
3.710000000000000000e+04 1.218363570104348037e+00 5.981050669908235529e-01 2.059889857508721445e+00
3.720000000000000000e+04 1.765022921043727600e+00 9.007529676158331222e-01 2.620410093632675075e+00
3.730000000000000000e+04 1.819417121535002124e+00 9.536544838589570139e-01 2.626347621194976334e+00
3.740000000000000000e+04 1.202309377761229037e+00 5.961412234619978268e-01 2.012222481517510264e+00
3.750000000000000000e+04 8.841304807670461452e-01 4.295634477678970109e-01 1.549675390131250774e+00
3.760000000000000000e+04 7.022273533215122043e-01 3.410520244886450780e-01 1.232979363314221644e+00
3.770000000000000000e+04 5.844431516835359997e-01 2.833707514766762303e-01 1.018337616755836450e+00
3.780000000000000000e+04 4.738284302118067615e-01 2.307693243867066646e-01 8.245025093492857060e-01
3.790000000000000000e+04 4.539288507112470561e-01 2.221872861716713554e-01 7.914656135634360323e-01
3.800000000000000000e+04 4.377534345122247039e-01 2.144007775449566500e-01 7.688527979635408904e-01
3.810000000000000000e+04 4.094309260934788641e-01 1.974436573862189959e-01 7.151774042133565157e-01
3.820000000000000000e+04 3.802026078963874345e-01 1.856961063243693366e-01 6.602506070554927664e-01
3.830000000000000000e+04 3.731934670483299521e-01 1.831080319716538451e-01 6.294597914263539984e-01
3.840000000000000000e+04 3.481317532050773322e-01 1.728701937592320159e-01 5.740773495472288879e-01
3.850000000000000000e+04 2.940583018525070869e-01 1.455568928364325554e-01 4.858894307021067172e-01
3.860000000000000000e+04 2.611582510406726398e-01 1.278042907197332045e-01 4.366753068063300436e-01
3.870000000000000000e+04 2.395035150787698519e-01 1.180245368088443103e-01 3.989567716579325851e-01
3.880000000000000000e+04 2.260594353666660616e-01 1.120962870975572429e-01 3.784093335685815296e-01
3.890000000000000000e+04 2.183602428319985356e-01 1.085897182276564787e-01 3.628934416240165994e-01
3.900000000000000000e+04 2.039587071734749457e-01 1.002871464059682527e-01 3.441878814965403932e-01
3.910000000000000000e+04 1.905699973389491375e-01 9.405294928324289816e-02 3.196775121159969313e-01
3.920000000000000000e+04 1.882806979745478559e-01 9.334553773455757375e-02 3.129950186242610455e-01
3.930000000000000000e+04 1.833810760640701421e-01 9.125886531662798229e-02 3.034291274016224227e-01
3.940000000000000000e+04 1.655458611017324722e-01 8.185937256223480007e-02 2.774333542407393383e-01
3.950000000000000000e+04 1.605562426940911891e-01 7.963312612522073508e-02 2.660067146211404499e-01
3.960000000000000000e+04 1.556097378985014656e-01 7.691633122828246683e-02 2.577548771730791000e-01
3.970000000000000000e+04 1.491504928761403503e-01 7.323795609369396220e-02 2.458687865910414438e-01
3.980000000000000000e+04 1.413253719390768770e-01 6.933825307257429627e-02 2.340972542180687066e-01
3.990000000000000000e+04 1.364757560126776126e-01 6.650446135418992821e-02 2.275612650893862055e-01
4.000000000000000000e+04 1.351850601800966556e-01 6.714526466695014406e-02 2.253315896561149112e-01
4.010000000000000000e+04 1.337702497186619710e-01 6.539159522799213586e-02 2.225629091911301705e-01
4.020000000000000000e+04 1.310288876307907080e-01 6.496022016638497432e-02 2.191038364428388729e-01
4.030000000000000000e+04 1.300898272868500349e-01 6.366603240833534905e-02 2.164050258166127783e-01
4.040000000000000000e+04 1.246427377319959673e-01 6.110450680996554890e-02 2.085825898068480178e-01
4.050000000000000000e+04 1.203044326856583801e-01 5.958686956404378454e-02 2.010770491762179923e-01
4.060000000000000000e+04 1.165608325693160696e-01 5.774287942444930599e-02 1.941616842731364867e-01
4.070000000000000000e+04 1.121944546783629204e-01 5.631639699540508942e-02 1.869262511606520349e-01
4.080000000000000000e+04 1.098118846618978128e-01 5.452511151618262553e-02 1.817207916765658515e-01
4.090000000000000000e+04 1.060656163891165876e-01 5.270702715676039291e-02 1.766145039713717391e-01
4.100000000000000000e+04 1.025275600239103219e-01 5.082587397714673216e-02 1.722537053716969302e-01
4.110000000000000000e+04 9.990001982699585337e-02 4.915373760887241372e-02 1.666851471110967209e-01
4.120000000000000000e+04 9.821925320836892570e-02 4.862550782522690601e-02 1.632103640456205873e-01
4.130000000000000000e+04 9.646827179083523884e-02 4.775655267480363037e-02 1.610919298933125299e-01
4.140000000000000000e+04 9.768545968159655923e-02 4.826442840023353192e-02 1.614426340827037620e-01
4.150000000000000000e+04 1.023448553826889623e-01 5.112281717549352344e-02 1.685218762258280378e-01
4.160000000000000000e+04 1.499215447384859290e-01 8.031143030646392678e-02 2.289896239738564432e-01
4.170000000000000000e+04 2.508682716489813558e+00 2.413603177787397858e+00 2.613543645306964702e+00
4.180000000000000000e+04 4.092742945284002509e+00 3.972500306818373961e+00 4.223636877016113900e+00
4.190000000000000000e+04 1.645170551008859672e+00 1.561314893850588525e+00 1.734863671134792229e+00
4.200000000000000000e+04 1.108101807927681925e-01 5.595936499178157109e-02 1.774956233428558183e-01
4.210000000000000000e+04 8.867443170937054642e-02 4.447745558175884156e-02 1.464360418779820372e-01
4.220000000000000000e+04 8.631747851944795991e-02 4.291954466464618229e-02 1.421963039855011213e-01
4.230000000000000000e+04 8.588415598007664853e-02 4.244242542303792998e-02 1.422924874561061759e-01
4.240000000000000000e+04 8.672976609049010133e-02 4.310573455379118624e-02 1.435262763989522961e-01
4.250000000000000000e+04 1.721953531955449646e-01 1.053943585014644885e-01 2.430836164146792100e-01
4.260000000000000000e+04 5.286671685052370950e-01 4.578055323887851302e-01 6.019570769483097994e-01
4.270000000000000000e+04 4.141538608508826269e-01 3.427622248993720810e-01 4.864343305089844360e-01
4.280000000000000000e+04 9.326515710515673185e-02 4.686381596618485745e-02 1.527161843591183787e-01
4.290000000000000000e+04 8.249479913492174799e-02 4.101891817463641787e-02 1.377815142469021314e-01
4.300000000000000000e+04 8.193825168398263803e-02 4.093707776720602320e-02 1.348973324609872848e-01
4.310000000000000000e+04 8.188072434293015844e-02 3.993670308850248707e-02 1.355191859534921606e-01
4.320000000000000000e+04 8.217174693543502495e-02 4.083841179350623796e-02 1.365226737216708175e-01
4.330000000000000000e+04 8.341431379154209957e-02 4.113512529366023657e-02 1.374373589716953170e-01
4.340000000000000000e+04 8.381415121388721690e-02 4.171783970394162683e-02 1.379259129653238325e-01
4.350000000000000000e+04 8.360618128042179853e-02 4.173596259654074186e-02 1.375714366375435649e-01
4.360000000000000000e+04 8.284492527986113408e-02 4.174943109628986848e-02 1.360171254024286347e-01
4.370000000000000000e+04 8.223163982430511942e-02 4.081780881217477591e-02 1.359753694885559583e-01
4.380000000000000000e+04 8.640264453450140214e-02 4.238689550766298886e-02 1.426780678311958539e-01
4.390000000000000000e+04 8.522557175178822886e-02 4.271237957691516318e-02 1.394848908630609563e-01
4.400000000000000000e+04 8.178868003269314235e-02 4.059047582194449943e-02 1.350188046882931370e-01
4.410000000000000000e+04 8.062276843243326718e-02 3.990372889420670116e-02 1.343165393604528191e-01
4.420000000000000000e+04 8.444607993184186090e-02 4.219868159438471683e-02 1.385002402724565262e-01
4.430000000000000000e+04 8.483665629377938611e-02 4.268302877568906639e-02 1.394337588592885480e-01
4.440000000000000000e+04 8.151473668717613974e-02 4.090870127402323336e-02 1.318367145826326581e-01
4.450000000000000000e+04 8.052605131529887161e-02 4.009688762514024979e-02 1.302495534601860183e-01
4.460000000000000000e+04 7.960590001829156992e-02 3.978875818064758763e-02 1.308535754301757004e-01
4.470000000000000000e+04 8.083111174557797152e-02 4.066218572814599141e-02 1.313955277515045372e-01
4.480000000000000000e+04 8.259956165687820651e-02 4.152337160053046206e-02 1.343107272499945437e-01
4.490000000000000000e+04 8.118276456948615716e-02 4.043624235710596704e-02 1.324425603326875311e-01
4.500000000000000000e+04 8.162562598106110068e-02 4.059481862165636307e-02 1.319754077828107774e-01
4.510000000000000000e+04 8.086673700093420514e-02 4.053881129915114234e-02 1.321847405415628174e-01
4.520000000000000000e+04 8.144977208271086955e-02 4.056503829094974811e-02 1.319700058574350687e-01
4.530000000000000000e+04 8.750529198358299177e-02 4.319023973598706129e-02 1.423459460485800854e-01
4.540000000000000000e+04 1.172875256713673681e-01 5.854198501704054036e-02 1.917759242250720586e-01
4.550000000000000000e+04 1.194806357673525166e-01 5.923022737998221571e-02 1.945039246847317105e-01
4.560000000000000000e+04 8.968423236962332068e-02 4.457685927790287772e-02 1.463195717901999982e-01
4.570000000000000000e+04 8.269101279575517827e-02 4.131033015453997037e-02 1.350415866923840302e-01
4.580000000000000000e+04 8.356902332020757496e-02 4.130061842651554932e-02 1.379479363053583707e-01
4.590000000000000000e+04 8.729297076959635637e-02 4.378314157624943470e-02 1.430848023781294831e-01
4.600000000000000000e+04 8.802012178967945355e-02 4.402055946837708789e-02 1.450008867757573150e-01
4.610000000000000000e+04 8.401919507477748073e-02 4.135892554772553631e-02 1.386971355903747205e-01
4.620000000000000000e+04 8.172304823361564718e-02 4.015813979404790623e-02 1.351902878550920728e-01
4.630000000000000000e+04 8.166582675771889843e-02 4.083064916726304033e-02 1.354511247547663666e-01
4.640000000000000000e+04 8.946847623799186744e-02 4.394135576915155633e-02 1.466585866820443729e-01
4.650000000000000000e+04 9.468101452969571175e-02 4.793017780459069010e-02 1.546223179647727430e-01
4.660000000000000000e+04 7.953302733279855874e-02 3.931723537137925273e-02 1.327279155737248473e-01
4.670000000000000000e+04 7.560338733105972930e-02 3.767228303616847879e-02 1.248660621455761066e-01
4.680000000000000000e+04 7.452578053170696992e-02 3.704194149695404226e-02 1.237743372495106603e-01
4.690000000000000000e+04 7.444612146551282672e-02 3.722258330869369219e-02 1.240269722296375166e-01
4.700000000000000000e+04 9.674623956210688658e-02 4.879118129238951829e-02 1.582415981485068013e-01
4.710000000000000000e+04 2.156943218423130471e-01 1.070588397802238051e-01 3.504948594217504598e-01
4.720000000000000000e+04 2.076987826351582300e-01 1.049732044861712704e-01 3.391615733771408681e-01
4.730000000000000000e+04 2.348610722481497826e-01 1.179980869532150783e-01 3.838039348355845592e-01
4.740000000000000000e+04 1.272768100284542292e-01 6.315800947267376231e-02 2.085282540721633826e-01
4.750000000000000000e+04 6.902654484380434108e-02 3.407082013164396128e-02 1.114691806341020358e-01
4.760000000000000000e+04 6.767119268183102720e-02 3.365469111851012579e-02 1.101679708837383781e-01
4.770000000000000000e+04 6.682702091213416074e-02 3.355801355310415734e-02 1.098985420329338242e-01
4.780000000000000000e+04 6.670759680474820652e-02 3.332481738354844264e-02 1.081470188941014154e-01
4.790000000000000000e+04 6.561584360882900813e-02 3.257822118307694692e-02 1.073958042178979888e-01
4.800000000000000000e+04 9.048190632572948588e-02 4.654926581763311338e-02 1.419690612504068139e-01
4.810000000000000000e+04 1.304263843715254556e-01 7.598679033765540214e-02 1.868993514029929637e-01
4.820000000000000000e+04 7.795510146570849841e-02 3.883334154383667747e-02 1.263304956138766311e-01
4.830000000000000000e+04 6.532635702850735082e-02 3.243505833162748514e-02 1.061800207132464896e-01
4.840000000000000000e+04 6.608211890260778931e-02 3.267077638836936998e-02 1.074398813110622464e-01
4.850000000000000000e+04 6.623517248039791083e-02 3.310086048818931120e-02 1.097796513600380053e-01
4.860000000000000000e+04 6.846314514932734518e-02 3.394638251499552256e-02 1.121334207345886652e-01
4.870000000000000000e+04 6.993228070501812665e-02 3.450670260708123271e-02 1.167800793609384269e-01
4.880000000000000000e+04 7.269639490713444840e-02 3.605731897367209920e-02 1.209612300602472268e-01
4.890000000000000000e+04 7.784655425485359492e-02 3.885587014582372878e-02 1.303760621710883805e-01
4.900000000000000000e+04 8.809300700759707670e-02 4.367107981285346663e-02 1.452658143024957993e-01
4.910000000000000000e+04 8.886882692448919152e-02 4.382432877029020929e-02 1.479012586296671872e-01
4.920000000000000000e+04 1.021414933977876083e-01 4.990161126093029670e-02 1.713476248879423902e-01
4.930000000000000000e+04 1.398897583213929707e-01 6.950167056466111104e-02 2.311074988048202883e-01
4.940000000000000000e+04 1.670718900721736289e-01 8.629505495176520435e-02 2.682986319531922570e-01
4.950000000000000000e+04 1.233963062160705754e-01 6.077081239141671198e-02 2.106947906076386823e-01
4.960000000000000000e+04 1.312106375415248716e-01 6.409806740793318192e-02 2.225736652087388634e-01
4.970000000000000000e+04 1.597768623995009518e-01 8.028448205207489030e-02 2.616176733580602987e-01
4.980000000000000000e+04 1.638894972628075486e-01 8.139489655406068058e-02 2.731837783560911448e-01
4.990000000000000000e+04 1.709410243088311798e-01 8.458378875972877298e-02 2.829093263387531532e-01
5.000000000000000000e+04 1.938831968146149110e-01 9.519013624492532466e-02 3.208283380082862513e-01
5.010000000000000000e+04 2.266599366977612717e-01 1.118361986101853583e-01 3.739839834351660341e-01
5.020000000000000000e+04 2.621472973640243675e-01 1.309103861493950971e-01 4.324084157529171080e-01
5.030000000000000000e+04 3.077592482854785150e-01 1.541299995513267240e-01 5.002668364035161019e-01
5.040000000000000000e+04 3.673107247879237591e-01 1.831736098324196205e-01 5.944614108933846675e-01
5.050000000000000000e+04 4.403758386198929897e-01 2.204870993148110581e-01 7.075554272248943954e-01
5.060000000000000000e+04 5.159301292194189426e-01 2.613463233433713229e-01 7.979605575937787076e-01
5.070000000000000000e+04 5.920421601263355926e-01 2.899964157290052524e-01 9.377171512241744278e-01
5.080000000000000000e+04 6.335242021670408619e-01 2.825423562159244950e-01 1.163990610846148188e+00
5.090000000000000000e+04 8.173762460604558910e-01 4.029742397791725717e-01 1.376355428425140470e+00
5.100000000000000000e+04 1.185286675284295432e+00 6.016896990627083053e-01 1.776475472111392451e+00
5.110000000000000000e+04 1.289171397638110284e+00 6.790126415492914180e-01 1.834441350342815857e+00
5.120000000000000000e+04 8.700017573909790691e-01 4.318278364331828989e-01 1.427040185695909180e+00
5.130000000000000000e+04 6.271204836814382455e-01 3.027149169264167217e-01 1.098361253671522153e+00
5.140000000000000000e+04 4.944176493003349937e-01 2.387742702327549926e-01 8.685610813502780969e-01
5.150000000000000000e+04 4.069117551897888374e-01 1.960605989720726750e-01 7.158832652971470756e-01
5.160000000000000000e+04 3.319177553397920089e-01 1.589631865286680046e-01 5.767512821242715138e-01
5.170000000000000000e+04 3.096720376651868056e-01 1.515667381296539329e-01 5.399047760997941481e-01
5.180000000000000000e+04 2.975626539651284319e-01 1.451650582898265929e-01 5.273439322674703389e-01
5.190000000000000000e+04 2.756583893457456025e-01 1.331907830258277081e-01 4.880077661337722250e-01
5.200000000000000000e+04 2.549959147607857579e-01 1.240353031042982918e-01 4.465588784691613689e-01
5.210000000000000000e+04 2.487660691989974915e-01 1.220935454558994132e-01 4.243518063746299362e-01
5.220000000000000000e+04 2.347182254664504364e-01 1.163260285795686549e-01 3.874970090656404409e-01
5.230000000000000000e+04 1.951781094551164053e-01 9.605339754124668505e-02 3.218352647216691231e-01
5.240000000000000000e+04 1.703332185912966312e-01 8.533863175485723040e-02 2.858639395844222442e-01
5.250000000000000000e+04 1.568252692114199820e-01 7.751714352778392436e-02 2.628410935473364241e-01
5.260000000000000000e+04 1.482452443188539415e-01 7.384754788267769432e-02 2.479088238520373577e-01
5.270000000000000000e+04 1.418809630435351465e-01 7.053239102010910866e-02 2.363248027044804744e-01
5.280000000000000000e+04 1.334623100895391268e-01 6.632549812053820104e-02 2.233475432375589265e-01
5.290000000000000000e+04 1.248752113747582521e-01 6.209842257180726854e-02 2.080491429522921265e-01
5.300000000000000000e+04 1.177663825135699255e-01 5.823822319514214418e-02 1.958000253775624977e-01
5.310000000000000000e+04 1.116339331040570731e-01 5.497785203552037897e-02 1.847536065399137950e-01
5.320000000000000000e+04 1.080390089782652802e-01 5.421434271666522586e-02 1.793915916370357189e-01
5.330000000000000000e+04 1.053865179694799953e-01 5.167554444078663323e-02 1.740932679821983187e-01
5.340000000000000000e+04 1.040780320802025399e-01 5.152513330333501063e-02 1.715004265900340052e-01
5.350000000000000000e+04 1.381383989573947146e-01 7.223907651277708397e-02 2.144523813793212108e-01
5.360000000000000000e+04 1.318848833702065404e-01 6.949703822107325402e-02 2.044202365828847179e-01
5.370000000000000000e+04 9.180760557195280502e-02 4.521782267809922734e-02 1.524496650885227844e-01
5.380000000000000000e+04 9.003795860923470562e-02 4.445679452111905849e-02 1.487069765006950317e-01
5.390000000000000000e+04 8.996058658413406961e-02 4.450027395852602236e-02 1.497128707937686598e-01
5.400000000000000000e+04 8.955428730131020920e-02 4.430918635492010760e-02 1.488472963152195627e-01
5.410000000000000000e+04 8.947398369211571889e-02 4.423058883819253051e-02 1.480108669141699251e-01
5.420000000000000000e+04 9.049619827222799007e-02 4.486542645329183454e-02 1.488366475891208518e-01
5.430000000000000000e+04 8.758565318908892450e-02 4.323937593032638887e-02 1.442946013139319583e-01
5.440000000000000000e+04 8.506933595829413441e-02 4.170966456138439776e-02 1.398617725910797083e-01
5.450000000000000000e+04 8.498734187484931202e-02 4.220833059300253126e-02 1.393461933671249209e-01
5.460000000000000000e+04 8.689876467342415312e-02 4.345258954253730654e-02 1.421112899718391109e-01
5.470000000000000000e+04 1.008658910985787971e-01 5.067834485117782978e-02 1.621375470786952933e-01
5.480000000000000000e+04 1.085080871580931389e-01 5.481298446788714779e-02 1.754086089600955523e-01
5.490000000000000000e+04 1.169284927026400245e-01 6.065639299934760115e-02 1.820685223773287342e-01
5.500000000000000000e+04 1.634836862079953324e-01 9.350479723905071039e-02 2.394856152490929813e-01
5.510000000000000000e+04 3.942897203269305484e-01 2.003378228297880703e-01 6.290165832594144524e-01
5.520000000000000000e+04 6.252054505279159846e-01 3.296182094095878590e-01 9.517039538691277611e-01
5.530000000000000000e+04 1.280791650694726336e+00 1.145224641906565921e+00 1.417457005595711861e+00
5.540000000000000000e+04 5.286928998748891217e+00 5.185490321986725881e+00 5.383422409734921033e+00
5.550000000000000000e+04 3.341482238379462046e+02 3.314721048091844295e+02 3.364139670942785187e+02
5.560000000000000000e+04 6.235242379580730585e+02 6.185510405435791199e+02 6.278159632388203590e+02
5.570000000000000000e+04 2.903889786799653052e+02 2.880934210655069023e+02 2.925151304658580784e+02
5.580000000000000000e+04 4.456273224783755538e+00 4.271777956122877917e+00 4.637721864655733661e+00
5.590000000000000000e+04 1.155942838464596667e+00 1.073512970635273955e+00 1.235718262381233501e+00
5.600000000000000000e+04 4.740202964303838473e-01 3.936240524878805713e-01 5.544719988543443945e-01
5.610000000000000000e+04 2.479400577801072758e-01 1.739174582012823211e-01 3.230094117395173603e-01
5.620000000000000000e+04 1.546824434158784456e-01 8.854078259825293173e-02 2.245145117509903532e-01
5.630000000000000000e+04 1.132404406280596992e-01 5.851515254333988780e-02 1.773476982652497924e-01
5.640000000000000000e+04 9.742667921375700035e-02 4.890311694584521113e-02 1.567207645169852448e-01
5.650000000000000000e+04 8.892711039694758957e-02 4.399730709323892985e-02 1.449289264926776344e-01
5.660000000000000000e+04 8.417881088289856650e-02 4.140629954792176409e-02 1.364868934991690930e-01
5.670000000000000000e+04 8.015100061300864387e-02 4.005811686759968432e-02 1.317139416380920802e-01
5.680000000000000000e+04 8.048723760789429360e-02 4.002189430512657214e-02 1.320342153445414890e-01
5.690000000000000000e+04 8.729608621080993391e-02 4.375370218930194066e-02 1.433943920630486313e-01
5.700000000000000000e+04 8.528260854382252454e-02 4.234869087389324382e-02 1.405585077462916388e-01
5.710000000000000000e+04 8.049357884759467119e-02 3.998542680464811649e-02 1.326490685649441281e-01
5.720000000000000000e+04 8.258126583845742941e-02 4.121564484355617203e-02 1.369289359188564925e-01
5.730000000000000000e+04 8.569934560993182349e-02 4.252665440838288013e-02 1.425957941682812480e-01
5.740000000000000000e+04 8.834950343454950339e-02 4.350720879366756083e-02 1.451827714180644324e-01
5.750000000000000000e+04 2.219211971507322467e-01 1.446646363253219214e-01 2.983051305495137417e-01
5.760000000000000000e+04 8.955553742093997904e-01 8.150949718049708137e-01 9.737199199132190452e-01
5.770000000000000000e+04 8.238849190108874510e-01 7.433923045835872934e-01 9.055050735479520663e-01
5.780000000000000000e+04 1.625226001152461353e-01 9.048685499328439075e-02 2.415820744274248810e-01
5.790000000000000000e+04 9.298726734332030119e-02 4.574070948335567238e-02 1.557535134757346840e-01
5.800000000000000000e+04 9.320299620811288432e-02 4.544969057117390077e-02 1.576716516483477326e-01
5.810000000000000000e+04 9.453418371923009988e-02 4.570510506397550132e-02 1.617188873881249822e-01
5.820000000000000000e+04 9.691065331460096965e-02 4.737394002824028144e-02 1.656834701146744360e-01
5.830000000000000000e+04 9.917963137375233884e-02 4.859241010214222778e-02 1.708418417260434696e-01
5.840000000000000000e+04 1.012593695997935778e-01 4.955837117027614425e-02 1.736763807756266098e-01
5.850000000000000000e+04 1.027553778017260694e-01 5.019977948777135102e-02 1.757774222312866452e-01
5.860000000000000000e+04 1.054242381160696296e-01 5.161780329626518282e-02 1.776869256336475189e-01
5.870000000000000000e+04 1.046270170778070135e-01 5.116112843001412169e-02 1.773864658246014636e-01
5.880000000000000000e+04 1.055036289252619247e-01 5.223372907045138736e-02 1.773537437884767087e-01
5.890000000000000000e+04 1.062600012190628718e-01 5.231812522852469921e-02 1.787182043691529221e-01
5.900000000000000000e+04 1.085589443285712302e-01 5.334760014763854918e-02 1.805182717819694416e-01
5.910000000000000000e+04 1.110951956541879337e-01 5.532761946829401617e-02 1.846936286793671722e-01
5.920000000000000000e+04 1.133376579922989458e-01 5.602600571766413323e-02 1.877987537150093977e-01
5.930000000000000000e+04 1.161112720117684072e-01 5.722905338795275521e-02 1.918234342813484039e-01
5.940000000000000000e+04 1.182798190919941983e-01 5.918651508915491466e-02 1.956301953367237667e-01
5.950000000000000000e+04 1.187761500765375511e-01 5.877966162747216144e-02 1.954297135562558796e-01
5.960000000000000000e+04 1.190404175659189323e-01 5.916656507855516667e-02 1.949901704626156307e-01
5.970000000000000000e+04 1.191174105211599693e-01 5.919814840394235084e-02 1.942454677708636002e-01
5.980000000000000000e+04 1.193329767937505587e-01 5.962346063287008585e-02 1.938248621755915280e-01
5.990000000000000000e+04 1.194778706660804685e-01 5.962863766694539297e-02 1.960621880561218555e-01
6.000000000000000000e+04 1.203530709148023792e-01 5.939008416540952906e-02 1.975765717050521619e-01
6.010000000000000000e+04 1.227754080837147044e-01 6.102389522328797306e-02 2.016373723414442154e-01
6.020000000000000000e+04 1.258587219997903406e-01 6.312798345700951219e-02 2.064241486697027950e-01
6.030000000000000000e+04 1.284704890617423545e-01 6.350651459773139218e-02 2.126956162335268685e-01
6.040000000000000000e+04 1.303388914520856590e-01 6.452211805437239878e-02 2.143992974009659158e-01
6.050000000000000000e+04 1.341665343242514630e-01 6.651555831297446819e-02 2.205491860346886490e-01
6.060000000000000000e+04 1.377468873494520352e-01 6.842896260020124577e-02 2.269917224080545692e-01
6.070000000000000000e+04 1.398331194124618204e-01 6.912584496601777151e-02 2.324964655040975825e-01
6.080000000000000000e+04 1.436430065369897757e-01 7.105920853711052143e-02 2.376093951754436329e-01
6.090000000000000000e+04 1.490527856177997490e-01 7.470700646598207872e-02 2.444236202315947515e-01
6.100000000000000000e+04 1.531741128297285648e-01 7.659275781172047992e-02 2.513708857625260862e-01
6.110000000000000000e+04 1.510251198665683858e-01 7.344007437709886010e-02 2.582838342758714822e-01
6.120000000000000000e+04 1.535340620216340268e-01 7.410826988052236775e-02 2.577237498688434436e-01
6.130000000000000000e+04 1.558883862002577447e-01 7.825923308469663608e-02 2.551374065904967736e-01
6.140000000000000000e+04 1.550346007919128910e-01 7.741842089910093427e-02 2.520044858724225789e-01
6.150000000000000000e+04 1.520958128913507679e-01 7.658829724921201176e-02 2.505178961187657927e-01
6.160000000000000000e+04 1.491412138051518843e-01 7.322261680757413682e-02 2.470650786977990898e-01
6.170000000000000000e+04 1.500453208324429299e-01 7.503751853779609682e-02 2.435825769756281567e-01
6.180000000000000000e+04 1.509401607082396790e-01 7.480437365333673927e-02 2.422944961807309838e-01
6.190000000000000000e+04 1.478447577853007067e-01 7.397895446529532959e-02 2.378716578846047369e-01
6.200000000000000000e+04 1.404436463037689042e-01 7.049888896535728977e-02 2.345392299919992207e-01
6.210000000000000000e+04 1.388836855480120036e-01 6.877985711304719640e-02 2.317518960463961497e-01
6.220000000000000000e+04 1.384556291126849137e-01 6.969569947428749801e-02 2.262877455864654719e-01
6.230000000000000000e+04 1.354730417676609511e-01 6.785267316811333105e-02 2.223990997848477869e-01
6.240000000000000000e+04 1.315668912300267390e-01 6.430101403748000877e-02 2.197085976587773160e-01
6.250000000000000000e+04 7.661199679468549961e-02 2.250019546474976706e-02 1.585504456029805109e-01
