# North DC Val: 0.65131545 VoltsSouth DC Val: 0.5584307700000001 Volts
# SR785 Measurement - Timestamp: Jun 12 2020 - 03:43:54
# Parameter File: /home/controls/Git/cit_ctnlab/ctn_scripts/TransRINSpecLong.yml
#---------- Measurement Setup ------------
# Start Frequency (Hz): 0.000000
# Frequency Span (Hz): 800.000000
# Frequency Resolution: 800
# Number of Averages: 100
# Averaging Mode: RMS
# Window function: Hanning
#---------- Measurement Parameters ----------
# Measurement Group:  "FFT" "FFT"
# Measurements:  "FFT 1" "FFT 2"
# View:  "Log Magnitude" "Log Magnitude"
# Unit:  "Vrms/rtHz" "Vrms/rtHz"
#---------- Input Parameters ----------
# Input Source: Analog
# Input Mode: Single ended, Single ended
# Input Grounding: Float, Float
# Input Coupling: AC, AC
# Input Range: -36.0dBVpk, -36.0dBVpk
# Auto Range: Off, Off
# Auto Range Mode: Tracking, Tracking
# Anti-Aliasing Filter: On, On
#---------- Source Parameters ----------
# Source Type: Sine
# Source Amplitude: 500.0mVpk
# Source On: 0

#---------- Measurement Data ----------
# [Freq(Hz) Display 0(Vrms/rtHz) Display 1(Vrms/rtHz) ]
+0.0000000e+000    +5.9065671e-004    +2.4508126e-004
+1.0000000e+000    +4.5230388e-004    +1.4725364e-004
+2.0000000e+000    +2.9268124e-004    +3.6867583e-005
+3.0000000e+000    +2.3632123e-004    +1.4724814e-005
+4.0000000e+000    +9.9831712e-005    +7.6499218e-006
+5.0000000e+000    +3.7457499e-005    +4.3609271e-006
+6.0000000e+000    +1.8733041e-005    +3.0649878e-006
+7.0000000e+000    +1.6712633e-005    +2.5903798e-006
+8.0000000e+000    +1.1304398e-005    +2.1646097e-006
+9.0000000e+000    +9.2206137e-006    +1.6747571e-006
+1.0000000e+001    +1.2841757e-005    +1.6413219e-006
+1.1000000e+001    +1.0990659e-005    +1.1722630e-006
+1.2000000e+001    +5.1638272e-006    +9.6163399e-007
+1.3000000e+001    +5.0073818e-006    +8.7826089e-007
+1.4000000e+001    +5.5105288e-006    +7.5508109e-007
+1.5000000e+001    +3.9080273e-006    +6.3449784e-007
+1.6000000e+001    +3.5108405e-006    +5.9425128e-007
+1.7000000e+001    +5.6439740e-006    +5.6882686e-007
+1.8000000e+001    +5.2842324e-006    +5.2395109e-007
+1.9000000e+001    +2.6263265e-006    +4.5377377e-007
+2.0000000e+001    +2.1328012e-006    +4.3783041e-007
+2.1000000e+001    +2.2410816e-006    +4.4200794e-007
+2.2000000e+001    +1.8012411e-006    +4.1683359e-007
+2.3000000e+001    +1.7771727e-006    +3.7559508e-007
+2.4000000e+001    +2.2737906e-006    +3.7609109e-007
+2.5000000e+001    +2.1335416e-006    +3.5956353e-007
+2.6000000e+001    +1.2686562e-006    +3.2193037e-007
+2.7000000e+001    +1.1631766e-006    +2.9858376e-007
+2.8000000e+001    +1.2106013e-006    +2.8716835e-007
+2.9000000e+001    +9.7729469e-007    +2.9720024e-007
+3.0000000e+001    +1.1482202e-006    +2.9820961e-007
+3.1000000e+001    +1.2566520e-006    +2.6263842e-007
+3.2000000e+001    +1.2485666e-006    +2.5042013e-007
+3.3000000e+001    +9.8955627e-007    +2.5058955e-007
+3.4000000e+001    +1.2394181e-006    +2.2893019e-007
+3.5000000e+001    +9.0832543e-007    +2.0292647e-007
+3.6000000e+001    +6.5202295e-007    +2.1209129e-007
+3.7000000e+001    +6.2825058e-007    +2.0450177e-007
+3.8000000e+001    +6.4524170e-007    +1.9851939e-007
+3.9000000e+001    +6.7460729e-007    +1.8331737e-007
+4.0000000e+001    +5.5206846e-007    +1.9145925e-007
+4.1000000e+001    +5.5033399e-007    +1.7775669e-007
+4.2000000e+001    +5.4926011e-007    +1.6180111e-007
+4.3000000e+001    +4.4697657e-007    +1.7642149e-007
+4.4000000e+001    +4.0253536e-007    +1.7424139e-007
+4.5000000e+001    +4.3967015e-007    +1.6794581e-007
+4.6000000e+001    +3.8712486e-007    +1.5041260e-007
+4.7000000e+001    +3.7822375e-007    +1.4398415e-007
+4.8000000e+001    +4.2278225e-007    +1.3713939e-007
+4.9000000e+001    +3.8864781e-007    +1.4371345e-007
+5.0000000e+001    +4.1436948e-007    +1.5027445e-007
+5.1000000e+001    +4.0692578e-007    +1.3963913e-007
+5.2000000e+001    +3.9539930e-007    +1.3885985e-007
+5.3000000e+001    +4.3889506e-007    +1.3307512e-007
+5.4000000e+001    +4.9154107e-007    +1.3596203e-007
+5.5000000e+001    +4.5968955e-007    +1.2769601e-007
+5.6000000e+001    +3.9723602e-007    +1.0995668e-007
+5.7000000e+001    +4.2260913e-007    +1.0663651e-007
+5.8000000e+001    +5.3991994e-007    +1.1412961e-007
+5.9000000e+001    +5.2764813e-007    +1.2246049e-007
+6.0000000e+001    +6.7211647e-007    +1.4199037e-007
+6.1000000e+001    +5.8280267e-007    +1.2203004e-007
+6.2000000e+001    +5.4058489e-007    +1.1370609e-007
+6.3000000e+001    +5.3293945e-007    +1.1968642e-007
+6.4000000e+001    +5.4297379e-007    +1.1176001e-007
+6.5000000e+001    +4.9611288e-007    +1.0639910e-007
+6.6000000e+001    +5.0129597e-007    +9.6902674e-008
+6.7000000e+001    +4.7104751e-007    +9.3903132e-008
+6.8000000e+001    +5.4653140e-007    +1.0686425e-007
+6.9000000e+001    +5.1246292e-007    +1.0408687e-007
+7.0000000e+001    +4.2099148e-007    +9.5954675e-008
+7.1000000e+001    +3.9977243e-007    +9.2348486e-008
+7.2000000e+001    +3.3549773e-007    +8.0394571e-008
+7.3000000e+001    +3.4089186e-007    +9.0838924e-008
+7.4000000e+001    +3.4187576e-007    +9.5214695e-008
+7.5000000e+001    +2.7873492e-007    +9.7541971e-008
+7.6000000e+001    +2.6746096e-007    +9.2372623e-008
+7.7000000e+001    +2.8534353e-007    +8.5722533e-008
+7.8000000e+001    +2.6474498e-007    +8.2459948e-008
+7.9000000e+001    +2.3534814e-007    +8.0888185e-008
+8.0000000e+001    +2.3577438e-007    +8.6454783e-008
+8.1000000e+001    +2.3644191e-007    +9.0619068e-008
+8.2000000e+001    +2.0260767e-007    +8.1398497e-008
+8.3000000e+001    +1.7968638e-007    +7.5955455e-008
+8.4000000e+001    +1.7249967e-007    +7.4144353e-008
+8.5000000e+001    +1.7161349e-007    +8.3684142e-008
+8.6000000e+001    +1.7391170e-007    +7.9127830e-008
+8.7000000e+001    +1.6586479e-007    +7.3776008e-008
+8.8000000e+001    +1.6512797e-007    +7.4255560e-008
+8.9000000e+001    +1.7881000e-007    +7.5680411e-008
+9.0000000e+001    +1.5739812e-007    +8.1842273e-008
+9.1000000e+001    +1.4659481e-007    +7.9496445e-008
+9.2000000e+001    +1.4593446e-007    +7.1833270e-008
+9.3000000e+001    +1.3574916e-007    +7.0656263e-008
+9.4000000e+001    +1.3181116e-007    +6.8360841e-008
+9.5000000e+001    +1.3297245e-007    +7.6403190e-008
+9.6000000e+001    +1.2321685e-007    +7.2767669e-008
+9.7000000e+001    +1.2108460e-007    +6.5324180e-008
+9.8000000e+001    +1.1733884e-007    +7.0574544e-008
+9.9000000e+001    +1.2302233e-007    +7.2195718e-008
+1.0000000e+002    +1.3109529e-007    +7.0299997e-008
+1.0100000e+002    +1.2354997e-007    +7.1309678e-008
+1.0200000e+002    +1.2412171e-007    +6.5681476e-008
+1.0300000e+002    +1.2199200e-007    +6.1835763e-008
+1.0400000e+002    +1.2081740e-007    +6.6119803e-008
+1.0500000e+002    +1.2629373e-007    +6.3771267e-008
+1.0600000e+002    +1.2229253e-007    +6.6240936e-008
+1.0700000e+002    +1.0859493e-007    +6.9702423e-008
+1.0800000e+002    +1.0737799e-007    +7.0332959e-008
+1.0900000e+002    +1.1192247e-007    +6.6633234e-008
+1.1000000e+002    +1.1741849e-007    +6.4215669e-008
+1.1100000e+002    +1.1762223e-007    +7.0352193e-008
+1.1200000e+002    +1.1775390e-007    +6.5891740e-008
+1.1300000e+002    +1.1355439e-007    +6.6292301e-008
+1.1400000e+002    +1.2331390e-007    +7.0646877e-008
+1.1500000e+002    +1.2506109e-007    +6.9857265e-008
+1.1600000e+002    +1.1608152e-007    +6.3580053e-008
+1.1700000e+002    +1.2255370e-007    +5.9329359e-008
+1.1800000e+002    +1.3453483e-007    +6.1265929e-008
+1.1900000e+002    +5.0753084e-007    +6.4324063e-008
+1.2000000e+002    +9.8723285e-007    +6.4588455e-008
+1.2100000e+002    +5.1573903e-007    +6.2784508e-008
+1.2200000e+002    +1.3330501e-007    +5.8548355e-008
+1.2300000e+002    +1.6000305e-007    +5.7492869e-008
+1.2400000e+002    +1.7758035e-007    +6.2037600e-008
+1.2500000e+002    +1.9488449e-007    +6.2029905e-008
+1.2600000e+002    +2.0962983e-007    +5.7487568e-008
+1.2700000e+002    +1.9606556e-007    +5.8624970e-008
+1.2800000e+002    +1.7518653e-007    +5.6917045e-008
+1.2900000e+002    +1.7314748e-007    +5.3890364e-008
+1.3000000e+002    +1.6960318e-007    +5.8825172e-008
+1.3100000e+002    +1.7775182e-007    +6.1669923e-008
+1.3200000e+002    +1.6823151e-007    +5.9598872e-008
+1.3300000e+002    +1.5164534e-007    +5.6657669e-008
+1.3400000e+002    +1.4350201e-007    +5.7906174e-008
+1.3500000e+002    +1.3308915e-007    +5.4147119e-008
+1.3600000e+002    +1.4295584e-007    +5.4234640e-008
+1.3700000e+002    +1.4983767e-007    +6.0063115e-008
+1.3800000e+002    +1.3083172e-007    +6.3589546e-008
+1.3900000e+002    +1.4543971e-007    +5.8186213e-008
+1.4000000e+002    +1.5673935e-007    +6.2725391e-008
+1.4100000e+002    +1.7002363e-007    +5.9621776e-008
+1.4200000e+002    +2.2283278e-007    +5.4341037e-008
+1.4300000e+002    +3.5981472e-007    +5.3577441e-008
+1.4400000e+002    +5.5497225e-007    +5.7367640e-008
+1.4500000e+002    +6.4109997e-007    +5.9271670e-008
+1.4600000e+002    +5.4721949e-007    +5.6428586e-008
+1.4700000e+002    +3.9375172e-007    +5.7265254e-008
+1.4800000e+002    +2.7138935e-007    +5.7342138e-008
+1.4900000e+002    +1.9216309e-007    +5.1829918e-008
+1.5000000e+002    +1.5110517e-007    +5.4729700e-008
+1.5100000e+002    +1.8371573e-007    +5.7661470e-008
+1.5200000e+002    +1.5129608e-007    +5.5107712e-008
+1.5300000e+002    +1.2408424e-007    +5.3779889e-008
+1.5400000e+002    +1.1898518e-007    +5.9077472e-008
+1.5500000e+002    +9.2530875e-008    +5.6929231e-008
+1.5600000e+002    +9.4285802e-008    +5.2906884e-008
+1.5700000e+002    +9.2763102e-008    +5.0302724e-008
+1.5800000e+002    +9.0535430e-008    +5.3449824e-008
+1.5900000e+002    +9.3595261e-008    +5.1036736e-008
+1.6000000e+002    +9.0693327e-008    +5.1137587e-008
+1.6100000e+002    +8.8706926e-008    +5.4815157e-008
+1.6200000e+002    +8.7882228e-008    +5.4801617e-008
+1.6300000e+002    +8.3129102e-008    +5.5837052e-008
+1.6400000e+002    +7.7455184e-008    +5.3176638e-008
+1.6500000e+002    +8.7115211e-008    +4.9804708e-008
+1.6600000e+002    +8.0574843e-008    +5.2215412e-008
+1.6700000e+002    +8.4022950e-008    +5.5633457e-008
+1.6800000e+002    +8.7016083e-008    +5.5799486e-008
+1.6900000e+002    +8.7274998e-008    +5.4904302e-008
+1.7000000e+002    +7.8552105e-008    +5.5853793e-008
+1.7100000e+002    +8.3013084e-008    +5.2053306e-008
+1.7200000e+002    +7.5347693e-008    +4.9251941e-008
+1.7300000e+002    +6.8649591e-008    +5.3274292e-008
+1.7400000e+002    +8.0034972e-008    +5.5123991e-008
+1.7500000e+002    +7.9157807e-008    +5.6432675e-008
+1.7600000e+002    +8.1640252e-008    +5.6546302e-008
+1.7700000e+002    +7.8989466e-008    +5.2899100e-008
+1.7800000e+002    +7.8567112e-008    +5.5374521e-008
+1.7900000e+002    +2.5702735e-007    +7.8571766e-008
+1.8000000e+002    +5.1072271e-007    +1.0944755e-007
+1.8100000e+002    +2.7441925e-007    +6.9856803e-008
+1.8200000e+002    +8.2749452e-008    +5.9056266e-008
+1.8300000e+002    +7.8604558e-008    +5.9962368e-008
+1.8400000e+002    +8.4348777e-008    +5.8312974e-008
+1.8500000e+002    +8.2907604e-008    +5.6215676e-008
+1.8600000e+002    +8.1064130e-008    +5.5276537e-008
+1.8700000e+002    +8.6961542e-008    +5.4969085e-008
+1.8800000e+002    +8.5444384e-008    +5.6640502e-008
+1.8900000e+002    +8.2189779e-008    +5.7237592e-008
+1.9000000e+002    +7.6967140e-008    +5.3674473e-008
+1.9100000e+002    +7.4990737e-008    +5.5716775e-008
+1.9200000e+002    +7.8285538e-008    +5.5950341e-008
+1.9300000e+002    +7.3825682e-008    +5.2261928e-008
+1.9400000e+002    +7.0698164e-008    +5.4536311e-008
+1.9500000e+002    +7.1566710e-008    +5.5809167e-008
+1.9600000e+002    +7.1007157e-008    +5.6508256e-008
+1.9700000e+002    +7.3185845e-008    +5.4193450e-008
+1.9800000e+002    +7.8268002e-008    +5.4844655e-008
+1.9900000e+002    +8.8490772e-008    +5.6553503e-008
+2.0000000e+002    +8.8112564e-008    +5.6356392e-008
+2.0100000e+002    +7.6213752e-008    +5.8064703e-008
+2.0200000e+002    +7.7959250e-008    +5.9048940e-008
+2.0300000e+002    +7.4331503e-008    +5.4362520e-008
+2.0400000e+002    +7.5109810e-008    +5.5737150e-008
+2.0500000e+002    +7.6609240e-008    +5.8483081e-008
+2.0600000e+002    +7.2043051e-008    +5.6885622e-008
+2.0700000e+002    +6.8201082e-008    +5.5655576e-008
+2.0800000e+002    +7.0527832e-008    +5.4265794e-008
+2.0900000e+002    +7.0861908e-008    +5.4176436e-008
+2.1000000e+002    +7.2395196e-008    +5.7040666e-008
+2.1100000e+002    +7.6327808e-008    +6.4810308e-008
+2.1200000e+002    +7.6027874e-008    +6.5261595e-008
+2.1300000e+002    +7.4359498e-008    +6.2338302e-008
+2.1400000e+002    +7.5185717e-008    +6.0684556e-008
+2.1500000e+002    +8.1875889e-008    +5.9659435e-008
+2.1600000e+002    +9.2552312e-008    +5.4043831e-008
+2.1700000e+002    +1.3797202e-007    +5.5060294e-008
+2.1800000e+002    +1.0697929e-007    +5.5188121e-008
+2.1900000e+002    +7.2499077e-008    +5.3597269e-008
+2.2000000e+002    +6.8047896e-008    +6.1827890e-008
+2.2100000e+002    +6.9424182e-008    +6.1212951e-008
+2.2200000e+002    +6.7689768e-008    +5.7161227e-008
+2.2300000e+002    +6.7024246e-008    +6.3246894e-008
+2.2400000e+002    +6.8928514e-008    +6.5473536e-008
+2.2500000e+002    +6.8373751e-008    +5.9508178e-008
+2.2600000e+002    +6.4141332e-008    +6.0143158e-008
+2.2700000e+002    +7.3014164e-008    +6.0860714e-008
+2.2800000e+002    +7.2320354e-008    +6.1748857e-008
+2.2900000e+002    +7.0439377e-008    +6.3263563e-008
+2.3000000e+002    +7.2780935e-008    +6.3514676e-008
+2.3100000e+002    +7.3354222e-008    +6.5042627e-008
+2.3200000e+002    +7.3176125e-008    +6.2340696e-008
+2.3300000e+002    +7.1111707e-008    +5.8926467e-008
+2.3400000e+002    +7.0298839e-008    +6.0206190e-008
+2.3500000e+002    +6.7408529e-008    +6.1943673e-008
+2.3600000e+002    +6.3738852e-008    +6.0985130e-008
+2.3700000e+002    +6.4250088e-008    +6.4474740e-008
+2.3800000e+002    +6.7328124e-008    +6.3981176e-008
+2.3900000e+002    +1.8654902e-007    +6.5542871e-008
+2.4000000e+002    +3.6609788e-007    +5.8847846e-008
+2.4100000e+002    +1.9158942e-007    +5.7880687e-008
+2.4200000e+002    +6.3146217e-008    +6.2835269e-008
+2.4300000e+002    +6.3111699e-008    +6.4004148e-008
+2.4400000e+002    +7.0891872e-008    +6.0833855e-008
+2.4500000e+002    +7.1162319e-008    +6.0086862e-008
+2.4600000e+002    +7.1144896e-008    +6.5157565e-008
+2.4700000e+002    +7.7798404e-008    +6.4625773e-008
+2.4800000e+002    +7.5864108e-008    +6.3882901e-008
+2.4900000e+002    +8.1730207e-008    +7.0185855e-008
+2.5000000e+002    +8.7438529e-008    +6.5059417e-008
+2.5100000e+002    +7.6139898e-008    +6.3883185e-008
+2.5200000e+002    +7.1953011e-008    +5.8416532e-008
+2.5300000e+002    +8.9442572e-008    +6.7128532e-008
+2.5400000e+002    +8.9555776e-008    +7.0892028e-008
+2.5500000e+002    +9.0875638e-008    +6.4941375e-008
+2.5600000e+002    +1.1158382e-007    +6.5900785e-008
+2.5700000e+002    +1.3038473e-007    +6.7307354e-008
+2.5800000e+002    +1.2405849e-007    +7.1293783e-008
+2.5900000e+002    +1.4100803e-007    +7.2131300e-008
+2.6000000e+002    +1.5517223e-007    +7.3814654e-008
+2.6100000e+002    +1.4825051e-007    +6.7724926e-008
+2.6200000e+002    +1.6683134e-007    +6.9290991e-008
+2.6300000e+002    +1.8461655e-007    +6.5251712e-008
+2.6400000e+002    +2.1155799e-007    +6.8953192e-008
+2.6500000e+002    +2.2241456e-007    +6.8849928e-008
+2.6600000e+002    +2.3678432e-007    +7.2117842e-008
+2.6700000e+002    +2.9943635e-007    +7.2218313e-008
+2.6800000e+002    +4.0377302e-007    +7.3330625e-008
+2.6900000e+002    +4.4845524e-007    +7.4332725e-008
+2.7000000e+002    +5.6112628e-007    +6.4430012e-008
+2.7100000e+002    +7.1650913e-007    +7.0858171e-008
+2.7200000e+002    +9.0459122e-007    +7.1692305e-008
+2.7300000e+002    +1.3392938e-006    +6.8649669e-008
+2.7400000e+002    +1.6657747e-006    +7.3309131e-008
+2.7500000e+002    +1.6671964e-006    +7.3013766e-008
+2.7600000e+002    +1.3255307e-006    +8.1837960e-008
+2.7700000e+002    +1.5238522e-006    +8.0514617e-008
+2.7800000e+002    +1.2871019e-006    +7.4937155e-008
+2.7900000e+002    +7.7606961e-007    +6.9658356e-008
+2.8000000e+002    +6.8095056e-007    +7.0858640e-008
+2.8100000e+002    +6.3415519e-007    +7.2076993e-008
+2.8200000e+002    +5.4128986e-007    +7.3655734e-008
+2.8300000e+002    +4.6140576e-007    +7.6470243e-008
+2.8400000e+002    +4.1117576e-007    +7.3300761e-008
+2.8500000e+002    +3.0943886e-007    +7.7087655e-008
+2.8600000e+002    +2.4014608e-007    +7.0519008e-008
+2.8700000e+002    +2.0266329e-007    +7.0900278e-008
+2.8800000e+002    +1.9896126e-007    +7.5818228e-008
+2.8900000e+002    +1.8474206e-007    +8.4042419e-008
+2.9000000e+002    +1.6992770e-007    +8.6137184e-008
+2.9100000e+002    +1.7083968e-007    +7.9231896e-008
+2.9200000e+002    +1.5443423e-007    +8.0605190e-008
+2.9300000e+002    +1.3877343e-007    +7.8526405e-008
+2.9400000e+002    +1.2810438e-007    +7.8123080e-008
+2.9500000e+002    +1.1692281e-007    +7.8918902e-008
+2.9600000e+002    +1.0552549e-007    +8.5603268e-008
+2.9700000e+002    +1.0995306e-007    +8.4231061e-008
+2.9800000e+002    +1.0554125e-007    +8.1094491e-008
+2.9900000e+002    +1.2943876e-007    +8.2788439e-008
+3.0000000e+002    +2.1063275e-007    +9.0190760e-008
+3.0100000e+002    +1.3204118e-007    +8.7972587e-008
+3.0200000e+002    +9.0970971e-008    +8.4597623e-008
+3.0300000e+002    +8.3000138e-008    +8.3239335e-008
+3.0400000e+002    +7.2300189e-008    +8.3236230e-008
+3.0500000e+002    +6.9556862e-008    +8.4250111e-008
+3.0600000e+002    +7.2251623e-008    +8.3513967e-008
+3.0700000e+002    +6.6378391e-008    +8.7343537e-008
+3.0800000e+002    +6.7415115e-008    +9.1387932e-008
+3.0900000e+002    +6.9320137e-008    +8.5454893e-008
+3.1000000e+002    +6.4927114e-008    +8.9248729e-008
+3.1100000e+002    +6.4740753e-008    +7.9995345e-008
+3.1200000e+002    +7.0021287e-008    +8.4321094e-008
+3.1300000e+002    +6.6597906e-008    +9.0801827e-008
+3.1400000e+002    +7.1841079e-008    +8.7634788e-008
+3.1500000e+002    +6.4238236e-008    +7.6691883e-008
+3.1600000e+002    +6.6181613e-008    +8.3470063e-008
+3.1700000e+002    +6.7901759e-008    +8.8698059e-008
+3.1800000e+002    +6.2429471e-008    +9.5420340e-008
+3.1900000e+002    +6.1891669e-008    +9.6630899e-008
+3.2000000e+002    +6.3862423e-008    +9.6494126e-008
+3.2100000e+002    +6.5803462e-008    +9.6925653e-008
+3.2200000e+002    +7.2088866e-008    +9.0009529e-008
+3.2300000e+002    +7.3124397e-008    +9.0132652e-008
+3.2400000e+002    +7.0083900e-008    +9.7622866e-008
+3.2500000e+002    +6.3308242e-008    +9.6532489e-008
+3.2600000e+002    +6.6959302e-008    +9.1149836e-008
+3.2700000e+002    +6.6739254e-008    +9.4572059e-008
+3.2800000e+002    +5.9622103e-008    +9.5670643e-008
+3.2900000e+002    +6.3860810e-008    +9.8879383e-008
+3.3000000e+002    +6.6795408e-008    +1.0280639e-007
+3.3100000e+002    +6.3556534e-008    +1.0420923e-007
+3.3200000e+002    +6.6508463e-008    +8.7234852e-008
+3.3300000e+002    +6.3441149e-008    +9.1421754e-008
+3.3400000e+002    +6.1825446e-008    +9.8598925e-008
+3.3500000e+002    +7.0014906e-008    +9.2335206e-008
+3.3600000e+002    +7.9238504e-008    +9.2559631e-008
+3.3700000e+002    +7.5050870e-008    +9.8272743e-008
+3.3800000e+002    +6.8639721e-008    +9.6272849e-008
+3.3900000e+002    +7.1807797e-008    +9.4943587e-008
+3.4000000e+002    +6.9873451e-008    +9.5981335e-008
+3.4100000e+002    +7.1862928e-008    +9.9635812e-008
+3.4200000e+002    +8.0756848e-008    +1.0295312e-007
+3.4300000e+002    +7.5905014e-008    +1.0434147e-007
+3.4400000e+002    +8.4304340e-008    +1.0257728e-007
+3.4500000e+002    +1.0052366e-007    +9.9836754e-008
+3.4600000e+002    +9.2322026e-008    +1.0630452e-007
+3.4700000e+002    +9.9157702e-008    +9.7499999e-008
+3.4800000e+002    +1.3965446e-007    +1.0027795e-007
+3.4900000e+002    +2.4730224e-007    +1.0986955e-007
+3.5000000e+002    +2.5285505e-007    +1.0065741e-007
+3.5100000e+002    +2.4118481e-007    +1.0098031e-007
+3.5200000e+002    +2.1233851e-007    +9.6342212e-008
+3.5300000e+002    +1.6939160e-007    +9.3225125e-008
+3.5400000e+002    +1.1154891e-007    +9.9257910e-008
+3.5500000e+002    +9.6147879e-008    +1.0518425e-007
+3.5600000e+002    +1.1155662e-007    +1.0815869e-007
+3.5700000e+002    +1.0578105e-007    +1.0797075e-007
+3.5800000e+002    +9.8492997e-008    +1.1168543e-007
+3.5900000e+002    +1.2226165e-007    +1.1055931e-007
+3.6000000e+002    +1.5361135e-007    +1.0741867e-007
+3.6100000e+002    +9.1296869e-008    +1.1069122e-007
+3.6200000e+002    +6.5005359e-008    +1.1199918e-007
+3.6300000e+002    +7.1132327e-008    +1.1316892e-007
+3.6400000e+002    +7.5389231e-008    +1.0034437e-007
+3.6500000e+002    +7.0994609e-008    +1.0318092e-007
+3.6600000e+002    +6.5606088e-008    +1.1128859e-007
+3.6700000e+002    +6.4729022e-008    +1.1460389e-007
+3.6800000e+002    +6.7606059e-008    +1.2002990e-007
+3.6900000e+002    +6.5645857e-008    +1.0800513e-007
+3.7000000e+002    +6.7292802e-008    +1.0711022e-007
+3.7100000e+002    +6.4086848e-008    +1.1510351e-007
+3.7200000e+002    +6.7889090e-008    +1.1304945e-007
+3.7300000e+002    +7.0973023e-008    +1.1402415e-007
+3.7400000e+002    +6.2961298e-008    +1.1633159e-007
+3.7500000e+002    +6.6338906e-008    +1.0755875e-007
+3.7600000e+002    +7.0430715e-008    +1.1329460e-007
+3.7700000e+002    +6.8829145e-008    +1.1317302e-007
+3.7800000e+002    +6.8059400e-008    +1.0784493e-007
+3.7900000e+002    +6.6692444e-008    +1.1754825e-007
+3.8000000e+002    +6.8534519e-008    +1.1880621e-007
+3.8100000e+002    +6.7656700e-008    +1.1798737e-007
+3.8200000e+002    +6.4335644e-008    +1.1525665e-007
+3.8300000e+002    +5.4994256e-008    +1.1890747e-007
+3.8400000e+002    +6.0407679e-008    +1.2281961e-007
+3.8500000e+002    +5.9724449e-008    +1.1555366e-007
+3.8600000e+002    +6.3227873e-008    +1.2625685e-007
+3.8700000e+002    +6.0536756e-008    +1.2713042e-007
+3.8800000e+002    +6.0578046e-008    +1.1822650e-007
+3.8900000e+002    +6.6193167e-008    +1.1935533e-007
+3.9000000e+002    +6.5459659e-008    +1.2918505e-007
+3.9100000e+002    +6.4976817e-008    +1.2263123e-007
+3.9200000e+002    +6.1444318e-008    +1.1596890e-007
+3.9300000e+002    +6.5463325e-008    +1.2035136e-007
+3.9400000e+002    +6.3522904e-008    +1.2687607e-007
+3.9500000e+002    +5.6171931e-008    +1.2596981e-007
+3.9600000e+002    +5.8119809e-008    +1.2515490e-007
+3.9700000e+002    +5.5495519e-008    +1.2741759e-007
+3.9800000e+002    +5.7992196e-008    +1.2955977e-007
+3.9900000e+002    +5.5027236e-008    +1.4042247e-007
+4.0000000e+002    +5.8826913e-008    +1.3615055e-007
+4.0100000e+002    +5.8814322e-008    +1.3702952e-007
+4.0200000e+002    +5.8991073e-008    +1.4185059e-007
+4.0300000e+002    +5.2988735e-008    +1.4622188e-007
+4.0400000e+002    +5.5883238e-008    +1.4996770e-007
+4.0500000e+002    +5.4337516e-008    +1.3338934e-007
+4.0600000e+002    +5.5538919e-008    +1.2435933e-007
+4.0700000e+002    +5.5453736e-008    +1.4026237e-007
+4.0800000e+002    +5.5131434e-008    +1.3987759e-007
+4.0900000e+002    +5.5129799e-008    +1.2150170e-007
+4.1000000e+002    +5.1716402e-008    +1.2510256e-007
+4.1100000e+002    +5.9258007e-008    +1.2712735e-007
+4.1200000e+002    +6.4693211e-008    +1.3804960e-007
+4.1300000e+002    +6.5921697e-008    +1.4112574e-007
+4.1400000e+002    +6.6897130e-008    +1.3365498e-007
+4.1500000e+002    +5.9400406e-008    +1.2857191e-007
+4.1600000e+002    +5.5414176e-008    +1.4185433e-007
+4.1700000e+002    +5.6368954e-008    +1.5378264e-007
+4.1800000e+002    +5.6231293e-008    +1.4086118e-007
+4.1900000e+002    +7.0491289e-008    +1.3040192e-007
+4.2000000e+002    +1.0791766e-007    +1.3961322e-007
+4.2100000e+002    +7.2853609e-008    +1.3594739e-007
+4.2200000e+002    +5.7802445e-008    +1.3734432e-007
+4.2300000e+002    +5.7170137e-008    +1.3488567e-007
+4.2400000e+002    +5.9484336e-008    +1.2786914e-007
+4.2500000e+002    +5.4943680e-008    +1.3277010e-007
+4.2600000e+002    +5.7727224e-008    +1.4690241e-007
+4.2700000e+002    +6.3748097e-008    +1.4901245e-007
+4.2800000e+002    +6.1855658e-008    +1.5322729e-007
+4.2900000e+002    +5.7436527e-008    +1.5046547e-007
+4.3000000e+002    +5.7335527e-008    +1.3432052e-007
+4.3100000e+002    +5.6319774e-008    +1.3648265e-007
+4.3200000e+002    +6.8248646e-008    +1.4197416e-007
+4.3300000e+002    +6.8972348e-008    +1.3759805e-007
+4.3400000e+002    +9.3546156e-008    +1.3600517e-007
+4.3500000e+002    +8.7659906e-008    +1.3938991e-007
+4.3600000e+002    +7.3501518e-008    +1.3627736e-007
+4.3700000e+002    +8.5413433e-008    +1.4585069e-007
+4.3800000e+002    +7.7313629e-008    +1.5542135e-007
+4.3900000e+002    +7.6247147e-008    +1.5121404e-007
+4.4000000e+002    +7.8380488e-008    +1.5879093e-007
+4.4100000e+002    +7.3929016e-008    +1.6039652e-007
+4.4200000e+002    +7.9188318e-008    +1.5775349e-007
+4.4300000e+002    +7.5765797e-008    +1.6542413e-007
+4.4400000e+002    +7.5372682e-008    +1.5581895e-007
+4.4500000e+002    +6.5943851e-008    +1.5523972e-007
+4.4600000e+002    +6.2633241e-008    +1.5358420e-007
+4.4700000e+002    +6.2844165e-008    +1.5367512e-007
+4.4800000e+002    +6.1308931e-008    +1.5235896e-007
+4.4900000e+002    +5.9162311e-008    +1.4300670e-007
+4.5000000e+002    +5.6736042e-008    +1.5458947e-007
+4.5100000e+002    +5.5967053e-008    +1.6019342e-007
+4.5200000e+002    +5.9609668e-008    +1.6858318e-007
+4.5300000e+002    +6.0859847e-008    +1.6312789e-007
+4.5400000e+002    +5.8930997e-008    +1.5244045e-007
+4.5500000e+002    +6.1302266e-008    +1.6393840e-007
+4.5600000e+002    +6.3202677e-008    +1.5773911e-007
+4.5700000e+002    +6.0958691e-008    +1.4391588e-007
+4.5800000e+002    +6.0123092e-008    +1.5244547e-007
+4.5900000e+002    +5.9770301e-008    +1.5067542e-007
+4.6000000e+002    +5.3603863e-008    +1.6637750e-007
+4.6100000e+002    +5.5484797e-008    +1.6296069e-007
+4.6200000e+002    +5.5058845e-008    +1.7225798e-007
+4.6300000e+002    +5.9655633e-008    +1.6554186e-007
+4.6400000e+002    +5.8491814e-008    +1.5402411e-007
+4.6500000e+002    +5.6164222e-008    +1.5770742e-007
+4.6600000e+002    +5.8333978e-008    +1.3704953e-007
+4.6700000e+002    +5.8609395e-008    +1.6213188e-007
+4.6800000e+002    +5.9590498e-008    +1.7261752e-007
+4.6900000e+002    +6.1431699e-008    +1.6354288e-007
+4.7000000e+002    +6.1882496e-008    +1.5303091e-007
+4.7100000e+002    +5.8804442e-008    +1.6278919e-007
+4.7200000e+002    +5.7843394e-008    +1.5783942e-007
+4.7300000e+002    +5.8978962e-008    +1.5383955e-007
+4.7400000e+002    +5.7182632e-008    +1.5598123e-007
+4.7500000e+002    +6.0500938e-008    +1.6516913e-007
+4.7600000e+002    +5.9489693e-008    +1.6949298e-007
+4.7700000e+002    +5.8416337e-008    +1.6632929e-007
+4.7800000e+002    +6.3369647e-008    +1.5692842e-007
+4.7900000e+002    +1.5490158e-007    +1.6377359e-007
+4.8000000e+002    +2.9916919e-007    +1.7131886e-007
+4.8100000e+002    +1.6174286e-007    +1.7021938e-007
+4.8200000e+002    +5.9036559e-008    +1.7364286e-007
+4.8300000e+002    +6.3259677e-008    +1.6442402e-007
+4.8400000e+002    +6.4862704e-008    +1.6096777e-007
+4.8500000e+002    +6.9158062e-008    +1.6148876e-007
+4.8600000e+002    +7.1465969e-008    +1.6479815e-007
+4.8700000e+002    +7.5540527e-008    +1.7586858e-007
+4.8800000e+002    +8.1461707e-008    +1.8324936e-007
+4.8900000e+002    +8.6257856e-008    +1.6564805e-007
+4.9000000e+002    +7.8289233e-008    +1.7308800e-007
+4.9100000e+002    +8.6661110e-008    +1.6718727e-007
+4.9200000e+002    +9.0260500e-008    +1.6553260e-007
+4.9300000e+002    +8.4880369e-008    +1.6908481e-007
+4.9400000e+002    +7.8717960e-008    +1.8752138e-007
+4.9500000e+002    +8.1596880e-008    +1.8811549e-007
+4.9600000e+002    +8.5113861e-008    +1.9147565e-007
+4.9700000e+002    +8.1161026e-008    +2.0007234e-007
+4.9800000e+002    +8.4638963e-008    +1.7178769e-007
+4.9900000e+002    +8.2779081e-008    +1.6515408e-007
+5.0000000e+002    +9.2734695e-008    +1.7882728e-007
+5.0100000e+002    +9.2265886e-008    +1.8256856e-007
+5.0200000e+002    +9.2711076e-008    +1.8200974e-007
+5.0300000e+002    +9.4128168e-008    +2.0007980e-007
+5.0400000e+002    +1.0476195e-007    +1.8626248e-007
+5.0500000e+002    +1.0866648e-007    +1.6663876e-007
+5.0600000e+002    +1.1887523e-007    +1.7627957e-007
+5.0700000e+002    +1.2553060e-007    +1.7949807e-007
+5.0800000e+002    +1.1220929e-007    +1.6946173e-007
+5.0900000e+002    +1.0997672e-007    +1.7790175e-007
+5.1000000e+002    +1.1549569e-007    +1.9039329e-007
+5.1100000e+002    +1.0774374e-007    +1.7270283e-007
+5.1200000e+002    +9.6491583e-008    +1.8517909e-007
+5.1300000e+002    +8.5544549e-008    +2.0603410e-007
+5.1400000e+002    +8.1025156e-008    +2.1547501e-007
+5.1500000e+002    +7.6314571e-008    +2.0060530e-007
+5.1600000e+002    +6.9919729e-008    +1.8967678e-007
+5.1700000e+002    +6.8953646e-008    +1.7762189e-007
+5.1800000e+002    +6.0141247e-008    +1.9532663e-007
+5.1900000e+002    +5.9791830e-008    +1.9798543e-007
+5.2000000e+002    +6.0714150e-008    +1.8995021e-007
+5.2100000e+002    +5.8904604e-008    +1.8754506e-007
+5.2200000e+002    +6.0906238e-008    +1.9971810e-007
+5.2300000e+002    +6.6781546e-008    +2.0435341e-007
+5.2400000e+002    +7.4436613e-008    +1.8655598e-007
+5.2500000e+002    +8.5807187e-008    +1.7828933e-007
+5.2600000e+002    +9.5609636e-008    +1.9034438e-007
+5.2700000e+002    +1.2040344e-007    +1.8346779e-007
+5.2800000e+002    +1.6965869e-007    +1.9593020e-007
+5.2900000e+002    +2.1576146e-007    +1.9992521e-007
+5.3000000e+002    +2.7523637e-007    +2.0803445e-007
+5.3100000e+002    +3.0116109e-007    +1.9981944e-007
+5.3200000e+002    +2.7326709e-007    +1.8969887e-007
+5.3300000e+002    +2.7043660e-007    +2.0227870e-007
+5.3400000e+002    +2.8037766e-007    +1.9737770e-007
+5.3500000e+002    +2.8493028e-007    +2.0443824e-007
+5.3600000e+002    +3.0785694e-007    +2.2102137e-007
+5.3700000e+002    +2.8076798e-007    +2.0237000e-007
+5.3800000e+002    +2.4377016e-007    +2.0128860e-007
+5.3900000e+002    +2.7864465e-007    +1.8658999e-007
+5.4000000e+002    +3.3679947e-007    +2.0750224e-007
+5.4100000e+002    +2.6964290e-007    +2.0370555e-007
+5.4200000e+002    +2.3711576e-007    +1.9469501e-007
+5.4300000e+002    +2.5515723e-007    +2.1239563e-007
+5.4400000e+002    +3.1223877e-007    +2.3319753e-007
+5.4500000e+002    +4.3365998e-007    +2.2697076e-007
+5.4600000e+002    +6.6301186e-007    +2.1770992e-007
+5.4700000e+002    +8.3546252e-007    +2.0892465e-007
+5.4800000e+002    +8.8377845e-007    +2.0945936e-007
+5.4900000e+002    +9.5915289e-007    +2.0124683e-007
+5.5000000e+002    +9.2311791e-007    +2.0522876e-007
+5.5100000e+002    +8.5920692e-007    +2.0387583e-007
+5.5200000e+002    +1.1995085e-006    +1.9738573e-007
+5.5300000e+002    +1.1028397e-006    +2.1077133e-007
+5.5400000e+002    +5.1396063e-007    +2.1050027e-007
+5.5500000e+002    +3.5551469e-007    +2.2206709e-007
+5.5600000e+002    +2.8791848e-007    +2.2281736e-007
+5.5700000e+002    +2.1988254e-007    +2.1779958e-007
+5.5800000e+002    +1.9174199e-007    +2.1781489e-007
+5.5900000e+002    +1.8068684e-007    +2.3128003e-007
+5.6000000e+002    +1.5508911e-007    +2.2963835e-007
+5.6100000e+002    +1.3892695e-007    +2.2817861e-007
+5.6200000e+002    +1.3204003e-007    +2.4212406e-007
+5.6300000e+002    +1.3168329e-007    +2.3139712e-007
+5.6400000e+002    +1.1273448e-007    +2.1419113e-007
+5.6500000e+002    +1.0763424e-007    +2.2408381e-007
+5.6600000e+002    +1.1108154e-007    +2.2019903e-007
+5.6700000e+002    +1.2513718e-007    +2.2286238e-007
+5.6800000e+002    +1.2071980e-007    +2.2400754e-007
+5.6900000e+002    +1.2406367e-007    +2.2883646e-007
+5.7000000e+002    +1.3225839e-007    +2.4486380e-007
+5.7100000e+002    +1.3903392e-007    +2.2939994e-007
+5.7200000e+002    +1.6053747e-007    +2.0206205e-007
+5.7300000e+002    +1.8344261e-007    +2.1595012e-007
+5.7400000e+002    +2.1513083e-007    +2.2982752e-007
+5.7500000e+002    +2.3300839e-007    +2.1926175e-007
+5.7600000e+002    +2.5486102e-007    +2.2275279e-007
+5.7700000e+002    +2.5891941e-007    +2.3342372e-007
+5.7800000e+002    +2.3835771e-007    +2.3542852e-007
+5.7900000e+002    +2.1423935e-007    +2.0928280e-007
+5.8000000e+002    +1.8757306e-007    +2.2025948e-007
+5.8100000e+002    +1.6338602e-007    +2.1491032e-007
+5.8200000e+002    +1.5234943e-007    +2.1796488e-007
+5.8300000e+002    +1.2765732e-007    +2.2244386e-007
+5.8400000e+002    +1.1919962e-007    +2.2473083e-007
+5.8500000e+002    +1.0986955e-007    +2.1159678e-007
+5.8600000e+002    +9.0735554e-008    +2.1244297e-007
+5.8700000e+002    +8.1292129e-008    +2.1629609e-007
+5.8800000e+002    +7.4569208e-008    +2.1349568e-007
+5.8900000e+002    +6.7883349e-008    +2.2521694e-007
+5.9000000e+002    +5.9798985e-008    +2.2850679e-007
+5.9100000e+002    +6.1876989e-008    +2.3362807e-007
+5.9200000e+002    +6.5300370e-008    +2.3378537e-007
+5.9300000e+002    +6.5984622e-008    +2.3231713e-007
+5.9400000e+002    +6.0796062e-008    +2.4615878e-007
+5.9500000e+002    +6.5633969e-008    +2.6031188e-007
+5.9600000e+002    +6.0050589e-008    +2.5711316e-007
+5.9700000e+002    +6.4202204e-008    +2.4665144e-007
+5.9800000e+002    +6.7510449e-008    +2.2922447e-007
+5.9900000e+002    +1.4137264e-007    +2.5906644e-007
+6.0000000e+002    +2.5648694e-007    +2.6797477e-007
+6.0100000e+002    +1.5043078e-007    +2.5458414e-007
+6.0200000e+002    +1.2418428e-007    +2.5067430e-007
+6.0300000e+002    +1.8160891e-007    +2.7489210e-007
+6.0400000e+002    +2.2347594e-007    +2.8079049e-007
+6.0500000e+002    +2.4967312e-007    +2.3064453e-007
+6.0600000e+002    +1.6753420e-007    +2.3688494e-007
+6.0700000e+002    +9.6620496e-008    +2.5599093e-007
+6.0800000e+002    +7.0880425e-008    +2.6104084e-007
+6.0900000e+002    +6.5867432e-008    +2.5600386e-007
+6.1000000e+002    +6.1611246e-008    +2.5962939e-007
+6.1100000e+002    +5.8316175e-008    +2.6305341e-007
+6.1200000e+002    +5.5326570e-008    +2.5997767e-007
+6.1300000e+002    +5.9499360e-008    +2.5877333e-007
+6.1400000e+002    +5.8713155e-008    +2.6395378e-007
+6.1500000e+002    +6.9153579e-008    +2.6916786e-007
+6.1600000e+002    +6.5391063e-008    +2.8215149e-007
+6.1700000e+002    +6.3961856e-008    +2.6740605e-007
+6.1800000e+002    +6.4917849e-008    +2.5993202e-007
+6.1900000e+002    +6.0484133e-008    +2.5889696e-007
+6.2000000e+002    +6.5781649e-008    +2.5962481e-007
+6.2100000e+002    +6.9751955e-008    +2.6894008e-007
+6.2200000e+002    +7.0811588e-008    +2.5930774e-007
+6.2300000e+002    +6.7796648e-008    +2.5720746e-007
+6.2400000e+002    +6.8604614e-008    +2.6487669e-007
+6.2500000e+002    +7.1030243e-008    +2.5349772e-007
+6.2600000e+002    +7.1518087e-008    +2.5397159e-007
+6.2700000e+002    +7.4370362e-008    +2.7324279e-007
+6.2800000e+002    +7.1530181e-008    +2.3668450e-007
+6.2900000e+002    +6.5757455e-008    +2.2927354e-007
+6.3000000e+002    +6.8196513e-008    +2.4272961e-007
+6.3100000e+002    +6.7295531e-008    +2.7337182e-007
+6.3200000e+002    +6.8621638e-008    +2.6648894e-007
+6.3300000e+002    +6.7130451e-008    +2.7225485e-007
+6.3400000e+002    +6.7925995e-008    +2.6991540e-007
+6.3500000e+002    +6.6835320e-008    +2.7437164e-007
+6.3600000e+002    +7.1864825e-008    +2.9060405e-007
+6.3700000e+002    +6.8529552e-008    +2.7230209e-007
+6.3800000e+002    +6.3377094e-008    +2.3774089e-007
+6.3900000e+002    +6.7238076e-008    +2.2844884e-007
+6.4000000e+002    +6.9849904e-008    +2.2751217e-007
+6.4100000e+002    +6.0194623e-008    +2.3625326e-007
+6.4200000e+002    +6.2472871e-008    +2.5918422e-007
+6.4300000e+002    +8.0286952e-008    +2.4983927e-007
+6.4400000e+002    +1.0098508e-007    +2.5889895e-007
+6.4500000e+002    +1.4422338e-007    +2.7542683e-007
+6.4600000e+002    +1.6795263e-007    +2.8475264e-007
+6.4700000e+002    +1.2432207e-007    +2.5383389e-007
+6.4800000e+002    +9.9780102e-008    +2.4530539e-007
+6.4900000e+002    +8.9062056e-008    +2.3846033e-007
+6.5000000e+002    +8.6812435e-008    +2.4354622e-007
+6.5100000e+002    +1.2671374e-007    +2.7767467e-007
+6.5200000e+002    +1.5277104e-007    +2.7898599e-007
+6.5300000e+002    +8.7677137e-008    +2.5843715e-007
+6.5400000e+002    +6.7107607e-008    +2.6000222e-007
+6.5500000e+002    +7.3515722e-008    +2.7494974e-007
+6.5600000e+002    +7.0517302e-008    +2.7341414e-007
+6.5700000e+002    +6.5107002e-008    +2.8863127e-007
+6.5800000e+002    +6.1178007e-008    +2.8493528e-007
+6.5900000e+002    +1.3512030e-007    +2.7621118e-007
+6.6000000e+002    +2.4483532e-007    +2.7062433e-007
+6.6100000e+002    +1.3560467e-007    +2.8373742e-007
+6.6200000e+002    +6.6864821e-008    +2.7153300e-007
+6.6300000e+002    +6.6849552e-008    +2.7325478e-007
+6.6400000e+002    +6.8475323e-008    +2.8581073e-007
+6.6500000e+002    +6.1246695e-008    +2.7937222e-007
+6.6600000e+002    +6.4739190e-008    +2.4938106e-007
+6.6700000e+002    +7.0374213e-008    +2.5597828e-007
+6.6800000e+002    +6.8093563e-008    +2.6801743e-007
+6.6900000e+002    +6.5822903e-008    +2.7559443e-007
+6.7000000e+002    +7.0209126e-008    +2.6459387e-007
+6.7100000e+002    +7.3801445e-008    +2.6964202e-007
+6.7200000e+002    +7.0416256e-008    +2.7963981e-007
+6.7300000e+002    +7.1387937e-008    +2.7862109e-007
+6.7400000e+002    +7.4890522e-008    +2.7717971e-007
+6.7500000e+002    +7.3067660e-008    +2.6436445e-007
+6.7600000e+002    +7.3770501e-008    +3.0110027e-007
+6.7700000e+002    +6.7512815e-008    +3.0780558e-007
+6.7800000e+002    +6.6368699e-008    +2.6447535e-007
+6.7900000e+002    +7.4449282e-008    +2.6973973e-007
+6.8000000e+002    +7.9432404e-008    +2.8995260e-007
+6.8100000e+002    +8.0156155e-008    +2.9409247e-007
+6.8200000e+002    +7.9651961e-008    +2.5887337e-007
+6.8300000e+002    +8.5571415e-008    +2.6520405e-007
+6.8400000e+002    +9.1884658e-008    +2.7952623e-007
+6.8500000e+002    +8.3548549e-008    +2.9438388e-007
+6.8600000e+002    +1.0186459e-007    +2.8133763e-007
+6.8700000e+002    +1.0714857e-007    +2.6915751e-007
+6.8800000e+002    +1.0592202e-007    +2.7740714e-007
+6.8900000e+002    +1.0502362e-007    +3.0096837e-007
+6.9000000e+002    +1.0796198e-007    +3.0478429e-007
+6.9100000e+002    +1.1629456e-007    +2.9451741e-007
+6.9200000e+002    +1.2648620e-007    +2.7183847e-007
+6.9300000e+002    +1.1883856e-007    +2.8384866e-007
+6.9400000e+002    +1.3471930e-007    +3.0874145e-007
+6.9500000e+002    +1.1431559e-007    +2.9637224e-007
+6.9600000e+002    +1.0974441e-007    +2.7863885e-007
+6.9700000e+002    +9.9393688e-008    +2.9199725e-007
+6.9800000e+002    +1.0298648e-007    +3.0764778e-007
+6.9900000e+002    +1.1109972e-007    +3.0675901e-007
+7.0000000e+002    +1.1272446e-007    +2.8343820e-007
+7.0100000e+002    +1.1329995e-007    +2.8473764e-007
+7.0200000e+002    +1.1354080e-007    +3.0111744e-007
+7.0300000e+002    +1.0915868e-007    +3.3257945e-007
+7.0400000e+002    +1.0901962e-007    +3.1112862e-007
+7.0500000e+002    +1.1059658e-007    +2.8744404e-007
+7.0600000e+002    +1.0810171e-007    +2.9313952e-007
+7.0700000e+002    +1.0066803e-007    +2.8996629e-007
+7.0800000e+002    +9.1053010e-008    +2.9435867e-007
+7.0900000e+002    +8.9585178e-008    +2.9821945e-007
+7.1000000e+002    +9.5382632e-008    +2.8103105e-007
+7.1100000e+002    +9.3887259e-008    +2.8354776e-007
+7.1200000e+002    +9.0599869e-008    +2.8424972e-007
+7.1300000e+002    +1.0247675e-007    +2.9441492e-007
+7.1400000e+002    +1.1580604e-007    +3.1418520e-007
+7.1500000e+002    +1.1282996e-007    +3.0404229e-007
+7.1600000e+002    +1.1140937e-007    +3.1421106e-007
+7.1700000e+002    +1.0136788e-007    +2.9810158e-007
+7.1800000e+002    +9.9596768e-008    +2.8380035e-007
+7.1900000e+002    +1.2773148e-007    +2.7649730e-007
+7.2000000e+002    +2.1556706e-007    +2.9802894e-007
+7.2100000e+002    +1.3631043e-007    +3.0877027e-007
+7.2200000e+002    +7.9499152e-008    +3.2584208e-007
+7.2300000e+002    +7.4594595e-008    +3.0252784e-007
+7.2400000e+002    +7.5314858e-008    +2.8425941e-007
+7.2500000e+002    +7.7014562e-008    +3.0404095e-007
+7.2600000e+002    +7.2727893e-008    +3.2937538e-007
+7.2700000e+002    +6.9185703e-008    +3.1610176e-007
+7.2800000e+002    +7.1881239e-008    +3.1496543e-007
+7.2900000e+002    +7.1452313e-008    +3.1037899e-007
+7.3000000e+002    +6.6948644e-008    +3.2696846e-007
+7.3100000e+002    +6.6866583e-008    +3.1342478e-007
+7.3200000e+002    +6.6570635e-008    +3.0828585e-007
+7.3300000e+002    +6.1615573e-008    +3.1095581e-007
+7.3400000e+002    +6.7360361e-008    +3.0393548e-007
+7.3500000e+002    +6.3365128e-008    +3.0906264e-007
+7.3600000e+002    +6.5367516e-008    +3.1054807e-007
+7.3700000e+002    +6.5035202e-008    +3.1867387e-007
+7.3800000e+002    +6.9665930e-008    +3.0728117e-007
+7.3900000e+002    +6.9043267e-008    +2.8612911e-007
+7.4000000e+002    +7.1440624e-008    +3.1389038e-007
+7.4100000e+002    +7.3092693e-008    +3.1592134e-007
+7.4200000e+002    +7.3051616e-008    +3.1632604e-007
+7.4300000e+002    +7.5998500e-008    +3.2159193e-007
+7.4400000e+002    +7.3179336e-008    +3.1900993e-007
+7.4500000e+002    +7.2307650e-008    +3.1963646e-007
+7.4600000e+002    +7.4397150e-008    +3.1470100e-007
+7.4700000e+002    +7.3986186e-008    +3.2764515e-007
+7.4800000e+002    +7.6237185e-008    +3.5146704e-007
+7.4900000e+002    +8.7517094e-008    +3.3850483e-007
+7.5000000e+002    +1.0045139e-007    +3.1433530e-007
+7.5100000e+002    +1.0403912e-007    +2.8503604e-007
+7.5200000e+002    +8.9591673e-008    +3.0423297e-007
+7.5300000e+002    +8.1416466e-008    +3.3289106e-007
+7.5400000e+002    +8.1635591e-008    +3.2184448e-007
+7.5500000e+002    +8.1052740e-008    +3.2727985e-007
+7.5600000e+002    +8.3160685e-008    +3.1914377e-007
+7.5700000e+002    +8.3779021e-008    +3.0706161e-007
+7.5800000e+002    +7.5389401e-008    +3.3046970e-007
+7.5900000e+002    +7.3911892e-008    +3.2655407e-007
+7.6000000e+002    +8.1482639e-008    +3.1992576e-007
+7.6100000e+002    +7.7122195e-008    +3.2062061e-007
+7.6200000e+002    +7.2841374e-008    +3.1980812e-007
+7.6300000e+002    +7.3947852e-008    +3.1129366e-007
+7.6400000e+002    +7.2325442e-008    +3.1897912e-007
+7.6500000e+002    +7.3010959e-008    +3.1834128e-007
+7.6600000e+002    +7.1861429e-008    +3.4105170e-007
+7.6700000e+002    +6.7978966e-008    +3.2907573e-007
+7.6800000e+002    +6.8095503e-008    +3.2927522e-007
+7.6900000e+002    +6.7713550e-008    +3.3462476e-007
+7.7000000e+002    +6.7163917e-008    +3.4612100e-007
+7.7100000e+002    +6.2485221e-008    +3.3485409e-007
+7.7200000e+002    +6.3127430e-008    +3.0373198e-007
+7.7300000e+002    +6.9834414e-008    +3.3259661e-007
+7.7400000e+002    +6.6505400e-008    +3.3409023e-007
+7.7500000e+002    +6.6537901e-008    +3.3359322e-007
+7.7600000e+002    +6.8529324e-008    +3.1581243e-007
+7.7700000e+002    +6.8247374e-008    +2.9713595e-007
+7.7800000e+002    +6.6156623e-008    +3.4090195e-007
+7.7900000e+002    +1.4369608e-007    +3.5707399e-007
+7.8000000e+002    +2.7594444e-007    +3.5520685e-007
+7.8100000e+002    +1.5723852e-007    +3.5636938e-007
+7.8200000e+002    +6.8659617e-008    +3.2167281e-007
+7.8300000e+002    +6.4115348e-008    +3.3659393e-007
+7.8400000e+002    +6.2314491e-008    +3.3611678e-007
+7.8500000e+002    +6.5785187e-008    +3.4134766e-007
+7.8600000e+002    +6.7392989e-008    +3.4205260e-007
+7.8700000e+002    +6.4410848e-008    +3.8806789e-007
+7.8800000e+002    +6.3030051e-008    +3.8643986e-007
+7.8900000e+002    +6.4414380e-008    +3.6705981e-007
+7.9000000e+002    +6.4487267e-008    +3.6024045e-007
+7.9100000e+002    +7.0744754e-008    +3.5312334e-007
+7.9200000e+002    +6.8152197e-008    +3.3925195e-007
+7.9300000e+002    +7.1579443e-008    +3.4530302e-007
+7.9400000e+002    +7.4572483e-008    +3.3318031e-007
+7.9500000e+002    +7.3518947e-008    +3.2754517e-007
+7.9600000e+002    +7.9694914e-008    +3.4608112e-007
+7.9700000e+002    +7.7768433e-008    +3.4629701e-007
+7.9800000e+002    +7.3773982e-008    +3.4948835e-007
+7.9900000e+002    +7.4434730e-008    +3.4424801e-007
#
#
# North DC Val: 0.65281359 VoltsSouth DC Val: 0.5574320100000001 Volts
# SR785 Measurement - Timestamp: Jun 12 2020 - 03:43:02
# Parameter File: /home/controls/Git/cit_ctnlab/ctn_scripts/TransRINSpecShort.yml
#---------- Measurement Setup ------------
# Start Frequency (Hz): 0.000000
# Frequency Span (Hz): 102400.000000
# Frequency Resolution: 800
# Number of Averages: 100
# Averaging Mode: RMS
# Window function: Hanning
#---------- Measurement Parameters ----------
# Measurement Group:  "FFT" "FFT"
# Measurements:  "FFT 1" "FFT 2"
# View:  "Log Magnitude" "Log Magnitude"
# Unit:  "Vrms/rtHz" "Vrms/rtHz"
#---------- Input Parameters ----------
# Input Source: Analog
# Input Mode: Single ended, Single ended
# Input Grounding: Float, Float
# Input Coupling: AC, AC
# Input Range: -36.0dBVpk, -36.0dBVpk
# Auto Range: Off, Off
# Auto Range Mode: Tracking, Tracking
# Anti-Aliasing Filter: On, On
#---------- Source Parameters ----------
# Source Type: Sine
# Source Amplitude: 500.0mVpk
# Source On: 0

#---------- Measurement Data ----------
# [Freq(Hz) Display 0(Vrms/rtHz) Display 1(Vrms/rtHz) ]
+8.9600000e+002    +1.2111623e-007    +3.9987822e-007
+1.0240000e+003    +1.1269315e-007    +4.8724615e-007
+1.1520000e+003    +1.1603704e-007    +5.1792773e-007
+1.2800000e+003    +1.3807900e-007    +5.8422108e-007
+1.4080000e+003    +1.4671494e-007    +6.4887132e-007
+1.5360000e+003    +1.6795153e-007    +7.8611981e-007
+1.6640000e+003    +2.4465527e-007    +9.0483559e-007
+1.7920000e+003    +3.1490629e-007    +9.3083975e-007
+1.9200000e+003    +2.9113164e-007    +1.0312633e-006
+2.0480000e+003    +2.9464937e-007    +1.2234290e-006
+2.1760000e+003    +3.3343611e-007    +1.3141984e-006
+2.3040000e+003    +3.3169840e-007    +1.3954410e-006
+2.4320000e+003    +3.6820416e-007    +1.6099376e-006
+2.5600000e+003    +4.5707600e-007    +1.8484616e-006
+2.6880000e+003    +4.9887512e-007    +2.0307602e-006
+2.8160000e+003    +5.2260896e-007    +2.1941371e-006
+2.9440000e+003    +4.8846903e-007    +2.3133819e-006
+3.0720000e+003    +5.1616166e-007    +2.7565495e-006
+3.2000000e+003    +5.7610845e-007    +2.9495525e-006
+3.3280000e+003    +6.3939530e-007    +3.2074456e-006
+3.4560000e+003    +7.0617870e-007    +3.2439636e-006
+3.5840000e+003    +7.5983650e-007    +3.5587670e-006
+3.7120000e+003    +7.6731806e-007    +3.8269336e-006
+3.8400000e+003    +8.2612922e-007    +3.9175516e-006
+3.9680000e+003    +8.4990410e-007    +4.2074657e-006
+4.0960000e+003    +8.6925172e-007    +4.1349463e-006
+4.2240000e+003    +9.2093728e-007    +3.6576600e-006
+4.3520000e+003    +1.0120019e-006    +3.6880133e-006
+4.4800000e+003    +9.5574887e-007    +3.4172565e-006
+4.6080000e+003    +1.0497658e-006    +3.5842638e-006
+4.7360000e+003    +1.0710340e-006    +3.6444594e-006
+4.8640000e+003    +1.1128003e-006    +3.2550918e-006
+4.9920000e+003    +1.2000156e-006    +2.6592134e-006
+5.1200000e+003    +1.2043570e-006    +2.9066052e-006
+5.2480000e+003    +1.1945051e-006    +2.9857590e-006
+5.3760000e+003    +1.2595777e-006    +2.8316385e-006
+5.5040000e+003    +1.3992859e-006    +2.7356130e-006
+5.6320000e+003    +1.4439815e-006    +2.8066349e-006
+5.7600000e+003    +1.3603773e-006    +2.7976635e-006
+5.8880000e+003    +1.3424990e-006    +2.4915992e-006
+6.0160000e+003    +1.5170729e-006    +2.3886491e-006
+6.1440000e+003    +1.5878466e-006    +2.3417354e-006
+6.2720000e+003    +1.6614786e-006    +2.6315106e-006
+6.4000000e+003    +1.6617558e-006    +2.6823734e-006
+6.5280000e+003    +1.6776760e-006    +2.6296418e-006
+6.6560000e+003    +1.7135141e-006    +2.4690585e-006
+6.7840000e+003    +1.8492410e-006    +2.4818355e-006
+6.9120000e+003    +1.8296950e-006    +2.5235829e-006
+7.0400000e+003    +2.0262792e-006    +2.5683694e-006
+7.1680000e+003    +2.1685919e-006    +2.5050044e-006
+7.2960000e+003    +2.0999196e-006    +2.6102450e-006
+7.4240000e+003    +1.9336755e-006    +2.5895949e-006
+7.5520000e+003    +2.1124349e-006    +2.7583176e-006
+7.6800000e+003    +2.1978888e-006    +2.7989170e-006
+7.8080000e+003    +2.2887591e-006    +2.7607505e-006
+7.9360000e+003    +2.2957634e-006    +2.7610809e-006
+8.0640000e+003    +2.3411108e-006    +2.5999309e-006
+8.1920000e+003    +2.2557429e-006    +2.6803391e-006
+8.3200000e+003    +2.2864458e-006    +2.7132141e-006
+8.4480000e+003    +2.3300354e-006    +2.9519078e-006
+8.5760000e+003    +2.1776061e-006    +2.8405568e-006
+8.7040000e+003    +2.3789103e-006    +2.7458200e-006
+8.8320000e+003    +2.5422437e-006    +2.7192384e-006
+8.9600000e+003    +2.6542516e-006    +2.5041629e-006
+9.0880000e+003    +2.7204687e-006    +2.8315080e-006
+9.2160000e+003    +2.7233586e-006    +2.9208479e-006
+9.3440000e+003    +2.4296774e-006    +2.8041645e-006
+9.4720000e+003    +2.5276593e-006    +2.5540951e-006
+9.6000000e+003    +3.0413078e-006    +2.5311253e-006
+9.7280000e+003    +3.0641129e-006    +2.5628003e-006
+9.8560000e+003    +2.9141561e-006    +2.6606210e-006
+9.9840000e+003    +2.8623783e-006    +2.6322386e-006
+1.0112000e+004    +2.9859359e-006    +2.5867107e-006
+1.0240000e+004    +2.9254279e-006    +2.5561992e-006
+1.0368000e+004    +3.0451870e-006    +2.5790623e-006
+1.0496000e+004    +3.0588321e-006    +2.4033918e-006
+1.0624000e+004    +3.3068495e-006    +2.3194095e-006
+1.0752000e+004    +3.4373775e-006    +2.5083345e-006
+1.0880000e+004    +3.0858996e-006    +2.5061845e-006
+1.1008000e+004    +3.0657989e-006    +2.2672543e-006
+1.1136000e+004    +3.2931571e-006    +2.1553014e-006
+1.1264000e+004    +3.2995342e-006    +2.1341154e-006
+1.1392000e+004    +3.1442330e-006    +2.2864333e-006
+1.1520000e+004    +3.1235500e-006    +2.2382192e-006
+1.1648000e+004    +3.3143301e-006    +2.0319580e-006
+1.1776000e+004    +3.2204421e-006    +2.1427181e-006
+1.1904000e+004    +3.0548349e-006    +2.0454690e-006
+1.2032000e+004    +2.9994703e-006    +2.1166813e-006
+1.2160000e+004    +3.0899714e-006    +2.0413499e-006
+1.2288000e+004    +3.3272884e-006    +1.8652280e-006
+1.2416000e+004    +3.3226520e-006    +1.9652161e-006
+1.2544000e+004    +3.3515792e-006    +1.8608056e-006
+1.2672000e+004    +3.1734983e-006    +1.7866793e-006
+1.2800000e+004    +3.2378787e-006    +1.7426378e-006
+1.2928000e+004    +3.1129707e-006    +1.7365144e-006
+1.3056000e+004    +3.2882795e-006    +1.5827466e-006
+1.3184000e+004    +3.2850605e-006    +1.6150950e-006
+1.3312000e+004    +3.2568471e-006    +1.7412492e-006
+1.3440000e+004    +3.0895101e-006    +1.6639231e-006
+1.3568000e+004    +3.1612119e-006    +1.4691466e-006
+1.3696000e+004    +3.0510103e-006    +1.5540583e-006
+1.3824000e+004    +2.9440005e-006    +1.6372469e-006
+1.3952000e+004    +3.3445542e-006    +1.5460440e-006
+1.4080000e+004    +3.4673074e-006    +1.5924068e-006
+1.4208000e+004    +3.2441026e-006    +1.5223422e-006
+1.4336000e+004    +3.0123285e-006    +1.4446745e-006
+1.4464000e+004    +3.1221819e-006    +1.4333871e-006
+1.4592000e+004    +2.9618357e-006    +1.3898843e-006
+1.4720000e+004    +2.8129314e-006    +1.2898407e-006
+1.4848000e+004    +3.2082874e-006    +1.4005217e-006
+1.4976000e+004    +3.1130664e-006    +1.3917459e-006
+1.5104000e+004    +3.0363797e-006    +1.3171496e-006
+1.5232000e+004    +2.9219641e-006    +1.3177485e-006
+1.5360000e+004    +3.2734563e-006    +1.2858208e-006
+1.5488000e+004    +3.0612848e-006    +1.3235310e-006
+1.5616000e+004    +2.9919349e-006    +1.2717524e-006
+1.5744000e+004    +3.0806050e-006    +1.4007892e-006
+1.5872000e+004    +2.6847808e-006    +1.3989771e-006
+1.6000000e+004    +2.5683046e-006    +1.3532831e-006
+1.6128000e+004    +2.8310883e-006    +1.2804209e-006
+1.6256000e+004    +2.9077830e-006    +1.3217434e-006
+1.6384000e+004    +2.8524769e-006    +1.2118913e-006
+1.6512000e+004    +2.7852811e-006    +1.1112973e-006
+1.6640000e+004    +2.5644893e-006    +1.0900084e-006
+1.6768000e+004    +2.6437549e-006    +1.1327980e-006
+1.6896000e+004    +2.7399926e-006    +1.2026761e-006
+1.7024000e+004    +2.7887666e-006    +1.1896062e-006
+1.7152000e+004    +2.8344691e-006    +1.1663188e-006
+1.7280000e+004    +2.3226919e-006    +1.1364756e-006
+1.7408000e+004    +2.2426914e-006    +1.1292204e-006
+1.7536000e+004    +2.4018195e-006    +1.1348371e-006
+1.7664000e+004    +2.4795122e-006    +1.1070094e-006
+1.7792000e+004    +2.5979905e-006    +1.0897893e-006
+1.7920000e+004    +2.4875701e-006    +1.0829392e-006
+1.8048000e+004    +2.4573239e-006    +1.0954192e-006
+1.8176000e+004    +2.4240178e-006    +1.0673796e-006
+1.8304000e+004    +2.2472984e-006    +1.0631630e-006
+1.8432000e+004    +2.2506072e-006    +1.0307132e-006
+1.8560000e+004    +2.3254936e-006    +9.2341793e-007
+1.8688000e+004    +2.2895431e-006    +9.8201338e-007
+1.8816000e+004    +2.4467918e-006    +1.0223872e-006
+1.8944000e+004    +2.3347550e-006    +1.0443086e-006
+1.9072000e+004    +2.3281839e-006    +1.0614707e-006
+1.9200000e+004    +2.4307019e-006    +1.0068770e-006
+1.9328000e+004    +2.4089502e-006    +9.5678831e-007
+1.9456000e+004    +2.3870393e-006    +9.6757446e-007
+1.9584000e+004    +2.3340758e-006    +9.4659947e-007
+1.9712000e+004    +2.2192180e-006    +9.3636379e-007
+1.9840000e+004    +2.1182948e-006    +9.6544784e-007
+1.9968000e+004    +2.1075837e-006    +9.4619418e-007
+2.0096000e+004    +2.0728842e-006    +9.2503547e-007
+2.0224000e+004    +2.1975172e-006    +8.3869770e-007
+2.0352000e+004    +2.1907263e-006    +8.4274905e-007
+2.0480000e+004    +2.0809659e-006    +9.0649718e-007
+2.0608000e+004    +2.1268406e-006    +8.4855026e-007
+2.0736000e+004    +2.1013911e-006    +8.5276810e-007
+2.0864000e+004    +2.1576786e-006    +8.0235662e-007
+2.0992000e+004    +2.1554363e-006    +7.9962331e-007
+2.1120000e+004    +2.1139988e-006    +8.2410895e-007
+2.1248000e+004    +2.0627108e-006    +8.8140240e-007
+2.1376000e+004    +2.0522200e-006    +1.1180714e-006
+2.1504000e+004    +1.9747049e-006    +1.2372101e-006
+2.1632000e+004    +2.0831033e-006    +9.7595648e-007
+2.1760000e+004    +1.9498700e-006    +8.1319087e-007
+2.1888000e+004    +1.8821486e-006    +7.0585548e-007
+2.2016000e+004    +1.8292570e-006    +7.6623877e-007
+2.2144000e+004    +1.7462980e-006    +8.0610766e-007
+2.2272000e+004    +1.7923477e-006    +7.7468962e-007
+2.2400000e+004    +1.8129891e-006    +7.3992197e-007
+2.2528000e+004    +1.8665596e-006    +6.9277303e-007
+2.2656000e+004    +1.8861516e-006    +6.7744935e-007
+2.2784000e+004    +1.9189383e-006    +7.2807228e-007
+2.2912000e+004    +1.8528668e-006    +7.5249471e-007
+2.3040000e+004    +1.8243991e-006    +6.8848038e-007
+2.3168000e+004    +1.8072434e-006    +7.2572908e-007
+2.3296000e+004    +1.9078984e-006    +7.9987092e-007
+2.3424000e+004    +1.6907683e-006    +7.1532145e-007
+2.3552000e+004    +1.5075452e-006    +6.7156327e-007
+2.3680000e+004    +1.6778215e-006    +6.7318445e-007
+2.3808000e+004    +2.0454645e-006    +6.8985071e-007
+2.3936000e+004    +2.0008815e-006    +6.8172034e-007
+2.4064000e+004    +1.9394888e-006    +6.4758308e-007
+2.4192000e+004    +1.8623979e-006    +6.5487916e-007
+2.4320000e+004    +1.7074742e-006    +7.0855998e-007
+2.4448000e+004    +1.8068288e-006    +6.3782539e-007
+2.4576000e+004    +1.7861261e-006    +6.0302580e-007
+2.4704000e+004    +1.7699813e-006    +5.7205801e-007
+2.4832000e+004    +1.7644513e-006    +6.1029073e-007
+2.4960000e+004    +1.5831064e-006    +6.5925389e-007
+2.5088000e+004    +1.6865447e-006    +6.0133584e-007
+2.5216000e+004    +1.6777625e-006    +6.4198190e-007
+2.5344000e+004    +1.6426469e-006    +6.0728547e-007
+2.5472000e+004    +1.6564877e-006    +6.0132993e-007
+2.5600000e+004    +1.6841410e-006    +5.9666507e-007
+2.5728000e+004    +1.5898771e-006    +6.4786116e-007
+2.5856000e+004    +1.6752739e-006    +6.3167573e-007
+2.5984000e+004    +1.6555967e-006    +5.8769649e-007
+2.6112000e+004    +1.5808380e-006    +5.8037165e-007
+2.6240000e+004    +1.5982922e-006    +6.1359640e-007
+2.6368000e+004    +1.5494580e-006    +6.0535160e-007
+2.6496000e+004    +1.4578056e-006    +5.7994743e-007
+2.6624000e+004    +1.5285896e-006    +6.2681812e-007
+2.6752000e+004    +1.5607922e-006    +6.5068917e-007
+2.6880000e+004    +1.5586053e-006    +6.0566873e-007
+2.7008000e+004    +1.5933198e-006    +5.7393595e-007
+2.7136000e+004    +1.5889680e-006    +5.7355362e-007
+2.7264000e+004    +1.4826500e-006    +5.7371608e-007
+2.7392000e+004    +1.4376237e-006    +5.8100477e-007
+2.7520000e+004    +1.4529080e-006    +5.9755342e-007
+2.7648000e+004    +1.4501477e-006    +6.5243324e-007
+2.7776000e+004    +1.4864527e-006    +5.8330778e-007
+2.7904000e+004    +1.4408411e-006    +5.7166812e-007
+2.8032000e+004    +1.3793702e-006    +5.8417623e-007
+2.8160000e+004    +1.4631582e-006    +5.7287451e-007
+2.8288000e+004    +1.4924102e-006    +6.1223028e-007
+2.8416000e+004    +1.5198788e-006    +6.1185466e-007
+2.8544000e+004    +1.5080667e-006    +6.1974828e-007
+2.8672000e+004    +1.4138614e-006    +6.2370344e-007
+2.8800000e+004    +1.3697717e-006    +5.4932644e-007
+2.8928000e+004    +1.3653466e-006    +5.7164300e-007
+2.9056000e+004    +1.2875698e-006    +5.9870462e-007
+2.9184000e+004    +1.4038378e-006    +5.6662395e-007
+2.9312000e+004    +1.3803581e-006    +5.2714319e-007
+2.9440000e+004    +1.3956862e-006    +5.2790716e-007
+2.9568000e+004    +1.3721891e-006    +5.4044068e-007
+2.9696000e+004    +1.4391461e-006    +5.7050937e-007
+2.9824000e+004    +1.3724423e-006    +5.7184701e-007
+2.9952000e+004    +1.5474349e-006    +5.4006699e-007
+3.0080000e+004    +1.5989066e-006    +5.4731987e-007
+3.0208000e+004    +1.4660094e-006    +5.9929653e-007
+3.0336000e+004    +1.4080643e-006    +5.5308652e-007
+3.0464000e+004    +1.3374482e-006    +5.7371733e-007
+3.0592000e+004    +1.4669545e-006    +5.6927047e-007
+3.0720000e+004    +1.4895634e-006    +5.8259792e-007
+3.0848000e+004    +1.3983889e-006    +5.4799693e-007
+3.0976000e+004    +1.2758389e-006    +5.9566622e-007
+3.1104000e+004    +1.4241144e-006    +5.9838720e-007
+3.1232000e+004    +1.3947839e-006    +5.7397568e-007
+3.1360000e+004    +1.3885650e-006    +6.1893365e-007
+3.1488000e+004    +1.3602966e-006    +6.1221419e-007
+3.1616000e+004    +1.3904216e-006    +6.1274881e-007
+3.1744000e+004    +1.4354156e-006    +6.1257055e-007
+3.1872000e+004    +1.3591023e-006    +5.6320761e-007
+3.2000000e+004    +1.3787858e-006    +5.9884468e-007
+3.2128000e+004    +1.3269520e-006    +5.6776611e-007
+3.2256000e+004    +1.3701447e-006    +5.3817280e-007
+3.2384000e+004    +1.3096898e-006    +5.9823481e-007
+3.2512000e+004    +1.3382473e-006    +6.1393337e-007
+3.2640000e+004    +1.3219030e-006    +5.6385051e-007
+3.2768000e+004    +1.2368665e-006    +6.1201388e-007
+3.2896000e+004    +1.2294981e-006    +6.1887317e-007
+3.3024000e+004    +1.2214238e-006    +6.0067202e-007
+3.3152000e+004    +1.1820365e-006    +6.0401516e-007
+3.3280000e+004    +1.3253692e-006    +6.3172496e-007
+3.3408000e+004    +1.2814405e-006    +5.8612483e-007
+3.3536000e+004    +1.3672909e-006    +5.6444077e-007
+3.3664000e+004    +1.3585592e-006    +5.3196203e-007
+3.3792000e+004    +1.2598516e-006    +5.7597816e-007
+3.3920000e+004    +1.3235209e-006    +6.2950727e-007
+3.4048000e+004    +1.3738006e-006    +5.9240313e-007
+3.4176000e+004    +1.3345277e-006    +6.0509643e-007
+3.4304000e+004    +1.2541090e-006    +6.2223694e-007
+3.4432000e+004    +1.2045077e-006    +6.1595892e-007
+3.4560000e+004    +1.1699536e-006    +6.6725772e-007
+3.4688000e+004    +1.2457513e-006    +6.6974371e-007
+3.4816000e+004    +1.3567645e-006    +6.5553667e-007
+3.4944000e+004    +1.2397447e-006    +6.6186482e-007
+3.5072000e+004    +1.1984027e-006    +6.5729159e-007
+3.5200000e+004    +1.1358381e-006    +6.5709895e-007
+3.5328000e+004    +1.1963795e-006    +6.2193163e-007
+3.5456000e+004    +1.2292403e-006    +6.0894604e-007
+3.5584000e+004    +1.3301961e-006    +5.8105707e-007
+3.5712000e+004    +1.2789119e-006    +5.9337373e-007
+3.5840000e+004    +1.2320954e-006    +6.2038146e-007
+3.5968000e+004    +1.2867458e-006    +6.3808176e-007
+3.6096000e+004    +1.2869720e-006    +6.5295785e-007
+3.6224000e+004    +1.2853423e-006    +6.6434973e-007
+3.6352000e+004    +1.2745746e-006    +6.6129536e-007
+3.6480000e+004    +1.2535555e-006    +6.5218114e-007
+3.6608000e+004    +1.1810104e-006    +6.0838266e-007
+3.6736000e+004    +1.2654385e-006    +5.8902600e-007
+3.6864000e+004    +1.2463532e-006    +6.3410295e-007
+3.6992000e+004    +1.3040507e-006    +6.4639255e-007
+3.7120000e+004    +1.3497011e-006    +6.2082097e-007
+3.7248000e+004    +1.2797968e-006    +6.2692550e-007
+3.7376000e+004    +1.3204119e-006    +6.7306098e-007
+3.7504000e+004    +1.2909132e-006    +6.8472468e-007
+3.7632000e+004    +1.2056496e-006    +6.9230612e-007
+3.7760000e+004    +1.1439834e-006    +7.0921533e-007
+3.7888000e+004    +1.2319413e-006    +6.8871100e-007
+3.8016000e+004    +1.2239557e-006    +6.6327397e-007
+3.8144000e+004    +1.3096854e-006    +6.5250703e-007
+3.8272000e+004    +1.2085017e-006    +6.5119946e-007
+3.8400000e+004    +1.1432739e-006    +7.1309989e-007
+3.8528000e+004    +1.1785635e-006    +7.5792423e-007
+3.8656000e+004    +1.2279305e-006    +7.3560938e-007
+3.8784000e+004    +1.2513195e-006    +6.8086979e-007
+3.8912000e+004    +1.1530766e-006    +6.9372828e-007
+3.9040000e+004    +1.1721522e-006    +6.9170284e-007
+3.9168000e+004    +1.2070085e-006    +7.1181074e-007
+3.9296000e+004    +1.2124782e-006    +6.8802547e-007
+3.9424000e+004    +1.2951425e-006    +7.2970892e-007
+3.9552000e+004    +1.2342795e-006    +6.7207810e-007
+3.9680000e+004    +1.1609196e-006    +6.9367115e-007
+3.9808000e+004    +1.1855393e-006    +6.9508002e-007
+3.9936000e+004    +1.1048493e-006    +6.8091992e-007
+4.0064000e+004    +1.1378440e-006    +7.2898979e-007
+4.0192000e+004    +1.2115547e-006    +7.4588206e-007
+4.0320000e+004    +1.1937171e-006    +7.1625118e-007
+4.0448000e+004    +1.1401963e-006    +7.4906228e-007
+4.0576000e+004    +1.2102863e-006    +7.3457466e-007
+4.0704000e+004    +1.2046823e-006    +6.9743919e-007
+4.0832000e+004    +1.0817022e-006    +6.9243919e-007
+4.0960000e+004    +1.1333753e-006    +6.9055477e-007
+4.1088000e+004    +1.2380065e-006    +7.8516575e-007
+4.1216000e+004    +1.2176946e-006    +7.6649542e-007
+4.1344000e+004    +1.1607107e-006    +7.7103147e-007
+4.1472000e+004    +1.1130435e-006    +7.6531978e-007
+4.1600000e+004    +1.1652053e-006    +7.4699096e-007
+4.1728000e+004    +1.1460237e-006    +7.3906619e-007
+4.1856000e+004    +1.1451546e-006    +7.8393566e-007
+4.1984000e+004    +1.1683836e-006    +8.1948559e-007
+4.2112000e+004    +1.1461118e-006    +7.4279126e-007
+4.2240000e+004    +1.1769483e-006    +7.1909733e-007
+4.2368000e+004    +1.0522352e-006    +7.9467475e-007
+4.2496000e+004    +1.0053271e-006    +7.8178851e-007
+4.2624000e+004    +1.1249733e-006    +7.7092142e-007
+4.2752000e+004    +1.1496066e-006    +8.4010776e-007
+4.2880000e+004    +1.1437736e-006    +7.6879303e-007
+4.3008000e+004    +1.0636044e-006    +7.1118421e-007
+4.3136000e+004    +1.1039616e-006    +6.8504499e-007
+4.3264000e+004    +1.1063958e-006    +6.9766054e-007
+4.3392000e+004    +1.0933788e-006    +7.8033838e-007
+4.3520000e+004    +1.1063387e-006    +8.0771304e-007
+4.3648000e+004    +1.0830474e-006    +8.2102650e-007
+4.3776000e+004    +1.0719328e-006    +8.1344359e-007
+4.3904000e+004    +1.0313233e-006    +8.1026224e-007
+4.4032000e+004    +1.1139470e-006    +8.0259099e-007
+4.4160000e+004    +1.1295477e-006    +7.9285240e-007
+4.4288000e+004    +1.0150877e-006    +8.1364726e-007
+4.4416000e+004    +1.1300663e-006    +8.4235126e-007
+4.4544000e+004    +1.2758474e-006    +8.7082412e-007
+4.4672000e+004    +1.1979409e-006    +8.6129717e-007
+4.4800000e+004    +1.0665923e-006    +7.9008026e-007
+4.4928000e+004    +1.1128809e-006    +7.6851785e-007
+4.5056000e+004    +1.1253846e-006    +7.8423182e-007
+4.5184000e+004    +1.1416031e-006    +7.8802270e-007
+4.5312000e+004    +1.2074897e-006    +8.3574599e-007
+4.5440000e+004    +1.2263675e-006    +7.4758663e-007
+4.5568000e+004    +1.1776269e-006    +8.0645293e-007
+4.5696000e+004    +1.0633861e-006    +8.0329363e-007
+4.5824000e+004    +1.1332658e-006    +7.8398818e-007
+4.5952000e+004    +1.0788235e-006    +7.9069900e-007
+4.6080000e+004    +1.1088085e-006    +8.6280681e-007
+4.6208000e+004    +1.1069474e-006    +8.5494031e-007
+4.6336000e+004    +1.0190901e-006    +7.9708303e-007
+4.6464000e+004    +1.0404209e-006    +7.5968046e-007
+4.6592000e+004    +1.0949454e-006    +7.8840696e-007
+4.6720000e+004    +1.0682859e-006    +8.5403121e-007
+4.6848000e+004    +1.1481686e-006    +8.6622867e-007
+4.6976000e+004    +1.1594802e-006    +8.6057116e-007
+4.7104000e+004    +1.1391065e-006    +8.1637739e-007
+4.7232000e+004    +1.1208763e-006    +8.0814056e-007
+4.7360000e+004    +1.1136804e-006    +8.1226284e-007
+4.7488000e+004    +1.1660167e-006    +8.5415405e-007
+4.7616000e+004    +1.0880211e-006    +8.8024376e-007
+4.7744000e+004    +1.0224411e-006    +9.4189267e-007
+4.7872000e+004    +1.0318024e-006    +8.7503452e-007
+4.8000000e+004    +1.0546909e-006    +8.7471847e-007
+4.8128000e+004    +9.5185322e-007    +9.1544399e-007
+4.8256000e+004    +9.7931832e-007    +9.1523395e-007
+4.8384000e+004    +1.0927200e-006    +8.9905819e-007
+4.8512000e+004    +9.8772182e-007    +9.4203432e-007
+4.8640000e+004    +9.0502039e-007    +8.8586523e-007
+4.8768000e+004    +9.1739702e-007    +8.7660771e-007
+4.8896000e+004    +9.1983884e-007    +9.4101301e-007
+4.9024000e+004    +9.6129304e-007    +8.7482704e-007
+4.9152000e+004    +9.9676515e-007    +9.3715676e-007
+4.9280000e+004    +9.6488725e-007    +9.0936322e-007
+4.9408000e+004    +9.1683512e-007    +9.1456093e-007
+4.9536000e+004    +8.9055504e-007    +9.1649997e-007
+4.9664000e+004    +8.7394284e-007    +9.4705894e-007
+4.9792000e+004    +9.2098787e-007    +9.3913445e-007
+4.9920000e+004    +8.8230092e-007    +9.4766744e-007
+5.0048000e+004    +7.9043082e-007    +8.7708332e-007
+5.0176000e+004    +8.3919696e-007    +1.0803644e-006
+5.0304000e+004    +8.2390267e-007    +1.1499260e-006
+5.0432000e+004    +8.3988181e-007    +1.0597437e-006
+5.0560000e+004    +8.4742925e-007    +1.0196217e-006
+5.0688000e+004    +8.0594663e-007    +1.0331095e-006
+5.0816000e+004    +8.0513291e-007    +1.0408505e-006
+5.0944000e+004    +7.8806772e-007    +1.0322228e-006
+5.1072000e+004    +8.2064349e-007    +9.9512272e-007
+5.1200000e+004    +8.5077050e-007    +9.1312910e-007
+5.1328000e+004    +8.3073900e-007    +9.6998576e-007
+5.1456000e+004    +8.0515940e-007    +1.0605760e-006
+5.1584000e+004    +7.8297569e-007    +9.9801798e-007
+5.1712000e+004    +7.9362667e-007    +9.6179133e-007
+5.1840000e+004    +7.8846324e-007    +9.3065279e-007
+5.1968000e+004    +7.6306191e-007    +1.0242355e-006
+5.2096000e+004    +7.6387420e-007    +1.0525044e-006
+5.2224000e+004    +7.6959026e-007    +1.0132972e-006
+5.2352000e+004    +7.5249557e-007    +9.7411510e-007
+5.2480000e+004    +7.3877982e-007    +1.0928532e-006
+5.2608000e+004    +7.1074709e-007    +1.1561826e-006
+5.2736000e+004    +7.0745767e-007    +1.0669214e-006
+5.2864000e+004    +7.2901702e-007    +9.7958070e-007
+5.2992000e+004    +7.2976576e-007    +9.4126204e-007
+5.3120000e+004    +7.3439242e-007    +8.8221566e-007
+5.3248000e+004    +7.0878173e-007    +9.4956721e-007
+5.3376000e+004    +7.0968110e-007    +1.0537116e-006
+5.3504000e+004    +7.2059743e-007    +1.1165857e-006
+5.3632000e+004    +7.2785173e-007    +1.0653599e-006
+5.3760000e+004    +7.2962558e-007    +1.0729467e-006
+5.3888000e+004    +7.3100239e-007    +9.8019609e-007
+5.4016000e+004    +7.5747749e-007    +1.0892199e-006
+5.4144000e+004    +7.2128216e-007    +1.2619905e-006
+5.4272000e+004    +6.9203179e-007    +1.1696569e-006
+5.4400000e+004    +7.0006990e-007    +1.0537301e-006
+5.4528000e+004    +7.3081537e-007    +9.7843383e-007
+5.4656000e+004    +6.9881048e-007    +1.0123664e-006
+5.4784000e+004    +6.8150405e-007    +1.0083096e-006
+5.4912000e+004    +6.6656281e-007    +1.1109947e-006
+5.5040000e+004    +7.5362669e-007    +1.1158994e-006
+5.5168000e+004    +9.0892900e-007    +1.0587946e-006
+5.5296000e+004    +7.4936992e-007    +1.1026690e-006
+5.5424000e+004    +1.2513910e-006    +1.1052435e-006
+5.5552000e+004    +3.6718195e-006    +1.1555455e-006
+5.5680000e+004    +2.9934004e-006    +1.1713083e-006
+5.5808000e+004    +7.7298353e-007    +1.1280420e-006
+5.5936000e+004    +6.6844268e-007    +1.1488987e-006
+5.6064000e+004    +7.1485584e-007    +1.1699755e-006
+5.6192000e+004    +7.2446721e-007    +1.0805970e-006
+5.6320000e+004    +7.0267276e-007    +1.0603245e-006
+5.6448000e+004    +6.6952020e-007    +1.1103801e-006
+5.6576000e+004    +6.8234414e-007    +1.1746748e-006
+5.6704000e+004    +6.7291768e-007    +1.2762005e-006
+5.6832000e+004    +6.6287208e-007    +1.2192559e-006
+5.6960000e+004    +6.6402231e-007    +1.1400662e-006
+5.7088000e+004    +6.6538269e-007    +1.2242608e-006
+5.7216000e+004    +6.7366875e-007    +1.1483212e-006
+5.7344000e+004    +6.5323104e-007    +1.1768773e-006
+5.7472000e+004    +6.4421596e-007    +1.2220704e-006
+5.7600000e+004    +6.1248784e-007    +1.1073595e-006
+5.7728000e+004    +6.1172437e-007    +1.0848552e-006
+5.7856000e+004    +6.2849136e-007    +1.1264354e-006
+5.7984000e+004    +6.3397141e-007    +1.1449823e-006
+5.8112000e+004    +6.4645712e-007    +1.0846777e-006
+5.8240000e+004    +6.5528189e-007    +1.1593173e-006
+5.8368000e+004    +6.3222802e-007    +1.1867310e-006
+5.8496000e+004    +6.1596569e-007    +1.2001540e-006
+5.8624000e+004    +6.0698687e-007    +1.1592091e-006
+5.8752000e+004    +6.2792230e-007    +1.1641056e-006
+5.8880000e+004    +6.4387086e-007    +1.1108776e-006
+5.9008000e+004    +6.1274073e-007    +1.0964914e-006
+5.9136000e+004    +6.2012401e-007    +1.1216803e-006
+5.9264000e+004    +5.9549160e-007    +1.2459386e-006
+5.9392000e+004    +5.9882626e-007    +1.2033128e-006
+5.9520000e+004    +6.2950517e-007    +1.1095100e-006
+5.9648000e+004    +6.0272265e-007    +1.2860609e-006
+5.9776000e+004    +5.8278664e-007    +1.2257241e-006
+5.9904000e+004    +5.8728563e-007    +1.1439218e-006
+6.0032000e+004    +5.6457463e-007    +1.1690689e-006
+6.0160000e+004    +5.9189796e-007    +1.3145924e-006
+6.0288000e+004    +6.2311682e-007    +1.2372889e-006
+6.0416000e+004    +6.0745754e-007    +1.2118527e-006
+6.0544000e+004    +5.7822439e-007    +1.1809209e-006
+6.0672000e+004    +6.1630050e-007    +1.1754838e-006
+6.0800000e+004    +6.1953875e-007    +1.1476959e-006
+6.0928000e+004    +6.0206588e-007    +1.2060746e-006
+6.1056000e+004    +5.9346752e-007    +1.1774149e-006
+6.1184000e+004    +5.9632845e-007    +1.2580781e-006
+6.1312000e+004    +5.6335915e-007    +1.3271006e-006
+6.1440000e+004    +5.6731807e-007    +1.3102507e-006
+6.1568000e+004    +5.6191112e-007    +1.3027899e-006
+6.1696000e+004    +5.4901591e-007    +1.2613963e-006
+6.1824000e+004    +5.7015745e-007    +1.2695187e-006
+6.1952000e+004    +5.4525532e-007    +1.2438269e-006
+6.2080000e+004    +5.5104323e-007    +1.3975678e-006
+6.2208000e+004    +5.8097737e-007    +1.4538048e-006
+6.2336000e+004    +5.7281289e-007    +1.5086629e-006
+6.2464000e+004    +5.4918110e-007    +1.4059819e-006
+6.2592000e+004    +5.3451879e-007    +1.3022507e-006
+6.2720000e+004    +5.5988750e-007    +1.2973186e-006
+6.2848000e+004    +5.6529046e-007    +1.3791204e-006
+6.2976000e+004    +5.6996151e-007    +1.2795425e-006
+6.3104000e+004    +5.7458351e-007    +1.3254812e-006
+6.3232000e+004    +5.4736489e-007    +1.3496077e-006
+6.3360000e+004    +5.4195294e-007    +1.1753121e-006
+6.3488000e+004    +5.3265109e-007    +1.1827777e-006
+6.3616000e+004    +5.3111694e-007    +1.3084278e-006
+6.3744000e+004    +5.2747146e-007    +1.3742653e-006
+6.3872000e+004    +5.2042844e-007    +1.3013916e-006
+6.4000000e+004    +5.2032334e-007    +1.3014745e-006
+6.4128000e+004    +5.1587949e-007    +1.3950106e-006
+6.4256000e+004    +5.2441953e-007    +1.3350084e-006
+6.4384000e+004    +5.3950515e-007    +1.2608438e-006
+6.4512000e+004    +5.3246220e-007    +1.2719842e-006
+6.4640000e+004    +5.3176524e-007    +1.2989263e-006
+6.4768000e+004    +5.2015139e-007    +1.3958042e-006
+6.4896000e+004    +5.1382523e-007    +1.2837359e-006
+6.5024000e+004    +5.1904294e-007    +1.2734514e-006
+6.5152000e+004    +5.2369859e-007    +1.3388469e-006
+6.5280000e+004    +5.3648489e-007    +1.3315126e-006
+6.5408000e+004    +5.2493226e-007    +1.3592470e-006
+6.5536000e+004    +5.4331849e-007    +1.2330996e-006
+6.5664000e+004    +5.2528048e-007    +1.1634398e-006
+6.5792000e+004    +4.9049947e-007    +1.2791562e-006
+6.5920000e+004    +4.8421163e-007    +1.3892572e-006
+6.6048000e+004    +4.8969986e-007    +1.3021306e-006
+6.6176000e+004    +5.0982800e-007    +1.1627924e-006
+6.6304000e+004    +5.1330306e-007    +1.3316867e-006
+6.6432000e+004    +4.9007474e-007    +1.2829383e-006
+6.6560000e+004    +4.9629267e-007    +1.3302312e-006
+6.6688000e+004    +4.9600067e-007    +1.3578673e-006
+6.6816000e+004    +5.0784467e-007    +1.4642093e-006
+6.6944000e+004    +5.0456828e-007    +1.5733385e-006
+6.7072000e+004    +4.9132524e-007    +1.4852765e-006
+6.7200000e+004    +4.9072412e-007    +1.3798368e-006
+6.7328000e+004    +4.9948403e-007    +1.4099703e-006
+6.7456000e+004    +4.9711940e-007    +1.4819730e-006
+6.7584000e+004    +4.9547543e-007    +1.4362937e-006
+6.7712000e+004    +4.9359397e-007    +1.4791785e-006
+6.7840000e+004    +5.0307972e-007    +1.4677585e-006
+6.7968000e+004    +4.8784466e-007    +1.5155346e-006
+6.8096000e+004    +4.7989067e-007    +1.4901719e-006
+6.8224000e+004    +4.7234383e-007    +1.5052858e-006
+6.8352000e+004    +4.6457117e-007    +1.5770950e-006
+6.8480000e+004    +4.8767487e-007    +1.5784324e-006
+6.8608000e+004    +5.0660447e-007    +1.3390527e-006
+6.8736000e+004    +4.6872125e-007    +1.3370488e-006
+6.8864000e+004    +4.6518062e-007    +1.4960769e-006
+6.8992000e+004    +4.7753127e-007    +1.5581759e-006
+6.9120000e+004    +4.6935469e-007    +1.5482864e-006
+6.9248000e+004    +4.7720732e-007    +1.4921350e-006
+6.9376000e+004    +4.8620836e-007    +1.4526720e-006
+6.9504000e+004    +4.7951835e-007    +1.3804566e-006
+6.9632000e+004    +4.7775728e-007    +1.4338341e-006
+6.9760000e+004    +4.5696609e-007    +1.4720659e-006
+6.9888000e+004    +4.5061509e-007    +1.4692160e-006
+7.0016000e+004    +4.6904663e-007    +1.4510475e-006
+7.0144000e+004    +1.0866160e-006    +1.4822740e-006
+7.0272000e+004    +1.6939922e-006    +1.7063460e-006
+7.0400000e+004    +8.6490292e-007    +1.5752918e-006
+7.0528000e+004    +4.5887262e-007    +1.6671781e-006
+7.0656000e+004    +5.4902614e-007    +1.6059688e-006
+7.0784000e+004    +8.2327239e-007    +1.5261010e-006
+7.0912000e+004    +5.9591349e-007    +1.5633614e-006
+7.1040000e+004    +4.4993681e-007    +1.5571513e-006
+7.1168000e+004    +4.5267203e-007    +1.5358672e-006
+7.1296000e+004    +4.6497942e-007    +1.6644931e-006
+7.1424000e+004    +4.5147482e-007    +1.4864968e-006
+7.1552000e+004    +4.5166817e-007    +1.4208487e-006
+7.1680000e+004    +4.6256480e-007    +1.4988144e-006
+7.1808000e+004    +4.6596068e-007    +1.4623553e-006
+7.1936000e+004    +4.5286043e-007    +1.5954379e-006
+7.2064000e+004    +4.5320465e-007    +1.5250607e-006
+7.2192000e+004    +4.5533389e-007    +1.5675397e-006
+7.2320000e+004    +4.5133604e-007    +1.5156776e-006
+7.2448000e+004    +4.4309493e-007    +1.4826239e-006
+7.2576000e+004    +4.4450900e-007    +1.4921480e-006
+7.2704000e+004    +4.4829574e-007    +1.5126951e-006
+7.2832000e+004    +4.4693292e-007    +1.6363736e-006
+7.2960000e+004    +4.5769920e-007    +1.5498493e-006
+7.3088000e+004    +4.5921786e-007    +1.5478360e-006
+7.3216000e+004    +4.5813712e-007    +1.3979437e-006
+7.3344000e+004    +4.4981431e-007    +1.5480739e-006
+7.3472000e+004    +4.4696088e-007    +1.5118085e-006
+7.3600000e+004    +4.5775749e-007    +1.5711634e-006
+7.3728000e+004    +4.4361531e-007    +1.5514242e-006
+7.3856000e+004    +4.3127963e-007    +1.6303568e-006
+7.3984000e+004    +4.3458323e-007    +1.6796407e-006
+7.4112000e+004    +4.4519376e-007    +1.7765465e-006
+7.4240000e+004    +4.5474383e-007    +1.7998552e-006
+7.4368000e+004    +4.4974763e-007    +1.7337729e-006
+7.4496000e+004    +4.4232934e-007    +1.5843601e-006
+7.4624000e+004    +4.4271465e-007    +1.5187944e-006
+7.4752000e+004    +4.4139739e-007    +1.5947444e-006
+7.4880000e+004    +4.3545060e-007    +1.6396341e-006
+7.5008000e+004    +4.3850827e-007    +1.6398844e-006
+7.5136000e+004    +4.3090478e-007    +1.5929227e-006
+7.5264000e+004    +4.3513614e-007    +1.5318557e-006
+7.5392000e+004    +4.2481102e-007    +1.6427028e-006
+7.5520000e+004    +4.2678576e-007    +1.6250882e-006
+7.5648000e+004    +4.3537028e-007    +1.6352798e-006
+7.5776000e+004    +4.2955142e-007    +1.5348592e-006
+7.5904000e+004    +4.2890434e-007    +1.6106519e-006
+7.6032000e+004    +4.3708400e-007    +1.6008845e-006
+7.6160000e+004    +4.3257859e-007    +1.5508265e-006
+7.6288000e+004    +4.3598595e-007    +1.7029658e-006
+7.6416000e+004    +4.2844593e-007    +1.6481986e-006
+7.6544000e+004    +4.3327017e-007    +1.6439911e-006
+7.6672000e+004    +4.2710360e-007    +1.5750842e-006
+7.6800000e+004    +4.3186341e-007    +5.2259002e-006
+7.6928000e+004    +4.1186752e-007    +9.3427188e-006
+7.7056000e+004    +4.2199480e-007    +4.5173610e-006
+7.7184000e+004    +4.2685934e-007    +1.6385922e-006
+7.7312000e+004    +4.1204075e-007    +1.6309351e-006
+7.7440000e+004    +4.2292712e-007    +1.5726131e-006
+7.7568000e+004    +4.6860032e-007    +1.4904714e-006
+7.7696000e+004    +5.9473558e-007    +1.4429149e-006
+7.7824000e+004    +4.5416004e-007    +1.4975315e-006
+7.7952000e+004    +4.1189193e-007    +1.7072999e-006
+7.8080000e+004    +4.2961886e-007    +1.8210990e-006
+7.8208000e+004    +4.2424654e-007    +1.7424713e-006
+7.8336000e+004    +4.5828253e-007    +1.8117772e-006
+7.8464000e+004    +4.2892037e-007    +1.7427947e-006
+7.8592000e+004    +4.0865268e-007    +1.6452208e-006
+7.8720000e+004    +4.1941129e-007    +1.5609429e-006
+7.8848000e+004    +4.1074844e-007    +1.6290685e-006
+7.8976000e+004    +4.1142505e-007    +1.8091374e-006
+7.9104000e+004    +4.0705490e-007    +1.7835315e-006
+7.9232000e+004    +4.0223449e-007    +1.7612597e-006
+7.9360000e+004    +4.0569449e-007    +1.7940744e-006
+7.9488000e+004    +4.4161456e-007    +1.8889017e-006
+7.9616000e+004    +4.1905827e-007    +1.7636727e-006
+7.9744000e+004    +4.0890131e-007    +1.6499476e-006
+7.9872000e+004    +4.0926199e-007    +1.7073168e-006
+8.0000000e+004    +3.9274227e-007    +1.6344073e-006
+8.0128000e+004    +4.0289484e-007    +1.7766771e-006
+8.0256000e+004    +4.2513855e-007    +1.7779163e-006
+8.0384000e+004    +4.2517965e-007    +1.6928599e-006
+8.0512000e+004    +3.9293420e-007    +1.7933181e-006
+8.0640000e+004    +4.0156817e-007    +1.8807666e-006
+8.0768000e+004    +4.1703453e-007    +1.8142316e-006
+8.0896000e+004    +4.1980891e-007    +1.7367203e-006
+8.1024000e+004    +4.1974806e-007    +1.6828767e-006
+8.1152000e+004    +4.1307172e-007    +1.6041325e-006
+8.1280000e+004    +4.3592323e-007    +1.7354661e-006
+8.1408000e+004    +4.3044844e-007    +1.7767571e-006
+8.1536000e+004    +4.0394505e-007    +1.8415820e-006
+8.1664000e+004    +4.0370827e-007    +1.6271879e-006
+8.1792000e+004    +4.3122660e-007    +1.6269593e-006
+8.1920000e+004    +4.3156004e-007    +1.7044193e-006
+8.2048000e+004    +4.2228865e-007    +1.7490843e-006
+8.2176000e+004    +4.0625301e-007    +1.7860183e-006
+8.2304000e+004    +3.7255046e-007    +1.7550323e-006
+8.2432000e+004    +3.8242496e-007    +1.5319650e-006
+8.2560000e+004    +4.0350443e-007    +1.5018488e-006
+8.2688000e+004    +3.9389485e-007    +1.6085223e-006
+8.2816000e+004    +3.8244849e-007    +1.6871688e-006
+8.2944000e+004    +3.7214451e-007    +1.7501312e-006
+8.3072000e+004    +3.8541484e-007    +1.6583057e-006
+8.3200000e+004    +3.8121215e-007    +1.6507105e-006
+8.3328000e+004    +3.6117589e-007    +1.7267837e-006
+8.3456000e+004    +3.5722064e-007    +1.6329473e-006
+8.3584000e+004    +3.5122633e-007    +1.5808084e-006
+8.3712000e+004    +3.5317839e-007    +1.7524194e-006
+8.3840000e+004    +3.4245545e-007    +1.6875467e-006
+8.3968000e+004    +3.6884182e-007    +1.6109915e-006
+8.4096000e+004    +3.7200519e-007    +1.7460967e-006
+8.4224000e+004    +3.4838689e-007    +1.8345831e-006
+8.4352000e+004    +3.6177917e-007    +1.8163483e-006
+8.4480000e+004    +3.7822457e-007    +1.8044180e-006
+8.4608000e+004    +3.7331699e-007    +1.7800023e-006
+8.4736000e+004    +3.5579779e-007    +1.8256554e-006
+8.4864000e+004    +3.5363161e-007    +1.7655811e-006
+8.4992000e+004    +3.5662811e-007    +1.7784063e-006
+8.5120000e+004    +3.4486729e-007    +1.7171885e-006
+8.5248000e+004    +3.3999513e-007    +1.8016268e-006
+8.5376000e+004    +3.4940049e-007    +1.7800531e-006
+8.5504000e+004    +3.3416509e-007    +1.7603104e-006
+8.5632000e+004    +3.2087172e-007    +1.7392354e-006
+8.5760000e+004    +3.3449140e-007    +1.7879627e-006
+8.5888000e+004    +3.2641859e-007    +1.7826642e-006
+8.6016000e+004    +3.0166345e-007    +1.6980312e-006
+8.6144000e+004    +3.2548522e-007    +1.6824849e-006
+8.6272000e+004    +3.4066474e-007    +1.7464725e-006
+8.6400000e+004    +3.2691855e-007    +1.7637425e-006
+8.6528000e+004    +3.2552168e-007    +1.8436416e-006
+8.6656000e+004    +3.2139602e-007    +1.8201973e-006
+8.6784000e+004    +3.3875097e-007    +1.8200675e-006
+8.6912000e+004    +3.1283722e-007    +1.8368910e-006
+8.7040000e+004    +3.2187276e-007    +1.7890034e-006
+8.7168000e+004    +3.2026773e-007    +1.7982671e-006
+8.7296000e+004    +3.1398690e-007    +1.7018892e-006
+8.7424000e+004    +3.3636783e-007    +1.7476906e-006
+8.7552000e+004    +3.2472954e-007    +1.7254495e-006
+8.7680000e+004    +3.0698476e-007    +1.7158034e-006
+8.7808000e+004    +3.3155931e-007    +1.7824195e-006
+8.7936000e+004    +3.7933455e-007    +1.8547944e-006
+8.8064000e+004    +3.2316242e-007    +1.8534873e-006
+8.8192000e+004    +3.3094648e-007    +1.7853556e-006
+8.8320000e+004    +3.4413236e-007    +1.7053702e-006
+8.8448000e+004    +3.3612972e-007    +1.7114025e-006
+8.8576000e+004    +3.2380922e-007    +1.6511547e-006
+8.8704000e+004    +3.7019691e-007    +1.7489191e-006
+8.8832000e+004    +4.1335119e-007    +1.8556967e-006
+8.8960000e+004    +4.2180346e-007    +1.8684419e-006
+8.9088000e+004    +4.6342950e-007    +1.8701824e-006
+8.9216000e+004    +4.9743880e-007    +1.7812106e-006
+8.9344000e+004    +4.7718902e-007    +1.8102303e-006
+8.9472000e+004    +4.3286792e-007    +1.7872953e-006
+8.9600000e+004    +4.2474571e-007    +1.8620156e-006
+8.9728000e+004    +3.8043487e-007    +1.8781665e-006
+8.9856000e+004    +3.9803365e-007    +1.8193342e-006
+8.9984000e+004    +4.2789637e-007    +1.6657710e-006
+9.0112000e+004    +4.4185899e-007    +1.7651528e-006
+9.0240000e+004    +3.8788090e-007    +1.8648103e-006
+9.0368000e+004    +3.7155331e-007    +1.6707918e-006
+9.0496000e+004    +4.2654216e-007    +1.9335291e-006
+9.0624000e+004    +4.5115172e-007    +1.9555346e-006
+9.0752000e+004    +4.0149192e-007    +1.8264634e-006
+9.0880000e+004    +3.7569862e-007    +1.8102263e-006
+9.1008000e+004    +4.1636062e-007    +1.8083848e-006
+9.1136000e+004    +3.8595391e-007    +1.7898659e-006
+9.1264000e+004    +3.8942693e-007    +1.7664072e-006
+9.1392000e+004    +4.1122541e-007    +1.7995984e-006
+9.1520000e+004    +3.8686184e-007    +1.7324751e-006
+9.1648000e+004    +4.1746060e-007    +1.7624222e-006
+9.1776000e+004    +3.9976408e-007    +1.7231813e-006
+9.1904000e+004    +4.3737396e-007    +1.7403853e-006
+9.2032000e+004    +4.2820562e-007    +1.9298154e-006
+9.2160000e+004    +4.3347194e-007    +1.7732627e-006
+9.2288000e+004    +4.6717835e-007    +1.7030331e-006
+9.2416000e+004    +4.5195839e-007    +1.6750090e-006
+9.2544000e+004    +4.4277832e-007    +1.7654396e-006
+9.2672000e+004    +4.1543183e-007    +1.7177410e-006
+9.2800000e+004    +4.1482699e-007    +1.7542328e-006
+9.2928000e+004    +3.9182311e-007    +1.6835346e-006
+9.3056000e+004    +3.8608445e-007    +1.8226011e-006
+9.3184000e+004    +4.2237119e-007    +1.7613041e-006
+9.3312000e+004    +3.9283412e-007    +1.7478076e-006
+9.3440000e+004    +3.9582670e-007    +1.7833435e-006
+9.3568000e+004    +3.5972306e-007    +1.7373058e-006
+9.3696000e+004    +3.7726483e-007    +1.5759525e-006
+9.3824000e+004    +4.0240809e-007    +1.5167864e-006
+9.3952000e+004    +3.4133828e-007    +1.7402324e-006
+9.4080000e+004    +3.4918267e-007    +1.7833474e-006
+9.4208000e+004    +3.8561930e-007    +1.7592574e-006
+9.4336000e+004    +3.7743055e-007    +1.6460231e-006
+9.4464000e+004    +3.8879378e-007    +1.6541650e-006
+9.4592000e+004    +4.1951907e-007    +1.7277471e-006
+9.4720000e+004    +4.3080777e-007    +1.8104887e-006
+9.4848000e+004    +3.7118471e-007    +1.9012465e-006
+9.4976000e+004    +3.0230603e-007    +1.8230814e-006
+9.5104000e+004    +3.2443981e-007    +1.6969316e-006
+9.5232000e+004    +3.8527270e-007    +1.9619047e-006
+9.5360000e+004    +4.4143954e-007    +1.9566749e-006
+9.5488000e+004    +4.4830162e-007    +1.6454177e-006
+9.5616000e+004    +4.3754687e-007    +1.6501433e-006
+9.5744000e+004    +3.8257699e-007    +1.7863497e-006
+9.5872000e+004    +3.4160374e-007    +1.8572255e-006
+9.6000000e+004    +3.1241296e-007    +1.7997307e-006
+9.6128000e+004    +2.7779726e-007    +1.7215380e-006
+9.6256000e+004    +2.6154348e-007    +1.8259661e-006
+9.6384000e+004    +2.6245652e-007    +1.8232837e-006
+9.6512000e+004    +2.6604545e-007    +1.7991242e-006
+9.6640000e+004    +2.6839172e-007    +1.8403471e-006
+9.6768000e+004    +2.6888046e-007    +1.7282670e-006
+9.6896000e+004    +2.7518200e-007    +1.7966942e-006
+9.7024000e+004    +2.8742542e-007    +1.7759340e-006
+9.7152000e+004    +2.7881694e-007    +1.6330047e-006
+9.7280000e+004    +2.3800912e-007    +1.5792887e-006
+9.7408000e+004    +2.4298933e-007    +1.6092731e-006
+9.7536000e+004    +2.5102796e-007    +1.7417101e-006
+9.7664000e+004    +2.5360825e-007    +1.5921061e-006
+9.7792000e+004    +2.8634722e-007    +1.6198669e-006
+9.7920000e+004    +3.2635623e-007    +1.6459796e-006
+9.8048000e+004    +2.8478328e-007    +1.7874248e-006
+9.8176000e+004    +2.6747242e-007    +1.7136589e-006
+9.8304000e+004    +2.9082526e-007    +1.7836431e-006
+9.8432000e+004    +2.8345158e-007    +1.7890721e-006
+9.8560000e+004    +2.7214040e-007    +1.7648854e-006
+9.8688000e+004    +2.6670145e-007    +1.6139020e-006
+9.8816000e+004    +2.8224261e-007    +1.6921017e-006
+9.8944000e+004    +3.0269794e-007    +1.7759555e-006
+9.9072000e+004    +2.7703305e-007    +1.6930848e-006
+9.9200000e+004    +2.4423818e-007    +1.6566260e-006
+9.9328000e+004    +2.7722049e-007    +1.6639231e-006
+9.9456000e+004    +2.5538904e-007    +1.6132572e-006
+9.9584000e+004    +2.2796051e-007    +1.6141501e-006
+9.9712000e+004    +2.3373634e-007    +1.6149230e-006
+9.9840000e+004    +2.2039882e-007    +1.6140066e-006
+9.9968000e+004    +2.1093084e-007    +1.4951377e-006
+1.0009600e+005    +2.2750419e-007    +1.5905126e-006
+1.0022400e+005    +2.2656616e-007    +1.6520069e-006
+1.0035200e+005    +2.1451898e-007    +1.6842093e-006
+1.0048000e+005    +1.9691601e-007    +1.7782013e-006
+1.0060800e+005    +1.9654556e-007    +1.6787022e-006
+1.0073600e+005    +1.9856473e-007    +1.6525584e-006
+1.0086400e+005    +2.0279529e-007    +1.6151287e-006
+1.0099200e+005    +2.0050027e-007    +1.7888600e-006
+1.0112000e+005    +2.1085489e-007    +1.9239678e-006
+1.0124800e+005    +2.1090467e-007    +1.7702262e-006
+1.0137600e+005    +1.9308668e-007    +1.6256575e-006
+1.0150400e+005    +2.0513865e-007    +1.6396809e-006
+1.0163200e+005    +2.0232135e-007    +1.7753492e-006
+1.0176000e+005    +2.0759180e-007    +1.6403994e-006
+1.0188800e+005    +2.0926879e-007    +1.6828138e-006
+1.0201600e+005    +1.8879582e-007    +1.7572747e-006
+1.0214400e+005    +1.6867688e-007    +1.5744790e-006
+1.0227200e+005    +1.7393155e-007    +1.5402918e-006
