# Comments from moku data file:% Moku:Phasemeter 
# 
# % Ch 1 - DC coupling, 50 Ohm impedance, 1 V range
# 
# % Ch 1 bandwidth = 1.0000000000e+04 (Hz)
# 
# % Acquisition rate: 1.2500000000e+05 Hz
# 
# % External 10 MHz clock
# 
# % Acquired 2020-05-05 T 03:03:17 -0700
# 
# % Time, Set frequency 1 (Hz), Frequency 1 (Hz), Phase 1 (cyc), I 1 (V), Q 1 (V)
# 
# #########################################################
# ASD calculated by mokuReadFreqNoise.py
# Frequency [Hz]         Freq ASD1 [Hz/rtHz]      Freq ASDlb1 [Hz/rtHz]    Freq ASDub1 [Hz/rtHz]    
# 
0.000000000000000000e+00 1.280679619199239312e+02 2.439889767545755817e+01 1.792045580655410504e+02
1.000000000000000056e-01 2.106122383644395484e+02 1.594408537655999112e+02 2.730457534471277086e+02
2.000000000000000111e-01 1.452965143430047590e+02 8.345026715515997751e+01 2.298403019549300552e+02
3.000000000000000444e-01 1.222842877067385103e+02 9.330839085300449653e+01 1.938700863159777725e+02
4.000000000000000222e-01 6.597440529993522773e+01 2.462744356266275858e+01 1.510955491925149659e+02
5.000000000000000000e-01 9.381051445837913150e+01 5.840016527942676561e+01 1.597143474316201832e+02
6.000000000000000888e-01 6.666056692711684661e+01 4.035942638324466003e+01 1.329198442835041192e+02
7.000000000000000666e-01 4.057960993999412125e+01 2.189100811596173557e+01 9.249681764913231063e+01
8.000000000000000444e-01 5.909663733914586459e+01 2.562770904327504340e+01 8.372612494855566467e+01
9.000000000000000222e-01 3.571238495862120033e+01 2.478715799941405606e+01 5.216516391440084988e+01
1.000000000000000000e+00 4.153380512620936571e+01 2.899524959025175264e+01 5.776027276177149616e+01
1.100000000000000089e+00 4.456316568509126341e+01 2.900812421457154855e+01 6.422563897406337219e+01
1.200000000000000178e+00 4.224984101386648661e+01 2.838133025840061308e+01 5.370128533751870492e+01
1.300000000000000044e+00 3.819783759457438066e+01 2.373187102286812689e+01 5.692253688047814819e+01
1.400000000000000133e+00 2.571043328700801212e+01 1.824554520649692435e+01 3.889804856273207889e+01
1.500000000000000000e+00 1.920105902611493320e+01 8.434835778506485582e+00 4.451523861929916137e+01
1.600000000000000089e+00 2.354878476251349184e+01 1.402454576439607337e+01 4.026548716917489656e+01
1.700000000000000178e+00 3.022455911653159077e+01 8.978674506963153945e+00 4.713315515784356791e+01
1.800000000000000044e+00 1.905990795135979354e+01 1.237448308144936959e+01 2.643770313351305390e+01
1.900000000000000133e+00 2.163874180886915610e+01 1.343144209277981993e+01 3.597638094152431876e+01
2.000000000000000000e+00 2.713671263112642507e+01 1.697220727121801431e+01 4.216767317658075598e+01
2.100000000000000089e+00 2.080330833298316762e+01 1.307756514765085676e+01 2.699949687834376633e+01
2.200000000000000178e+00 1.592933354670333301e+01 1.341546330062421788e+01 1.993724607483570210e+01
2.300000000000000266e+00 1.744770591868876863e+01 1.129138274153209487e+01 2.381597950058052859e+01
2.400000000000000355e+00 1.683543852174103606e+01 1.109879347764325885e+01 2.173561507844776486e+01
2.500000000000000000e+00 1.432911319937746875e+01 9.977229077899986365e+00 2.164798106218508167e+01
2.600000000000000089e+00 1.610899547318117087e+01 9.297725117303649256e+00 2.374459057846450705e+01
2.700000000000000178e+00 1.146611146158347871e+01 8.282170196428399578e+00 2.083629750615164156e+01
2.800000000000000266e+00 1.410651434892108824e+01 8.003170768715538230e+00 1.849078544013127257e+01
2.900000000000000355e+00 1.182411019267580699e+01 7.379833242839396235e+00 1.724269164667033394e+01
3.000000000000000000e+00 1.227159760489382201e+01 8.116783536477765182e+00 1.652952747910682163e+01
3.100000000000000089e+00 1.029707760267760186e+01 8.384467837841553361e+00 2.179484358627477647e+01
3.200000000000000178e+00 1.231656713054657359e+01 3.804078499832606042e+00 2.136519451358756427e+01
3.300000000000000266e+00 1.579024175705357891e+01 9.301027392413116601e+00 2.372857723510222172e+01
3.400000000000000355e+00 1.567695874079376672e+01 1.197044737493325783e+01 2.549451763684281147e+01
3.500000000000000000e+00 2.247781021127121548e+01 1.366806418040396132e+01 3.515008182259548164e+01
3.600000000000000089e+00 2.543935091752531363e+01 1.167379366773777249e+01 4.593076956954192269e+01
3.700000000000000178e+00 2.015455480677944067e+01 1.579970215938965872e+01 2.903725429843230543e+01
3.800000000000000266e+00 1.799186692070123428e+01 1.274810774187379536e+01 2.537282222744334348e+01
3.900000000000000355e+00 1.269316932414927734e+01 6.655623203677972555e+00 1.990322234185392603e+01
4.000000000000000000e+00 1.391389184101611320e+01 5.703725015539800047e+00 1.618068746291546844e+01
4.100000000000000533e+00 1.323582722659546818e+01 7.852805073560213067e+00 1.808531912006036180e+01
4.200000000000000178e+00 7.971748706697587394e+00 5.256666311015734117e+00 1.473415671296864105e+01
4.299999999999999822e+00 1.307497435252804863e+01 7.632750046467963401e+00 1.705577053686240063e+01
4.400000000000000355e+00 1.041068905641225761e+01 4.090498205013668453e+00 1.134149118742944751e+01
4.500000000000000000e+00 8.333626673314414646e+00 5.415909435265217731e+00 1.024470412086143867e+01
4.600000000000000533e+00 9.913882161208826815e+00 3.011833546330102696e+00 1.251063744597620797e+01
4.700000000000000178e+00 9.836267575956934905e+00 6.492694457383063167e+00 1.526779957452776237e+01
4.800000000000000711e+00 1.060631685943544156e+01 7.834283833977030653e+00 1.877922624721328049e+01
4.900000000000000355e+00 1.133120352114703699e+01 6.206877883535651286e+00 1.764370033873953147e+01
5.000000000000000000e+00 1.184083060393812481e+01 6.902715214011675648e+00 1.844879074071493363e+01
5.100000000000000533e+00 1.123752092169500649e+01 7.081527473679142481e+00 2.237870211804894538e+01
5.200000000000000178e+00 1.346825998283747339e+01 6.568229870258942782e+00 1.984438079583117442e+01
5.300000000000000711e+00 1.366185606018065357e+01 9.008908737693626989e+00 2.048719204205720956e+01
5.400000000000000355e+00 1.596943908337759765e+01 5.746481051480660796e+00 2.365659459717925373e+01
5.500000000000000000e+00 1.147893709003923135e+01 6.978904928428542043e+00 2.086669117798330220e+01
5.600000000000000533e+00 9.848005506471654513e+00 5.864519697434606549e+00 1.737188516302680341e+01
5.700000000000000178e+00 1.040253576219468101e+01 8.163293892910200356e+00 1.652565005115602759e+01
5.800000000000000711e+00 1.363897242519581887e+01 7.403820845506538184e+00 1.681797805561018322e+01
5.900000000000000355e+00 7.614498355874224522e+00 3.628099392254051203e+00 1.803505918924247453e+01
6.000000000000000000e+00 9.873216231502858875e+00 7.003766253689312826e+00 1.435772015640280408e+01
6.100000000000000533e+00 1.183134641044913771e+01 5.096641399496164127e+00 1.519255872411359398e+01
6.200000000000000178e+00 1.115051566788474346e+01 7.487180980675063324e+00 1.424562084269125961e+01
6.300000000000000711e+00 1.098979920912402086e+01 8.225339520232640922e+00 1.389413489745579255e+01
6.400000000000000355e+00 8.237444537290221191e+00 3.870025825243868844e+00 1.658998792075878370e+01
6.500000000000000000e+00 1.396268806172041366e+01 7.083089419205593984e+00 1.840309205148016147e+01
6.600000000000000533e+00 1.620121330882279054e+01 8.266959265248562616e+00 2.169189334678319270e+01
6.700000000000000178e+00 1.385830682028368166e+01 7.535561109814775449e+00 2.041505567701985768e+01
6.800000000000000711e+00 2.008422955052257564e+01 9.281064066627173759e+00 2.625228605665002490e+01
6.900000000000000355e+00 1.395145241373698219e+01 5.693800091014141529e+00 2.409784227045840765e+01
7.000000000000000000e+00 1.583744179731560209e+01 8.303269759578611797e+00 2.595837536674322266e+01
7.100000000000000533e+00 2.314950617997283899e+01 1.318490724874412301e+01 3.144720819412707158e+01
7.200000000000000178e+00 2.121987626507008073e+01 8.959293163871601351e+00 3.759754534436715545e+01
7.300000000000000711e+00 2.653364500711164098e+01 1.334888393593745448e+01 3.934602704058031009e+01
7.400000000000000355e+00 1.557124959366699279e+01 1.149116818894983183e+01 2.270176766335025320e+01
7.500000000000000000e+00 1.161348691245775200e+01 5.123432104369473272e+00 1.475128811430338871e+01
7.600000000000000533e+00 9.116407813695264650e+00 8.512690969011151410e+00 1.524391654459129875e+01
7.700000000000000178e+00 8.752719584362761651e+00 4.625519581968365657e+00 1.498574037834992190e+01
7.800000000000000711e+00 9.462390076229521441e+00 5.284594330004760643e+00 1.291152109934754399e+01
7.900000000000000355e+00 9.060758771301840042e+00 4.038682249206587471e+00 1.492144347635381862e+01
8.000000000000000000e+00 7.148067616076783537e+00 2.845411184606068566e+00 1.632927582379687337e+01
8.099999999999999645e+00 6.826578737819705367e+00 2.819428566576075657e+00 1.057353367078036044e+01
8.200000000000001066e+00 8.487114797947313605e+00 4.008787849987861307e+00 1.422732723849525804e+01
8.300000000000000711e+00 1.103217359336190206e+01 4.853503805321080833e+00 1.398145830026438396e+01
8.400000000000000355e+00 9.429125227928405906e+00 6.588537390639319646e+00 1.516595533236073123e+01
8.500000000000000000e+00 7.159430544710904343e+00 4.907054991557298962e+00 1.047028037470485629e+01
8.599999999999999645e+00 8.638079481298081674e+00 5.099037980888006416e+00 1.520125102277832951e+01
8.700000000000001066e+00 7.062706327819131324e+00 2.585690735250658623e+00 1.297591990913674742e+01
8.800000000000000711e+00 9.112110857028710598e+00 6.383895504448291014e+00 1.465394366989524144e+01
8.900000000000000355e+00 1.031219068745529732e+01 6.557478072025318738e+00 1.296133362594960126e+01
9.000000000000000000e+00 7.158113301778646687e+00 5.111440587567289029e+00 1.354021492274462624e+01
9.099999999999999645e+00 9.722381862515288020e+00 4.387364124972122248e+00 1.335287872059984338e+01
9.200000000000001066e+00 1.033229777006438432e+01 5.499659143684835882e+00 1.455104424727809231e+01
9.300000000000000711e+00 7.813021321261093277e+00 5.005633161129164677e+00 1.624148157367566370e+01
9.400000000000000355e+00 8.913928939019822195e+00 6.665212218953289636e+00 1.395585499974395916e+01
9.500000000000000000e+00 9.209763706007670692e+00 4.110558823968682773e+00 1.134885080208920805e+01
9.600000000000001421e+00 5.314881384109971130e+00 2.133193072144793589e+00 1.055220597687156925e+01
9.700000000000001066e+00 6.367717353284793269e+00 3.765213455176348756e+00 1.428948014235014519e+01
9.800000000000000711e+00 4.649176662116093262e+00 3.162207581087689068e+00 9.146579825149453669e+00
9.900000000000000355e+00 5.480568876388375088e+00 2.957379430304355683e+00 8.804219914870113683e+00
1.000000000000000000e+01 7.642403795594500338e+00 3.707266274562692754e+00 1.396378738441466005e+01
1.100000000000000000e+01 7.258551335329421761e+00 2.900695968558651305e+00 1.417331619177073243e+01
1.200000000000000000e+01 6.650198078623310138e+00 2.343300782418463957e+00 1.247965638679619538e+01
1.300000000000000000e+01 6.353781589647484296e+00 2.205560227951115948e+00 1.274497866322433737e+01
1.400000000000000000e+01 6.887057456250974319e+00 1.787049598464741873e+00 1.356388625244790447e+01
1.500000000000000000e+01 5.802565553004552790e+00 1.810068785859700879e+00 1.273572988064755585e+01
1.600000000000000000e+01 3.734727241996087077e+00 1.659629657711957806e+00 8.683489814207609570e+00
1.700000000000000000e+01 3.099000304442156573e+00 1.192808750837226928e+00 7.953814032832060121e+00
1.800000000000000000e+01 2.911042275565812965e+00 1.175976006669099405e+00 6.432414312934225720e+00
1.900000000000000000e+01 2.473964276081635827e+00 1.033584667945387059e+00 7.569182999065960260e+00
2.000000000000000000e+01 1.991739236179986605e+00 6.785946851874825603e-01 7.663361852003729879e+00
2.100000000000000000e+01 1.957512671505332591e+00 7.951155981670102735e-01 5.579094431645126306e+00
2.200000000000000000e+01 1.693521892734689782e+00 8.284820129434693481e-01 5.680783895473976663e+00
2.300000000000000000e+01 1.428643370323965600e+00 6.746755894686349286e-01 3.477743496451720873e+00
2.400000000000000000e+01 1.270845777850275748e+00 5.726437891763147547e-01 3.278804175234590446e+00
2.500000000000000000e+01 1.066945034915950385e+00 4.070824060940445577e-01 2.775284980910566190e+00
2.600000000000000000e+01 9.199864087552165337e-01 3.811756906599560457e-01 2.306804874721901655e+00
2.700000000000000000e+01 8.895241975432315318e-01 4.086737584213984142e-01 2.383643625552419820e+00
2.800000000000000000e+01 7.368588058332715685e-01 4.346897094965757047e-01 1.897020823543831280e+00
2.900000000000000000e+01 7.617052488129849586e-01 3.814893644067851586e-01 1.828733336735463011e+00
3.000000000000000000e+01 6.104581362712407921e-01 2.774201006606262787e-01 1.273673624108002667e+00
3.100000000000000000e+01 6.341010390636766525e-01 2.928871314040265572e-01 1.326831384357642252e+00
3.200000000000000000e+01 5.600362004799191995e-01 2.610617074468142840e-01 1.080133962761035793e+00
3.300000000000000000e+01 5.238444748821685648e-01 2.761340631907447385e-01 9.275873389197085706e-01
3.400000000000000000e+01 4.594185911392291155e-01 2.463926391742474742e-01 8.928218707466725190e-01
3.500000000000000000e+01 4.722789565164930981e-01 2.585842963989540277e-01 8.732994250247897439e-01
3.600000000000000000e+01 3.984760368958422672e-01 1.889444396208153631e-01 8.190079609068288136e-01
3.700000000000000000e+01 3.967650904056991279e-01 2.023653837759536167e-01 7.344791266023474874e-01
3.800000000000000000e+01 3.871233209282506360e-01 1.908241127442127372e-01 6.654625717875488622e-01
3.900000000000000000e+01 3.515214370665788457e-01 1.643455008681615481e-01 6.565426262903483190e-01
4.000000000000000000e+01 3.383942141331464648e-01 1.541052400851982973e-01 5.971811795884668372e-01
4.100000000000000000e+01 2.839942050258961737e-01 1.403222444065721775e-01 5.141040104708690661e-01
4.200000000000000000e+01 2.740307523695489356e-01 1.330871164404598961e-01 4.900511825109321595e-01
4.300000000000000000e+01 2.500954938673476957e-01 1.125737934147099106e-01 4.533468865199424269e-01
4.400000000000000000e+01 2.663741847159435960e-01 1.410517316930072207e-01 4.359265053567943360e-01
4.500000000000000000e+01 2.619411732830708717e-01 1.400582592328870613e-01 4.314872544191025727e-01
4.600000000000000000e+01 3.037311076581035718e-01 1.442470955335848348e-01 4.614927050858608215e-01
4.700000000000000000e+01 2.689114904787115456e-01 1.202306968098831447e-01 4.309138165149606348e-01
4.800000000000000000e+01 2.297202626332339459e-01 1.096026660105186984e-01 3.798006891410644070e-01
4.900000000000000000e+01 2.207508884536670268e-01 1.208377711833438506e-01 3.900594608535801200e-01
5.000000000000000000e+01 1.883345366000055698e-01 8.946244137791474482e-02 3.306162707338509144e-01
5.100000000000000000e+01 2.150630429180818148e-01 1.028160958019243426e-01 3.990507679237174088e-01
5.200000000000000000e+01 2.835664710492322715e-01 1.360092499942644750e-01 5.170853942629615174e-01
5.300000000000000000e+01 2.713097552453532790e-01 1.519814082307113789e-01 4.849855548721761500e-01
5.400000000000000000e+01 2.014025844313199753e-01 9.595888002596436595e-02 3.663033997211811998e-01
5.500000000000000000e+01 1.762489516852525084e-01 8.757280764070206336e-02 3.610234834557066730e-01
5.600000000000000000e+01 1.921196976578281035e-01 7.871825468592050234e-02 3.713191911421834246e-01
5.700000000000000000e+01 1.797987910443658577e-01 9.734119348392464288e-02 3.275408426769521042e-01
5.800000000000000000e+01 1.815475355790458767e-01 1.019807868279979102e-01 2.897510749721150525e-01
5.900000000000000000e+01 1.945018462189772868e-01 8.472955118012485964e-02 3.037168518518723603e-01
6.000000000000000000e+01 2.053731566753075888e-01 1.033785569309620539e-01 3.393852413321766792e-01
6.100000000000000000e+01 1.833291280696128234e-01 8.306629564403338051e-02 3.042680658697672347e-01
6.200000000000000000e+01 1.661620761434555449e-01 8.095368011207862424e-02 2.889088506181098359e-01
6.300000000000000000e+01 1.593176347232936330e-01 7.956840863848897716e-02 2.454161271367339969e-01
6.400000000000000000e+01 1.378103983331573357e-01 6.742322764677986802e-02 2.351660909166668756e-01
6.500000000000000000e+01 1.132453973982437412e-01 5.840581997466289671e-02 2.074652961562832298e-01
6.600000000000000000e+01 1.217328245965298428e-01 6.728346788297895342e-02 2.032389949179379818e-01
6.700000000000000000e+01 1.198045496470882543e-01 6.176384574414725548e-02 1.894778024791999305e-01
6.800000000000000000e+01 1.023410217914291348e-01 5.308151207542771005e-02 1.655674845864583411e-01
6.900000000000000000e+01 1.065729103605677353e-01 4.979813594303875851e-02 1.783180441414418671e-01
7.000000000000000000e+01 1.032527303113752321e-01 5.188575395057935108e-02 1.772882187209902372e-01
7.100000000000000000e+01 9.511178691378262273e-02 4.871839404877095769e-02 1.649092163363216623e-01
7.200000000000000000e+01 9.128964938537648122e-02 4.036961949294369523e-02 1.522902359492069868e-01
7.300000000000000000e+01 9.772764368685209202e-02 5.021909080857852453e-02 1.498152535546212472e-01
7.400000000000000000e+01 8.879200160339430214e-02 4.334194011156877052e-02 1.497486306399627987e-01
7.500000000000000000e+01 8.652584168524865560e-02 4.213322337615649921e-02 1.431507655612032082e-01
7.600000000000000000e+01 8.116002928489594870e-02 4.168547652193795722e-02 1.306318952827967284e-01
7.700000000000000000e+01 7.803722967093927598e-02 3.989311773163155272e-02 1.306555119333900339e-01
7.800000000000000000e+01 8.064241804774380240e-02 3.544915165683276692e-02 1.429912467457303271e-01
7.900000000000000000e+01 8.125743500696774868e-02 3.985853703600344966e-02 1.282004618470600210e-01
8.000000000000000000e+01 7.763244282919691541e-02 4.016729364051906809e-02 1.351849211527283989e-01
8.100000000000000000e+01 6.943018751641832909e-02 3.459419092569171461e-02 1.325223340165628538e-01
8.200000000000000000e+01 6.492425163666493138e-02 3.148521446583484734e-02 9.967201103249009875e-02
8.300000000000000000e+01 6.271387370199968392e-02 3.314364884245519366e-02 1.053279686906053170e-01
8.400000000000000000e+01 7.603310070104629670e-02 3.051375303624705507e-02 1.275225319263281198e-01
8.500000000000000000e+01 8.064420796827190263e-02 3.783109881703663330e-02 1.223577643393763542e-01
8.600000000000000000e+01 7.995576217900046689e-02 3.829362244256071662e-02 1.396013838196109857e-01
8.700000000000000000e+01 6.547866253487745480e-02 3.726338366189183016e-02 1.237063684681647263e-01
8.800000000000000000e+01 6.367746989640363231e-02 3.244115260578588761e-02 1.125724421603250813e-01
8.900000000000000000e+01 5.991404309332237776e-02 3.313742536960243706e-02 1.005128830886590635e-01
9.000000000000000000e+01 6.047087960904010129e-02 2.821851258053905895e-02 1.017148118316096445e-01
9.100000000000000000e+01 6.368063993333186734e-02 3.089207304724655642e-02 1.056127852207178475e-01
9.200000000000000000e+01 6.748853168858355567e-02 3.594840266492468212e-02 9.520628967288882749e-02
9.300000000000000000e+01 5.843624812950833775e-02 3.054303563116876619e-02 9.683051410858076191e-02
9.400000000000000000e+01 6.264814906774046621e-02 3.310217063796569437e-02 1.074123913404253089e-01
9.500000000000000000e+01 7.042110436960244413e-02 3.353735774358032606e-02 1.037641370250358824e-01
9.600000000000000000e+01 6.296217740876998425e-02 3.058256877827127129e-02 1.135743860409033218e-01
9.700000000000000000e+01 6.675765989569351633e-02 3.497674685875259981e-02 1.163949565358672611e-01
9.800000000000000000e+01 6.490793537293153281e-02 3.223625124570408951e-02 1.007207323521286252e-01
9.900000000000000000e+01 6.746522591546684489e-02 3.613834015201314309e-02 1.028648191360343467e-01
1.000000000000000000e+02 7.462708034776659172e-02 3.511218911120967540e-02 1.345397775118576944e-01
1.100000000000000000e+02 1.154257038050809925e-01 5.764974555120123273e-02 1.914828368563173122e-01
1.200000000000000000e+02 1.114349850905776568e-01 4.922679214630331507e-02 2.222209300244092633e-01
1.300000000000000000e+02 1.155928286586817705e-01 5.954675462591978163e-02 1.853351010909799201e-01
1.400000000000000000e+02 9.969722597970402667e-02 4.831525579339294302e-02 1.725628678459431298e-01
1.500000000000000000e+02 8.425974735467661736e-02 3.715125976766069787e-02 1.812687752695121557e-01
1.600000000000000000e+02 8.373841323325689756e-02 4.073188119867912627e-02 1.423345436501579075e-01
1.700000000000000000e+02 5.094961134662433916e-02 2.400256639215278889e-02 9.280743123865971278e-02
1.800000000000000000e+02 4.512973683415929388e-02 2.126388600716409144e-02 7.053792384577725616e-02
1.900000000000000000e+02 3.541595454849188335e-02 1.770565043551744489e-02 5.768113092174775164e-02
2.000000000000000000e+02 3.339766874544439212e-02 1.741682249653806955e-02 5.668215538861360453e-02
2.100000000000000000e+02 4.151612604334023460e-02 1.984330262896530361e-02 6.975626850314113614e-02
2.200000000000000000e+02 4.957618656988208028e-02 2.321008459996701592e-02 8.761534040663396250e-02
2.300000000000000000e+02 5.409703741561788792e-02 2.595267886996553003e-02 9.630334249693406345e-02
2.400000000000000000e+02 5.926680710347626002e-02 3.105945946508790675e-02 9.572844154471429889e-02
2.500000000000000000e+02 4.565358829417621306e-02 2.227969839540108049e-02 7.579408790554709174e-02
2.600000000000000000e+02 8.078029970475215926e-02 3.740267442956830141e-02 1.492832597919206694e-01
2.700000000000000000e+02 1.329975566997677883e-01 5.497424289506293998e-02 2.747746088999026837e-01
2.800000000000000000e+02 1.268766115010090678e-01 5.641472995018068787e-02 2.418173194105595891e-01
2.900000000000000000e+02 6.344326004436996735e-02 2.867060551589746889e-02 1.128314240058074652e-01
3.000000000000000000e+02 4.181212649643954726e-02 2.088403163762864514e-02 6.601698403880028321e-02
3.100000000000000000e+02 3.261947061757208832e-02 1.762105324106808327e-02 5.202558872404934587e-02
3.200000000000000000e+02 3.188446229369270440e-02 1.598469010229615697e-02 5.280068985631145712e-02
3.300000000000000000e+02 3.058818178196771181e-02 1.563049305408653958e-02 5.091130428806849711e-02
3.400000000000000000e+02 3.106262118347637505e-02 1.633562960329955696e-02 5.197063876889793793e-02
3.500000000000000000e+02 3.163624158103840039e-02 1.596206995421814087e-02 5.230482720501031940e-02
3.600000000000000000e+02 3.132616578345362446e-02 1.549273649653971387e-02 5.093071563003786356e-02
3.700000000000000000e+02 2.987749887282453373e-02 1.462386413469149611e-02 4.937372387281165065e-02
3.800000000000000000e+02 3.328815850785739328e-02 1.755256495405441847e-02 5.328939615180666722e-02
3.900000000000000000e+02 3.982735584137243184e-02 1.915587308312939260e-02 6.407857587462720272e-02
4.000000000000000000e+02 3.678803738476672802e-02 1.853248626145208300e-02 6.062091631666310237e-02
4.100000000000000000e+02 3.590249506824677583e-02 1.863060089630709168e-02 5.789256817685202450e-02
4.200000000000000000e+02 4.206064444067391522e-02 2.122876388252047108e-02 6.839934332756683610e-02
4.300000000000000000e+02 3.943319371089371722e-02 2.039706250992923825e-02 6.610944558010058147e-02
4.400000000000000000e+02 3.549815702340212986e-02 1.677180483058573687e-02 5.799432524051487819e-02
4.500000000000000000e+02 3.200297684082590438e-02 1.604213729943041247e-02 5.228018168086599055e-02
4.600000000000000000e+02 2.797869728393390099e-02 1.374337431668056983e-02 4.533703612104651726e-02
4.700000000000000000e+02 3.187204711965307274e-02 1.492505583524173472e-02 4.996061151739520506e-02
4.800000000000000000e+02 4.268719214974655424e-02 2.314839870466480626e-02 6.526920002583919134e-02
4.900000000000000000e+02 2.974349185151973010e-02 1.540395052787116997e-02 4.827855532323468979e-02
5.000000000000000000e+02 2.427990320404170219e-02 1.190860866289654429e-02 4.024175612002618002e-02
5.100000000000000000e+02 2.490940418551445060e-02 1.276150847556138841e-02 4.118982863178195786e-02
5.200000000000000000e+02 2.616605097998862817e-02 1.302058203904579714e-02 4.219375004883409858e-02
5.300000000000000000e+02 3.104599216602220088e-02 1.623229857921812749e-02 4.941708899894351609e-02
5.400000000000000000e+02 3.636713581309308774e-02 1.854640995910161044e-02 5.866590187616574359e-02
5.500000000000000000e+02 3.134336560064601013e-02 1.596512719486162940e-02 4.966610994844120747e-02
5.600000000000000000e+02 3.079840405285499266e-02 1.696546835332659112e-02 5.010093791248527995e-02
5.700000000000000000e+02 3.352906807167808922e-02 1.720002690661312159e-02 5.380948693795908899e-02
5.800000000000000000e+02 3.229101710807532472e-02 1.572323854931363327e-02 5.312171324225827690e-02
5.900000000000000000e+02 2.992571627359595296e-02 1.471774298920525657e-02 4.753677462131451065e-02
6.000000000000000000e+02 3.443042575737091660e-02 1.688142088275582445e-02 5.331708065324251844e-02
6.100000000000000000e+02 2.721462346500063897e-02 1.363354941744263429e-02 4.495434356066180248e-02
6.200000000000000000e+02 3.528680940280647105e-02 1.751447760757319713e-02 5.705984022023252722e-02
6.300000000000000000e+02 1.373572295164618429e-01 6.706594531944852500e-02 2.213230421414205673e-01
6.400000000000000000e+02 1.571772056181826860e-01 7.969495440030555100e-02 2.510081571643016929e-01
6.500000000000000000e+02 9.597791317340052808e-02 4.611795195741940495e-02 1.562041075200940876e-01
6.600000000000000000e+02 1.043757169669129875e-01 5.153763846224276857e-02 1.742751107985605341e-01
6.700000000000000000e+02 8.484138302157914757e-02 4.158346317429730682e-02 1.392324712820298127e-01
6.800000000000000000e+02 7.479798636529180755e-02 3.673724140284415768e-02 1.210198875825246045e-01
6.900000000000000000e+02 6.588393207450850275e-02 3.294362555973940482e-02 1.063002365086853779e-01
7.000000000000000000e+02 4.684231803219312401e-02 2.575714566096125313e-02 7.736675890031269320e-02
7.100000000000000000e+02 4.064903566572081184e-02 2.079299308546726094e-02 6.424705491669996382e-02
7.200000000000000000e+02 5.869485005582028569e-02 3.077408001694467016e-02 9.601611968618244120e-02
7.300000000000000000e+02 4.669819678266008689e-02 2.378678973172782332e-02 7.557771982169278480e-02
7.400000000000000000e+02 2.391598887880072230e-02 1.195817893703377856e-02 3.962533673594382383e-02
7.500000000000000000e+02 2.461440412308124603e-02 1.226181144285545289e-02 3.948081318989869054e-02
7.600000000000000000e+02 2.621240841225914650e-02 1.277932593422295704e-02 4.362333471266539864e-02
7.700000000000000000e+02 3.302197394011569670e-02 1.677701538142721896e-02 5.323024874136186163e-02
7.800000000000000000e+02 4.551685514241302771e-02 2.336364538541977828e-02 7.418450156430936304e-02
7.900000000000000000e+02 8.221152075102183820e-02 4.023446181622802181e-02 1.318118173562020656e-01
8.000000000000000000e+02 1.668908185356480778e-01 8.327318203221466264e-02 2.688533235310337499e-01
8.100000000000000000e+02 1.941418359229291069e-01 9.991942332054194742e-02 3.006498910394000967e-01
8.200000000000000000e+02 1.231504064582812502e-01 5.723380177676269664e-02 2.047257793048463947e-01
8.300000000000000000e+02 1.229597205020543649e-01 6.294790757929680236e-02 2.021356687870474178e-01
8.400000000000000000e+02 3.097840531749706527e-01 2.016734774721856138e-01 4.260381881642608670e-01
8.500000000000000000e+02 3.496857343182968592e-01 2.042293970184993201e-01 5.156078002240278568e-01
8.600000000000000000e+02 1.989091536563492579e-01 1.039639041273925923e-01 3.311533118105540185e-01
8.700000000000000000e+02 1.494384752839408026e-01 7.357474757719781322e-02 2.435182130852355797e-01
8.800000000000000000e+02 8.307579271196406656e-02 4.229649948256546110e-02 1.386823949443257986e-01
8.900000000000000000e+02 5.635173876881750810e-02 2.708303767487572206e-02 9.341956645215776511e-02
9.000000000000000000e+02 6.036715308974607841e-02 3.074001745672991920e-02 9.912338618349901542e-02
9.100000000000000000e+02 7.418422809433880549e-02 3.506588976174859762e-02 1.209816353298793917e-01
9.200000000000000000e+02 6.172323739078850596e-02 3.249403964840105047e-02 1.022450533648176507e-01
9.300000000000000000e+02 4.641612205654404438e-02 2.284034127153870136e-02 7.403474212805306875e-02
9.400000000000000000e+02 3.812112745152534954e-02 1.916769114222921858e-02 6.283363958378726521e-02
9.500000000000000000e+02 3.551603742645296352e-02 1.835781204996564733e-02 5.646740922190068152e-02
9.600000000000000000e+02 4.389122143251164565e-02 2.191284331369607735e-02 6.935532538332493668e-02
9.700000000000000000e+02 4.860110020924356816e-02 2.487307979389401236e-02 7.746817662841781749e-02
9.800000000000000000e+02 5.265762000025078077e-02 2.625375310622268810e-02 8.705517828535352942e-02
9.900000000000000000e+02 5.881031591440277068e-02 2.795777461393718702e-02 9.353837288071749356e-02
1.000000000000000000e+03 8.187044254581657410e-02 4.126712122638460933e-02 1.342531846910569870e-01
1.100000000000000000e+03 7.288785739372007078e-02 3.638975843611919059e-02 1.195391292555751106e-01
1.200000000000000000e+03 5.501678790278363013e-02 2.746788857017335578e-02 8.970640382008263081e-02
1.300000000000000000e+03 4.331038853059712701e-02 2.151374534029307922e-02 7.082373115804127539e-02
1.400000000000000000e+03 3.370673110634436753e-02 1.686736438056475607e-02 5.594860270725770385e-02
1.500000000000000000e+03 3.751560844590966920e-02 1.919882436658339533e-02 6.150406226185123337e-02
1.600000000000000000e+03 3.621182734994047442e-02 1.815606471255951787e-02 5.949460104884941175e-02
1.700000000000000000e+03 2.609675702396211175e-02 1.309844205465120204e-02 4.376833650030215878e-02
1.800000000000000000e+03 2.404820939804927504e-02 1.181519703840567398e-02 4.044927902969124717e-02
1.900000000000000000e+03 2.424222402649908736e-02 1.197916945202162457e-02 4.006946720296925002e-02
2.000000000000000000e+03 2.403885586501966834e-02 1.192136206863115069e-02 4.034067415014201685e-02
2.100000000000000000e+03 2.428116376727703501e-02 1.201416485581895469e-02 4.044632085350629430e-02
2.200000000000000000e+03 2.422617129936925628e-02 1.181407506932370156e-02 4.042908994725686461e-02
2.300000000000000000e+03 2.424065210498338452e-02 1.222568189392454242e-02 4.024254274092810973e-02
2.400000000000000000e+03 2.446060812976030494e-02 1.208483178796822440e-02 4.089382960808540107e-02
2.500000000000000000e+03 2.480354257992917547e-02 1.240090018367038215e-02 4.134523548721304870e-02
2.600000000000000000e+03 2.471810000427482681e-02 1.243145361166619542e-02 4.139113651853691678e-02
2.700000000000000000e+03 2.451442461468033435e-02 1.234037720813048293e-02 4.121319673885917578e-02
2.800000000000000000e+03 2.479205607120279695e-02 1.234772093960306676e-02 4.143593036239811428e-02
2.900000000000000000e+03 2.485358130478335439e-02 1.233900989242759511e-02 4.160566122948147066e-02
3.000000000000000000e+03 2.524887629634324157e-02 1.243346030945493078e-02 4.215640319241366341e-02
3.100000000000000000e+03 2.524059092053202585e-02 1.262222243556574038e-02 4.203543587254327668e-02
3.200000000000000000e+03 2.603644557857298300e-02 1.306070021335308320e-02 4.305751868746379024e-02
3.300000000000000000e+03 2.983957950959054140e-02 1.458550662062825520e-02 4.876042546843871450e-02
3.400000000000000000e+03 2.952972462768583412e-02 1.468239169071825119e-02 4.816803350143089579e-02
3.500000000000000000e+03 2.806302754403652497e-02 1.359831174637380659e-02 4.676904897660690008e-02
3.600000000000000000e+03 3.882559230248417564e-02 2.023510365078818457e-02 6.077758357897187352e-02
3.700000000000000000e+03 4.134015987705352141e-02 2.180643737480236766e-02 6.334902665375170827e-02
3.800000000000000000e+03 2.953829144136651402e-02 1.465268946404660669e-02 4.918439379076251783e-02
3.900000000000000000e+03 2.774875111026965657e-02 1.390289828751361395e-02 4.641904744605366423e-02
4.000000000000000000e+03 2.766657834039411984e-02 1.385680573807841244e-02 4.647736556287990206e-02
4.100000000000000000e+03 2.678073160704792441e-02 1.332136894204888171e-02 4.454832805618445107e-02
4.200000000000000000e+03 2.667988276554030674e-02 1.327863143641807783e-02 4.403924451465082018e-02
4.300000000000000000e+03 2.659325293266484591e-02 1.322851311799224869e-02 4.425148871928868272e-02
4.400000000000000000e+03 2.687307572450169449e-02 1.354103795907798426e-02 4.461321580160923506e-02
4.500000000000000000e+03 2.704266780225019970e-02 1.323309601076755847e-02 4.501224827682431123e-02
4.600000000000000000e+03 2.751758739046825455e-02 1.375599328674819918e-02 4.634912171406426612e-02
4.700000000000000000e+03 3.352746405032507732e-02 1.622455320338351756e-02 6.114550259080952371e-02
4.800000000000000000e+03 7.294746983773264803e-02 3.342256890287749471e-02 1.085527835713004652e-01
4.900000000000000000e+03 8.945780559927481168e-02 5.398517791816963285e-02 1.184075792268612648e-01
5.000000000000000000e+03 4.789906352346020441e-02 2.156177592353859807e-02 9.147403317375119025e-02
5.100000000000000000e+03 3.040036661976495969e-02 1.491729891698325219e-02 5.185215775957326134e-02
5.200000000000000000e+03 2.873561841464386882e-02 1.420603575928568174e-02 4.748056175616198471e-02
5.300000000000000000e+03 2.861810234925226543e-02 1.410521143424302293e-02 4.736739056151639815e-02
5.400000000000000000e+03 2.920225378392849944e-02 1.432324652508421177e-02 4.837386262651552360e-02
5.500000000000000000e+03 2.962957524979515159e-02 1.488205376253698593e-02 4.916606435849016354e-02
5.600000000000000000e+03 2.987536236836943124e-02 1.480453526003502190e-02 4.979010691881075035e-02
5.700000000000000000e+03 2.974840782271473069e-02 1.495850224017850061e-02 4.980964177691302175e-02
5.800000000000000000e+03 3.083339870421908727e-02 1.507237147479354063e-02 5.091281218176781781e-02
5.900000000000000000e+03 3.100135275627086129e-02 1.545510192077141978e-02 5.222254665255751660e-02
6.000000000000000000e+03 3.173947622442834654e-02 1.588701735156942962e-02 5.288086512586032822e-02
6.100000000000000000e+03 3.270214936123516658e-02 1.619360407343917174e-02 5.421058441486355239e-02
6.200000000000000000e+03 3.261923091425567023e-02 1.627120684498895367e-02 5.399900180472814309e-02
6.300000000000000000e+03 3.235498154652808461e-02 1.640102835874058043e-02 5.366458113040421807e-02
6.400000000000000000e+03 3.264655738714470484e-02 1.621633382271332746e-02 5.421332475306824689e-02
6.500000000000000000e+03 3.268863060710434920e-02 1.620289291764734352e-02 5.498964670080383477e-02
6.600000000000000000e+03 3.299844876569529850e-02 1.611186845094449496e-02 5.498463968067817537e-02
6.700000000000000000e+03 3.361436973786972177e-02 1.635426059285339725e-02 5.589637285071231282e-02
6.800000000000000000e+03 3.394697631396034754e-02 1.675561100850622709e-02 5.679838124254785875e-02
6.900000000000000000e+03 3.494906508496978259e-02 1.706975512436794892e-02 5.744794046240254276e-02
7.000000000000000000e+03 3.551161725616951842e-02 1.779844244226254715e-02 5.963341812033298023e-02
7.100000000000000000e+03 4.113745350269973344e-02 1.967371151071278454e-02 7.550803838901759546e-02
7.200000000000000000e+03 6.650182302589734140e-02 2.842024515566685811e-02 1.221792616759786038e-01
7.300000000000000000e+03 9.653101435900035554e-02 4.444068403518807581e-02 1.413154302886907021e-01
7.400000000000000000e+03 7.842962248036974837e-02 3.323920222966455368e-02 1.327576281332134289e-01
7.500000000000000000e+03 4.749434293138442287e-02 2.257291169938155373e-02 9.382122683868930613e-02
7.600000000000000000e+03 3.909194059476149563e-02 1.949816240217322819e-02 6.649462752930383747e-02
7.700000000000000000e+03 3.827335197980093889e-02 1.888184542438145139e-02 6.347328242488523009e-02
7.800000000000000000e+03 3.863245164214760413e-02 1.912727089519073234e-02 6.451097430021474066e-02
7.900000000000000000e+03 3.891081944704465057e-02 1.912599929895696452e-02 6.412883047164266714e-02
8.000000000000000000e+03 3.921005655005109503e-02 1.929049129627869591e-02 6.531705030093572228e-02
8.100000000000000000e+03 4.050022008505722165e-02 2.002473828261585112e-02 6.705814934881926259e-02
8.200000000000000000e+03 4.289936719381373664e-02 2.101239949908282473e-02 7.448445048118848555e-02
8.300000000000000000e+03 5.274305572496289923e-02 2.506533662332106199e-02 1.350161115977612791e-01
8.400000000000000000e+03 1.133285673360278634e-01 3.591543898141483920e-02 3.194020474412295751e-01
8.500000000000000000e+03 2.508015944831967214e-01 6.532690945414595940e-02 3.626061415801745125e-01
8.600000000000000000e+03 2.143621414830361449e-01 5.619148173023133519e-02 3.560381390496892839e-01
8.700000000000000000e+03 7.650679855516115402e-02 3.138713568366751500e-02 2.978344375469026417e-01
8.800000000000000000e+03 5.139429180349683324e-02 2.475331885955612404e-02 1.058362458487856067e-01
8.900000000000000000e+03 4.536737168502932155e-02 2.217066406692868447e-02 7.666078296466992403e-02
9.000000000000000000e+03 4.475801081641711532e-02 2.217391208954220053e-02 7.357974419328359994e-02
9.100000000000000000e+03 4.525069857445077753e-02 2.249852404794612862e-02 7.489965284172100946e-02
9.200000000000000000e+03 4.547456489901603727e-02 2.225091012775452792e-02 7.498082875543542192e-02
9.300000000000000000e+03 4.609079603373344297e-02 2.302178870613519682e-02 7.649302913575824203e-02
9.400000000000000000e+03 4.765682869342766081e-02 2.318188583573320069e-02 8.102487409075248559e-02
9.500000000000000000e+03 5.356331718400917513e-02 2.599524003844758818e-02 9.723740742536489401e-02
9.600000000000000000e+03 7.004488170246696288e-02 3.125295152344601673e-02 1.398089794984194167e-01
9.700000000000000000e+03 9.957465953136153403e-02 4.210006746057869120e-02 1.671541739611799304e-01
9.800000000000000000e+03 9.693831395042953880e-02 4.272052319794535091e-02 1.657618686434754185e-01
9.900000000000000000e+03 7.092310895476584831e-02 3.297593381410538621e-02 1.450228482845787314e-01
1.000000000000000000e+04 5.747600620984164715e-02 2.721667877729594745e-02 1.043996355467220749e-01
1.010000000000000000e+04 5.165084651850469777e-02 2.567258632287425929e-02 8.765272092162296191e-02
1.020000000000000000e+04 5.078992534518583790e-02 2.503540401410625157e-02 8.341247232477337625e-02
1.030000000000000000e+04 5.070526822374266801e-02 2.521090619059576307e-02 8.411271764946706697e-02
1.040000000000000000e+04 5.168187652156418926e-02 2.544914735824968174e-02 8.485145124179714615e-02
1.050000000000000000e+04 5.263035696293778126e-02 2.586259935733595250e-02 8.747478397931000849e-02
1.060000000000000000e+04 5.514520553905254141e-02 2.684744573721736804e-02 9.726296877051963941e-02
1.070000000000000000e+04 6.538519852798341248e-02 3.043967090366792375e-02 1.493726246905236199e-01
1.080000000000000000e+04 9.463792704483682539e-02 3.935443898510887495e-02 3.472222213726930407e-01
1.090000000000000000e+04 2.050307118272111095e-01 5.296265166582737188e-02 4.073428763011865961e-01
1.100000000000000000e+04 2.259116915560172578e-01 5.997891015098016920e-02 4.126148289079745735e-01
1.110000000000000000e+04 1.239086897516601810e-01 4.315497440444211741e-02 3.890220551247456915e-01
1.120000000000000000e+04 7.590057806624515846e-02 3.497264262997663159e-02 2.770146820705814972e-01
1.130000000000000000e+04 6.134819807538295644e-02 2.911975282030385484e-02 1.146450237938978073e-01
1.140000000000000000e+04 5.680649028419453711e-02 2.810188732630373998e-02 9.605438015033218591e-02
1.150000000000000000e+04 5.622952845049000031e-02 2.764016822306800125e-02 9.230751247717139396e-02
1.160000000000000000e+04 5.600091211827096932e-02 2.833519302483807761e-02 9.335672849913324856e-02
1.170000000000000000e+04 5.637493882757214914e-02 2.794543555878337138e-02 9.377867866236547223e-02
1.180000000000000000e+04 5.692162118694559653e-02 2.819961598734890482e-02 9.431821060869570450e-02
1.190000000000000000e+04 5.791319066545582567e-02 2.877241174381417466e-02 9.509478628519654753e-02
1.200000000000000000e+04 5.842344355056215688e-02 2.911206672672915843e-02 9.688891648811186197e-02
1.210000000000000000e+04 6.018245980279825214e-02 2.962363632731921520e-02 9.889710801266052287e-02
1.220000000000000000e+04 6.175368388468834013e-02 3.070093845211504385e-02 1.011672312817924468e-01
1.230000000000000000e+04 6.508764382428258721e-02 3.159298432458847172e-02 1.073323157840736786e-01
1.240000000000000000e+04 6.113932759097916170e-02 3.050747341548907740e-02 1.004839941438278456e-01
1.250000000000000000e+04 5.876206800322202051e-02 2.967203190711397223e-02 9.653137860598744180e-02
1.260000000000000000e+04 5.869021230787506427e-02 2.923486787742973075e-02 9.688839997882935096e-02
1.270000000000000000e+04 5.887757799787698976e-02 2.946061057835028946e-02 9.743825574465328487e-02
1.280000000000000000e+04 5.933026110875583986e-02 3.001006903459772432e-02 9.793823902402833126e-02
1.290000000000000000e+04 5.946841773866030217e-02 2.979300421923748374e-02 9.742425916606209380e-02
1.300000000000000000e+04 5.951900445845142301e-02 2.976749307231236000e-02 9.848730991334697649e-02
1.310000000000000000e+04 6.177691737928255045e-02 3.113912048981195071e-02 1.020291163116242711e-01
1.320000000000000000e+04 6.467159691258869691e-02 3.183771787817593624e-02 1.070168127383575585e-01
1.330000000000000000e+04 6.663016264262024146e-02 3.313649470465777208e-02 1.102484916142506960e-01
1.340000000000000000e+04 6.732815856223386963e-02 3.353521835815233276e-02 1.110116368139353743e-01
1.350000000000000000e+04 6.651780862159033247e-02 3.324551020778640509e-02 1.099582639178057486e-01
1.360000000000000000e+04 6.480899300752221426e-02 3.185217361804500852e-02 1.079350594164035088e-01
1.370000000000000000e+04 6.435551789016617785e-02 3.153756850676660978e-02 1.060654182742142571e-01
1.380000000000000000e+04 6.366001404251198093e-02 3.198567428350591185e-02 1.036796289389788767e-01
1.390000000000000000e+04 6.115795286347985166e-02 3.009177741320874511e-02 1.002612324374624470e-01
1.400000000000000000e+04 6.025949714654754014e-02 2.973552019673673594e-02 9.928570753339502342e-02
1.410000000000000000e+04 6.057811712310796903e-02 2.978096592472945572e-02 9.961644204859707030e-02
1.420000000000000000e+04 6.124234732057153713e-02 3.075266622781991713e-02 1.005958855710116090e-01
1.430000000000000000e+04 6.253402901191147667e-02 3.069990074996677490e-02 1.018424248633320178e-01
1.440000000000000000e+04 6.334268086692625144e-02 3.187869011966064370e-02 1.047370296412898777e-01
1.450000000000000000e+04 6.477863426332468311e-02 3.230936135914812962e-02 1.061589284099633268e-01
1.460000000000000000e+04 6.571284422604053987e-02 3.257599160167638092e-02 1.076201030119677826e-01
1.470000000000000000e+04 6.574515660842823739e-02 3.284111584148002166e-02 1.065547020222452623e-01
1.480000000000000000e+04 6.360467241765871416e-02 3.179886325901224581e-02 1.046423633292924565e-01
1.490000000000000000e+04 6.314984922862661165e-02 3.177183401158326093e-02 1.022525287677942818e-01
1.500000000000000000e+04 6.167154886470278125e-02 3.059941890534188455e-02 1.026550291613977928e-01
1.510000000000000000e+04 6.132536429540608180e-02 3.094685067895108777e-02 1.005818812453035949e-01
1.520000000000000000e+04 6.117326712487223400e-02 3.097154442005518871e-02 1.003679024638766681e-01
1.530000000000000000e+04 6.080044408168810977e-02 3.063174556320132080e-02 1.005242903782660735e-01
1.540000000000000000e+04 6.216023690151985248e-02 3.076256841087227425e-02 1.015524861656859346e-01
1.550000000000000000e+04 6.193682363633456339e-02 3.073813367143976918e-02 1.031509332075434549e-01
1.560000000000000000e+04 6.348419431602830842e-02 3.169936140189098805e-02 1.037484377652939105e-01
1.570000000000000000e+04 6.877702364152160630e-02 3.401975721474103515e-02 1.128369521747439597e-01
1.580000000000000000e+04 6.749490006772555784e-02 3.311486214668846184e-02 1.105321063436375401e-01
1.590000000000000000e+04 6.435876697828375737e-02 3.219043795828323284e-02 1.063501792693529735e-01
1.600000000000000000e+04 6.406278087174055447e-02 3.155014077083528184e-02 1.048577720406863450e-01
1.610000000000000000e+04 6.380074521992537551e-02 3.149054360728753554e-02 1.025417235953782341e-01
1.620000000000000000e+04 6.206568378638700756e-02 3.117724573015607029e-02 1.009167096329747909e-01
1.630000000000000000e+04 6.082914079628281429e-02 3.051096642721564181e-02 9.948067064074422872e-02
1.640000000000000000e+04 5.970925170543511795e-02 2.974302082232762462e-02 9.868686753118831312e-02
1.650000000000000000e+04 5.977463746936861194e-02 2.960314591863280956e-02 9.874051844935775868e-02
1.660000000000000000e+04 6.067579006254245066e-02 3.013847539007214610e-02 9.904185955820279941e-02
1.670000000000000000e+04 6.521565306684287688e-02 3.239175223075817234e-02 1.064078973699672526e-01
1.680000000000000000e+04 6.940680460163814458e-02 3.504997190851069644e-02 1.128029861551107516e-01
1.690000000000000000e+04 6.224784991900835646e-02 3.121966911546078527e-02 1.018568463159854748e-01
1.700000000000000000e+04 6.188550056588021375e-02 3.052782785175615909e-02 1.006520192511692197e-01
1.710000000000000000e+04 6.120420533853603712e-02 3.050676167818365883e-02 1.004504315328263453e-01
1.720000000000000000e+04 6.137497126357652211e-02 3.070508397106290477e-02 1.006882568103251857e-01
1.730000000000000000e+04 6.127268646594328377e-02 3.111265573885534097e-02 1.004298772892043973e-01
1.740000000000000000e+04 6.057971234879813011e-02 3.028658752876998636e-02 9.975535333995515230e-02
1.750000000000000000e+04 6.047416751331957663e-02 3.035387850809204494e-02 9.883874777483135643e-02
1.760000000000000000e+04 6.018442189978157747e-02 2.990130243453589798e-02 9.924941576289644796e-02
1.770000000000000000e+04 5.919239352565022760e-02 2.978759127503380344e-02 9.711549140519951107e-02
1.780000000000000000e+04 5.850003347993206620e-02 2.972481614240229941e-02 9.660606754317770106e-02
1.790000000000000000e+04 5.939988473088306936e-02 2.972429496501618681e-02 9.707021693967829434e-02
1.800000000000000000e+04 5.983911655576972660e-02 2.937032173271436272e-02 9.637707094289804655e-02
1.810000000000000000e+04 5.857571930414891270e-02 2.936420240053476752e-02 9.669161680884735821e-02
1.820000000000000000e+04 5.894286954463491546e-02 2.927911454359050786e-02 9.641594819740663402e-02
1.830000000000000000e+04 5.886497937418650600e-02 2.934901244975844994e-02 9.650217512090884797e-02
1.840000000000000000e+04 5.957209372165385430e-02 2.911189675616627712e-02 9.630535644895481251e-02
1.850000000000000000e+04 5.955588382755504229e-02 3.038160363047429785e-02 9.700677598310628036e-02
1.860000000000000000e+04 5.866169137667209821e-02 2.913683452291433718e-02 9.640892386705926520e-02
1.870000000000000000e+04 5.872578092089577456e-02 2.942799085614838939e-02 9.559552189802407451e-02
1.880000000000000000e+04 5.861447278671362560e-02 2.911762885655321334e-02 9.586734340664791743e-02
1.890000000000000000e+04 5.882511286947415818e-02 2.918015741724210368e-02 9.655440429586310824e-02
1.900000000000000000e+04 5.901686993008543186e-02 2.943383786337426533e-02 9.645273176244729962e-02
1.910000000000000000e+04 6.005107912218506094e-02 3.046403587604287061e-02 9.801494182541069244e-02
1.920000000000000000e+04 7.216261701610446333e-02 3.660660637565296693e-02 1.144047870313217308e-01
1.930000000000000000e+04 6.423552406690259675e-02 3.183848945668786568e-02 1.040982822542244196e-01
1.940000000000000000e+04 5.860221752039283805e-02 2.945024396779126474e-02 9.639041610830123563e-02
1.950000000000000000e+04 6.233888102805699299e-02 3.148943254506086226e-02 1.012528105181834948e-01
1.960000000000000000e+04 6.326153861248301480e-02 3.173403181048825572e-02 1.028233925711449503e-01
1.970000000000000000e+04 5.886229355502529265e-02 2.971686580422164270e-02 9.643000571852153313e-02
1.980000000000000000e+04 5.746261531003489520e-02 2.909529796922933828e-02 9.393359229201080074e-02
1.990000000000000000e+04 5.716686321498621465e-02 2.846434852373791458e-02 9.288571315082359836e-02
2.000000000000000000e+04 5.701224511336140666e-02 2.860252069720491466e-02 9.331336665023345911e-02
2.010000000000000000e+04 5.754836477070638528e-02 2.879612670425182180e-02 9.370854578059913120e-02
2.020000000000000000e+04 5.712807330759087782e-02 2.842211018748016724e-02 9.371211369474283237e-02
2.030000000000000000e+04 5.822224101802904450e-02 2.906847863705311341e-02 9.473138312902562586e-02
2.040000000000000000e+04 6.386356666748092825e-02 3.153897335303171984e-02 1.048166626897757830e-01
2.050000000000000000e+04 7.476878288730983702e-01 6.871098773541903793e-01 8.113428193841901725e-01
2.060000000000000000e+04 1.284447150955717598e+00 1.233531970553717994e+00 1.334476510397833771e+00
2.070000000000000000e+04 5.513422397498048966e-01 4.880133252425859491e-01 6.099640452227638177e-01
2.080000000000000000e+04 6.097673302350194169e-02 3.066814608560367375e-02 9.985744820095286689e-02
2.090000000000000000e+04 5.807448202102240276e-02 2.923681632420772891e-02 9.482879262090529449e-02
2.100000000000000000e+04 5.702105686930308837e-02 2.797671136300972777e-02 9.416090061914127174e-02
2.110000000000000000e+04 5.800180564877455147e-02 2.856275661937570515e-02 9.476196354957995560e-02
2.120000000000000000e+04 5.723260141183799526e-02 2.863870646824272920e-02 9.412315911658532264e-02
2.130000000000000000e+04 5.779061721981707672e-02 2.874193302586323592e-02 9.409955097855225714e-02
2.140000000000000000e+04 6.313726032768506025e-02 3.130261957509856974e-02 1.030138770184054198e-01
2.150000000000000000e+04 6.722489652423317696e-02 3.342764775567781677e-02 1.109996395064714869e-01
2.160000000000000000e+04 6.026095160964101138e-02 3.027375186128812568e-02 9.825733869889298477e-02
2.170000000000000000e+04 5.712090052544317731e-02 2.895044499982490221e-02 9.213654623893750839e-02
2.180000000000000000e+04 5.654397130409489353e-02 2.811713582299055561e-02 9.138320513361385122e-02
2.190000000000000000e+04 5.611901269237209305e-02 2.811384507581170950e-02 9.164288181380784992e-02
2.200000000000000000e+04 5.584896870217476161e-02 2.845811545593049732e-02 9.062426696560353656e-02
2.210000000000000000e+04 5.589119420339707517e-02 2.841325453492376391e-02 9.079488721348424884e-02
2.220000000000000000e+04 5.565791401438912461e-02 2.814011046830404775e-02 9.079077350156723736e-02
2.230000000000000000e+04 5.528567416841253385e-02 2.805887275020071958e-02 9.008830457940016079e-02
2.240000000000000000e+04 5.508484059879490552e-02 2.774752286306720467e-02 9.023937386184660570e-02
2.250000000000000000e+04 5.418625662025999129e-02 2.711169657863192473e-02 9.003930866067134942e-02
2.260000000000000000e+04 5.470104901380139911e-02 2.674998599881931241e-02 9.065894767542091726e-02
2.270000000000000000e+04 5.473804846795567863e-02 2.716960963218979092e-02 9.030783907846350045e-02
2.280000000000000000e+04 5.493478684564163245e-02 2.737672453547999527e-02 8.983580481541672547e-02
2.290000000000000000e+04 5.453198357961627774e-02 2.763129332449918915e-02 8.932067127772311266e-02
2.300000000000000000e+04 5.571011516952232429e-02 2.699856776283048043e-02 9.007226588764555286e-02
2.310000000000000000e+04 5.493912161983512815e-02 2.747577590804547651e-02 9.056697881910547032e-02
2.320000000000000000e+04 5.522690417602718616e-02 2.798505313215003676e-02 9.040312529275927600e-02
2.330000000000000000e+04 5.448873309394906134e-02 2.755835539460344680e-02 9.049368742712626812e-02
2.340000000000000000e+04 5.447488612127057012e-02 2.699620368483610436e-02 8.857927269802802484e-02
2.350000000000000000e+04 5.440054708595940675e-02 2.728948599197594804e-02 8.940373704859580495e-02
2.360000000000000000e+04 5.426073351833115427e-02 2.677657757868146665e-02 8.969008887859143686e-02
2.370000000000000000e+04 5.455868687804938527e-02 2.718689688869706592e-02 8.925050965644874823e-02
2.380000000000000000e+04 5.511479414406135480e-02 2.729182723696634005e-02 9.056036359035840588e-02
2.390000000000000000e+04 5.474759475077413395e-02 2.701295205647562259e-02 8.928825064316658899e-02
2.400000000000000000e+04 5.591340345758169517e-02 2.775304610449610271e-02 9.089996094046159936e-02
2.410000000000000000e+04 5.491529613514745806e-02 2.706488231014350654e-02 8.971677379492133675e-02
2.420000000000000000e+04 5.406814045320482154e-02 2.772946759205192555e-02 8.770052838625039260e-02
2.430000000000000000e+04 5.330618682746333242e-02 2.712445634101687611e-02 8.728973607800412371e-02
2.440000000000000000e+04 5.304309911426280388e-02 2.648734571613243008e-02 8.691758181663467031e-02
2.450000000000000000e+04 5.266624338973588393e-02 2.612412224073938291e-02 8.568219103379411117e-02
2.460000000000000000e+04 5.330033514082178903e-02 2.645675233659374945e-02 8.528854966230327295e-02
2.470000000000000000e+04 5.221160245070489286e-02 2.580922527612535683e-02 8.583504691165137757e-02
2.480000000000000000e+04 5.355381635333369278e-02 2.650265031926246975e-02 8.683811699329700706e-02
2.490000000000000000e+04 5.354298271632276091e-02 2.651130807179439067e-02 8.693365652753864969e-02
2.500000000000000000e+04 5.207369056383170242e-02 2.578751331609705280e-02 8.500577064179536124e-02
2.510000000000000000e+04 5.232533706160130693e-02 2.604917600899065919e-02 8.411437146166333978e-02
2.520000000000000000e+04 5.167013563277763483e-02 2.608540653937759662e-02 8.459427506686799381e-02
2.530000000000000000e+04 5.168775532524128025e-02 2.584717198639629662e-02 8.461908363225528751e-02
2.540000000000000000e+04 5.150492252360543144e-02 2.576790714111012320e-02 8.433011016967613405e-02
2.550000000000000000e+04 5.237179696868948103e-02 2.604761940810017273e-02 8.417419814809613821e-02
2.560000000000000000e+04 5.206164721076438073e-02 2.626187327478556044e-02 8.551930142196660645e-02
2.570000000000000000e+04 5.254021198616246752e-02 2.627831393134847163e-02 8.515775238749483111e-02
2.580000000000000000e+04 5.240096308372471645e-02 2.622103397169251587e-02 8.505058296469308887e-02
2.590000000000000000e+04 5.189328257205317457e-02 2.584115759634561180e-02 8.496273154029586328e-02
2.600000000000000000e+04 5.166779758240021281e-02 2.555025691858734890e-02 8.446195203974929400e-02
2.610000000000000000e+04 5.138155141346226196e-02 2.538572598565747712e-02 8.371474084510112379e-02
2.620000000000000000e+04 5.126809945572050053e-02 2.552930801067775091e-02 8.312084745345449388e-02
2.630000000000000000e+04 5.043345383199811932e-02 2.519562575359695841e-02 8.236632397661176885e-02
2.640000000000000000e+04 5.043557262704686378e-02 2.521981035844311422e-02 8.240357629732740496e-02
2.650000000000000000e+04 5.074229451782735073e-02 2.522597933545976667e-02 8.292036034269036071e-02
2.660000000000000000e+04 5.061426108082908021e-02 2.513712959042694456e-02 8.241344811360798439e-02
2.670000000000000000e+04 5.056579727854750711e-02 2.527061167331341035e-02 8.287184687558379892e-02
2.680000000000000000e+04 5.010194360172685185e-02 2.511008386035986847e-02 8.246159596629965005e-02
2.690000000000000000e+04 4.963737233321086073e-02 2.509525889062206097e-02 8.147334929890881483e-02
2.700000000000000000e+04 5.014371813741821254e-02 2.495624270865027736e-02 8.106254063390164188e-02
2.710000000000000000e+04 4.963636961289480398e-02 2.486700214544185911e-02 8.119926935041961447e-02
2.720000000000000000e+04 4.876757352947800467e-02 2.436372090868647519e-02 8.110350031357606293e-02
2.730000000000000000e+04 4.970439960591237216e-02 2.457082511146650022e-02 8.179019837846922270e-02
2.740000000000000000e+04 4.997735123030417476e-02 2.454152495539018916e-02 8.164269461964604457e-02
2.750000000000000000e+04 4.999672244294257190e-02 2.501426810083912447e-02 8.121124008031004038e-02
2.760000000000000000e+04 5.116683101729455063e-02 2.560614441393061977e-02 8.365636556229937015e-02
2.770000000000000000e+04 6.451911073930217955e-02 3.305225172929657923e-02 1.017279276207355282e-01
2.780000000000000000e+04 3.897362578536361366e-01 3.386447445149731728e-01 4.375872726180954908e-01
2.790000000000000000e+04 1.554110648071011180e+00 1.507526618384700035e+00 1.599875788339984561e+00
2.800000000000000000e+04 1.363155407660445073e+00 1.313166525275683005e+00 1.415465126956816810e+00
2.810000000000000000e+04 2.155287778048671221e-01 1.696306841381086949e-01 2.632630500191255885e-01
2.820000000000000000e+04 5.759816013524186179e-02 2.853586465026470426e-02 9.206503376474257927e-02
2.830000000000000000e+04 4.882042568118366566e-02 2.451443714214154510e-02 7.961423754378729734e-02
2.840000000000000000e+04 4.641107994661453073e-02 2.304774176286702309e-02 7.683172241193973739e-02
2.850000000000000000e+04 4.668271572112777518e-02 2.342948308582106648e-02 7.614158265200375586e-02
2.860000000000000000e+04 4.645489676975839144e-02 2.290944997862821506e-02 7.570924338827070277e-02
2.870000000000000000e+04 4.729347494458080448e-02 2.350943224972067494e-02 7.607603600305054559e-02
2.880000000000000000e+04 5.552289809637216134e-02 2.762274607293268083e-02 8.856641567864237397e-02
2.890000000000000000e+04 5.147663798658874690e-02 2.532703016740226257e-02 8.327816152711696451e-02
2.900000000000000000e+04 4.617493980849252805e-02 2.308778310331809774e-02 7.437985520072609713e-02
2.910000000000000000e+04 4.532173971607100782e-02 2.242482628156267782e-02 7.452960279931342136e-02
2.920000000000000000e+04 4.559722261869968152e-02 2.299620773507364893e-02 7.410571177719273150e-02
2.930000000000000000e+04 4.563697864489419526e-02 2.275853099958484102e-02 7.394629160721179206e-02
2.940000000000000000e+04 4.544218508841171844e-02 2.266888792221510504e-02 7.375646794529135131e-02
2.950000000000000000e+04 4.512771175738117257e-02 2.259559795610198429e-02 7.255254374393990680e-02
2.960000000000000000e+04 4.417106734444852661e-02 2.208163623204028106e-02 7.266921292397522658e-02
2.970000000000000000e+04 4.412038620014252510e-02 2.194009146065956789e-02 7.212761298697749346e-02
2.980000000000000000e+04 4.762902219538691501e-02 2.376592788416540328e-02 7.742670377411757510e-02
2.990000000000000000e+04 5.803211939813932713e-02 2.870488471578976769e-02 9.444742060975033771e-02
3.000000000000000000e+04 4.977279479414205982e-02 2.453489221066886689e-02 8.059862203992057550e-02
3.010000000000000000e+04 4.787206611057866212e-02 2.428083611468762407e-02 7.770393512412107628e-02
3.020000000000000000e+04 5.019425584574482152e-02 2.548601313163668253e-02 8.145592089383929535e-02
3.030000000000000000e+04 4.484173660875717671e-02 2.259976278934323207e-02 7.303338082061615333e-02
3.040000000000000000e+04 6.044980896779444252e-02 3.025983916470438226e-02 9.986037115483226145e-02
3.050000000000000000e+04 8.370922061538338399e-02 4.191258497003159250e-02 1.374917840748916542e-01
3.060000000000000000e+04 6.634374031195891530e-02 3.233046994332177543e-02 1.081204669913012895e-01
3.070000000000000000e+04 8.968711380821020596e-02 4.510383002207075248e-02 1.446992043547821183e-01
3.080000000000000000e+04 6.083889854818126663e-02 3.115036172947806964e-02 9.865935038966679171e-02
3.090000000000000000e+04 8.043551489142115873e-02 4.257782521995427671e-02 1.238382343228065924e-01
3.100000000000000000e+04 1.364578228037367780e-01 9.626632899777270991e-02 1.772014878377663472e-01
3.110000000000000000e+04 8.223857644910972930e-02 4.070185269838293152e-02 1.268292089864684891e-01
3.120000000000000000e+04 4.380855584629536614e-02 2.229829401863899635e-02 7.066878084182433295e-02
3.130000000000000000e+04 4.285553426498377172e-02 2.157472317924902586e-02 7.000961176108683182e-02
3.140000000000000000e+04 4.376635885459970871e-02 2.155707245055752883e-02 7.115873986176664279e-02
3.150000000000000000e+04 4.400263401037587951e-02 2.203624899679626839e-02 7.205885902282389843e-02
3.160000000000000000e+04 4.217520395433586172e-02 2.085458753692854411e-02 6.947794416125317729e-02
3.170000000000000000e+04 4.178128759695433347e-02 2.100912245462348629e-02 6.861976048583484644e-02
3.180000000000000000e+04 4.178045343103256593e-02 2.085267410097733573e-02 6.808244809173588652e-02
3.190000000000000000e+04 4.221479937044312486e-02 2.112925884433675822e-02 6.847455085604772784e-02
3.200000000000000000e+04 4.205829591290085462e-02 2.089774659366826909e-02 6.869509050970258601e-02
3.210000000000000000e+04 4.179540509021137384e-02 2.076020528374169366e-02 6.781253304771546475e-02
3.220000000000000000e+04 4.094251131737132454e-02 2.066529062792589119e-02 6.653368942480426818e-02
3.230000000000000000e+04 4.079718165667593072e-02 2.034537459292956596e-02 6.675032308512120205e-02
3.240000000000000000e+04 4.116021457708222975e-02 2.097598792116219316e-02 6.712053577699418627e-02
3.250000000000000000e+04 4.170141285564754607e-02 2.078657344847539487e-02 6.778167477551709508e-02
3.260000000000000000e+04 4.114077644423619340e-02 2.063783416699723275e-02 6.695978491089160656e-02
3.270000000000000000e+04 4.112647080412368261e-02 2.030628188640602044e-02 6.641392683105680483e-02
3.280000000000000000e+04 4.078968329466035186e-02 2.023562790574398584e-02 6.639518816658117328e-02
3.290000000000000000e+04 4.038452331942896795e-02 2.038356127204656032e-02 6.624629799537996855e-02
3.300000000000000000e+04 4.526362797121675358e-02 2.259211610003395918e-02 7.248175303224636823e-02
3.310000000000000000e+04 7.920654974736825171e-02 4.648143648569541542e-02 1.122779146593708560e-01
3.320000000000000000e+04 6.393111355524841444e-02 3.420693886805033224e-02 9.713844890074811722e-02
3.330000000000000000e+04 4.084771876166966298e-02 2.041168417757162346e-02 6.628938733686495777e-02
3.340000000000000000e+04 3.986418108642226371e-02 2.002448952996591786e-02 6.513852090098926073e-02
3.350000000000000000e+04 3.985669628577769713e-02 1.974958514529287848e-02 6.508281199222000490e-02
3.360000000000000000e+04 3.910506411582251318e-02 1.904164045208214459e-02 6.428703200814288310e-02
3.370000000000000000e+04 3.903404929489849573e-02 1.941965603766279691e-02 6.371226797559025046e-02
3.380000000000000000e+04 3.876214576577596826e-02 1.918565361080794285e-02 6.325326497097408240e-02
3.390000000000000000e+04 3.845384602546746827e-02 1.938849280284676152e-02 6.323814900516891435e-02
3.400000000000000000e+04 3.903314350797843640e-02 1.930921886797952458e-02 6.303943200610905018e-02
3.410000000000000000e+04 3.876371929945066769e-02 1.893777372197737521e-02 6.365254742557081846e-02
3.420000000000000000e+04 3.860660527299880629e-02 1.938478608726390204e-02 6.300322663317269034e-02
3.430000000000000000e+04 3.851107326719961643e-02 1.906650947856339262e-02 6.316824086463336541e-02
3.440000000000000000e+04 3.814524568628115814e-02 1.928069687836755572e-02 6.296016077416892454e-02
3.450000000000000000e+04 3.788395222837338816e-02 1.895927712505215273e-02 6.174459285059576141e-02
3.460000000000000000e+04 3.750363696728827717e-02 1.905500222568122862e-02 6.171639950355860965e-02
3.470000000000000000e+04 3.782409417078470143e-02 1.868198298470546623e-02 6.164666629883834570e-02
3.480000000000000000e+04 3.762337488605201063e-02 1.858476392797005911e-02 6.168670683411032335e-02
3.490000000000000000e+04 3.771441079597446372e-02 1.857259647389498947e-02 6.096881082132241808e-02
3.500000000000000000e+04 3.777786588125306433e-02 1.897297047554672225e-02 6.158129542657260480e-02
3.510000000000000000e+04 3.766078258797921074e-02 1.870370541943569206e-02 6.113014163174689680e-02
3.520000000000000000e+04 3.851740390906002037e-02 1.947227677711453261e-02 6.325645692959304400e-02
3.530000000000000000e+04 4.166083282628078172e-02 2.069978551862756630e-02 6.684470024030900182e-02
3.540000000000000000e+04 3.773479808265604168e-02 1.911011414472150657e-02 6.137707445526374012e-02
3.550000000000000000e+04 3.665470272273221863e-02 1.832539180314111601e-02 5.991856087328597397e-02
3.560000000000000000e+04 3.671721747786103190e-02 1.798056936204701223e-02 5.952738293329993408e-02
3.570000000000000000e+04 3.675771372847460444e-02 1.817637364552104548e-02 6.003315136532229312e-02
3.580000000000000000e+04 3.685484031125806775e-02 1.823886418305583138e-02 6.027941690019365112e-02
3.590000000000000000e+04 3.646106252979646606e-02 1.790636632030994518e-02 5.921849844407262031e-02
3.600000000000000000e+04 3.630429334900382027e-02 1.806272287728323891e-02 5.912081904806677779e-02
3.610000000000000000e+04 3.636883024404399811e-02 1.818784822606393792e-02 5.918459670210853701e-02
3.620000000000000000e+04 3.600642925353172985e-02 1.820695289225818594e-02 5.884463324337367574e-02
3.630000000000000000e+04 3.642728670815775088e-02 1.833859488295476459e-02 5.924491188890965154e-02
3.640000000000000000e+04 3.591818005193425645e-02 1.797620010268244709e-02 5.913575286652546226e-02
3.650000000000000000e+04 3.533880327573047514e-02 1.794914434342765805e-02 5.777101876658871649e-02
3.660000000000000000e+04 3.607404741624385680e-02 1.793792865901187861e-02 5.807265214889413552e-02
3.670000000000000000e+04 3.654306498429280708e-02 1.867120154675937227e-02 5.964093899954092670e-02
3.680000000000000000e+04 3.602182253658359895e-02 1.792674831500553137e-02 5.879467324937872469e-02
3.690000000000000000e+04 3.574677089327147478e-02 1.802606819838261862e-02 5.944594562971024232e-02
3.700000000000000000e+04 5.213839929282849256e-02 2.586739638332312061e-02 8.438353667430699423e-02
3.710000000000000000e+04 7.527271553901143664e-02 3.786321555429387337e-02 1.229070725178865175e-01
3.720000000000000000e+04 5.458191539539931914e-02 2.686520677191462161e-02 9.009304760604806839e-02
3.730000000000000000e+04 7.682066225099272450e-02 3.837139899356092898e-02 1.248262005754448012e-01
3.740000000000000000e+04 5.340502287705861661e-02 2.635543634589679329e-02 8.687452636918158166e-02
3.750000000000000000e+04 3.727457733562380970e-02 1.851355990260716497e-02 6.111365534296428481e-02
3.760000000000000000e+04 8.628344801412254905e-02 5.813232352314794127e-02 1.152428270882313449e-01
3.770000000000000000e+04 9.034612831223874652e-02 6.232289379811539742e-02 1.193587189755003219e-01
3.780000000000000000e+04 3.877631947470189938e-02 1.921722697890339976e-02 6.273055801600666004e-02
3.790000000000000000e+04 3.498974674344869362e-02 1.755951019556384676e-02 5.690495929428692617e-02
3.800000000000000000e+04 3.502446604395802882e-02 1.712587999129185079e-02 5.759146472255876475e-02
3.810000000000000000e+04 3.515170905605154161e-02 1.761370860431611673e-02 5.749791613782929967e-02
3.820000000000000000e+04 4.268466310384871898e-02 2.116195169402587326e-02 6.924661368537946005e-02
3.830000000000000000e+04 4.943202391827753589e-02 2.445345769035472613e-02 8.054041675442191739e-02
3.840000000000000000e+04 4.223318371284615763e-02 2.118040574309297194e-02 6.838617171376817905e-02
3.850000000000000000e+04 3.707584384029633667e-02 1.834013370963282277e-02 5.999603662974965779e-02
3.860000000000000000e+04 3.420129309052538646e-02 1.756276751917397114e-02 5.609396400236091318e-02
3.870000000000000000e+04 3.358493662665926194e-02 1.702605944192365703e-02 5.539013937940088367e-02
3.880000000000000000e+04 3.352651632453551578e-02 1.651917219714320664e-02 5.494110269058764817e-02
3.890000000000000000e+04 3.368912456227186880e-02 1.694049857224765032e-02 5.530193570069798226e-02
3.900000000000000000e+04 3.430411812347045064e-02 1.705965056790511095e-02 5.598887126795923375e-02
3.910000000000000000e+04 3.812367447444697105e-02 1.880589628849456754e-02 6.192587713071801003e-02
3.920000000000000000e+04 8.647346950313529457e-02 5.439917062248775942e-02 1.186166507709780771e-01
3.930000000000000000e+04 8.846646388087270330e-02 5.826454455045482206e-02 1.197901591601096410e-01
3.940000000000000000e+04 3.878974540509830954e-02 1.941842601938726862e-02 6.417710512052408889e-02
3.950000000000000000e+04 3.293906727802776990e-02 1.618682318501118642e-02 5.396763575220511755e-02
3.960000000000000000e+04 3.299861717398726302e-02 1.660007466885599775e-02 5.362244057250418333e-02
3.970000000000000000e+04 3.297028157571590956e-02 1.624585335148273982e-02 5.363424233055735790e-02
3.980000000000000000e+04 3.338059838254268247e-02 1.680415719607134331e-02 5.407643491529194602e-02
3.990000000000000000e+04 3.336018136364853059e-02 1.633177591621787217e-02 5.442837696994091284e-02
4.000000000000000000e+04 3.394083710530632764e-02 1.715344445327281545e-02 5.475274288574371456e-02
4.010000000000000000e+04 3.349667359951998685e-02 1.652480063096536597e-02 5.441496951209811445e-02
4.020000000000000000e+04 3.284385828508791516e-02 1.616151952716716328e-02 5.381848077089473187e-02
4.030000000000000000e+04 3.234708789946763585e-02 1.621532097983998180e-02 5.263348765172658900e-02
4.040000000000000000e+04 3.181107251516685636e-02 1.578787567198386074e-02 5.259533951230423859e-02
4.050000000000000000e+04 3.201715286338766009e-02 1.579439555593273661e-02 5.242321935281378520e-02
4.060000000000000000e+04 3.193612257737448584e-02 1.617380899419199047e-02 5.263646143506076763e-02
4.070000000000000000e+04 3.216802608458484147e-02 1.579902134347251422e-02 5.196895852420942152e-02
4.080000000000000000e+04 3.184014041886677054e-02 1.599228457993141436e-02 5.243549769640037939e-02
4.090000000000000000e+04 3.189138771019776192e-02 1.568864119900671011e-02 5.169428155952031367e-02
4.100000000000000000e+04 3.223561103207108619e-02 1.596092086764934123e-02 5.248805964394756551e-02
4.110000000000000000e+04 6.827580627841940697e-02 4.255252303570782046e-02 9.504759326241742079e-02
4.120000000000000000e+04 9.675318836754065455e-02 7.048994711525960466e-02 1.240156257777055571e-01
4.130000000000000000e+04 4.466447049165292449e-02 2.333322214594244978e-02 6.930820910050448924e-02
4.140000000000000000e+04 3.188161020871387724e-02 1.601170176455737199e-02 5.251387579445269960e-02
4.150000000000000000e+04 3.232877571665878497e-02 1.596106222789233850e-02 5.268291477912750292e-02
4.160000000000000000e+04 3.214680323796973577e-02 1.608304170399344618e-02 5.284528510652287264e-02
4.170000000000000000e+04 3.202301369864299363e-02 1.601431769745308153e-02 5.312362376383584356e-02
4.180000000000000000e+04 3.245146245582077732e-02 1.602879560609622028e-02 5.294354364396370444e-02
4.190000000000000000e+04 3.165026496187194754e-02 1.599029018223918283e-02 5.217743816845454852e-02
4.200000000000000000e+04 3.148112991686544127e-02 1.579044221692604139e-02 5.088686006386022864e-02
4.210000000000000000e+04 3.121981042511529775e-02 1.560470240717518227e-02 5.014031963538354703e-02
4.220000000000000000e+04 3.044708140017076542e-02 1.542505346679807002e-02 4.975218659512666702e-02
4.230000000000000000e+04 3.034338843774073494e-02 1.513577671808572639e-02 4.942996081884912934e-02
4.240000000000000000e+04 3.023153729167998155e-02 1.521244237326446931e-02 4.914275094243502479e-02
4.250000000000000000e+04 3.051956646845725013e-02 1.509926553497905298e-02 4.910409693386155044e-02
4.260000000000000000e+04 3.042948468377204216e-02 1.496977726915351033e-02 4.920471332822396598e-02
4.270000000000000000e+04 3.021261663851602247e-02 1.486696532320483377e-02 4.947844893385053983e-02
4.280000000000000000e+04 3.039245167214010140e-02 1.514591449567930827e-02 4.917417614361771494e-02
4.290000000000000000e+04 3.026353974040455960e-02 1.497541340700764279e-02 4.956683768985021415e-02
4.300000000000000000e+04 3.014295300300542588e-02 1.517285200471453488e-02 4.921392660206739406e-02
4.310000000000000000e+04 2.995260056334307641e-02 1.511348417457030781e-02 4.877996447381108963e-02
4.320000000000000000e+04 3.001044568569187498e-02 1.496199321901994436e-02 4.845534244574738886e-02
4.330000000000000000e+04 3.027000884884231344e-02 1.517871822817119278e-02 4.867693031636877860e-02
4.340000000000000000e+04 3.024950645012509584e-02 1.505287542406084748e-02 4.912715457381293394e-02
4.350000000000000000e+04 2.997980601786282007e-02 1.525139786219990509e-02 4.920090953774140102e-02
4.360000000000000000e+04 2.999388278729039556e-02 1.494521720975802367e-02 4.849449326553573886e-02
4.370000000000000000e+04 2.994128410250318159e-02 1.480480913952996261e-02 4.880865357288281803e-02
4.380000000000000000e+04 3.020019560111687415e-02 1.518891322080886432e-02 4.900824711724726529e-02
4.390000000000000000e+04 3.085303502938191098e-02 1.528083111003739059e-02 5.060163404838136092e-02
4.400000000000000000e+04 3.120997727007356407e-02 1.551566890813573830e-02 5.051334210933224045e-02
4.410000000000000000e+04 3.133411988232228523e-02 1.588814235682851211e-02 5.144063508834553766e-02
4.420000000000000000e+04 4.497752866820790840e-02 2.230079798559624418e-02 7.349580100561436957e-02
4.430000000000000000e+04 4.703583654399671327e-02 2.363459054182215358e-02 7.655679350065863753e-02
4.440000000000000000e+04 3.189646625003720454e-02 1.599600582050960187e-02 5.145283359075193685e-02
4.450000000000000000e+04 2.937754238956329783e-02 1.459543285671648614e-02 4.807392458823387532e-02
4.460000000000000000e+04 2.987977963676564236e-02 1.501415957254848520e-02 4.850206091818968362e-02
4.470000000000000000e+04 2.977519454242253533e-02 1.488129180629648579e-02 4.809908784993992964e-02
4.480000000000000000e+04 2.931437072656634807e-02 1.454923559718888232e-02 4.758157506027419631e-02
4.490000000000000000e+04 3.011784795915099094e-02 1.506670165967701272e-02 4.836474329242234499e-02
4.500000000000000000e+04 3.007958717995926762e-02 1.504567503085223711e-02 4.830235190438150750e-02
4.510000000000000000e+04 3.002712276017689003e-02 1.487908307585474911e-02 4.878408604960123712e-02
4.520000000000000000e+04 3.017812923922906509e-02 1.485131868011319890e-02 4.907014791003209281e-02
4.530000000000000000e+04 4.990893795018246093e-02 2.509835620593166977e-02 8.188511689190669518e-02
4.540000000000000000e+04 1.152599183313696429e-01 5.704496087624282008e-02 1.861172696388203318e-01
4.550000000000000000e+04 1.140947728773164943e-01 5.652140034084593423e-02 1.857277830992653811e-01
4.560000000000000000e+04 5.306947875693822370e-02 2.610676456848621055e-02 8.752796197831076708e-02
4.570000000000000000e+04 3.026309123022192377e-02 1.493509393460537397e-02 4.916317428208978602e-02
4.580000000000000000e+04 3.092054158677374348e-02 1.530545677004579996e-02 5.051210925636057808e-02
4.590000000000000000e+04 2.919955569592746006e-02 1.474086024063283110e-02 4.787279598046635665e-02
4.600000000000000000e+04 2.926512591256894003e-02 1.471968865879260194e-02 4.700866939784496129e-02
4.610000000000000000e+04 2.934305097350100450e-02 1.448557127177955636e-02 4.747478908749642318e-02
4.620000000000000000e+04 2.919821452248894805e-02 1.460535261071455732e-02 4.703747775698192274e-02
4.630000000000000000e+04 3.161948376903879476e-02 1.569921598288640668e-02 5.401567141458019083e-02
4.640000000000000000e+04 4.996772296586236145e-02 2.309984203463911687e-02 9.386565997417507801e-02
4.650000000000000000e+04 8.209092432774854620e-02 4.063014243043611140e-02 1.187309618208865769e-01
4.660000000000000000e+04 5.124287377350177780e-02 2.440220740473133393e-02 8.505792678779651450e-02
4.670000000000000000e+04 2.989576278481732158e-02 1.503555001398012604e-02 4.875649134128363232e-02
4.680000000000000000e+04 2.925068641282022042e-02 1.454330480684675429e-02 4.767476240873472909e-02
4.690000000000000000e+04 3.052775431087604088e-02 1.535692988341231906e-02 4.936260600695033945e-02
4.700000000000000000e+04 7.747802435304439184e-02 3.895839439641800989e-02 1.253421834158017223e-01
4.710000000000000000e+04 2.452127175798907432e-01 1.221103175566965460e-01 3.976554926674398249e-01
4.720000000000000000e+04 2.381042345449542463e-01 1.202752890377685457e-01 3.868680339480144448e-01
4.730000000000000000e+04 2.752317113650454838e-01 1.397247571405520195e-01 4.541870871631020767e-01
4.740000000000000000e+04 1.374897467551472741e-01 6.861944239499835618e-02 2.277040911748538510e-01
4.750000000000000000e+04 2.947956998717533514e-02 1.476455490243245260e-02 4.839849162069480987e-02
4.760000000000000000e+04 2.891640404378627988e-02 1.452257814166896602e-02 4.716766922626466907e-02
4.770000000000000000e+04 2.921543664735360910e-02 1.457903688774208652e-02 4.738963975245949478e-02
4.780000000000000000e+04 2.869992621937933128e-02 1.444317890018846466e-02 4.722230366620733949e-02
4.790000000000000000e+04 2.823477178690361050e-02 1.415117655084053606e-02 4.679598581833509935e-02
4.800000000000000000e+04 3.468739710849805952e-02 1.727355718718270525e-02 5.605869043046204925e-02
4.810000000000000000e+04 4.384999910757304831e-02 2.329889061718019155e-02 6.668968710097096519e-02
4.820000000000000000e+04 3.088716486543055528e-02 1.554854535042606532e-02 5.097592517518046568e-02
4.830000000000000000e+04 2.884764968741297675e-02 1.452147622677554817e-02 4.749692540000084034e-02
4.840000000000000000e+04 4.163517862375987200e-02 2.143460596318021508e-02 6.384431799479799163e-02
4.850000000000000000e+04 1.083326020113810073e-01 8.466390328678075061e-02 1.328601313544323370e-01
4.860000000000000000e+04 8.442158594553716977e-02 6.031500334477649106e-02 1.086603261647766938e-01
4.870000000000000000e+04 2.997518715658440205e-02 1.506516816956503420e-02 4.933038285059691830e-02
4.880000000000000000e+04 2.960543229698148898e-02 1.513467640421038707e-02 4.786026137211233517e-02
4.890000000000000000e+04 3.477266058981108576e-02 1.739166271489149540e-02 5.648252500462423026e-02
4.900000000000000000e+04 5.192207827594631786e-02 2.585206850308314694e-02 8.522457182833004241e-02
4.910000000000000000e+04 4.205741355878227922e-02 2.129660805610100044e-02 6.884622334424995993e-02
4.920000000000000000e+04 6.622851734636622800e-02 3.322428121382956651e-02 1.078845232871193938e-01
4.930000000000000000e+04 6.001207340521460404e-02 2.950581757944064146e-02 9.844240997405406812e-02
4.940000000000000000e+04 3.067137262040866078e-02 1.517015791806648924e-02 4.913755976936130809e-02
4.950000000000000000e+04 3.080319761671214060e-02 1.555094594451052366e-02 4.977292966817607744e-02
4.960000000000000000e+04 7.073581634699738219e-02 4.330055645304652090e-02 9.931239136818122148e-02
4.970000000000000000e+04 1.170205300954771932e-01 9.214475956248939503e-02 1.416673317199750592e-01
4.980000000000000000e+04 5.709507666115302277e-02 3.321100396055948201e-02 8.190954634706132387e-02
4.990000000000000000e+04 2.895559159518467165e-02 1.457890006882628896e-02 4.749297930806913037e-02
5.000000000000000000e+04 2.877487720502736740e-02 1.460276237807192623e-02 4.724937804257459129e-02
5.010000000000000000e+04 2.876345872764928327e-02 1.426605803527715953e-02 4.698466881316192695e-02
5.020000000000000000e+04 2.893960166842089385e-02 1.462861011516842363e-02 4.702178132958592660e-02
5.030000000000000000e+04 2.882162944294720461e-02 1.466068735319533273e-02 4.708910766332911890e-02
5.040000000000000000e+04 2.851469625284541384e-02 1.376318790548579536e-02 4.721910500622106266e-02
5.050000000000000000e+04 2.869576169825976963e-02 1.433128714887458958e-02 4.669807265828868764e-02
5.060000000000000000e+04 2.841983213307104975e-02 1.426383405166654905e-02 4.667502301820746630e-02
5.070000000000000000e+04 2.878177851676081561e-02 1.419068866745025470e-02 4.679686706395242562e-02
5.080000000000000000e+04 2.850901534052480493e-02 1.420424094901655623e-02 4.651667100153066697e-02
5.090000000000000000e+04 2.858632326261252229e-02 1.428009585666801216e-02 4.651520677202314324e-02
5.100000000000000000e+04 2.847048024949426145e-02 1.447611018124714613e-02 4.684856188491841322e-02
5.110000000000000000e+04 2.880493622688665503e-02 1.442316595169292927e-02 4.715417249046707088e-02
5.120000000000000000e+04 2.873990898634701252e-02 1.426352005928372378e-02 4.696035029673028410e-02
5.130000000000000000e+04 2.918252556519001367e-02 1.434934818242819890e-02 4.754317810460462895e-02
5.140000000000000000e+04 2.905023232641769371e-02 1.427293611506207094e-02 4.730169109185560633e-02
5.150000000000000000e+04 2.919050159357029078e-02 1.475145796993932064e-02 4.742900107644890811e-02
5.160000000000000000e+04 2.940260365157995603e-02 1.476920721577155114e-02 4.774846936453032431e-02
5.170000000000000000e+04 2.879857804485895512e-02 1.407108359334918735e-02 4.681912607857927761e-02
5.180000000000000000e+04 2.837719227548347878e-02 1.405340422580326348e-02 4.612023159501559000e-02
5.190000000000000000e+04 2.843145182795091958e-02 1.416168057097413370e-02 4.656145813739746148e-02
5.200000000000000000e+04 2.865924450116450958e-02 1.450678823286030532e-02 4.648317537409323019e-02
5.210000000000000000e+04 2.839414294088875301e-02 1.444985121645561352e-02 4.696636586789529333e-02
5.220000000000000000e+04 3.167973019148468544e-02 1.571663254110996014e-02 5.157529510204317963e-02
5.230000000000000000e+04 3.440325604100192419e-02 1.779178183682367936e-02 5.523622853384799886e-02
5.240000000000000000e+04 3.019662316123343515e-02 1.478341054005782168e-02 4.881151391850602206e-02
5.250000000000000000e+04 2.992254383565901704e-02 1.493063673181099088e-02 4.815907947424348523e-02
5.260000000000000000e+04 2.965305766266279272e-02 1.479953104989323830e-02 4.833889243131068991e-02
5.270000000000000000e+04 2.960701049782428138e-02 1.478290096155486337e-02 4.796951016603683698e-02
5.280000000000000000e+04 2.946266410857164425e-02 1.460941340178702370e-02 4.827047160374881019e-02
5.290000000000000000e+04 2.952231067913360305e-02 1.471993617639318248e-02 4.776276066097599055e-02
5.300000000000000000e+04 2.955257700478254937e-02 1.471455667377245813e-02 4.816763729011068473e-02
5.310000000000000000e+04 2.953068376656663857e-02 1.474071812863161045e-02 4.817462767751706093e-02
5.320000000000000000e+04 2.961239815684560406e-02 1.508810471683012973e-02 4.835726972473328167e-02
5.330000000000000000e+04 2.961653168270422451e-02 1.485124958763899342e-02 4.817532142885533331e-02
5.340000000000000000e+04 2.980644208707278892e-02 1.481484850287009998e-02 4.875279418123497355e-02
5.350000000000000000e+04 2.960122101129183600e-02 1.473192103998836010e-02 4.804686468637186375e-02
5.360000000000000000e+04 2.959567358618104757e-02 1.473499154544393244e-02 4.768086922445131243e-02
5.370000000000000000e+04 2.968601095464747444e-02 1.494246732426828331e-02 4.843647039541137261e-02
5.380000000000000000e+04 2.989002643155128092e-02 1.499981965376353220e-02 4.856162099639728391e-02
5.390000000000000000e+04 2.980659192372810476e-02 1.508675254161024985e-02 4.804556094007375600e-02
5.400000000000000000e+04 2.963003969894226902e-02 1.476203004521934627e-02 4.788898476987349384e-02
5.410000000000000000e+04 3.163625515590168247e-02 1.572786087686135412e-02 5.144799947359074421e-02
5.420000000000000000e+04 4.197066046872882650e-02 2.187701004578109995e-02 6.506256809083468817e-02
5.430000000000000000e+04 3.530464800871947056e-02 1.775526607357897843e-02 5.754083048257597338e-02
5.440000000000000000e+04 3.081056799202360266e-02 1.553883342044942197e-02 5.040639940158334054e-02
5.450000000000000000e+04 3.092536650321117686e-02 1.544545665738166103e-02 5.054799973929204743e-02
5.460000000000000000e+04 3.456035345714886242e-02 1.722053889365477569e-02 5.605566478180852574e-02
5.470000000000000000e+04 7.023408835040098608e-02 4.216686533510376200e-02 9.872264791889776014e-02
5.480000000000000000e+04 7.017743394632168508e-02 4.326426974997121810e-02 9.773677000747174604e-02
5.490000000000000000e+04 3.752852757791450000e-02 1.878272137282890539e-02 6.008124912764058884e-02
5.500000000000000000e+04 6.147588189409475268e-02 3.030552644774774443e-02 1.016437924778447049e-01
5.510000000000000000e+04 3.800775602069372261e-01 1.899755804628498190e-01 6.195778664350248821e-01
5.520000000000000000e+04 4.792259345146600569e-01 2.428614156635709176e-01 7.814251127919088491e-01
5.530000000000000000e+04 1.477714287978808272e-01 7.461312321509962209e-02 2.394402969850569496e-01
5.540000000000000000e+04 4.779904488556350334e-02 2.375339155994733373e-02 7.793109750487399456e-02
5.550000000000000000e+04 4.868693985386002843e-01 2.455755701706638094e-01 7.497397107799905758e-01
5.560000000000000000e+04 1.099690889725876808e+00 5.517933327649423569e-01 1.740117727910186707e+00
5.570000000000000000e+04 9.391473500643212624e-01 4.695791464751798427e-01 1.524482838790790051e+00
5.580000000000000000e+04 6.826642623825091016e-01 4.766368912975512684e-01 8.935126304781918494e-01
5.590000000000000000e+04 9.783065779264465966e-01 9.372002283393130462e-01 1.020287768055290423e+00
5.600000000000000000e+04 3.586089364562512483e-01 3.124748483791153775e-01 4.109230814114923080e-01
5.610000000000000000e+04 4.273363392307374942e-02 2.145650938108325037e-02 6.985271034335054086e-02
5.620000000000000000e+04 3.755854139379675993e-02 1.853478366686010098e-02 6.131842618341026840e-02
5.630000000000000000e+04 3.577812160930544244e-02 1.808607223073489464e-02 5.866515005584996278e-02
5.640000000000000000e+04 3.699514555271568583e-02 1.822873383048992726e-02 6.044120819831406283e-02
5.650000000000000000e+04 4.171281377022311582e-02 2.072587832527632290e-02 6.870608007273604212e-02
5.660000000000000000e+04 5.157241967186018683e-02 2.594166330671564963e-02 8.048727992601997783e-02
5.670000000000000000e+04 6.554482582490986364e-02 3.653427839251388587e-02 9.647658921284654743e-02
5.680000000000000000e+04 4.671068572097336613e-02 2.365531533132400957e-02 7.500428012615931173e-02
5.690000000000000000e+04 5.777631367366427295e-02 2.882549377308528046e-02 9.582594927247357897e-02
5.700000000000000000e+04 5.780252320928205151e-02 2.941128280405131204e-02 9.489189869341772832e-02
5.710000000000000000e+04 4.120526681616031722e-02 2.005667128183930004e-02 6.877841371495597989e-02
5.720000000000000000e+04 4.221321878094999591e-02 2.090894216147271001e-02 7.067284779818695795e-02
5.730000000000000000e+04 4.489435463856804309e-02 2.216830079236747561e-02 7.461272037757192555e-02
5.740000000000000000e+04 4.643625317820339327e-02 2.269658751369836580e-02 7.840697032545934642e-02
5.750000000000000000e+04 4.815055068779358627e-02 2.393160336817120107e-02 8.158592993746718869e-02
5.760000000000000000e+04 5.095636697438990503e-02 2.479262935961163913e-02 8.684318768454811488e-02
5.770000000000000000e+04 5.379173267154072069e-02 2.587240742685684852e-02 9.294486292755495260e-02
5.780000000000000000e+04 5.824831283335185628e-02 2.842771317277242166e-02 9.986545358312763632e-02
5.790000000000000000e+04 6.036545682648442740e-02 2.947736619905842043e-02 1.062374081697270434e-01
5.800000000000000000e+04 6.177101664369038375e-02 2.997434554604211723e-02 1.101254830582666516e-01
5.810000000000000000e+04 6.486445509693258837e-02 3.123527199642216201e-02 1.166804885387453111e-01
5.820000000000000000e+04 6.724593968380958298e-02 3.229997241555024323e-02 1.239150388825580318e-01
5.830000000000000000e+04 7.141001596036439247e-02 3.331418259339588572e-02 1.309556633225323063e-01
5.840000000000000000e+04 7.521910985224540547e-02 3.485626390748619574e-02 1.387689188629836201e-01
5.850000000000000000e+04 7.923007041316980359e-02 3.669679124351784422e-02 1.465512609938587063e-01
5.860000000000000000e+04 8.258383540962868641e-02 3.885607041848208876e-02 1.553523472518461290e-01
5.870000000000000000e+04 8.630907927725332829e-02 3.968468610705368216e-02 1.636665437620827279e-01
5.880000000000000000e+04 9.078776129772715697e-02 4.204685912147282378e-02 1.716191647638135864e-01
5.890000000000000000e+04 9.501185237328291233e-02 4.310627621141315674e-02 1.812249059770496273e-01
5.900000000000000000e+04 9.845688301992228109e-02 4.403087724072736464e-02 1.860930811232480997e-01
5.910000000000000000e+04 1.010136220535911705e-01 4.522764962663933241e-02 1.899385207307130730e-01
5.920000000000000000e+04 1.036240959300994413e-01 4.662537006918094501e-02 1.957877392865425559e-01
5.930000000000000000e+04 1.075089224082634437e-01 4.850317310596177767e-02 1.990593272327149388e-01
5.940000000000000000e+04 1.114584011207399722e-01 4.993597183518081600e-02 2.062744455974700464e-01
5.950000000000000000e+04 1.180399153283306218e-01 5.368822824162810398e-02 2.160803586141406274e-01
5.960000000000000000e+04 1.250442780043626301e-01 5.589176283535605277e-02 2.253712618017049696e-01
5.970000000000000000e+04 1.284156312695673707e-01 5.959393792193898309e-02 2.295353570298682977e-01
5.980000000000000000e+04 1.316708045937141081e-01 6.090018726170425001e-02 2.324624537059784557e-01
5.990000000000000000e+04 1.345291307162915506e-01 6.258071945751075837e-02 2.321015087672423094e-01
6.000000000000000000e+04 1.352119151115488971e-01 6.326421928029311859e-02 2.336367960193742044e-01
6.010000000000000000e+04 1.337987429498976033e-01 6.265033450926825453e-02 2.333371262356010445e-01
6.020000000000000000e+04 1.382941213253734147e-01 6.748449253139109094e-02 2.349800418604561791e-01
6.030000000000000000e+04 1.437711001359265051e-01 7.041553190899919878e-02 2.433173009167693690e-01
6.040000000000000000e+04 1.509379345146844298e-01 7.340101588670491783e-02 2.494444448567683936e-01
6.050000000000000000e+04 1.578026034494064422e-01 7.747565063025996235e-02 2.606570590716313363e-01
6.060000000000000000e+04 1.633422228999991954e-01 8.072290682368687964e-02 2.695060932338287918e-01
6.070000000000000000e+04 1.722246549784154368e-01 8.538671903074251945e-02 2.775660083590745786e-01
6.080000000000000000e+04 1.798501283019036390e-01 8.895373421413170500e-02 2.890968637108638495e-01
6.090000000000000000e+04 1.838057264959687687e-01 9.245860501646080420e-02 2.934468812695184559e-01
6.100000000000000000e+04 1.836595808757602866e-01 9.296407781388120461e-02 2.986432202815076931e-01
6.110000000000000000e+04 1.818673265215145496e-01 8.999966506646407682e-02 3.013518708201279317e-01
6.120000000000000000e+04 1.854403076706226394e-01 9.136541899889598362e-02 3.034775294664536216e-01
6.130000000000000000e+04 1.913603533930958722e-01 9.665091622905613855e-02 3.092684170307850033e-01
6.140000000000000000e+04 1.948931139377879929e-01 9.633627630291211053e-02 3.163145467648579845e-01
6.150000000000000000e+04 1.935157891007734943e-01 9.567638705097522567e-02 3.205421670248935762e-01
6.160000000000000000e+04 1.906279643128374890e-01 8.902112897078458265e-02 3.318189849707645078e-01
6.170000000000000000e+04 1.998986470680227667e-01 9.772755868884289154e-02 3.321552439990412275e-01
6.180000000000000000e+04 1.990427663920881773e-01 9.955514067939980061e-02 3.311203036812365164e-01
6.190000000000000000e+04 1.956916036987139118e-01 9.528153887546692014e-02 3.288430631896778755e-01
6.200000000000000000e+04 1.898374291622409171e-01 9.225813116444112061e-02 3.261437805641789756e-01
6.210000000000000000e+04 1.858591359835891910e-01 9.038518094997705088e-02 3.220095270330750603e-01
6.220000000000000000e+04 1.857484739492953341e-01 9.089232357768173287e-02 3.203356536174515878e-01
6.230000000000000000e+04 1.866568581463755871e-01 8.983658435542032916e-02 3.203632907490700510e-01
6.240000000000000000e+04 1.786856629774654648e-01 8.507986487260266184e-02 3.221832490681016403e-01
6.250000000000000000e+04 1.031174075010577867e-01 2.913059710382100154e-02 2.292288812030957024e-01
