# North DC Val: 0.86654823 VoltsSouth DC Val: 0.5754096900000001 Volts
# SR785 Measurement - Timestamp: May 06 2020 - 02:58:44
# Parameter File: /home/controls/Git/cit_ctnlab/ctn_scripts/TransRINSpecLong.yml
#---------- Measurement Setup ------------
# Start Frequency (Hz): 0.000000
# Frequency Span (Hz): 800.000000
# Frequency Resolution: 800
# Number of Averages: 100
# Averaging Mode: RMS
# Window function: Hanning
#---------- Measurement Parameters ----------
# Measurement Group:  "FFT" "FFT"
# Measurements:  "FFT 1" "FFT 2"
# View:  "Log Magnitude" "Log Magnitude"
# Unit:  "Vrms/rtHz" "Vrms/rtHz"
#---------- Input Parameters ----------
# Input Source: Analog
# Input Mode: Single ended, Single ended
# Input Grounding: Float, Float
# Input Coupling: AC, AC
# Input Range: -36.0dBVpk, -36.0dBVpk
# Auto Range: Off, Off
# Auto Range Mode: Tracking, Tracking
# Anti-Aliasing Filter: On, On
#---------- Source Parameters ----------
# Source Type: Sine
# Source Amplitude: 500.0mVpk
# Source On: 0

#---------- Measurement Data ----------
# [Freq(Hz) Display 0(Vrms/rtHz) Display 1(Vrms/rtHz) ]
+0.0000000e+000    +1.6622066e-003    +3.5168167e-004
+1.0000000e+000    +1.2271306e-003    +3.1017512e-004
+2.0000000e+000    +5.8955071e-004    +1.9436608e-004
+3.0000000e+000    +3.8678688e-004    +1.1230123e-004
+4.0000000e+000    +2.1709361e-004    +7.1568436e-005
+5.0000000e+000    +1.2730097e-004    +4.3894037e-005
+6.0000000e+000    +9.4938790e-005    +2.8853619e-005
+7.0000000e+000    +7.3742318e-005    +2.1186226e-005
+8.0000000e+000    +5.5703931e-005    +1.5608950e-005
+9.0000000e+000    +4.3517768e-005    +1.2392222e-005
+1.0000000e+001    +4.0145311e-005    +9.9952686e-006
+1.1000000e+001    +4.0072253e-005    +7.8484172e-006
+1.2000000e+001    +3.4186749e-005    +6.3005837e-006
+1.3000000e+001    +3.1195468e-005    +5.1495140e-006
+1.4000000e+001    +2.8741439e-005    +4.9291757e-006
+1.5000000e+001    +2.5327543e-005    +4.0279488e-006
+1.6000000e+001    +2.1773336e-005    +3.3809920e-006
+1.7000000e+001    +2.0084421e-005    +2.9470405e-006
+1.8000000e+001    +1.8358627e-005    +2.5972577e-006
+1.9000000e+001    +1.7158183e-005    +2.1898627e-006
+2.0000000e+001    +1.5920432e-005    +2.0675677e-006
+2.1000000e+001    +1.5984888e-005    +1.7754330e-006
+2.2000000e+001    +1.4816020e-005    +1.6338942e-006
+2.3000000e+001    +1.4451647e-005    +1.4381084e-006
+2.4000000e+001    +1.2263366e-005    +1.2384061e-006
+2.5000000e+001    +1.1544562e-005    +1.2257067e-006
+2.6000000e+001    +1.2105123e-005    +1.1868586e-006
+2.7000000e+001    +1.2688541e-005    +9.4490582e-007
+2.8000000e+001    +9.6577442e-006    +8.5010009e-007
+2.9000000e+001    +8.8013749e-006    +9.2777668e-007
+3.0000000e+001    +8.4606536e-006    +8.3314774e-007
+3.1000000e+001    +8.0795335e-006    +7.5081692e-007
+3.2000000e+001    +7.5851699e-006    +7.0627101e-007
+3.3000000e+001    +6.7865390e-006    +6.7497473e-007
+3.4000000e+001    +6.6215775e-006    +5.9913668e-007
+3.5000000e+001    +5.9420822e-006    +5.4705492e-007
+3.6000000e+001    +5.5009777e-006    +4.9047844e-007
+3.7000000e+001    +5.8030414e-006    +4.5158586e-007
+3.8000000e+001    +5.6037393e-006    +4.1951310e-007
+3.9000000e+001    +4.8652182e-006    +3.7790949e-007
+4.0000000e+001    +4.6067730e-006    +3.2225148e-007
+4.1000000e+001    +4.6561395e-006    +3.1155113e-007
+4.2000000e+001    +4.6838122e-006    +3.2033913e-007
+4.3000000e+001    +4.0093687e-006    +3.0968084e-007
+4.4000000e+001    +3.6001979e-006    +2.9230262e-007
+4.5000000e+001    +3.4553209e-006    +2.6568611e-007
+4.6000000e+001    +3.5723242e-006    +2.5068394e-007
+4.7000000e+001    +3.2427315e-006    +2.2865287e-007
+4.8000000e+001    +3.0486126e-006    +2.1854817e-007
+4.9000000e+001    +3.0307274e-006    +2.1286839e-007
+5.0000000e+001    +2.6768278e-006    +2.0088765e-007
+5.1000000e+001    +2.4997978e-006    +1.9669430e-007
+5.2000000e+001    +2.7567069e-006    +1.9440920e-007
+5.3000000e+001    +2.6356629e-006    +1.7589734e-007
+5.4000000e+001    +2.2464521e-006    +1.6202654e-007
+5.5000000e+001    +2.3078792e-006    +1.5329191e-007
+5.6000000e+001    +2.2892993e-006    +1.5104280e-007
+5.7000000e+001    +2.2254085e-006    +1.5157624e-007
+5.8000000e+001    +2.4233152e-006    +1.3719963e-007
+5.9000000e+001    +2.3552470e-006    +1.3012730e-007
+6.0000000e+001    +2.0235157e-006    +1.5421193e-007
+6.1000000e+001    +2.1681633e-006    +1.2879826e-007
+6.2000000e+001    +1.9061124e-006    +1.0997020e-007
+6.3000000e+001    +1.7426358e-006    +1.0390190e-007
+6.4000000e+001    +2.0128705e-006    +9.2780219e-008
+6.5000000e+001    +1.8878422e-006    +9.1148038e-008
+6.6000000e+001    +1.5031191e-006    +8.8859970e-008
+6.7000000e+001    +1.4010200e-006    +8.4588983e-008
+6.8000000e+001    +1.5668910e-006    +8.2034170e-008
+6.9000000e+001    +1.6700563e-006    +8.0512493e-008
+7.0000000e+001    +1.5541862e-006    +8.1560337e-008
+7.1000000e+001    +1.2770639e-006    +7.3871732e-008
+7.2000000e+001    +1.2018036e-006    +6.9815783e-008
+7.3000000e+001    +1.2922619e-006    +7.0623528e-008
+7.4000000e+001    +1.4668547e-006    +7.3101923e-008
+7.5000000e+001    +1.2642275e-006    +7.1894263e-008
+7.6000000e+001    +9.5268445e-007    +7.1027749e-008
+7.7000000e+001    +9.2749559e-007    +7.1350165e-008
+7.8000000e+001    +9.6168151e-007    +6.7506519e-008
+7.9000000e+001    +9.7872498e-007    +6.2777616e-008
+8.0000000e+001    +9.4341510e-007    +6.0834722e-008
+8.1000000e+001    +8.0718019e-007    +5.2193002e-008
+8.2000000e+001    +6.8797942e-007    +5.4991361e-008
+8.3000000e+001    +6.1283828e-007    +6.0096028e-008
+8.4000000e+001    +6.7385218e-007    +5.8387741e-008
+8.5000000e+001    +7.6658881e-007    +5.5788092e-008
+8.6000000e+001    +7.1936267e-007    +5.4344678e-008
+8.7000000e+001    +6.6197310e-007    +5.2959887e-008
+8.8000000e+001    +5.8910615e-007    +4.9757649e-008
+8.9000000e+001    +6.0261743e-007    +5.0278704e-008
+9.0000000e+001    +7.3520323e-007    +4.6887568e-008
+9.1000000e+001    +8.1965834e-007    +4.5014975e-008
+9.2000000e+001    +8.9716588e-007    +4.6826191e-008
+9.3000000e+001    +8.1433450e-007    +4.9653192e-008
+9.4000000e+001    +6.6265233e-007    +5.0625861e-008
+9.5000000e+001    +6.5219689e-007    +4.8844544e-008
+9.6000000e+001    +7.4798567e-007    +4.7697373e-008
+9.7000000e+001    +7.7965581e-007    +4.2687947e-008
+9.8000000e+001    +6.7412969e-007    +4.7699782e-008
+9.9000000e+001    +5.8807672e-007    +4.8797641e-008
+1.0000000e+002    +6.6627746e-007    +4.4958867e-008
+1.0100000e+002    +7.5074024e-007    +4.3327447e-008
+1.0200000e+002    +7.3689142e-007    +4.1817991e-008
+1.0300000e+002    +6.2027385e-007    +4.2840266e-008
+1.0400000e+002    +4.8280748e-007    +4.6266081e-008
+1.0500000e+002    +4.2274047e-007    +4.3269544e-008
+1.0600000e+002    +4.6746413e-007    +3.8564849e-008
+1.0700000e+002    +5.6906111e-007    +4.0663949e-008
+1.0800000e+002    +5.3804104e-007    +4.4093674e-008
+1.0900000e+002    +4.3548025e-007    +4.4118323e-008
+1.1000000e+002    +4.1669995e-007    +4.2175067e-008
+1.1100000e+002    +5.1044634e-007    +3.7944162e-008
+1.1200000e+002    +5.5400972e-007    +4.1290981e-008
+1.1300000e+002    +4.7928251e-007    +4.1779440e-008
+1.1400000e+002    +3.6042084e-007    +3.8666183e-008
+1.1500000e+002    +3.2786755e-007    +4.0440746e-008
+1.1600000e+002    +3.1884886e-007    +4.5368157e-008
+1.1700000e+002    +3.5898603e-007    +4.3098332e-008
+1.1800000e+002    +3.8853432e-007    +3.9358358e-008
+1.1900000e+002    +8.0865891e-007    +3.6936381e-008
+1.2000000e+002    +1.4577353e-006    +3.7227895e-008
+1.2100000e+002    +7.6349266e-007    +3.6038049e-008
+1.2200000e+002    +3.3397765e-007    +4.0363251e-008
+1.2300000e+002    +3.3579846e-007    +3.9471917e-008
+1.2400000e+002    +2.8261533e-007    +3.9187476e-008
+1.2500000e+002    +2.4252637e-007    +3.8813265e-008
+1.2600000e+002    +2.4023893e-007    +3.8881982e-008
+1.2700000e+002    +2.6008874e-007    +3.7194845e-008
+1.2800000e+002    +2.5742980e-007    +3.7704826e-008
+1.2900000e+002    +2.6065763e-007    +3.3956237e-008
+1.3000000e+002    +2.4928468e-007    +3.6363573e-008
+1.3100000e+002    +2.0980299e-007    +3.6794429e-008
+1.3200000e+002    +2.0750521e-007    +3.7704577e-008
+1.3300000e+002    +2.2443319e-007    +3.9472912e-008
+1.3400000e+002    +2.2091001e-007    +3.8978495e-008
+1.3500000e+002    +2.4046034e-007    +3.6302819e-008
+1.3600000e+002    +2.3473267e-007    +3.5901795e-008
+1.3700000e+002    +2.4278665e-007    +3.5430435e-008
+1.3800000e+002    +3.0393750e-007    +3.3292689e-008
+1.3900000e+002    +3.8343191e-007    +3.3656882e-008
+1.4000000e+002    +4.8686917e-007    +3.5141767e-008
+1.4100000e+002    +6.1922321e-007    +3.3378374e-008
+1.4200000e+002    +9.0150962e-007    +3.5943881e-008
+1.4300000e+002    +1.5204613e-006    +3.6424712e-008
+1.4400000e+002    +1.8580148e-006    +3.3055425e-008
+1.4500000e+002    +1.6938211e-006    +3.6027721e-008
+1.4600000e+002    +1.2617536e-006    +3.6322593e-008
+1.4700000e+002    +7.9323638e-007    +3.0736420e-008
+1.4800000e+002    +5.5340303e-007    +3.2861863e-008
+1.4900000e+002    +4.1804631e-007    +3.5545341e-008
+1.5000000e+002    +3.1136679e-007    +3.4570437e-008
+1.5100000e+002    +2.7256590e-007    +3.5204057e-008
+1.5200000e+002    +2.3440995e-007    +3.5376093e-008
+1.5300000e+002    +1.8498137e-007    +3.7131436e-008
+1.5400000e+002    +1.9817682e-007    +3.4707810e-008
+1.5500000e+002    +2.0927361e-007    +3.2402365e-008
+1.5600000e+002    +2.2334544e-007    +3.4762920e-008
+1.5700000e+002    +2.2351912e-007    +3.4655564e-008
+1.5800000e+002    +2.1696350e-007    +3.3722575e-008
+1.5900000e+002    +1.9072763e-007    +3.3880156e-008
+1.6000000e+002    +1.6681211e-007    +3.5413205e-008
+1.6100000e+002    +1.5687468e-007    +3.6473494e-008
+1.6200000e+002    +1.5301143e-007    +3.4591395e-008
+1.6300000e+002    +1.4942071e-007    +3.1666136e-008
+1.6400000e+002    +1.4187926e-007    +3.5412857e-008
+1.6500000e+002    +1.3417386e-007    +3.3252540e-008
+1.6600000e+002    +1.2611706e-007    +3.3236482e-008
+1.6700000e+002    +1.3808582e-007    +3.3907728e-008
+1.6800000e+002    +1.3194627e-007    +3.4737241e-008
+1.6900000e+002    +1.0129957e-007    +3.5759619e-008
+1.7000000e+002    +9.9178934e-008    +3.5611357e-008
+1.7100000e+002    +1.0848814e-007    +3.4971176e-008
+1.7200000e+002    +1.0629366e-007    +3.5468695e-008
+1.7300000e+002    +1.0273113e-007    +3.5849606e-008
+1.7400000e+002    +9.2528538e-008    +3.4471928e-008
+1.7500000e+002    +9.1427879e-008    +3.0875501e-008
+1.7600000e+002    +9.5464145e-008    +3.1588733e-008
+1.7700000e+002    +9.8643099e-008    +3.6371560e-008
+1.7800000e+002    +9.7798164e-008    +3.6073956e-008
+1.7900000e+002    +2.5480057e-007    +5.8107688e-008
+1.8000000e+002    +4.8950204e-007    +1.0391799e-007
+1.8100000e+002    +2.6824353e-007    +6.2344874e-008
+1.8200000e+002    +8.7217039e-008    +3.8518472e-008
+1.8300000e+002    +9.2656940e-008    +3.8663465e-008
+1.8400000e+002    +9.0449689e-008    +3.4859312e-008
+1.8500000e+002    +7.9747871e-008    +3.6563712e-008
+1.8600000e+002    +8.5429470e-008    +3.6278710e-008
+1.8700000e+002    +8.5420375e-008    +3.7922963e-008
+1.8800000e+002    +9.0975568e-008    +3.8092388e-008
+1.8900000e+002    +9.0296183e-008    +3.7271249e-008
+1.9000000e+002    +8.5103679e-008    +3.5301209e-008
+1.9100000e+002    +7.7565474e-008    +3.2919715e-008
+1.9200000e+002    +7.9900282e-008    +3.1600631e-008
+1.9300000e+002    +8.2987022e-008    +3.1393451e-008
+1.9400000e+002    +7.5790012e-008    +3.1403001e-008
+1.9500000e+002    +7.8228567e-008    +3.3050163e-008
+1.9600000e+002    +7.8065632e-008    +3.5294466e-008
+1.9700000e+002    +7.5116489e-008    +3.4380381e-008
+1.9800000e+002    +7.6449254e-008    +3.2984477e-008
+1.9900000e+002    +7.6647858e-008    +3.4065948e-008
+2.0000000e+002    +7.1392954e-008    +3.7387895e-008
+2.0100000e+002    +7.6076809e-008    +3.8229985e-008
+2.0200000e+002    +6.6561867e-008    +3.5985973e-008
+2.0300000e+002    +6.6790932e-008    +3.7856690e-008
+2.0400000e+002    +6.5504601e-008    +3.6793338e-008
+2.0500000e+002    +6.7463020e-008    +3.2304325e-008
+2.0600000e+002    +6.8426019e-008    +3.5798276e-008
+2.0700000e+002    +6.8603256e-008    +3.8306837e-008
+2.0800000e+002    +7.1882582e-008    +3.5466631e-008
+2.0900000e+002    +7.2468119e-008    +3.3474198e-008
+2.1000000e+002    +7.7347337e-008    +3.6380825e-008
+2.1100000e+002    +7.9529009e-008    +3.6506428e-008
+2.1200000e+002    +7.3968238e-008    +3.7923712e-008
+2.1300000e+002    +8.0031633e-008    +3.6145398e-008
+2.1400000e+002    +9.0853085e-008    +3.4395672e-008
+2.1500000e+002    +9.4050890e-008    +3.6837964e-008
+2.1600000e+002    +1.0144894e-007    +3.6194127e-008
+2.1700000e+002    +1.5261780e-007    +3.6538509e-008
+2.1800000e+002    +1.3624431e-007    +3.4725574e-008
+2.1900000e+002    +9.5695860e-008    +3.2666993e-008
+2.2000000e+002    +1.0265029e-007    +3.7719154e-008
+2.2100000e+002    +1.0606225e-007    +3.9129347e-008
+2.2200000e+002    +1.0098984e-007    +3.9237761e-008
+2.2300000e+002    +9.2313918e-008    +3.8401122e-008
+2.2400000e+002    +8.5864293e-008    +3.8606114e-008
+2.2500000e+002    +7.2507518e-008    +3.9672603e-008
+2.2600000e+002    +7.1773826e-008    +3.8974218e-008
+2.2700000e+002    +7.7788670e-008    +3.9427910e-008
+2.2800000e+002    +7.5921022e-008    +3.9577586e-008
+2.2900000e+002    +6.9386232e-008    +3.7084906e-008
+2.3000000e+002    +6.8654494e-008    +4.0764796e-008
+2.3100000e+002    +7.1918890e-008    +3.7692907e-008
+2.3200000e+002    +7.4795771e-008    +3.6186417e-008
+2.3300000e+002    +7.6810203e-008    +3.6417713e-008
+2.3400000e+002    +7.8468744e-008    +4.0696374e-008
+2.3500000e+002    +8.6947985e-008    +4.1839300e-008
+2.3600000e+002    +8.5819813e-008    +3.8534715e-008
+2.3700000e+002    +7.7580125e-008    +3.6995313e-008
+2.3800000e+002    +7.3920575e-008    +3.9623849e-008
+2.3900000e+002    +1.4928199e-007    +3.7954578e-008
+2.4000000e+002    +2.8110944e-007    +3.8713761e-008
+2.4100000e+002    +1.7980065e-007    +3.8818850e-008
+2.4200000e+002    +1.4448649e-007    +4.0783643e-008
+2.4300000e+002    +1.6504767e-007    +4.1513271e-008
+2.4400000e+002    +1.4414992e-007    +4.0564462e-008
+2.4500000e+002    +1.0548414e-007    +3.7916841e-008
+2.4600000e+002    +1.3861293e-007    +3.9150059e-008
+2.4700000e+002    +1.2603773e-007    +3.9531898e-008
+2.4800000e+002    +1.5828266e-007    +4.0822620e-008
+2.4900000e+002    +2.3372044e-007    +3.9255774e-008
+2.5000000e+002    +3.0080616e-007    +4.1143135e-008
+2.5100000e+002    +3.1934459e-007    +4.2670518e-008
+2.5200000e+002    +3.2230844e-007    +4.1768111e-008
+2.5300000e+002    +3.1304680e-007    +4.4112124e-008
+2.5400000e+002    +2.6790681e-007    +4.5705843e-008
+2.5500000e+002    +3.1290591e-007    +4.5522992e-008
+2.5600000e+002    +3.1876274e-007    +4.3148091e-008
+2.5700000e+002    +3.9370764e-007    +4.5769468e-008
+2.5800000e+002    +4.3594670e-007    +4.6508156e-008
+2.5900000e+002    +4.8215804e-007    +4.2602359e-008
+2.6000000e+002    +4.8660303e-007    +4.2997609e-008
+2.6100000e+002    +5.0322609e-007    +3.8715800e-008
+2.6200000e+002    +5.8682411e-007    +4.1365762e-008
+2.6300000e+002    +6.9153276e-007    +4.4778410e-008
+2.6400000e+002    +7.9547436e-007    +4.4605684e-008
+2.6500000e+002    +8.4324057e-007    +4.2543181e-008
+2.6600000e+002    +9.5037245e-007    +3.9971539e-008
+2.6700000e+002    +9.8161991e-007    +4.1386297e-008
+2.6800000e+002    +1.2588906e-006    +4.6239723e-008
+2.6900000e+002    +1.5725043e-006    +4.5292506e-008
+2.7000000e+002    +1.8225211e-006    +4.6384898e-008
+2.7100000e+002    +2.7560773e-006    +4.5071307e-008
+2.7200000e+002    +3.9615843e-006    +4.6774240e-008
+2.7300000e+002    +4.2987463e-006    +4.5529287e-008
+2.7400000e+002    +3.7319569e-006    +4.0387853e-008
+2.7500000e+002    +3.1187044e-006    +4.1541128e-008
+2.7600000e+002    +2.7143524e-006    +4.2334150e-008
+2.7700000e+002    +2.2292870e-006    +4.6674153e-008
+2.7800000e+002    +1.9127015e-006    +4.9998775e-008
+2.7900000e+002    +1.6265449e-006    +4.7210740e-008
+2.8000000e+002    +1.3963484e-006    +4.7119958e-008
+2.8100000e+002    +1.4475977e-006    +4.9592607e-008
+2.8200000e+002    +1.4224908e-006    +4.8851572e-008
+2.8300000e+002    +1.0124276e-006    +4.7946514e-008
+2.8400000e+002    +8.3579101e-007    +5.0656997e-008
+2.8500000e+002    +8.0504276e-007    +5.1547861e-008
+2.8600000e+002    +6.8033773e-007    +4.8153744e-008
+2.8700000e+002    +5.9758230e-007    +4.8589616e-008
+2.8800000e+002    +5.9124000e-007    +4.6169461e-008
+2.8900000e+002    +5.6108934e-007    +4.6076686e-008
+2.9000000e+002    +5.0062766e-007    +4.8607010e-008
+2.9100000e+002    +3.8081683e-007    +4.9187957e-008
+2.9200000e+002    +3.5272848e-007    +4.7379348e-008
+2.9300000e+002    +3.7623113e-007    +4.8244448e-008
+2.9400000e+002    +4.0967831e-007    +5.3898116e-008
+2.9500000e+002    +4.0760008e-007    +5.2534105e-008
+2.9600000e+002    +3.0851544e-007    +5.2744657e-008
+2.9700000e+002    +2.7002361e-007    +5.4876036e-008
+2.9800000e+002    +2.3859076e-007    +5.0906227e-008
+2.9900000e+002    +2.4714154e-007    +4.9989278e-008
+3.0000000e+002    +2.5618974e-007    +4.7417704e-008
+3.0100000e+002    +2.5310891e-007    +5.0902482e-008
+3.0200000e+002    +2.4242306e-007    +4.8166701e-008
+3.0300000e+002    +1.7114289e-007    +4.7823960e-008
+3.0400000e+002    +1.2803913e-007    +5.2459232e-008
+3.0500000e+002    +1.1924595e-007    +5.1432082e-008
+3.0600000e+002    +1.2402990e-007    +4.7998764e-008
+3.0700000e+002    +1.2621845e-007    +4.9817015e-008
+3.0800000e+002    +1.3173275e-007    +5.5556974e-008
+3.0900000e+002    +1.2544767e-007    +5.5242623e-008
+3.1000000e+002    +1.1403353e-007    +5.4527032e-008
+3.1100000e+002    +1.0192188e-007    +5.0979441e-008
+3.1200000e+002    +9.9245057e-008    +5.2457505e-008
+3.1300000e+002    +9.2708021e-008    +5.5573810e-008
+3.1400000e+002    +8.7248935e-008    +5.3076601e-008
+3.1500000e+002    +8.9689109e-008    +5.1841301e-008
+3.1600000e+002    +9.4768204e-008    +5.2362903e-008
+3.1700000e+002    +9.3800402e-008    +5.1754515e-008
+3.1800000e+002    +9.1627562e-008    +5.5290318e-008
+3.1900000e+002    +9.0103363e-008    +4.8652183e-008
+3.2000000e+002    +1.0060636e-007    +5.0803042e-008
+3.2100000e+002    +1.0122641e-007    +5.2361521e-008
+3.2200000e+002    +8.8810907e-008    +4.8846424e-008
+3.2300000e+002    +9.4260756e-008    +5.4776351e-008
+3.2400000e+002    +8.9021782e-008    +5.5280118e-008
+3.2500000e+002    +8.9241382e-008    +5.9186220e-008
+3.2600000e+002    +8.5762444e-008    +5.8180081e-008
+3.2700000e+002    +8.8772303e-008    +5.8881000e-008
+3.2800000e+002    +9.9518061e-008    +5.3940443e-008
+3.2900000e+002    +1.0076180e-007    +5.2652080e-008
+3.3000000e+002    +9.4685831e-008    +5.4052496e-008
+3.3100000e+002    +9.5243863e-008    +5.6961120e-008
+3.3200000e+002    +1.0531437e-007    +5.6301040e-008
+3.3300000e+002    +1.0114276e-007    +5.2853874e-008
+3.3400000e+002    +1.2082323e-007    +5.5044154e-008
+3.3500000e+002    +1.0529183e-007    +6.1588317e-008
+3.3600000e+002    +9.9718662e-008    +5.9803192e-008
+3.3700000e+002    +9.9553908e-008    +6.0652653e-008
+3.3800000e+002    +1.1488130e-007    +6.2051903e-008
+3.3900000e+002    +1.1999380e-007    +6.0504924e-008
+3.4000000e+002    +1.1713893e-007    +6.4594985e-008
+3.4100000e+002    +1.2053954e-007    +6.1149606e-008
+3.4200000e+002    +1.2879769e-007    +6.3135751e-008
+3.4300000e+002    +1.3147699e-007    +5.8136852e-008
+3.4400000e+002    +1.3132190e-007    +5.8255253e-008
+3.4500000e+002    +1.5386522e-007    +5.9332617e-008
+3.4600000e+002    +1.8697472e-007    +6.4805185e-008
+3.4700000e+002    +1.8364776e-007    +6.7057961e-008
+3.4800000e+002    +1.9914178e-007    +6.0924229e-008
+3.4900000e+002    +2.5805974e-007    +6.3673731e-008
+3.5000000e+002    +2.6123266e-007    +6.7882084e-008
+3.5100000e+002    +2.2640924e-007    +6.0323970e-008
+3.5200000e+002    +2.2823700e-007    +6.5206443e-008
+3.5300000e+002    +2.3819237e-007    +6.1376618e-008
+3.5400000e+002    +2.1746959e-007    +5.7173779e-008
+3.5500000e+002    +2.1169369e-007    +5.9848446e-008
+3.5600000e+002    +2.2385093e-007    +5.9492304e-008
+3.5700000e+002    +1.8933805e-007    +6.1319163e-008
+3.5800000e+002    +1.5990365e-007    +6.3051857e-008
+3.5900000e+002    +1.4271809e-007    +6.5527182e-008
+3.6000000e+002    +1.5198604e-007    +6.7058700e-008
+3.6100000e+002    +1.3339476e-007    +6.3023826e-008
+3.6200000e+002    +1.2395570e-007    +6.5535247e-008
+3.6300000e+002    +1.2078371e-007    +7.0125928e-008
+3.6400000e+002    +1.0390087e-007    +6.9630985e-008
+3.6500000e+002    +1.0018397e-007    +6.4354438e-008
+3.6600000e+002    +9.6218741e-008    +6.4863841e-008
+3.6700000e+002    +8.6660066e-008    +6.1937214e-008
+3.6800000e+002    +1.0035340e-007    +6.0944167e-008
+3.6900000e+002    +1.0438054e-007    +6.2231898e-008
+3.7000000e+002    +9.6579555e-008    +6.6501457e-008
+3.7100000e+002    +9.9234050e-008    +7.1910129e-008
+3.7200000e+002    +9.6275912e-008    +7.0417883e-008
+3.7300000e+002    +8.8439194e-008    +6.8068744e-008
+3.7400000e+002    +9.2072803e-008    +7.1252231e-008
+3.7500000e+002    +9.9403621e-008    +7.4984975e-008
+3.7600000e+002    +9.2413501e-008    +6.9381663e-008
+3.7700000e+002    +9.6750753e-008    +7.4205111e-008
+3.7800000e+002    +9.8550757e-008    +6.7945692e-008
+3.7900000e+002    +1.0371908e-007    +6.7541954e-008
+3.8000000e+002    +1.0458554e-007    +6.9755941e-008
+3.8100000e+002    +1.0306158e-007    +7.1424552e-008
+3.8200000e+002    +9.6482260e-008    +7.5575542e-008
+3.8300000e+002    +9.0398856e-008    +6.9960045e-008
+3.8400000e+002    +9.0327916e-008    +7.0125076e-008
+3.8500000e+002    +9.0985459e-008    +7.6021117e-008
+3.8600000e+002    +1.0055601e-007    +6.9747898e-008
+3.8700000e+002    +1.2554949e-007    +6.8885846e-008
+3.8800000e+002    +1.1845270e-007    +7.1131076e-008
+3.8900000e+002    +1.0861114e-007    +7.5832382e-008
+3.9000000e+002    +1.0580416e-007    +7.8487616e-008
+3.9100000e+002    +1.0423464e-007    +7.2920756e-008
+3.9200000e+002    +9.7460720e-008    +7.2293282e-008
+3.9300000e+002    +9.6429417e-008    +7.9265654e-008
+3.9400000e+002    +9.0699999e-008    +8.3246007e-008
+3.9500000e+002    +8.9810214e-008    +8.2236717e-008
+3.9600000e+002    +8.1683829e-008    +8.1122003e-008
+3.9700000e+002    +7.3383625e-008    +7.7910641e-008
+3.9800000e+002    +7.3267046e-008    +7.0643537e-008
+3.9900000e+002    +7.8197566e-008    +7.1866957e-008
+4.0000000e+002    +7.6529460e-008    +7.4649002e-008
+4.0100000e+002    +6.9850977e-008    +7.9291070e-008
+4.0200000e+002    +7.4019823e-008    +7.6825721e-008
+4.0300000e+002    +8.9675716e-008    +7.8910674e-008
+4.0400000e+002    +9.7020525e-008    +8.3860471e-008
+4.0500000e+002    +9.0684864e-008    +7.9237722e-008
+4.0600000e+002    +9.8169210e-008    +7.7520184e-008
+4.0700000e+002    +9.7574002e-008    +8.2436145e-008
+4.0800000e+002    +9.3609962e-008    +8.4812832e-008
+4.0900000e+002    +9.4570709e-008    +7.9579060e-008
+4.1000000e+002    +9.1557766e-008    +7.6943223e-008
+4.1100000e+002    +8.4648633e-008    +7.6337869e-008
+4.1200000e+002    +8.5091720e-008    +7.1608994e-008
+4.1300000e+002    +8.7616314e-008    +7.2513487e-008
+4.1400000e+002    +8.3415728e-008    +7.7943412e-008
+4.1500000e+002    +8.1021156e-008    +7.7699383e-008
+4.1600000e+002    +8.2429082e-008    +8.0750553e-008
+4.1700000e+002    +8.1255180e-008    +8.0646529e-008
+4.1800000e+002    +7.4452714e-008    +7.7971485e-008
+4.1900000e+002    +8.2755271e-008    +8.3408402e-008
+4.2000000e+002    +1.1763346e-007    +9.3485681e-008
+4.2100000e+002    +9.3932627e-008    +8.6188365e-008
+4.2200000e+002    +7.4817045e-008    +8.2796440e-008
+4.2300000e+002    +6.8805342e-008    +8.4031072e-008
+4.2400000e+002    +6.6940700e-008    +7.6984122e-008
+4.2500000e+002    +6.6032314e-008    +8.2731013e-008
+4.2600000e+002    +6.6013612e-008    +8.9816332e-008
+4.2700000e+002    +7.1246752e-008    +8.0106709e-008
+4.2800000e+002    +8.0950464e-008    +8.2474713e-008
+4.2900000e+002    +7.8044202e-008    +8.2204217e-008
+4.3000000e+002    +6.1095179e-008    +8.4831548e-008
+4.3100000e+002    +6.0806208e-008    +8.7460421e-008
+4.3200000e+002    +6.6365203e-008    +8.9452492e-008
+4.3300000e+002    +7.3661319e-008    +9.3499331e-008
+4.3400000e+002    +8.7693600e-008    +9.1962676e-008
+4.3500000e+002    +8.6745452e-008    +8.6697085e-008
+4.3600000e+002    +8.4799979e-008    +8.1709395e-008
+4.3700000e+002    +1.0159273e-007    +7.8360785e-008
+4.3800000e+002    +9.5474626e-008    +8.9028035e-008
+4.3900000e+002    +1.0464952e-007    +8.8596543e-008
+4.4000000e+002    +1.2303853e-007    +8.6665871e-008
+4.4100000e+002    +1.4318771e-007    +8.3561389e-008
+4.4200000e+002    +1.6525512e-007    +8.3147356e-008
+4.4300000e+002    +1.7588653e-007    +8.3528001e-008
+4.4400000e+002    +1.7456979e-007    +8.2837907e-008
+4.4500000e+002    +1.6368965e-007    +8.8964420e-008
+4.4600000e+002    +1.4674845e-007    +8.7176637e-008
+4.4700000e+002    +1.2461152e-007    +8.5479670e-008
+4.4800000e+002    +1.2946421e-007    +8.6364750e-008
+4.4900000e+002    +1.1638423e-007    +9.2910497e-008
+4.5000000e+002    +9.0101878e-008    +9.6917994e-008
+4.5100000e+002    +8.1204348e-008    +9.3920455e-008
+4.5200000e+002    +7.9544115e-008    +9.0129284e-008
+4.5300000e+002    +7.9105590e-008    +9.1050715e-008
+4.5400000e+002    +7.4879750e-008    +9.0138194e-008
+4.5500000e+002    +7.4724198e-008    +9.4197333e-008
+4.5600000e+002    +6.8518872e-008    +9.5175082e-008
+4.5700000e+002    +6.9332010e-008    +9.1119517e-008
+4.5800000e+002    +7.2507120e-008    +9.5741676e-008
+4.5900000e+002    +7.0533872e-008    +1.0220651e-007
+4.6000000e+002    +6.6386917e-008    +9.5866959e-008
+4.6100000e+002    +6.7687168e-008    +8.8563965e-008
+4.6200000e+002    +6.7235490e-008    +9.7492610e-008
+4.6300000e+002    +6.1286187e-008    +9.6352899e-008
+4.6400000e+002    +7.3582662e-008    +9.2466180e-008
+4.6500000e+002    +9.3980702e-008    +9.1522992e-008
+4.6600000e+002    +1.0880438e-007    +9.1105015e-008
+4.6700000e+002    +1.0000615e-007    +1.0102944e-007
+4.6800000e+002    +7.2519860e-008    +1.0085975e-007
+4.6900000e+002    +7.0481619e-008    +1.0293650e-007
+4.7000000e+002    +8.3802846e-008    +9.7932585e-008
+4.7100000e+002    +7.7936825e-008    +9.4690300e-008
+4.7200000e+002    +7.6945504e-008    +9.7867016e-008
+4.7300000e+002    +8.7850587e-008    +1.0551275e-007
+4.7400000e+002    +9.4365653e-008    +1.0348100e-007
+4.7500000e+002    +9.7944309e-008    +9.4935977e-008
+4.7600000e+002    +1.0293899e-007    +1.0293051e-007
+4.7700000e+002    +1.1431133e-007    +1.0739508e-007
+4.7800000e+002    +1.2320494e-007    +1.0249228e-007
+4.7900000e+002    +1.5499771e-007    +9.6283628e-008
+4.8000000e+002    +2.5500825e-007    +9.7710689e-008
+4.8100000e+002    +1.8295785e-007    +1.0167844e-007
+4.8200000e+002    +1.3689643e-007    +9.8694883e-008
+4.8300000e+002    +1.3602293e-007    +9.3467001e-008
+4.8400000e+002    +1.4600209e-007    +1.0554751e-007
+4.8500000e+002    +1.5942332e-007    +1.0882982e-007
+4.8600000e+002    +1.8140663e-007    +1.0705885e-007
+4.8700000e+002    +1.9239995e-007    +1.0619148e-007
+4.8800000e+002    +1.8851723e-007    +1.0601627e-007
+4.8900000e+002    +1.9863124e-007    +1.0975115e-007
+4.9000000e+002    +2.1377528e-007    +1.0884548e-007
+4.9100000e+002    +2.2680659e-007    +1.0272898e-007
+4.9200000e+002    +2.3751468e-007    +9.6805159e-008
+4.9300000e+002    +2.3728114e-007    +9.8176109e-008
+4.9400000e+002    +2.2340920e-007    +1.1366653e-007
+4.9500000e+002    +2.1571741e-007    +1.1657376e-007
+4.9600000e+002    +2.1989365e-007    +1.0698857e-007
+4.9700000e+002    +2.1445963e-007    +9.7663388e-008
+4.9800000e+002    +2.1305334e-007    +1.0448213e-007
+4.9900000e+002    +1.8410807e-007    +1.0303092e-007
+5.0000000e+002    +1.6228790e-007    +1.0819599e-007
+5.0100000e+002    +1.5271067e-007    +1.1047340e-007
+5.0200000e+002    +1.6823446e-007    +1.0518922e-007
+5.0300000e+002    +1.7670803e-007    +1.0403363e-007
+5.0400000e+002    +2.0687189e-007    +8.9615583e-008
+5.0500000e+002    +2.3135063e-007    +9.5215846e-008
+5.0600000e+002    +2.7850089e-007    +1.0434456e-007
+5.0700000e+002    +3.5872125e-007    +1.0619894e-007
+5.0800000e+002    +4.1534790e-007    +1.0717446e-007
+5.0900000e+002    +4.4635129e-007    +1.0790403e-007
+5.1000000e+002    +4.9471220e-007    +1.0790095e-007
+5.1100000e+002    +4.8429831e-007    +1.2049549e-007
+5.1200000e+002    +4.4770988e-007    +1.1421297e-007
+5.1300000e+002    +3.3488536e-007    +1.0367877e-007
+5.1400000e+002    +2.5455060e-007    +1.0393202e-007
+5.1500000e+002    +2.2371727e-007    +1.0474723e-007
+5.1600000e+002    +2.0794562e-007    +1.1646809e-007
+5.1700000e+002    +1.9043846e-007    +1.2313205e-007
+5.1800000e+002    +1.8935218e-007    +1.1014397e-007
+5.1900000e+002    +1.7027266e-007    +1.1044453e-007
+5.2000000e+002    +1.6070537e-007    +1.1706796e-007
+5.2100000e+002    +1.6379320e-007    +1.1750683e-007
+5.2200000e+002    +1.5647970e-007    +1.0246224e-007
+5.2300000e+002    +1.4821454e-007    +1.1304547e-007
+5.2400000e+002    +1.2936418e-007    +1.2322226e-007
+5.2500000e+002    +1.4229657e-007    +1.1213687e-007
+5.2600000e+002    +1.9979771e-007    +1.0805424e-007
+5.2700000e+002    +3.0895575e-007    +1.0975561e-007
+5.2800000e+002    +4.7418848e-007    +1.1097037e-007
+5.2900000e+002    +6.5818421e-007    +1.1808833e-007
+5.3000000e+002    +7.7072588e-007    +1.2011151e-007
+5.3100000e+002    +9.1666902e-007    +1.2601933e-007
+5.3200000e+002    +1.1054632e-006    +1.1757162e-007
+5.3300000e+002    +1.1326513e-006    +1.2034106e-007
+5.3400000e+002    +1.0743223e-006    +1.1690419e-007
+5.3500000e+002    +1.1113229e-006    +1.1438691e-007
+5.3600000e+002    +1.0253663e-006    +1.1041095e-007
+5.3700000e+002    +9.2739884e-007    +1.1349020e-007
+5.3800000e+002    +9.1942991e-007    +1.1981264e-007
+5.3900000e+002    +9.7566715e-007    +1.1312357e-007
+5.4000000e+002    +1.0222436e-006    +1.2525044e-007
+5.4100000e+002    +1.0776491e-006    +1.2542935e-007
+5.4200000e+002    +1.1241917e-006    +1.2375050e-007
+5.4300000e+002    +1.2187365e-006    +1.1839030e-007
+5.4400000e+002    +1.5937676e-006    +1.2251860e-007
+5.4500000e+002    +2.2166757e-006    +1.2652481e-007
+5.4600000e+002    +2.6759374e-006    +1.2474662e-007
+5.4700000e+002    +2.8753652e-006    +1.2461589e-007
+5.4800000e+002    +2.6148748e-006    +1.2556383e-007
+5.4900000e+002    +2.5250019e-006    +1.1846896e-007
+5.5000000e+002    +2.0991913e-006    +1.1593860e-007
+5.5100000e+002    +1.5312571e-006    +1.1771770e-007
+5.5200000e+002    +1.1298516e-006    +1.2896184e-007
+5.5300000e+002    +1.1288560e-006    +1.2933307e-007
+5.5400000e+002    +7.7366707e-007    +1.2746810e-007
+5.5500000e+002    +6.7564429e-007    +1.1673502e-007
+5.5600000e+002    +6.1455785e-007    +1.3003590e-007
+5.5700000e+002    +6.1666128e-007    +1.2734431e-007
+5.5800000e+002    +5.8420761e-007    +1.3104449e-007
+5.5900000e+002    +5.5298455e-007    +1.3816120e-007
+5.6000000e+002    +5.1951048e-007    +1.3357371e-007
+5.6100000e+002    +4.8397351e-007    +1.3427290e-007
+5.6200000e+002    +4.4595646e-007    +1.3652807e-007
+5.6300000e+002    +4.2145118e-007    +1.3214952e-007
+5.6400000e+002    +3.6123498e-007    +1.3344149e-007
+5.6500000e+002    +3.6322035e-007    +1.4201235e-007
+5.6600000e+002    +3.9531724e-007    +1.3490995e-007
+5.6700000e+002    +3.8465643e-007    +1.3111401e-007
+5.6800000e+002    +3.6853945e-007    +1.3070279e-007
+5.6900000e+002    +3.9338528e-007    +1.3652972e-007
+5.7000000e+002    +3.9947759e-007    +1.3812890e-007
+5.7100000e+002    +4.6688555e-007    +1.3870260e-007
+5.7200000e+002    +5.2463434e-007    +1.3009374e-007
+5.7300000e+002    +5.7917686e-007    +1.2031384e-007
+5.7400000e+002    +6.9740622e-007    +1.2333894e-007
+5.7500000e+002    +7.8394862e-007    +1.2557734e-007
+5.7600000e+002    +8.6910381e-007    +1.2511163e-007
+5.7700000e+002    +8.5609850e-007    +1.2995854e-007
+5.7800000e+002    +8.1864295e-007    +1.3351696e-007
+5.7900000e+002    +7.8946289e-007    +1.3458137e-007
+5.8000000e+002    +6.6864311e-007    +1.3318827e-007
+5.8100000e+002    +5.2521131e-007    +1.3683511e-007
+5.8200000e+002    +4.5829108e-007    +1.3843285e-007
+5.8300000e+002    +3.9338659e-007    +1.3643186e-007
+5.8400000e+002    +3.4502335e-007    +1.3708218e-007
+5.8500000e+002    +3.5319158e-007    +1.4690902e-007
+5.8600000e+002    +3.4037348e-007    +1.4300906e-007
+5.8700000e+002    +3.2075513e-007    +1.4320186e-007
+5.8800000e+002    +2.6617110e-007    +1.4296558e-007
+5.8900000e+002    +2.2419208e-007    +1.3937873e-007
+5.9000000e+002    +2.0602573e-007    +1.3215693e-007
+5.9100000e+002    +1.9528761e-007    +1.3188166e-007
+5.9200000e+002    +1.7842092e-007    +1.3929566e-007
+5.9300000e+002    +1.7404197e-007    +1.4115967e-007
+5.9400000e+002    +1.8686758e-007    +1.3573664e-007
+5.9500000e+002    +1.9176747e-007    +1.4517042e-007
+5.9600000e+002    +1.6093367e-007    +1.4235532e-007
+5.9700000e+002    +1.4363567e-007    +1.2851928e-007
+5.9800000e+002    +1.4088175e-007    +1.3114582e-007
+5.9900000e+002    +1.4395854e-007    +1.4428484e-007
+6.0000000e+002    +1.5462732e-007    +1.3065601e-007
+6.0100000e+002    +1.6952426e-007    +1.2952222e-007
+6.0200000e+002    +2.5851122e-007    +1.3231679e-007
+6.0300000e+002    +3.0583553e-007    +1.4389187e-007
+6.0400000e+002    +2.9267034e-007    +1.3391526e-007
+6.0500000e+002    +3.1254609e-007    +1.3393556e-007
+6.0600000e+002    +3.0488837e-007    +1.4266028e-007
+6.0700000e+002    +2.1719804e-007    +1.4352895e-007
+6.0800000e+002    +1.3227626e-007    +1.3840094e-007
+6.0900000e+002    +9.7997230e-008    +1.3966351e-007
+6.1000000e+002    +7.6242713e-008    +1.3728733e-007
+6.1100000e+002    +6.7571548e-008    +1.3900141e-007
+6.1200000e+002    +6.5561586e-008    +1.5284402e-007
+6.1300000e+002    +7.6988520e-008    +1.5730465e-007
+6.1400000e+002    +7.9835743e-008    +1.4423146e-007
+6.1500000e+002    +5.5616173e-008    +1.4146160e-007
+6.1600000e+002    +5.4510750e-008    +1.4396898e-007
+6.1700000e+002    +5.7945606e-008    +1.4504789e-007
+6.1800000e+002    +5.7454187e-008    +1.6176897e-007
+6.1900000e+002    +5.4248041e-008    +1.4676360e-007
+6.2000000e+002    +5.7124396e-008    +1.4040475e-007
+6.2100000e+002    +5.3934642e-008    +1.3781577e-007
+6.2200000e+002    +5.4861218e-008    +1.3949402e-007
+6.2300000e+002    +5.6053516e-008    +1.4236157e-007
+6.2400000e+002    +5.3245287e-008    +1.5470900e-007
+6.2500000e+002    +5.2902060e-008    +1.4568776e-007
+6.2600000e+002    +5.9806865e-008    +1.4812913e-007
+6.2700000e+002    +5.9593308e-008    +1.4905106e-007
+6.2800000e+002    +5.7155265e-008    +1.5415962e-007
+6.2900000e+002    +5.4264422e-008    +1.4745976e-007
+6.3000000e+002    +5.7660330e-008    +1.4923381e-007
+6.3100000e+002    +6.1634857e-008    +1.5673935e-007
+6.3200000e+002    +6.7985390e-008    +1.6188748e-007
+6.3300000e+002    +8.0193566e-008    +1.4941530e-007
+6.3400000e+002    +8.4328313e-008    +1.5520069e-007
+6.3500000e+002    +7.7193526e-008    +1.6637952e-007
+6.3600000e+002    +7.5848781e-008    +1.5643744e-007
+6.3700000e+002    +7.8263191e-008    +1.4880382e-007
+6.3800000e+002    +7.8709405e-008    +1.5144434e-007
+6.3900000e+002    +8.0492697e-008    +1.5537118e-007
+6.4000000e+002    +7.9644352e-008    +1.6608512e-007
+6.4100000e+002    +7.9561147e-008    +1.5316000e-007
+6.4200000e+002    +8.0567496e-008    +1.5744099e-007
+6.4300000e+002    +9.2805585e-008    +1.5635554e-007
+6.4400000e+002    +1.0325980e-007    +1.5005895e-007
+6.4500000e+002    +1.4605629e-007    +1.3991814e-007
+6.4600000e+002    +1.6282441e-007    +1.5362552e-007
+6.4700000e+002    +1.6558585e-007    +1.5912235e-007
+6.4800000e+002    +1.8290562e-007    +1.6154479e-007
+6.4900000e+002    +1.8129174e-007    +1.6904045e-007
+6.5000000e+002    +2.1013727e-007    +1.5736148e-007
+6.5100000e+002    +2.3445190e-007    +1.5700839e-007
+6.5200000e+002    +2.1603336e-007    +1.6057415e-007
+6.5300000e+002    +1.7240235e-007    +1.5747747e-007
+6.5400000e+002    +1.5735129e-007    +1.4897499e-007
+6.5500000e+002    +1.4103141e-007    +1.5823748e-007
+6.5600000e+002    +1.2765143e-007    +1.4248965e-007
+6.5700000e+002    +1.1100497e-007    +1.4733530e-007
+6.5800000e+002    +8.4668891e-008    +1.6932762e-007
+6.5900000e+002    +7.6199612e-008    +1.6038297e-007
+6.6000000e+002    +7.4606227e-008    +1.6285551e-007
+6.6100000e+002    +7.4501202e-008    +1.5981588e-007
+6.6200000e+002    +7.2312737e-008    +1.5822775e-007
+6.6300000e+002    +7.3242596e-008    +1.5198904e-007
+6.6400000e+002    +7.3353092e-008    +1.5728773e-007
+6.6500000e+002    +8.6792610e-008    +1.5507720e-007
+6.6600000e+002    +8.2616999e-008    +1.6094569e-007
+6.6700000e+002    +8.4932665e-008    +1.5897794e-007
+6.6800000e+002    +1.0139426e-007    +1.5449393e-007
+6.6900000e+002    +1.0759419e-007    +1.6637129e-007
+6.7000000e+002    +1.0892366e-007    +1.6368011e-007
+6.7100000e+002    +1.1744878e-007    +1.6487326e-007
+6.7200000e+002    +1.0463550e-007    +1.7907838e-007
+6.7300000e+002    +9.4127856e-008    +1.7221448e-007
+6.7400000e+002    +9.7384991e-008    +1.7107187e-007
+6.7500000e+002    +9.5100397e-008    +1.8118907e-007
+6.7600000e+002    +8.9495032e-008    +1.6510766e-007
+6.7700000e+002    +9.0394785e-008    +1.6236632e-007
+6.7800000e+002    +9.8692176e-008    +1.7091999e-007
+6.7900000e+002    +8.6983981e-008    +1.6342997e-007
+6.8000000e+002    +9.4422546e-008    +1.8598170e-007
+6.8100000e+002    +1.0285336e-007    +1.7224852e-007
+6.8200000e+002    +1.1169696e-007    +1.7847049e-007
+6.8300000e+002    +1.2138862e-007    +1.6736945e-007
+6.8400000e+002    +1.3950121e-007    +1.6091529e-007
+6.8500000e+002    +1.5134161e-007    +1.6413507e-007
+6.8600000e+002    +1.7044586e-007    +1.7259876e-007
+6.8700000e+002    +1.9735539e-007    +1.7409147e-007
+6.8800000e+002    +2.3864393e-007    +1.7141538e-007
+6.8900000e+002    +2.5077287e-007    +1.6142688e-007
+6.9000000e+002    +2.1737362e-007    +1.6424504e-007
+6.9100000e+002    +2.1467260e-007    +1.9446448e-007
+6.9200000e+002    +1.9940674e-007    +1.8504272e-007
+6.9300000e+002    +2.0549730e-007    +1.7833356e-007
+6.9400000e+002    +2.0691505e-007    +1.6921629e-007
+6.9500000e+002    +2.0156217e-007    +1.7965166e-007
+6.9600000e+002    +2.1143538e-007    +1.8149689e-007
+6.9700000e+002    +2.0087420e-007    +1.7405458e-007
+6.9800000e+002    +1.9671093e-007    +1.7313988e-007
+6.9900000e+002    +2.0224539e-007    +1.7018556e-007
+7.0000000e+002    +2.0129788e-007    +1.6631614e-007
+7.0100000e+002    +2.0237401e-007    +1.7093124e-007
+7.0200000e+002    +2.9921978e-007    +1.8521753e-007
+7.0300000e+002    +3.0897169e-007    +1.8219109e-007
+7.0400000e+002    +2.1672970e-007    +1.8546824e-007
+7.0500000e+002    +2.4638996e-007    +1.7707511e-007
+7.0600000e+002    +2.4475227e-007    +1.7918106e-007
+7.0700000e+002    +2.3224241e-007    +1.8219230e-007
+7.0800000e+002    +2.0542286e-007    +1.7735373e-007
+7.0900000e+002    +2.0698367e-007    +1.7239876e-007
+7.1000000e+002    +2.1255450e-007    +1.8943869e-007
+7.1100000e+002    +2.2149946e-007    +2.0505870e-007
+7.1200000e+002    +2.4401731e-007    +1.9971941e-007
+7.1300000e+002    +2.4203425e-007    +1.7891114e-007
+7.1400000e+002    +2.3142583e-007    +1.8106020e-007
+7.1500000e+002    +2.0345901e-007    +1.7708248e-007
+7.1600000e+002    +1.6951364e-007    +1.8592085e-007
+7.1700000e+002    +1.6137159e-007    +1.7736659e-007
+7.1800000e+002    +1.6017513e-007    +1.5831098e-007
+7.1900000e+002    +1.5037611e-007    +1.5885527e-007
+7.2000000e+002    +1.5130273e-007    +1.6933507e-007
+7.2100000e+002    +1.3867823e-007    +1.9615642e-007
+7.2200000e+002    +1.2409841e-007    +2.0397368e-007
+7.2300000e+002    +1.1077705e-007    +1.7764587e-007
+7.2400000e+002    +9.4566452e-008    +1.6836825e-007
+7.2500000e+002    +8.5915595e-008    +1.7269031e-007
+7.2600000e+002    +8.9042011e-008    +1.8107272e-007
+7.2700000e+002    +9.0211557e-008    +1.7918931e-007
+7.2800000e+002    +8.1788649e-008    +1.8518398e-007
+7.2900000e+002    +8.5562675e-008    +1.9454308e-007
+7.3000000e+002    +8.2309256e-008    +1.9379712e-007
+7.3100000e+002    +8.2754362e-008    +1.9734478e-007
+7.3200000e+002    +7.5335613e-008    +1.9045581e-007
+7.3300000e+002    +7.4473647e-008    +1.9052106e-007
+7.3400000e+002    +7.3582420e-008    +1.9164897e-007
+7.3500000e+002    +7.1206792e-008    +1.7692547e-007
+7.3600000e+002    +7.4370035e-008    +1.8386324e-007
+7.3700000e+002    +8.0585458e-008    +1.8648430e-007
+7.3800000e+002    +8.1627434e-008    +1.9642604e-007
+7.3900000e+002    +7.3669810e-008    +2.0048618e-007
+7.4000000e+002    +6.1611651e-008    +1.8665638e-007
+7.4100000e+002    +6.2069688e-008    +1.8880579e-007
+7.4200000e+002    +5.9301616e-008    +1.8201135e-007
+7.4300000e+002    +6.0486329e-008    +1.8716327e-007
+7.4400000e+002    +5.3871432e-008    +1.8935550e-007
+7.4500000e+002    +6.0860380e-008    +2.0155044e-007
+7.4600000e+002    +6.0561021e-008    +2.0840459e-007
+7.4700000e+002    +6.3443309e-008    +1.9480812e-007
+7.4800000e+002    +6.2189201e-008    +1.8581780e-007
+7.4900000e+002    +6.1350207e-008    +1.7902157e-007
+7.5000000e+002    +6.5247697e-008    +1.8397471e-007
+7.5100000e+002    +6.4426622e-008    +1.9197286e-007
+7.5200000e+002    +5.8317326e-008    +1.9427029e-007
+7.5300000e+002    +5.7370475e-008    +1.9419116e-007
+7.5400000e+002    +5.3714562e-008    +1.7793634e-007
+7.5500000e+002    +5.9816848e-008    +1.8596863e-007
+7.5600000e+002    +5.9581598e-008    +1.8306052e-007
+7.5700000e+002    +5.6940298e-008    +1.8056726e-007
+7.5800000e+002    +5.9201948e-008    +1.8115186e-007
+7.5900000e+002    +6.2739929e-008    +1.8128279e-007
+7.6000000e+002    +5.7913933e-008    +1.9740892e-007
+7.6100000e+002    +5.6786462e-008    +1.9277951e-007
+7.6200000e+002    +5.9272779e-008    +1.8110076e-007
+7.6300000e+002    +5.7481319e-008    +1.8107809e-007
+7.6400000e+002    +5.4040388e-008    +1.9388374e-007
+7.6500000e+002    +5.9872896e-008    +2.0316011e-007
+7.6600000e+002    +6.1392321e-008    +1.9997812e-007
+7.6700000e+002    +5.9384625e-008    +2.0296525e-007
+7.6800000e+002    +6.0840804e-008    +2.0942991e-007
+7.6900000e+002    +5.5191514e-008    +2.0601962e-007
+7.7000000e+002    +5.4291839e-008    +2.0296392e-007
+7.7100000e+002    +5.6031674e-008    +2.2012361e-007
+7.7200000e+002    +4.9476110e-008    +2.2041431e-007
+7.7300000e+002    +4.9917265e-008    +2.0915211e-007
+7.7400000e+002    +5.0093835e-008    +2.1001686e-007
+7.7500000e+002    +4.8773483e-008    +2.0736672e-007
+7.7600000e+002    +4.9833041e-008    +1.9209283e-007
+7.7700000e+002    +5.0624692e-008    +1.9541994e-007
+7.7800000e+002    +4.9234369e-008    +1.9098182e-007
+7.7900000e+002    +5.2157255e-008    +2.0317304e-007
+7.8000000e+002    +6.0999191e-008    +2.1921338e-007
+7.8100000e+002    +5.7214660e-008    +2.1396431e-007
+7.8200000e+002    +5.5517400e-008    +2.1366311e-007
+7.8300000e+002    +5.7326211e-008    +2.1841478e-007
+7.8400000e+002    +5.7114427e-008    +1.9993246e-007
+7.8500000e+002    +5.7694908e-008    +1.8794847e-007
+7.8600000e+002    +5.7811899e-008    +1.8089806e-007
+7.8700000e+002    +5.4210350e-008    +1.9921657e-007
+7.8800000e+002    +5.0257345e-008    +2.0049806e-007
+7.8900000e+002    +5.2168481e-008    +1.9663125e-007
+7.9000000e+002    +5.4241074e-008    +2.0860008e-007
+7.9100000e+002    +5.0791662e-008    +2.0026970e-007
+7.9200000e+002    +5.3661335e-008    +1.9689935e-007
+7.9300000e+002    +6.0168389e-008    +2.0427086e-007
+7.9400000e+002    +5.7497289e-008    +2.1891320e-007
+7.9500000e+002    +5.6108011e-008    +2.1184296e-007
+7.9600000e+002    +6.0036342e-008    +2.0678968e-007
+7.9700000e+002    +6.3239121e-008    +1.9338327e-007
+7.9800000e+002    +5.9888151e-008    +1.9018874e-007
+7.9900000e+002    +6.0703620e-008    +1.9050705e-007
#
#
# North DC Val: 0.8670476100000001 VoltsSouth DC Val: 0.5744109300000001 Volts
# SR785 Measurement - Timestamp: May 06 2020 - 02:57:54
# Parameter File: /home/controls/Git/cit_ctnlab/ctn_scripts/TransRINSpecShort.yml
#---------- Measurement Setup ------------
# Start Frequency (Hz): 0.000000
# Frequency Span (Hz): 102400.000000
# Frequency Resolution: 800
# Number of Averages: 100
# Averaging Mode: RMS
# Window function: Hanning
#---------- Measurement Parameters ----------
# Measurement Group:  "FFT" "FFT"
# Measurements:  "FFT 1" "FFT 2"
# View:  "Log Magnitude" "Log Magnitude"
# Unit:  "Vrms/rtHz" "Vrms/rtHz"
#---------- Input Parameters ----------
# Input Source: Analog
# Input Mode: Single ended, Single ended
# Input Grounding: Float, Float
# Input Coupling: AC, AC
# Input Range: -36.0dBVpk, -36.0dBVpk
# Auto Range: Off, Off
# Auto Range Mode: Tracking, Tracking
# Anti-Aliasing Filter: On, On
#---------- Source Parameters ----------
# Source Type: Sine
# Source Amplitude: 500.0mVpk
# Source On: 0

#---------- Measurement Data ----------
# [Freq(Hz) Display 0(Vrms/rtHz) Display 1(Vrms/rtHz) ]
+8.9600000e+002    +2.5703272e-007    +2.4687523e-007
+1.0240000e+003    +1.5920152e-007    +2.9489371e-007
+1.1520000e+003    +9.5862745e-008    +3.1986150e-007
+1.2800000e+003    +7.4702129e-008    +3.6084847e-007
+1.4080000e+003    +7.2947977e-008    +4.0139318e-007
+1.5360000e+003    +8.3263743e-008    +3.8568621e-007
+1.6640000e+003    +9.2998164e-008    +4.3349954e-007
+1.7920000e+003    +1.1123874e-007    +4.4110766e-007
+1.9200000e+003    +1.2350793e-007    +4.7356517e-007
+2.0480000e+003    +1.2533532e-007    +5.0385694e-007
+2.1760000e+003    +1.3856423e-007    +5.2667457e-007
+2.3040000e+003    +1.4364561e-007    +5.2925299e-007
+2.4320000e+003    +1.5661858e-007    +5.4167214e-007
+2.5600000e+003    +1.8788245e-007    +5.4699905e-007
+2.6880000e+003    +2.0374381e-007    +4.9207080e-007
+2.8160000e+003    +2.1416926e-007    +4.9570775e-007
+2.9440000e+003    +2.0433883e-007    +5.2297116e-007
+3.0720000e+003    +2.2914193e-007    +5.0250941e-007
+3.2000000e+003    +2.4322395e-007    +5.4714019e-007
+3.3280000e+003    +2.5424308e-007    +5.4676724e-007
+3.4560000e+003    +2.8500475e-007    +5.5003073e-007
+3.5840000e+003    +2.8422696e-007    +5.1609931e-007
+3.7120000e+003    +2.9869196e-007    +5.3497263e-007
+3.8400000e+003    +3.0507624e-007    +5.3577617e-007
+3.9680000e+003    +3.2539876e-007    +5.3097295e-007
+4.0960000e+003    +3.4005149e-007    +5.4325767e-007
+4.2240000e+003    +3.0172507e-007    +5.2836469e-007
+4.3520000e+003    +3.5151220e-007    +5.0020185e-007
+4.4800000e+003    +3.8293715e-007    +5.1338202e-007
+4.6080000e+003    +3.8398804e-007    +5.3731435e-007
+4.7360000e+003    +3.8862177e-007    +5.5817134e-007
+4.8640000e+003    +3.8881981e-007    +5.2339624e-007
+4.9920000e+003    +4.1751696e-007    +5.2088410e-007
+5.1200000e+003    +4.2584585e-007    +5.7982521e-007
+5.2480000e+003    +4.2927465e-007    +5.5025242e-007
+5.3760000e+003    +4.5613848e-007    +5.2650921e-007
+5.5040000e+003    +4.7295202e-007    +5.0592632e-007
+5.6320000e+003    +4.8580438e-007    +4.7266391e-007
+5.7600000e+003    +4.9532150e-007    +5.4145869e-007
+5.8880000e+003    +5.1314754e-007    +5.6585986e-007
+6.0160000e+003    +5.4061337e-007    +5.3673000e-007
+6.1440000e+003    +5.5788888e-007    +5.5837546e-007
+6.2720000e+003    +5.6534509e-007    +6.0619232e-007
+6.4000000e+003    +5.8844745e-007    +6.1093431e-007
+6.5280000e+003    +6.5305824e-007    +6.1126713e-007
+6.6560000e+003    +6.5800504e-007    +6.5498841e-007
+6.7840000e+003    +6.5108509e-007    +6.7092134e-007
+6.9120000e+003    +5.9793604e-007    +6.1957479e-007
+7.0400000e+003    +5.7753533e-007    +6.5039490e-007
+7.1680000e+003    +6.2874602e-007    +6.9909669e-007
+7.2960000e+003    +6.3808176e-007    +7.0862222e-007
+7.4240000e+003    +6.6950844e-007    +6.7351118e-007
+7.5520000e+003    +7.4571506e-007    +7.1642893e-007
+7.6800000e+003    +7.6617988e-007    +8.2750728e-007
+7.8080000e+003    +7.7190646e-007    +7.8440922e-007
+7.9360000e+003    +7.2321387e-007    +7.5575622e-007
+8.0640000e+003    +7.2083799e-007    +7.5016430e-007
+8.1920000e+003    +7.5534308e-007    +8.8840943e-007
+8.3200000e+003    +7.4865528e-007    +9.6668248e-007
+8.4480000e+003    +7.9517571e-007    +8.4098730e-007
+8.5760000e+003    +8.0020823e-007    +8.8728643e-007
+8.7040000e+003    +8.3004335e-007    +9.3294341e-007
+8.8320000e+003    +7.2986433e-007    +1.0252481e-006
+8.9600000e+003    +8.2106527e-007    +1.0622506e-006
+9.0880000e+003    +8.4687304e-007    +1.0430390e-006
+9.2160000e+003    +8.6181933e-007    +1.0044301e-006
+9.3440000e+003    +8.3577356e-007    +9.6821100e-007
+9.4720000e+003    +8.5122650e-007    +1.0233947e-006
+9.6000000e+003    +9.0330593e-007    +1.0135263e-006
+9.7280000e+003    +9.4599477e-007    +1.1072476e-006
+9.8560000e+003    +9.0879922e-007    +1.0149663e-006
+9.9840000e+003    +8.8170049e-007    +1.1461269e-006
+1.0112000e+004    +9.2931720e-007    +1.0787737e-006
+1.0240000e+004    +9.6659653e-007    +1.0426954e-006
+1.0368000e+004    +9.2328111e-007    +1.1658707e-006
+1.0496000e+004    +9.2033889e-007    +1.0777876e-006
+1.0624000e+004    +9.7966893e-007    +1.1516747e-006
+1.0752000e+004    +1.0372181e-006    +1.1690329e-006
+1.0880000e+004    +1.0191740e-006    +1.1475687e-006
+1.1008000e+004    +1.0595587e-006    +1.0491113e-006
+1.1136000e+004    +9.7873249e-007    +1.0608916e-006
+1.1264000e+004    +9.2691124e-007    +1.1639343e-006
+1.1392000e+004    +1.0382948e-006    +1.1279974e-006
+1.1520000e+004    +1.0526801e-006    +1.1111521e-006
+1.1648000e+004    +1.0352328e-006    +1.0983819e-006
+1.1776000e+004    +1.0185464e-006    +9.3889116e-007
+1.1904000e+004    +1.0399846e-006    +9.7165935e-007
+1.2032000e+004    +1.0238656e-006    +9.6439999e-007
+1.2160000e+004    +1.0212361e-006    +9.9773308e-007
+1.2288000e+004    +9.8901535e-007    +1.0627546e-006
+1.2416000e+004    +9.6309748e-007    +1.0728925e-006
+1.2544000e+004    +1.0282039e-006    +1.0708507e-006
+1.2672000e+004    +1.1015763e-006    +9.2845642e-007
+1.2800000e+004    +1.0390909e-006    +8.9755508e-007
+1.2928000e+004    +1.0554299e-006    +9.8198859e-007
+1.3056000e+004    +1.1323641e-006    +1.0214851e-006
+1.3184000e+004    +1.1070058e-006    +9.7393433e-007
+1.3312000e+004    +1.0404426e-006    +9.1142334e-007
+1.3440000e+004    +1.0371680e-006    +9.8768919e-007
+1.3568000e+004    +1.0105051e-006    +1.0203385e-006
+1.3696000e+004    +1.0376236e-006    +1.0126565e-006
+1.3824000e+004    +9.6354802e-007    +9.3631650e-007
+1.3952000e+004    +9.5844860e-007    +9.3472852e-007
+1.4080000e+004    +9.9675538e-007    +9.1973379e-007
+1.4208000e+004    +9.7592215e-007    +9.2337945e-007
+1.4336000e+004    +9.6562383e-007    +8.9195834e-007
+1.4464000e+004    +1.0542219e-006    +8.3702616e-007
+1.4592000e+004    +1.0689488e-006    +8.9809328e-007
+1.4720000e+004    +1.0336983e-006    +9.5273776e-007
+1.4848000e+004    +9.7911618e-007    +9.8989960e-007
+1.4976000e+004    +9.6251813e-007    +9.3653443e-007
+1.5104000e+004    +9.5140604e-007    +9.2334597e-007
+1.5232000e+004    +1.0036882e-006    +8.8984643e-007
+1.5360000e+004    +1.0260713e-006    +9.3406572e-007
+1.5488000e+004    +9.7677548e-007    +9.3183371e-007
+1.5616000e+004    +9.5146663e-007    +9.1280333e-007
+1.5744000e+004    +9.4797650e-007    +9.3044537e-007
+1.5872000e+004    +9.7739985e-007    +9.2681358e-007
+1.6000000e+004    +9.9012141e-007    +9.3037488e-007
+1.6128000e+004    +8.8863771e-007    +1.0190207e-006
+1.6256000e+004    +9.6851511e-007    +9.7781094e-007
+1.6384000e+004    +9.9917463e-007    +8.7318415e-007
+1.6512000e+004    +9.0930530e-007    +9.2613504e-007
+1.6640000e+004    +9.6664212e-007    +9.0364222e-007
+1.6768000e+004    +9.9048668e-007    +8.8923701e-007
+1.6896000e+004    +9.5171214e-007    +9.2515637e-007
+1.7024000e+004    +9.6244423e-007    +9.1701531e-007
+1.7152000e+004    +1.0531090e-006    +9.2301150e-007
+1.7280000e+004    +9.8756561e-007    +9.3251640e-007
+1.7408000e+004    +8.4796443e-007    +9.0832339e-007
+1.7536000e+004    +8.4348869e-007    +9.2759745e-007
+1.7664000e+004    +8.2611922e-007    +8.9485894e-007
+1.7792000e+004    +9.0508200e-007    +8.6552899e-007
+1.7920000e+004    +8.8405312e-007    +7.9150942e-007
+1.8048000e+004    +9.0244248e-007    +8.6179091e-007
+1.8176000e+004    +8.3087031e-007    +9.7082966e-007
+1.8304000e+004    +7.7122957e-007    +8.6833120e-007
+1.8432000e+004    +8.3301234e-007    +8.5703988e-007
+1.8560000e+004    +8.5079199e-007    +8.5791169e-007
+1.8688000e+004    +8.3844265e-007    +8.1803017e-007
+1.8816000e+004    +8.6069025e-007    +8.4878877e-007
+1.8944000e+004    +8.6431720e-007    +8.9864369e-007
+1.9072000e+004    +8.6895113e-007    +8.9182907e-007
+1.9200000e+004    +8.4470184e-007    +9.3243142e-007
+1.9328000e+004    +8.4879997e-007    +8.8584193e-007
+1.9456000e+004    +8.3418661e-007    +8.0062125e-007
+1.9584000e+004    +8.4324518e-007    +8.1683112e-007
+1.9712000e+004    +8.1958996e-007    +7.8578756e-007
+1.9840000e+004    +7.9720905e-007    +7.8407686e-007
+1.9968000e+004    +7.8446260e-007    +8.2513208e-007
+2.0096000e+004    +7.8627693e-007    +8.3703077e-007
+2.0224000e+004    +7.4005033e-007    +7.7000607e-007
+2.0352000e+004    +7.5332389e-007    +8.5223365e-007
+2.0480000e+004    +7.6442876e-007    +8.6608986e-007
+2.0608000e+004    +7.4948593e-007    +8.3821624e-007
+2.0736000e+004    +8.3700871e-007    +8.7046084e-007
+2.0864000e+004    +8.1537769e-007    +8.6257000e-007
+2.0992000e+004    +8.2359423e-007    +8.3063503e-007
+2.1120000e+004    +7.6904456e-007    +8.6956391e-007
+2.1248000e+004    +7.6909612e-007    +8.7107753e-007
+2.1376000e+004    +7.7920993e-007    +9.9883243e-007
+2.1504000e+004    +7.9225629e-007    +9.6140707e-007
+2.1632000e+004    +7.7473726e-007    +8.4930150e-007
+2.1760000e+004    +7.8710787e-007    +8.6702511e-007
+2.1888000e+004    +8.2525077e-007    +8.3860471e-007
+2.2016000e+004    +7.6196767e-007    +7.8059890e-007
+2.2144000e+004    +7.1941639e-007    +7.8867708e-007
+2.2272000e+004    +7.6677821e-007    +8.0111016e-007
+2.2400000e+004    +7.6622615e-007    +7.4011535e-007
+2.2528000e+004    +6.6151972e-007    +7.8589113e-007
+2.2656000e+004    +7.4824112e-007    +8.1931825e-007
+2.2784000e+004    +7.7327979e-007    +8.0861275e-007
+2.2912000e+004    +7.2341084e-007    +7.9955043e-007
+2.3040000e+004    +6.3465603e-007    +8.2574923e-007
+2.3168000e+004    +6.5090495e-007    +8.4387500e-007
+2.3296000e+004    +6.7882678e-007    +8.5852139e-007
+2.3424000e+004    +6.5966083e-007    +8.0817250e-007
+2.3552000e+004    +7.2627910e-007    +7.4025189e-007
+2.3680000e+004    +7.6719761e-007    +7.1358625e-007
+2.3808000e+004    +8.2822351e-007    +7.7011771e-007
+2.3936000e+004    +7.8231488e-007    +8.0727767e-007
+2.4064000e+004    +6.6234537e-007    +8.4294527e-007
+2.4192000e+004    +6.8168737e-007    +8.5277185e-007
+2.4320000e+004    +7.2730450e-007    +8.1577889e-007
+2.4448000e+004    +7.0082052e-007    +8.2623080e-007
+2.4576000e+004    +6.5104791e-007    +8.1447308e-007
+2.4704000e+004    +5.8555491e-007    +7.9467645e-007
+2.4832000e+004    +6.0064235e-007    +7.9974444e-007
+2.4960000e+004    +6.3604841e-007    +7.5360265e-007
+2.5088000e+004    +6.3143648e-007    +7.1321421e-007
+2.5216000e+004    +6.1789342e-007    +7.9662107e-007
+2.5344000e+004    +6.6709219e-007    +8.3879439e-007
+2.5472000e+004    +6.7955762e-007    +8.4011145e-007
+2.5600000e+004    +6.2073985e-007    +9.0312642e-007
+2.5728000e+004    +5.9479567e-007    +8.2612650e-007
+2.5856000e+004    +6.2426727e-007    +7.5753155e-007
+2.5984000e+004    +6.8311169e-007    +7.2511978e-007
+2.6112000e+004    +6.8398981e-007    +8.0416112e-007
+2.6240000e+004    +6.3203646e-007    +8.5635514e-007
+2.6368000e+004    +6.4595974e-007    +8.4310074e-007
+2.6496000e+004    +6.2118710e-007    +7.3181667e-007
+2.6624000e+004    +5.9260088e-007    +7.7251946e-007
+2.6752000e+004    +6.0360941e-007    +7.7305481e-007
+2.6880000e+004    +5.8815357e-007    +8.1479601e-007
+2.7008000e+004    +5.9722350e-007    +7.8690476e-007
+2.7136000e+004    +6.1444854e-007    +7.9205972e-007
+2.7264000e+004    +5.3952647e-007    +8.6224236e-007
+2.7392000e+004    +5.7517366e-007    +8.3177486e-007
+2.7520000e+004    +6.1043613e-007    +7.5888852e-007
+2.7648000e+004    +6.3930406e-007    +7.5574462e-007
+2.7776000e+004    +6.3617199e-007    +7.7426444e-007
+2.7904000e+004    +6.2847823e-007    +7.6221198e-007
+2.8032000e+004    +6.1011855e-007    +8.3720909e-007
+2.8160000e+004    +6.3996703e-007    +8.4738735e-007
+2.8288000e+004    +6.1401357e-007    +8.3309283e-007
+2.8416000e+004    +5.7618814e-007    +7.9490860e-007
+2.8544000e+004    +5.6964558e-007    +7.9179017e-007
+2.8672000e+004    +5.7907255e-007    +7.5311880e-007
+2.8800000e+004    +5.4902677e-007    +7.5373754e-007
+2.8928000e+004    +5.7703141e-007    +8.3608927e-007
+2.9056000e+004    +5.4812512e-007    +8.6117802e-007
+2.9184000e+004    +5.7159343e-007    +7.8421033e-007
+2.9312000e+004    +5.5876797e-007    +7.9975501e-007
+2.9440000e+004    +5.7585044e-007    +8.0795604e-007
+2.9568000e+004    +6.2119187e-007    +7.8190010e-007
+2.9696000e+004    +5.8993339e-007    +7.7531843e-007
+2.9824000e+004    +5.5857168e-007    +7.8239822e-007
+2.9952000e+004    +6.0002935e-007    +8.5555160e-007
+3.0080000e+004    +5.5798017e-007    +7.7643949e-007
+3.0208000e+004    +5.1979976e-007    +8.2747727e-007
+3.0336000e+004    +5.4448776e-007    +8.5758870e-007
+3.0464000e+004    +5.4134813e-007    +7.9436154e-007
+3.0592000e+004    +5.0500392e-007    +7.9530321e-007
+3.0720000e+004    +5.1702773e-007    +8.2557244e-007
+3.0848000e+004    +5.4153122e-007    +8.4616573e-007
+3.0976000e+004    +5.1455976e-007    +8.4488090e-007
+3.1104000e+004    +5.1540673e-007    +7.6563998e-007
+3.1232000e+004    +5.2801846e-007    +7.9851435e-007
+3.1360000e+004    +5.7896193e-007    +7.7774581e-007
+3.1488000e+004    +5.2353704e-007    +8.0702426e-007
+3.1616000e+004    +5.1768154e-007    +8.0174198e-007
+3.1744000e+004    +5.3566794e-007    +8.3351097e-007
+3.1872000e+004    +5.3047995e-007    +7.9444527e-007
+3.2000000e+004    +5.1101443e-007    +8.0604923e-007
+3.2128000e+004    +5.0849746e-007    +8.1095823e-007
+3.2256000e+004    +5.1418471e-007    +7.4713529e-007
+3.2384000e+004    +5.3363391e-007    +8.2763540e-007
+3.2512000e+004    +5.2497086e-007    +9.0149376e-007
+3.2640000e+004    +5.0502058e-007    +8.4822233e-007
+3.2768000e+004    +5.3725654e-007    +8.4907958e-007
+3.2896000e+004    +5.3305183e-007    +8.3906059e-007
+3.3024000e+004    +4.4562705e-007    +8.7129848e-007
+3.3152000e+004    +4.5543788e-007    +8.1317745e-007
+3.3280000e+004    +4.8028869e-007    +8.2050383e-007
+3.3408000e+004    +4.9960033e-007    +8.0565906e-007
+3.3536000e+004    +5.1828215e-007    +8.4677447e-007
+3.3664000e+004    +5.3278035e-007    +8.4037902e-007
+3.3792000e+004    +5.3406944e-007    +8.1849197e-007
+3.3920000e+004    +5.0592354e-007    +8.2582631e-007
+3.4048000e+004    +4.9693551e-007    +8.1848117e-007
+3.4176000e+004    +5.0613801e-007    +8.4155624e-007
+3.4304000e+004    +4.8597087e-007    +7.9351338e-007
+3.4432000e+004    +4.9828554e-007    +8.2795350e-007
+3.4560000e+004    +5.1508937e-007    +8.0888805e-007
+3.4688000e+004    +5.2994028e-007    +7.9027637e-007
+3.4816000e+004    +5.1127313e-007    +7.9299082e-007
+3.4944000e+004    +4.7942672e-007    +8.0167860e-007
+3.5072000e+004    +4.9629102e-007    +8.0072147e-007
+3.5200000e+004    +4.9922306e-007    +8.2731015e-007
+3.5328000e+004    +5.2112091e-007    +8.2528157e-007
+3.5456000e+004    +5.2412139e-007    +8.2617368e-007
+3.5584000e+004    +5.0969538e-007    +8.3578271e-007
+3.5712000e+004    +5.1130007e-007    +8.4975107e-007
+3.5840000e+004    +4.7938670e-007    +8.3696642e-007
+3.5968000e+004    +4.9253777e-007    +8.5602892e-007
+3.6096000e+004    +5.2705582e-007    +8.2942381e-007
+3.6224000e+004    +5.0164505e-007    +8.8145657e-007
+3.6352000e+004    +5.2738864e-007    +9.1893031e-007
+3.6480000e+004    +4.9577744e-007    +8.7513058e-007
+3.6608000e+004    +5.0251606e-007    +9.1099412e-007
+3.6736000e+004    +4.9728430e-007    +9.0053618e-007
+3.6864000e+004    +5.4863989e-007    +8.6843039e-007
+3.6992000e+004    +5.4910151e-007    +8.8305393e-007
+3.7120000e+004    +5.0892703e-007    +8.9937413e-007
+3.7248000e+004    +5.2456005e-007    +8.2103645e-007
+3.7376000e+004    +5.1986939e-007    +8.5876553e-007
+3.7504000e+004    +5.2855148e-007    +9.2586970e-007
+3.7632000e+004    +5.2662716e-007    +8.3020740e-007
+3.7760000e+004    +5.2719702e-007    +8.5422721e-007
+3.7888000e+004    +4.4027348e-007    +8.4824472e-007
+3.8016000e+004    +4.4255233e-007    +8.5179960e-007
+3.8144000e+004    +4.9432344e-007    +7.9785877e-007
+3.8272000e+004    +5.2006573e-007    +7.7834807e-007
+3.8400000e+004    +5.1874724e-007    +8.9470467e-007
+3.8528000e+004    +4.6194458e-007    +9.3646247e-007
+3.8656000e+004    +4.9835342e-007    +9.0659177e-007
+3.8784000e+004    +4.7928461e-007    +9.0061923e-007
+3.8912000e+004    +4.6763202e-007    +9.1325848e-007
+3.9040000e+004    +4.8535657e-007    +9.3910455e-007
+3.9168000e+004    +4.4730061e-007    +8.7837276e-007
+3.9296000e+004    +4.7397975e-007    +9.0202047e-007
+3.9424000e+004    +5.1310923e-007    +9.3364844e-007
+3.9552000e+004    +5.0058924e-007    +9.8668340e-007
+3.9680000e+004    +4.8244766e-007    +9.3988854e-007
+3.9808000e+004    +4.9612157e-007    +8.2402931e-007
+3.9936000e+004    +5.0078052e-007    +8.4197495e-007
+4.0064000e+004    +4.6824650e-007    +8.1498479e-007
+4.0192000e+004    +4.8691834e-007    +8.7596118e-007
+4.0320000e+004    +5.0562477e-007    +8.0869444e-007
+4.0448000e+004    +4.5757309e-007    +8.0958642e-007
+4.0576000e+004    +4.5161411e-007    +9.1226730e-007
+4.0704000e+004    +4.4655422e-007    +8.7292631e-007
+4.0832000e+004    +4.2621025e-007    +8.9230997e-007
+4.0960000e+004    +4.4578658e-007    +8.9813079e-007
+4.1088000e+004    +4.4743419e-007    +8.7096277e-007
+4.1216000e+004    +4.3684508e-007    +9.1862870e-007
+4.1344000e+004    +4.3505204e-007    +9.5417931e-007
+4.1472000e+004    +4.6129483e-007    +9.6472945e-007
+4.1600000e+004    +4.9075373e-007    +9.6958968e-007
+4.1728000e+004    +4.7735358e-007    +8.7313811e-007
+4.1856000e+004    +4.7120011e-007    +8.3299221e-007
+4.1984000e+004    +4.4177847e-007    +8.1745014e-007
+4.2112000e+004    +4.1908217e-007    +9.3134685e-007
+4.2240000e+004    +4.5893660e-007    +9.5103320e-007
+4.2368000e+004    +4.2162938e-007    +9.6702752e-007
+4.2496000e+004    +4.4027155e-007    +8.8000411e-007
+4.2624000e+004    +4.4292614e-007    +8.5317646e-007
+4.2752000e+004    +4.2704076e-007    +9.0585547e-007
+4.2880000e+004    +4.3305474e-007    +9.7921509e-007
+4.3008000e+004    +4.2955187e-007    +9.3897364e-007
+4.3136000e+004    +4.1037882e-007    +9.2514210e-007
+4.3264000e+004    +4.0472372e-007    +9.0582563e-007
+4.3392000e+004    +4.0902839e-007    +8.9189268e-007
+4.3520000e+004    +4.3259186e-007    +9.3357875e-007
+4.3648000e+004    +4.2664803e-007    +9.6831843e-007
+4.3776000e+004    +4.0088756e-007    +9.8577380e-007
+4.3904000e+004    +4.2554160e-007    +9.6151257e-007
+4.4032000e+004    +4.2304089e-007    +9.5443602e-007
+4.4160000e+004    +4.2481986e-007    +9.2816998e-007
+4.4288000e+004    +4.6291333e-007    +9.2710059e-007
+4.4416000e+004    +4.4708014e-007    +1.0142622e-006
+4.4544000e+004    +4.3886180e-007    +9.9264446e-007
+4.4672000e+004    +4.2801383e-007    +9.5670646e-007
+4.4800000e+004    +4.2289926e-007    +9.4081565e-007
+4.4928000e+004    +4.1324952e-007    +9.8487374e-007
+4.5056000e+004    +4.4600250e-007    +1.0256985e-006
+4.5184000e+004    +4.6290316e-007    +9.6421797e-007
+4.5312000e+004    +4.5784546e-007    +9.9104591e-007
+4.5440000e+004    +4.8614373e-007    +1.0002602e-006
+4.5568000e+004    +4.7731794e-007    +9.5423479e-007
+4.5696000e+004    +4.6677638e-007    +8.9017090e-007
+4.5824000e+004    +4.4062844e-007    +8.9140320e-007
+4.5952000e+004    +4.3960739e-007    +9.6667611e-007
+4.6080000e+004    +4.3936032e-007    +1.0558900e-006
+4.6208000e+004    +4.7381741e-007    +1.0166493e-006
+4.6336000e+004    +4.5814818e-007    +9.8224632e-007
+4.6464000e+004    +4.3850972e-007    +1.0082089e-006
+4.6592000e+004    +4.2983308e-007    +1.0020652e-006
+4.6720000e+004    +4.1511447e-007    +1.0364997e-006
+4.6848000e+004    +4.3507356e-007    +1.0378128e-006
+4.6976000e+004    +4.7718640e-007    +9.8286876e-007
+4.7104000e+004    +4.8138043e-007    +9.2542149e-007
+4.7232000e+004    +4.7381897e-007    +9.3270069e-007
+4.7360000e+004    +4.4668860e-007    +9.2022469e-007
+4.7488000e+004    +4.0765647e-007    +1.0298965e-006
+4.7616000e+004    +4.1391206e-007    +1.1205589e-006
+4.7744000e+004    +4.3160128e-007    +1.0646980e-006
+4.7872000e+004    +4.4051575e-007    +1.0952929e-006
+4.8000000e+004    +4.2063616e-007    +1.1189950e-006
+4.8128000e+004    +4.4481510e-007    +1.0599520e-006
+4.8256000e+004    +4.1313248e-007    +1.0645203e-006
+4.8384000e+004    +4.2318166e-007    +1.0478668e-006
+4.8512000e+004    +4.8512425e-007    +1.0110267e-006
+4.8640000e+004    +4.1631674e-007    +1.0521417e-006
+4.8768000e+004    +4.0699993e-007    +1.1141867e-006
+4.8896000e+004    +4.0990372e-007    +1.0215480e-006
+4.9024000e+004    +3.9645042e-007    +1.0108325e-006
+4.9152000e+004    +4.5034355e-007    +1.0116753e-006
+4.9280000e+004    +4.6554953e-007    +1.0493798e-006
+4.9408000e+004    +4.7155410e-007    +1.1270268e-006
+4.9536000e+004    +4.7864830e-007    +1.1507091e-006
+4.9664000e+004    +4.5776656e-007    +1.0194146e-006
+4.9792000e+004    +4.2818070e-007    +1.0387213e-006
+4.9920000e+004    +4.1837876e-007    +1.1892862e-006
+5.0048000e+004    +4.3316743e-007    +1.1892902e-006
+5.0176000e+004    +4.1378300e-007    +1.0930715e-006
+5.0304000e+004    +3.8168207e-007    +1.0484181e-006
+5.0432000e+004    +4.0438081e-007    +1.1233169e-006
+5.0560000e+004    +4.2466877e-007    +1.1258902e-006
+5.0688000e+004    +3.9340040e-007    +1.1331638e-006
+5.0816000e+004    +4.0819259e-007    +1.1526729e-006
+5.0944000e+004    +4.2888223e-007    +1.0921623e-006
+5.1072000e+004    +4.2266993e-007    +1.0418338e-006
+5.1200000e+004    +4.2815483e-007    +1.2144168e-006
+5.1328000e+004    +4.2715800e-007    +1.1385076e-006
+5.1456000e+004    +4.3818628e-007    +1.1038477e-006
+5.1584000e+004    +4.4024932e-007    +1.2866865e-006
+5.1712000e+004    +3.9793011e-007    +1.1890133e-006
+5.1840000e+004    +4.0034433e-007    +1.0600626e-006
+5.1968000e+004    +4.1591832e-007    +1.1159424e-006
+5.2096000e+004    +4.2418134e-007    +1.1908372e-006
+5.2224000e+004    +4.0939503e-007    +1.1735895e-006
+5.2352000e+004    +4.1336344e-007    +1.1458225e-006
+5.2480000e+004    +4.0797036e-007    +1.1207778e-006
+5.2608000e+004    +4.0445451e-007    +1.0719799e-006
+5.2736000e+004    +3.9526518e-007    +1.1600252e-006
+5.2864000e+004    +3.8671021e-007    +1.0884679e-006
+5.2992000e+004    +3.7418573e-007    +1.0666942e-006
+5.3120000e+004    +3.9622893e-007    +1.1126147e-006
+5.3248000e+004    +3.9905368e-007    +1.0851006e-006
+5.3376000e+004    +3.9532594e-007    +1.0885241e-006
+5.3504000e+004    +4.1464938e-007    +1.1480892e-006
+5.3632000e+004    +4.3490112e-007    +1.1676078e-006
+5.3760000e+004    +4.2047779e-007    +1.2699398e-006
+5.3888000e+004    +4.2118842e-007    +1.2489573e-006
+5.4016000e+004    +4.2321139e-007    +1.2187326e-006
+5.4144000e+004    +3.9968640e-007    +1.1117659e-006
+5.4272000e+004    +3.8816037e-007    +1.0848767e-006
+5.4400000e+004    +4.0717782e-007    +1.1750541e-006
+5.4528000e+004    +3.7616090e-007    +1.2211368e-006
+5.4656000e+004    +3.7855943e-007    +1.1519707e-006
+5.4784000e+004    +3.7463835e-007    +1.1738059e-006
+5.4912000e+004    +3.7765233e-007    +1.2095968e-006
+5.5040000e+004    +4.4525046e-007    +1.2228180e-006
+5.5168000e+004    +6.6468169e-007    +1.1883894e-006
+5.5296000e+004    +4.5352172e-007    +1.1976911e-006
+5.5424000e+004    +5.1759059e-007    +1.2402322e-006
+5.5552000e+004    +1.4151069e-006    +1.3080098e-006
+5.5680000e+004    +1.1295404e-006    +1.3954119e-006
+5.5808000e+004    +4.0167137e-007    +1.2505737e-006
+5.5936000e+004    +3.9363070e-007    +1.0958198e-006
+5.6064000e+004    +3.9048189e-007    +1.1382964e-006
+5.6192000e+004    +3.8318487e-007    +1.2737282e-006
+5.6320000e+004    +3.8978968e-007    +1.3318080e-006
+5.6448000e+004    +3.8512297e-007    +1.2108965e-006
+5.6576000e+004    +3.8228140e-007    +1.1719875e-006
+5.6704000e+004    +3.5971635e-007    +1.1914676e-006
+5.6832000e+004    +3.4896306e-007    +1.2782660e-006
+5.6960000e+004    +3.7453964e-007    +1.2272000e-006
+5.7088000e+004    +3.8538312e-007    +1.1631116e-006
+5.7216000e+004    +3.6583347e-007    +1.1547845e-006
+5.7344000e+004    +3.4767461e-007    +1.1622652e-006
+5.7472000e+004    +3.4097869e-007    +1.1494968e-006
+5.7600000e+004    +3.8399816e-007    +1.2197298e-006
+5.7728000e+004    +3.8399941e-007    +1.3670882e-006
+5.7856000e+004    +3.5854012e-007    +1.4462870e-006
+5.7984000e+004    +3.6223506e-007    +1.3715445e-006
+5.8112000e+004    +3.5199844e-007    +1.3544604e-006
+5.8240000e+004    +3.6273613e-007    +1.3312423e-006
+5.8368000e+004    +3.6831696e-007    +1.2468364e-006
+5.8496000e+004    +3.7183207e-007    +1.1924348e-006
+5.8624000e+004    +3.4953325e-007    +1.2401179e-006
+5.8752000e+004    +3.5223621e-007    +1.2872603e-006
+5.8880000e+004    +3.4996643e-007    +1.2632382e-006
+5.9008000e+004    +3.5239827e-007    +1.2137716e-006
+5.9136000e+004    +3.6195914e-007    +1.3302998e-006
+5.9264000e+004    +3.5272035e-007    +1.4721452e-006
+5.9392000e+004    +3.3982980e-007    +1.2774734e-006
+5.9520000e+004    +3.6020683e-007    +1.2972117e-006
+5.9648000e+004    +3.8072110e-007    +1.3456540e-006
+5.9776000e+004    +3.8364374e-007    +1.3018147e-006
+5.9904000e+004    +3.7282422e-007    +1.3741023e-006
+6.0032000e+004    +3.4534057e-007    +1.2575533e-006
+6.0160000e+004    +3.4099779e-007    +1.3388380e-006
+6.0288000e+004    +3.6804127e-007    +1.4027162e-006
+6.0416000e+004    +3.8773186e-007    +1.3178613e-006
+6.0544000e+004    +3.7358885e-007    +1.3463841e-006
+6.0672000e+004    +3.4375248e-007    +1.4350532e-006
+6.0800000e+004    +3.3854460e-007    +1.3335888e-006
+6.0928000e+004    +3.6692524e-007    +1.3445552e-006
+6.1056000e+004    +3.6417555e-007    +1.3752737e-006
+6.1184000e+004    +3.5587516e-007    +1.4301409e-006
+6.1312000e+004    +3.4281396e-007    +1.3224910e-006
+6.1440000e+004    +3.5719634e-007    +1.3106132e-006
+6.1568000e+004    +3.7788917e-007    +1.3368184e-006
+6.1696000e+004    +3.7601555e-007    +1.3570669e-006
+6.1824000e+004    +3.8390667e-007    +1.3946982e-006
+6.1952000e+004    +3.8611327e-007    +1.4042895e-006
+6.2080000e+004    +3.7866252e-007    +1.4490463e-006
+6.2208000e+004    +3.6064648e-007    +1.3856317e-006
+6.2336000e+004    +3.4688571e-007    +1.3221760e-006
+6.2464000e+004    +3.3550032e-007    +1.3988021e-006
+6.2592000e+004    +3.5253140e-007    +1.3428704e-006
+6.2720000e+004    +3.6408437e-007    +1.3859512e-006
+6.2848000e+004    +3.6390932e-007    +1.2838402e-006
+6.2976000e+004    +3.7105025e-007    +1.3335449e-006
+6.3104000e+004    +3.5856098e-007    +1.4910819e-006
+6.3232000e+004    +3.5545966e-007    +1.4170317e-006
+6.3360000e+004    +3.4625671e-007    +1.3426861e-006
+6.3488000e+004    +3.4511123e-007    +1.3707195e-006
+6.3616000e+004    +3.4587484e-007    +1.3955881e-006
+6.3744000e+004    +3.5662578e-007    +1.3823449e-006
+6.3872000e+004    +3.3602677e-007    +1.2574208e-006
+6.4000000e+004    +3.6864589e-007    +1.3166652e-006
+6.4128000e+004    +3.7624517e-007    +1.5189346e-006
+6.4256000e+004    +3.6375513e-007    +1.5132748e-006
+6.4384000e+004    +3.5351749e-007    +1.3864078e-006
+6.4512000e+004    +3.6398407e-007    +1.4074972e-006
+6.4640000e+004    +3.4828707e-007    +1.4035727e-006
+6.4768000e+004    +3.5876064e-007    +1.4023789e-006
+6.4896000e+004    +3.3804724e-007    +1.4904845e-006
+6.5024000e+004    +3.6258641e-007    +1.4822170e-006
+6.5152000e+004    +3.7348303e-007    +1.5048595e-006
+6.5280000e+004    +3.7230473e-007    +1.3471930e-006
+6.5408000e+004    +3.3898908e-007    +1.4775569e-006
+6.5536000e+004    +3.2475307e-007    +1.6009812e-006
+6.5664000e+004    +3.4122738e-007    +1.4910901e-006
+6.5792000e+004    +3.4975554e-007    +1.4754138e-006
+6.5920000e+004    +3.6345571e-007    +1.4571111e-006
+6.6048000e+004    +3.5283384e-007    +1.4844352e-006
+6.6176000e+004    +3.3457150e-007    +1.5412273e-006
+6.6304000e+004    +3.5492616e-007    +1.3818396e-006
+6.6432000e+004    +3.7280867e-007    +1.4979738e-006
+6.6560000e+004    +3.4609860e-007    +1.6129791e-006
+6.6688000e+004    +3.5932675e-007    +1.5537221e-006
+6.6816000e+004    +3.6109066e-007    +1.4454043e-006
+6.6944000e+004    +3.4146348e-007    +1.4698485e-006
+6.7072000e+004    +3.4762499e-007    +1.5528967e-006
+6.7200000e+004    +3.6340145e-007    +1.4016323e-006
+6.7328000e+004    +3.6087386e-007    +1.4389170e-006
+6.7456000e+004    +3.5992613e-007    +1.5397135e-006
+6.7584000e+004    +3.4786936e-007    +1.4250952e-006
+6.7712000e+004    +3.3587037e-007    +1.4348278e-006
+6.7840000e+004    +3.4443667e-007    +1.5765359e-006
+6.7968000e+004    +3.4265628e-007    +1.5987223e-006
+6.8096000e+004    +3.2579413e-007    +1.6198580e-006
+6.8224000e+004    +3.2984622e-007    +1.6336592e-006
+6.8352000e+004    +3.4280154e-007    +1.6026080e-006
+6.8480000e+004    +3.5612726e-007    +1.6359334e-006
+6.8608000e+004    +3.5965434e-007    +1.7129422e-006
+6.8736000e+004    +3.4997373e-007    +1.6990177e-006
+6.8864000e+004    +3.5355279e-007    +1.5371393e-006
+6.8992000e+004    +3.4642707e-007    +1.6707625e-006
+6.9120000e+004    +3.3111692e-007    +1.6831150e-006
+6.9248000e+004    +3.3497619e-007    +1.6370241e-006
+6.9376000e+004    +3.6241568e-007    +1.4796772e-006
+6.9504000e+004    +3.4923175e-007    +1.5044432e-006
+6.9632000e+004    +3.5351979e-007    +1.5348137e-006
+6.9760000e+004    +3.5167395e-007    +1.5977922e-006
+6.9888000e+004    +3.6207601e-007    +1.6711404e-006
+7.0016000e+004    +3.5611671e-007    +1.6389250e-006
+7.0144000e+004    +5.4966125e-007    +1.7707996e-006
+7.0272000e+004    +7.9556867e-007    +2.1791152e-006
+7.0400000e+004    +4.7160589e-007    +1.8772779e-006
+7.0528000e+004    +3.3376833e-007    +1.6331265e-006
+7.0656000e+004    +4.0047050e-007    +1.6725023e-006
+7.0784000e+004    +4.8873028e-007    +1.6492539e-006
+7.0912000e+004    +3.6963158e-007    +1.5629666e-006
+7.1040000e+004    +3.3783982e-007    +1.6211800e-006
+7.1168000e+004    +3.5270216e-007    +1.5796199e-006
+7.1296000e+004    +3.5474420e-007    +1.5977658e-006
+7.1424000e+004    +3.5345772e-007    +1.6252737e-006
+7.1552000e+004    +3.4723132e-007    +1.6458459e-006
+7.1680000e+004    +3.7025546e-007    +1.6541413e-006
+7.1808000e+004    +3.7781282e-007    +1.6661954e-006
+7.1936000e+004    +3.8518937e-007    +1.6421726e-006
+7.2064000e+004    +3.5489498e-007    +1.5780910e-006
+7.2192000e+004    +3.7362494e-007    +1.6904453e-006
+7.2320000e+004    +3.9855843e-007    +1.6881546e-006
+7.2448000e+004    +3.6175493e-007    +1.5812129e-006
+7.2576000e+004    +3.5205525e-007    +1.5479583e-006
+7.2704000e+004    +3.5967213e-007    +1.5258664e-006
+7.2832000e+004    +3.5619686e-007    +1.6490892e-006
+7.2960000e+004    +3.4967988e-007    +1.6689986e-006
+7.3088000e+004    +3.6874465e-007    +1.6566078e-006
+7.3216000e+004    +3.6109142e-007    +1.6189050e-006
+7.3344000e+004    +3.5507350e-007    +1.7892745e-006
+7.3472000e+004    +3.4499871e-007    +1.8154112e-006
+7.3600000e+004    +3.9723864e-007    +1.7923496e-006
+7.3728000e+004    +4.0237850e-007    +1.7414997e-006
+7.3856000e+004    +3.7787299e-007    +1.8220169e-006
+7.3984000e+004    +3.7411877e-007    +1.7264538e-006
+7.4112000e+004    +3.7808837e-007    +1.7558862e-006
+7.4240000e+004    +3.7568418e-007    +1.8644254e-006
+7.4368000e+004    +3.5388018e-007    +1.7617973e-006
+7.4496000e+004    +3.6278394e-007    +1.7122220e-006
+7.4624000e+004    +3.7510179e-007    +1.6640180e-006
+7.4752000e+004    +3.7743055e-007    +1.8107153e-006
+7.4880000e+004    +3.5986724e-007    +1.8106338e-006
+7.5008000e+004    +3.4592648e-007    +1.6507340e-006
+7.5136000e+004    +3.4278196e-007    +1.5728549e-006
+7.5264000e+004    +3.6624903e-007    +1.6230412e-006
+7.5392000e+004    +3.3592605e-007    +1.6885921e-006
+7.5520000e+004    +3.5857320e-007    +1.5769288e-006
+7.5648000e+004    +3.6650448e-007    +1.7845011e-006
+7.5776000e+004    +3.7396762e-007    +1.7870657e-006
+7.5904000e+004    +3.9049132e-007    +1.6936463e-006
+7.6032000e+004    +3.7786634e-007    +1.7764606e-006
+7.6160000e+004    +3.6646827e-007    +1.8848722e-006
+7.6288000e+004    +3.6517173e-007    +2.6955174e-006
+7.6416000e+004    +3.6799278e-007    +9.9023773e-006
+7.6544000e+004    +3.6751794e-007    +9.7678185e-006
+7.6672000e+004    +3.8270974e-007    +2.6358798e-006
+7.6800000e+004    +3.7896530e-007    +1.6212263e-006
+7.6928000e+004    +3.6610993e-007    +1.8054466e-006
+7.7056000e+004    +3.6469410e-007    +1.7422685e-006
+7.7184000e+004    +3.8822941e-007    +1.8757945e-006
+7.7312000e+004    +3.6355709e-007    +1.9784072e-006
+7.7440000e+004    +3.5600647e-007    +1.7885320e-006
+7.7568000e+004    +5.8879903e-007    +1.7245176e-006
+7.7696000e+004    +1.0815359e-006    +1.6670647e-006
+7.7824000e+004    +6.4235417e-007    +1.7184560e-006
+7.7952000e+004    +3.5834256e-007    +1.8532839e-006
+7.8080000e+004    +3.3782089e-007    +1.7161801e-006
+7.8208000e+004    +3.4901325e-007    +1.7332533e-006
+7.8336000e+004    +3.8551346e-007    +1.8290322e-006
+7.8464000e+004    +3.7191290e-007    +1.7993850e-006
+7.8592000e+004    +3.4104085e-007    +1.8434999e-006
+7.8720000e+004    +3.5716025e-007    +1.7848479e-006
+7.8848000e+004    +3.6885316e-007    +1.6789345e-006
+7.8976000e+004    +3.8146757e-007    +1.8003711e-006
+7.9104000e+004    +3.6295404e-007    +1.7120923e-006
+7.9232000e+004    +3.6374715e-007    +1.7477366e-006
+7.9360000e+004    +3.8242035e-007    +1.8030793e-006
+7.9488000e+004    +4.7907469e-007    +1.9213544e-006
+7.9616000e+004    +4.1461251e-007    +1.9025077e-006
+7.9744000e+004    +3.6887300e-007    +1.6976807e-006
+7.9872000e+004    +3.7269285e-007    +1.8320650e-006
+8.0000000e+004    +3.7574233e-007    +1.8405350e-006
+8.0128000e+004    +3.7206280e-007    +1.8602826e-006
+8.0256000e+004    +3.6935367e-007    +1.9755332e-006
+8.0384000e+004    +3.6968677e-007    +1.9663621e-006
+8.0512000e+004    +3.9134846e-007    +2.0447596e-006
+8.0640000e+004    +3.7995648e-007    +1.8352177e-006
+8.0768000e+004    +3.9330453e-007    +1.9567717e-006
+8.0896000e+004    +3.8852409e-007    +1.9205550e-006
+8.1024000e+004    +3.7812407e-007    +1.8530214e-006
+8.1152000e+004    +3.7213510e-007    +1.9155366e-006
+8.1280000e+004    +3.8561251e-007    +1.9432275e-006
+8.1408000e+004    +3.8511746e-007    +1.9447430e-006
+8.1536000e+004    +3.9223505e-007    +1.7654087e-006
+8.1664000e+004    +3.8263076e-007    +1.8396420e-006
+8.1792000e+004    +3.7209344e-007    +1.8825020e-006
+8.1920000e+004    +3.7286802e-007    +1.8746723e-006
+8.2048000e+004    +3.8179860e-007    +1.9679755e-006
+8.2176000e+004    +3.6234326e-007    +1.8299280e-006
+8.2304000e+004    +3.6178670e-007    +1.8210450e-006
+8.2432000e+004    +3.5889775e-007    +1.8691929e-006
+8.2560000e+004    +3.5101777e-007    +1.8341723e-006
+8.2688000e+004    +3.8638683e-007    +1.9099734e-006
+8.2816000e+004    +3.8846949e-007    +1.9508038e-006
+8.2944000e+004    +4.0866391e-007    +2.0924008e-006
+8.3072000e+004    +3.9981677e-007    +2.0005102e-006
+8.3200000e+004    +3.9180247e-007    +1.7138133e-006
+8.3328000e+004    +3.7700522e-007    +1.8233277e-006
+8.3456000e+004    +3.5368441e-007    +1.8983179e-006
+8.3584000e+004    +3.6532049e-007    +1.9099273e-006
+8.3712000e+004    +3.8189668e-007    +1.8631935e-006
+8.3840000e+004    +3.7613074e-007    +1.9039413e-006
+8.3968000e+004    +3.6873047e-007    +1.8605890e-006
+8.4096000e+004    +3.4784796e-007    +1.9181780e-006
+8.4224000e+004    +3.7363395e-007    +1.9742149e-006
+8.4352000e+004    +3.8735868e-007    +1.8610692e-006
+8.4480000e+004    +3.8389993e-007    +1.8669675e-006
+8.4608000e+004    +3.7207710e-007    +1.9667616e-006
+8.4736000e+004    +3.4483435e-007    +1.8989766e-006
+8.4864000e+004    +3.6033816e-007    +2.0128771e-006
+8.4992000e+004    +3.6204301e-007    +2.0294231e-006
+8.5120000e+004    +3.5072574e-007    +2.0882901e-006
+8.5248000e+004    +3.8424741e-007    +1.8771852e-006
+8.5376000e+004    +3.7193578e-007    +1.8414911e-006
+8.5504000e+004    +3.5901243e-007    +1.9998295e-006
+8.5632000e+004    +3.5866375e-007    +2.0494099e-006
+8.5760000e+004    +3.4574234e-007    +1.9388076e-006
+8.5888000e+004    +3.5827253e-007    +1.9527304e-006
+8.6016000e+004    +3.5990323e-007    +1.7638257e-006
+8.6144000e+004    +3.4432549e-007    +1.6985383e-006
+8.6272000e+004    +3.6664494e-007    +1.8211509e-006
+8.6400000e+004    +3.6554317e-007    +1.8932578e-006
+8.6528000e+004    +3.6119613e-007    +1.7153268e-006
+8.6656000e+004    +3.6597248e-007    +1.9176789e-006
+8.6784000e+004    +3.7950369e-007    +1.9870299e-006
+8.6912000e+004    +3.6071341e-007    +1.7637076e-006
+8.7040000e+004    +3.6010519e-007    +1.9547747e-006
+8.7168000e+004    +3.5204752e-007    +2.0399384e-006
+8.7296000e+004    +3.7013839e-007    +1.8532859e-006
+8.7424000e+004    +3.7948786e-007    +1.9736840e-006
+8.7552000e+004    +3.4393256e-007    +2.1474850e-006
+8.7680000e+004    +3.3443047e-007    +1.9155450e-006
+8.7808000e+004    +4.9133979e-007    +1.8887192e-006
+8.7936000e+004    +5.9649608e-007    +1.9912800e-006
+8.8064000e+004    +4.1532465e-007    +1.7697150e-006
+8.8192000e+004    +3.7225567e-007    +1.7760725e-006
+8.8320000e+004    +3.4502713e-007    +2.0523282e-006
+8.8448000e+004    +3.6609023e-007    +2.2762611e-006
+8.8576000e+004    +3.6045529e-007    +1.9957474e-006
+8.8704000e+004    +3.3678469e-007    +2.0582993e-006
+8.8832000e+004    +3.3981411e-007    +1.9059262e-006
+8.8960000e+004    +3.2738157e-007    +2.0263526e-006
+8.9088000e+004    +3.4508662e-007    +2.1350811e-006
+8.9216000e+004    +3.6253866e-007    +2.1012042e-006
+8.9344000e+004    +3.4763414e-007    +2.1486808e-006
+8.9472000e+004    +3.2170848e-007    +2.0021891e-006
+8.9600000e+004    +3.3373536e-007    +1.9478309e-006
+8.9728000e+004    +3.2686222e-007    +1.8686799e-006
+8.9856000e+004    +3.2497601e-007    +1.9660254e-006
+8.9984000e+004    +3.1321460e-007    +1.9758911e-006
+9.0112000e+004    +3.1799195e-007    +1.7855673e-006
+9.0240000e+004    +3.3696222e-007    +1.8726398e-006
+9.0368000e+004    +3.4638978e-007    +1.8150425e-006
+9.0496000e+004    +3.3449692e-007    +1.8056329e-006
+9.0624000e+004    +3.1425833e-007    +1.9940805e-006
+9.0752000e+004    +3.1984885e-007    +2.0851307e-006
+9.0880000e+004    +3.2694550e-007    +2.1846490e-006
+9.1008000e+004    +3.2675530e-007    +2.0995069e-006
+9.1136000e+004    +3.1983586e-007    +1.9472300e-006
+9.1264000e+004    +2.9688812e-007    +2.0864636e-006
+9.1392000e+004    +3.1889647e-007    +2.0747127e-006
+9.1520000e+004    +3.2306701e-007    +1.9626457e-006
+9.1648000e+004    +3.2841555e-007    +1.9741933e-006
+9.1776000e+004    +3.3199134e-007    +1.8969345e-006
+9.1904000e+004    +3.1854339e-007    +1.8927964e-006
+9.2032000e+004    +3.1456901e-007    +1.9444549e-006
+9.2160000e+004    +3.0776096e-007    +1.9760473e-006
+9.2288000e+004    +3.2317200e-007    +2.0818525e-006
+9.2416000e+004    +3.1950069e-007    +2.0759887e-006
+9.2544000e+004    +3.2909958e-007    +1.9373479e-006
+9.2672000e+004    +3.3789399e-007    +1.9872743e-006
+9.2800000e+004    +3.1251724e-007    +2.0088899e-006
+9.2928000e+004    +3.0239300e-007    +2.0470372e-006
+9.3056000e+004    +3.0078505e-007    +1.9588244e-006
+9.3184000e+004    +3.1822177e-007    +1.9289428e-006
+9.3312000e+004    +3.3406272e-007    +1.9420565e-006
+9.3440000e+004    +3.1092748e-007    +1.8385173e-006
+9.3568000e+004    +2.9313503e-007    +1.8726461e-006
+9.3696000e+004    +2.9259320e-007    +1.8856919e-006
+9.3824000e+004    +2.9832162e-007    +1.8847501e-006
+9.3952000e+004    +3.0512714e-007    +1.8289578e-006
+9.4080000e+004    +3.1055080e-007    +1.7747626e-006
+9.4208000e+004    +3.2197349e-007    +1.7639361e-006
+9.4336000e+004    +3.6493444e-007    +1.7543233e-006
+9.4464000e+004    +6.8817207e-007    +1.8489751e-006
+9.4592000e+004    +6.0702484e-007    +1.9738638e-006
+9.4720000e+004    +3.4729956e-007    +2.0902812e-006
+9.4848000e+004    +4.0624008e-007    +2.1420924e-006
+9.4976000e+004    +3.2274437e-007    +1.9874576e-006
+9.5104000e+004    +2.9042542e-007    +1.9543841e-006
+9.5232000e+004    +2.8011857e-007    +1.9914835e-006
+9.5360000e+004    +2.9929009e-007    +1.8792350e-006
+9.5488000e+004    +2.8960420e-007    +1.8072614e-006
+9.5616000e+004    +2.9743887e-007    +1.8710450e-006
+9.5744000e+004    +3.1872355e-007    +2.0625139e-006
+9.5872000e+004    +3.0986450e-007    +2.0677244e-006
+9.6000000e+004    +2.9397626e-007    +1.9578893e-006
+9.6128000e+004    +3.0064174e-007    +1.9237016e-006
+9.6256000e+004    +3.1036095e-007    +1.8599048e-006
+9.6384000e+004    +3.0720494e-007    +1.8385940e-006
+9.6512000e+004    +3.1722024e-007    +1.8867668e-006
+9.6640000e+004    +3.3053178e-007    +2.0619884e-006
+9.6768000e+004    +3.2445942e-007    +2.0129257e-006
+9.6896000e+004    +3.0477526e-007    +1.7436215e-006
+9.7024000e+004    +3.0393682e-007    +1.8759984e-006
+9.7152000e+004    +3.0592958e-007    +1.8487214e-006
+9.7280000e+004    +3.0000666e-007    +1.7843306e-006
+9.7408000e+004    +3.1048978e-007    +1.9711740e-006
+9.7536000e+004    +3.2337434e-007    +1.8405875e-006
+9.7664000e+004    +3.1990049e-007    +1.9688596e-006
+9.7792000e+004    +3.6212370e-007    +2.1295627e-006
+9.7920000e+004    +4.4597360e-007    +2.1372155e-006
+9.8048000e+004    +4.9020929e-007    +1.8197758e-006
+9.8176000e+004    +5.5393008e-007    +1.8074994e-006
+9.8304000e+004    +6.4738691e-007    +1.9986419e-006
+9.8432000e+004    +7.7456372e-007    +1.9843658e-006
+9.8560000e+004    +9.5058425e-007    +1.9476897e-006
+9.8688000e+004    +1.1226609e-006    +1.9958504e-006
+9.8816000e+004    +1.3360377e-006    +1.9652505e-006
+9.8944000e+004    +1.4671800e-006    +1.8457197e-006
+9.9072000e+004    +1.5100716e-006    +1.8723521e-006
+9.9200000e+004    +1.4791298e-006    +1.7654087e-006
+9.9328000e+004    +1.3319207e-006    +1.7837136e-006
+9.9456000e+004    +1.1756581e-006    +1.7263401e-006
+9.9584000e+004    +1.2033141e-006    +1.8301309e-006
+9.9712000e+004    +1.4433174e-006    +1.7824059e-006
+9.9840000e+004    +1.6617139e-006    +1.9056583e-006
+9.9968000e+004    +1.5324596e-006    +2.0811394e-006
+1.0009600e+005    +1.2646093e-006    +2.0018417e-006
+1.0022400e+005    +1.4657841e-006    +1.9606318e-006
+1.0035200e+005    +1.5398149e-006    +1.9146703e-006
+1.0048000e+005    +1.2304921e-006    +1.8286486e-006
+1.0060800e+005    +1.3801520e-006    +1.7917122e-006
+1.0073600e+005    +1.3441775e-006    +1.8910038e-006
+1.0086400e+005    +1.2282986e-006    +1.8061286e-006
+1.0099200e+005    +1.3211079e-006    +1.7829755e-006
+1.0112000e+005    +1.2158630e-006    +1.7868950e-006
+1.0124800e+005    +1.3998960e-006    +1.6338063e-006
+1.0137600e+005    +1.2815151e-006    +1.7413773e-006
+1.0150400e+005    +1.4443319e-006    +1.8756276e-006
+1.0163200e+005    +1.3908889e-006    +1.8485772e-006
+1.0176000e+005    +1.5237687e-006    +1.8533714e-006
+1.0188800e+005    +1.4441829e-006    +1.8315220e-006
+1.0201600e+005    +1.5810914e-006    +1.7332704e-006
+1.0214400e+005    +1.6138063e-006    +1.7824783e-006
+1.0227200e+005    +1.4874029e-006    +1.8410140e-006
