# Comments from moku data file:% Moku:Phasemeter 
# 
# % Ch 1 - DC coupling, 50 Ohm impedance, 1 V range
# 
# % Ch 1 bandwidth = 1.0000000000e+04 (Hz)
# 
# % Acquisition rate: 1.2500000000e+05 Hz
# 
# % External 10 MHz clock
# 
# % Acquired 2020-05-13 T 03:03:12 -0700
# 
# % Time, Set frequency 1 (Hz), Frequency 1 (Hz), Phase 1 (cyc), I 1 (V), Q 1 (V)
# 
# #########################################################
# ASD calculated by mokuReadFreqNoise.py
# Frequency [Hz]         Freq ASD1 [Hz/rtHz]      Freq ASDlb1 [Hz/rtHz]    Freq ASDub1 [Hz/rtHz]    
# 
0.000000000000000000e+00 2.745108858384723476e+02 1.341870965206846336e+02 4.552947726778832589e+02
1.000000000000000056e-01 2.568561231479712887e+02 8.859355458893362822e+01 3.770432143736699118e+02
2.000000000000000111e-01 9.916376850653692543e+01 7.130373785692687250e+01 1.707902319970334020e+02
3.000000000000000444e-01 7.351965021605728623e+01 5.604012286945744137e+01 1.698587485960003107e+02
4.000000000000000222e-01 5.770982310058094100e+01 3.990233439761235701e+01 1.201458129911877251e+02
5.000000000000000000e-01 5.097133253798763519e+01 3.502060380022059860e+01 7.559501106692349026e+01
6.000000000000000888e-01 2.673187579505499301e+01 1.937708421512804691e+01 5.155574166373059342e+01
7.000000000000000666e-01 4.268706050439048738e+01 1.736251548309385129e+01 6.347429934154175157e+01
8.000000000000000444e-01 4.751539985971309932e+01 3.139275716216926781e+01 6.728806542791127754e+01
9.000000000000000222e-01 3.624808853862265323e+01 9.781185890778983705e+00 5.415720433504136366e+01
1.000000000000000000e+00 3.323150860074559176e+01 1.422899369548891357e+01 5.076054188467575301e+01
1.100000000000000089e+00 3.461954088601817858e+01 2.825690304639647366e+01 3.959891147893103636e+01
1.200000000000000178e+00 3.458187129426045914e+01 1.620976840481617032e+01 4.665813279415196035e+01
1.300000000000000044e+00 2.424369392354285679e+01 1.712270441068902826e+01 4.030902871008645860e+01
1.400000000000000133e+00 2.272712649783753136e+01 9.978289915292963386e+00 3.775995438033032059e+01
1.500000000000000000e+00 2.402343885793849765e+01 1.570501941561682635e+01 3.221615346529890900e+01
1.600000000000000089e+00 1.805379786760280325e+01 1.567428373098959682e+01 2.263744416497332779e+01
1.700000000000000178e+00 1.620339417483344491e+01 1.418941978669933057e+01 2.590215422244344623e+01
1.800000000000000044e+00 1.981051013919649151e+01 9.949983477349828576e+00 3.098887547016843413e+01
1.900000000000000133e+00 1.748980373251189491e+01 5.870667284303642930e+00 3.351917101006947064e+01
2.000000000000000000e+00 1.722580493585329364e+01 9.309951145867970013e+00 2.744216895866098227e+01
2.100000000000000089e+00 2.010697797073579096e+01 1.636811339173802438e+01 2.544103143490166374e+01
2.200000000000000178e+00 1.888983427415880456e+01 1.201021539213635236e+01 2.323298150148163188e+01
2.300000000000000266e+00 1.448652043250918986e+01 8.258897768919053917e+00 1.969348297244769341e+01
2.400000000000000355e+00 1.916902894642953825e+01 1.550133152393179792e+01 2.467780998361330091e+01
2.500000000000000000e+00 1.982603660854955052e+01 8.582650794630986013e+00 2.462674600398916169e+01
2.600000000000000089e+00 1.662819594171347859e+01 1.199738787542033691e+01 2.365431965640710033e+01
2.700000000000000178e+00 1.628924446650693625e+01 1.045796864047304986e+01 2.592770389773533068e+01
2.800000000000000266e+00 1.526549778470311836e+01 1.101819620841121683e+01 2.050784772735510231e+01
2.900000000000000355e+00 1.633667205616152884e+01 9.603437250625539434e+00 2.100469367917398955e+01
3.000000000000000000e+00 1.577398647194550030e+01 8.578270331070031673e+00 2.189909666900125274e+01
3.100000000000000089e+00 1.322736016224257405e+01 9.460913444586443788e+00 1.523685895584651995e+01
3.200000000000000178e+00 1.156387593872718078e+01 5.830379334706261574e+00 2.041250255210692899e+01
3.300000000000000266e+00 1.114447522167316684e+01 6.948332222477345610e+00 1.761066157730124004e+01
3.400000000000000355e+00 1.284935035200486020e+01 9.352526079400565351e+00 1.734404773788896748e+01
3.500000000000000000e+00 1.541451526790221216e+01 8.852453767205863855e+00 2.187293746211574685e+01
3.600000000000000089e+00 1.566312580004871258e+01 5.850617856110140735e+00 2.328095273805269727e+01
3.700000000000000178e+00 1.278473151726235635e+01 9.204377032741836828e+00 1.866555925549484130e+01
3.800000000000000266e+00 1.666178917947507898e+01 1.256335887531941609e+01 1.827307113267162464e+01
3.900000000000000355e+00 1.371746590639509478e+01 1.042656700821841120e+01 1.928015814416813711e+01
4.000000000000000000e+00 9.617426227331037580e+00 4.946273214623503556e+00 2.220586416042882050e+01
4.100000000000000533e+00 1.329952653563035270e+01 8.170810619172037548e+00 2.005066971018614552e+01
4.200000000000000178e+00 1.461732966376532339e+01 4.654952524842693506e+00 1.893211516827064145e+01
4.299999999999999822e+00 1.690421613866613981e+01 1.169200461714582673e+01 2.244960445478742272e+01
4.400000000000000355e+00 8.746383222425343718e+00 7.088271595990689455e+00 1.765571838940983085e+01
4.500000000000000000e+00 1.023492107626909942e+01 4.041200608333575417e+00 2.216355458337205064e+01
4.600000000000000533e+00 1.206378001219460216e+01 7.730134365679016462e+00 1.847725269788314861e+01
4.700000000000000178e+00 1.253486180414233964e+01 1.016544008109260311e+01 2.119352954745266615e+01
4.800000000000000711e+00 8.750085339023042863e+00 7.887504013478705112e+00 1.721903121307296658e+01
4.900000000000000355e+00 1.169235431910673206e+01 6.410406505845908320e+00 2.029188449089111401e+01
5.000000000000000000e+00 1.428617318977909711e+01 3.427502632546196804e+00 2.424583393744391557e+01
5.100000000000000533e+00 1.628450821882631416e+01 5.436166123486737334e+00 2.364567470060330123e+01
5.200000000000000178e+00 1.509984253379274399e+01 7.332436115731358228e+00 2.400487266354340221e+01
5.300000000000000711e+00 1.870930479680934866e+01 1.012759050790013227e+01 2.976024087841463128e+01
5.400000000000000355e+00 1.496102073415890921e+01 1.052331531289338784e+01 2.451328274063280332e+01
5.500000000000000000e+00 1.298377269083980856e+01 9.691503624668335704e+00 2.308436512827270448e+01
5.600000000000000533e+00 1.427861610126651470e+01 1.070974733108981702e+01 2.251080052375433738e+01
5.700000000000000178e+00 1.559248968933759727e+01 1.081438658827374333e+01 1.914652649300518306e+01
5.800000000000000711e+00 1.748155906960971251e+01 1.436060659482083857e+01 2.563491929994405538e+01
5.900000000000000355e+00 1.659662715221188378e+01 1.166063356620002089e+01 2.172836786674399789e+01
6.000000000000000000e+00 1.520398044158273620e+01 1.068877998270435725e+01 2.331604099103608974e+01
6.100000000000000533e+00 1.147854149983675143e+01 6.330761025140329679e+00 2.289607448014839619e+01
6.200000000000000178e+00 1.734918102614519952e+01 1.040116367076314674e+01 2.432739869709123326e+01
6.300000000000000711e+00 1.371552624360364092e+01 7.972194378061663755e+00 2.058279072897722983e+01
6.400000000000000355e+00 1.231286410184870128e+01 5.151894083177478656e+00 1.799883614506167362e+01
6.500000000000000000e+00 1.473164878675059875e+01 6.691786175798146274e+00 2.409925521576028729e+01
6.600000000000000533e+00 1.397124358010779765e+01 4.979847837552240364e+00 2.680792695945226356e+01
6.700000000000000178e+00 1.961254170524836127e+01 1.125631899967746996e+01 2.613405165901508198e+01
6.800000000000000711e+00 9.257049430502734211e+00 7.573506444750332633e+00 2.041278098393003049e+01
6.900000000000000355e+00 1.234136077217938343e+01 6.036421193387386808e+00 2.347012165060583300e+01
7.000000000000000000e+00 1.156879097792299760e+01 7.902647443229007251e+00 1.673421219642562718e+01
7.100000000000000533e+00 1.561856011146643120e+01 6.338362526587872026e+00 1.821603613666051302e+01
7.200000000000000178e+00 1.605575565902113766e+01 9.533202199365128138e+00 2.193790618745834209e+01
7.300000000000000711e+00 1.933151575186541393e+01 1.220368822230568462e+01 2.971336624884296285e+01
7.400000000000000355e+00 1.554516722678937057e+01 8.401541077752973763e+00 3.210881622542110847e+01
7.500000000000000000e+00 8.695243169442228748e+00 2.834220667969959973e+00 2.722865079457933390e+01
7.600000000000000533e+00 1.254134926886144008e+01 1.049765039837648750e+01 1.552552788896296221e+01
7.700000000000000178e+00 1.893521723484498764e+01 1.116692202182080251e+01 2.686239692915969712e+01
7.800000000000000711e+00 1.778358310746167348e+01 2.803833803049613493e+00 2.275309737073674299e+01
7.900000000000000355e+00 1.228109135421866860e+01 7.412206632756570102e+00 2.279948557111228169e+01
8.000000000000000000e+00 1.411584494136306311e+01 1.025174843494915855e+01 2.404710592824844184e+01
8.099999999999999645e+00 1.477225700478319403e+01 1.278977063890300769e+01 2.288444140464669374e+01
8.200000000000001066e+00 9.573035632177607113e+00 6.778961905231115637e+00 2.156431540150645532e+01
8.300000000000000711e+00 1.160142006958460748e+01 6.441423747943805012e+00 1.948722467950966220e+01
8.400000000000000355e+00 1.291182277705781445e+01 5.553864491922686497e+00 2.037222690129176428e+01
8.500000000000000000e+00 9.820530793921612656e+00 6.674865804605942365e+00 1.698721139503453870e+01
8.599999999999999645e+00 6.059157273578025027e+00 3.501508331623040426e+00 1.187919973118058259e+01
8.700000000000001066e+00 1.198612324275990559e+01 7.220609514793506101e+00 1.895230095665241166e+01
8.800000000000000711e+00 1.360669263632789594e+01 1.120882079821422828e+01 1.684568995999443786e+01
8.900000000000000355e+00 1.502763614303873396e+01 9.434526298914651221e+00 1.964918746581484754e+01
9.000000000000000000e+00 8.587159835137361696e+00 5.998495927960560081e+00 2.179393687115297595e+01
9.099999999999999645e+00 1.210512497859386016e+01 9.699874062299706168e+00 2.230260841212509604e+01
9.200000000000001066e+00 1.633222013677287165e+01 7.587723018379286088e+00 2.020382799769505766e+01
9.300000000000000711e+00 1.169085997479561279e+01 8.677292573557387811e+00 1.607038088643590967e+01
9.400000000000000355e+00 1.191529384244971723e+01 4.387480154385515085e+00 1.724616136341189687e+01
9.500000000000000000e+00 1.399406139654853298e+01 7.724778387124890067e+00 1.955712367563603138e+01
9.600000000000001421e+00 7.899752754589359327e+00 5.102230049429289593e+00 1.502050009610367987e+01
9.700000000000001066e+00 1.017336767276166576e+01 3.781823961356044705e+00 1.589792742428200611e+01
9.800000000000000711e+00 1.116817292017474195e+01 6.460104900845143661e+00 2.126039226545704253e+01
9.900000000000000355e+00 1.524449524082529273e+01 7.840995155086881496e+00 2.099586054030529425e+01
1.000000000000000000e+01 1.073096395198490427e+01 5.773122776797043443e+00 1.905886404159507208e+01
1.100000000000000000e+01 1.210713706439348414e+01 6.410831334856020192e+00 1.869955528133674605e+01
1.200000000000000000e+01 1.008199734534455416e+01 5.594432400677882278e+00 1.865263623832271378e+01
1.300000000000000000e+01 1.240775403903891494e+01 5.416710256842351079e+00 2.057285320263228812e+01
1.400000000000000000e+01 1.222724410248959259e+01 4.066379404158406707e+00 2.344886211906092655e+01
1.500000000000000000e+01 1.048741571270409523e+01 3.707681258558657600e+00 2.103279725581750625e+01
1.600000000000000000e+01 8.504543739610625153e+00 3.014609164368605931e+00 1.756543804444844881e+01
1.700000000000000000e+01 6.906997920547048864e+00 2.151182473340004897e+00 1.613917215414850759e+01
1.800000000000000000e+01 6.400094251825002800e+00 2.236539285643128760e+00 1.542130053673349721e+01
1.900000000000000000e+01 5.990466192363730791e+00 1.741260332848867165e+00 1.468902985282053386e+01
2.000000000000000000e+01 6.115783094036313372e+00 1.596058503317316912e+00 1.577661514992655611e+01
2.100000000000000000e+01 5.332566864533427875e+00 1.604878468061520680e+00 1.243040239809523051e+01
2.200000000000000000e+01 4.578291983080665872e+00 1.319526290580378847e+00 1.135572252020471318e+01
2.300000000000000000e+01 3.540607681196336287e+00 1.129730214473468664e+00 1.021223357725975944e+01
2.400000000000000000e+01 2.317120209129702069e+00 8.584734072831056162e-01 9.410104715915762696e+00
2.500000000000000000e+01 2.247410818216171613e+00 7.481715132566936211e-01 8.982917790737495523e+00
2.600000000000000000e+01 2.024469607497442425e+00 6.500305525113234673e-01 7.842628041260772953e+00
2.700000000000000000e+01 1.698264195604937576e+00 6.320674730851590928e-01 7.520340313313949920e+00
2.800000000000000000e+01 1.455337253034355127e+00 5.572050107774771943e-01 5.892651126079030632e+00
2.900000000000000000e+01 1.384056794820659464e+00 5.976699273163059711e-01 5.017718766524448704e+00
3.000000000000000000e+01 9.669590260876310683e-01 3.978565793847976817e-01 4.282129913896922879e+00
3.100000000000000000e+01 9.250975607800213663e-01 2.788487289824843063e-01 3.044609938280855577e+00
3.200000000000000000e+01 7.563937178348841828e-01 3.059103582837065516e-01 3.421834031847421631e+00
3.300000000000000000e+01 7.268512847804839971e-01 2.816441306857981886e-01 2.671257351678831160e+00
3.400000000000000000e+01 6.299628194368100953e-01 2.709055859543315070e-01 2.094620996788307377e+00
3.500000000000000000e+01 5.323240780458703414e-01 2.226797526571311359e-01 1.665701307771583428e+00
3.600000000000000000e+01 5.357306880397831872e-01 1.955420376049131770e-01 1.337274047389550802e+00
3.700000000000000000e+01 4.420908194155956927e-01 1.708869082107717374e-01 1.136319006235966489e+00
3.800000000000000000e+01 3.730590283765720661e-01 1.789770791399551420e-01 8.653930505572422494e-01
3.900000000000000000e+01 3.272357882761099956e-01 1.074751808482986570e-01 9.634950493072853561e-01
4.000000000000000000e+01 2.823156884070754935e-01 1.247902743822350558e-01 8.173880073608170704e-01
4.100000000000000000e+01 3.022703046626040169e-01 1.019635657091639419e-01 6.589219715827759893e-01
4.200000000000000000e+01 2.608781189139027235e-01 1.168999860138904834e-01 6.512716457073487453e-01
4.300000000000000000e+01 2.518453032946775250e-01 1.141475079704626361e-01 5.110308374511778329e-01
4.400000000000000000e+01 2.213298777013094076e-01 9.510311039727524507e-02 4.009081331166979845e-01
4.500000000000000000e+01 1.795973710526215794e-01 7.797034140571466876e-02 3.916659571583884225e-01
4.600000000000000000e+01 2.037279847605775185e-01 1.019854253353963819e-01 3.841696824222345374e-01
4.700000000000000000e+01 1.773292449081006195e-01 8.109665212757911912e-02 3.362283162256310964e-01
4.800000000000000000e+01 1.958965546186403894e-01 9.424210331424763554e-02 3.421207496410227922e-01
4.900000000000000000e+01 1.977205479397275700e-01 8.254198551878273726e-02 3.533236744464123280e-01
5.000000000000000000e+01 1.671783016354264628e-01 9.718104081208782385e-02 3.454336426727011022e-01
5.100000000000000000e+01 1.941974866724553994e-01 9.471384124161533191e-02 3.032063594482574120e-01
5.200000000000000000e+01 1.873262353813910652e-01 9.957025072701444768e-02 3.125115320870676117e-01
5.300000000000000000e+01 1.817577949544943450e-01 9.581979222431752374e-02 3.391731823267943313e-01
5.400000000000000000e+01 1.627717257553329411e-01 7.977910635274525208e-02 2.845439819519176572e-01
5.500000000000000000e+01 1.710733296784772151e-01 9.046859822939623541e-02 2.851744808414088950e-01
5.600000000000000000e+01 1.845894175410763005e-01 8.872057769232087610e-02 3.235283964666600953e-01
5.700000000000000000e+01 1.736677094847120795e-01 8.255584435065553561e-02 3.073603516758192655e-01
5.800000000000000000e+01 1.720211606187188880e-01 7.958429477323804291e-02 2.566191326726288691e-01
5.900000000000000000e+01 1.164482121325296493e-01 5.809221010839178689e-02 2.400920575828990600e-01
6.000000000000000000e+01 1.570006417595520842e-01 8.032141556266805815e-02 2.620189281194130748e-01
6.100000000000000000e+01 1.755718581765332853e-01 7.075190284766133542e-02 2.589098399134013295e-01
6.200000000000000000e+01 1.671682855682646573e-01 8.228271499020586854e-02 2.696173837098960191e-01
6.300000000000000000e+01 1.544722027633737282e-01 7.584596995067545422e-02 2.664103524120339239e-01
6.400000000000000000e+01 1.535433608975755038e-01 7.960164246266206167e-02 2.662775069768092973e-01
6.500000000000000000e+01 1.264489906002343178e-01 4.615071181753623714e-02 1.997654526719289947e-01
6.600000000000000000e+01 1.220461221047518530e-01 6.253404048330755971e-02 1.799735904284561760e-01
6.700000000000000000e+01 1.119626929178162561e-01 5.409483071832815043e-02 1.896379718634273737e-01
6.800000000000000000e+01 1.059800720385244421e-01 4.750294652319622668e-02 1.860671382588718059e-01
6.900000000000000000e+01 1.160988593206980640e-01 6.503246810013571522e-02 1.764047307089729733e-01
7.000000000000000000e+01 9.902102135694465512e-02 5.280626409909518898e-02 1.659593996304255248e-01
7.100000000000000000e+01 9.167471075975647254e-02 4.526341294174640595e-02 1.580501445464758126e-01
7.200000000000000000e+01 1.024272565371125987e-01 5.080527074313959113e-02 1.647415225951913698e-01
7.300000000000000000e+01 1.021102264078022348e-01 6.407901476439026300e-02 1.546811895449246854e-01
7.400000000000000000e+01 9.236596795359558465e-02 3.865223679041512178e-02 1.557891050482887174e-01
7.500000000000000000e+01 8.999681698221198567e-02 4.604560851098027374e-02 1.490558461427589354e-01
7.600000000000000000e+01 9.015642976505244821e-02 4.890566284931725793e-02 1.573044463274694549e-01
7.700000000000000000e+01 8.779678349458791553e-02 5.207732114258020739e-02 1.432666700898592438e-01
7.800000000000000000e+01 8.108006308568432852e-02 4.215086064575410824e-02 1.424977421452993387e-01
7.900000000000000000e+01 9.266520696903782217e-02 5.130383141538432529e-02 1.453431989692892945e-01
8.000000000000000000e+01 8.379725923971997892e-02 3.974786853903568284e-02 1.450372405730419867e-01
8.100000000000000000e+01 7.687258800615152932e-02 3.947464169014693741e-02 1.357134494612310116e-01
8.200000000000000000e+01 8.201979565056592703e-02 3.946896693903451797e-02 1.365423857626283655e-01
8.300000000000000000e+01 7.691345587797759897e-02 3.987691068571947578e-02 1.295027095317128341e-01
8.400000000000000000e+01 6.715966511555762630e-02 3.328413238475125963e-02 1.348612976279050246e-01
8.500000000000000000e+01 7.907585505910651180e-02 4.040045249397171412e-02 1.398422537467193805e-01
8.600000000000000000e+01 8.650346824956631209e-02 4.574463734892452588e-02 1.439574960831482564e-01
8.700000000000000000e+01 7.824996140610941675e-02 3.473062525846563192e-02 1.473817205940158859e-01
8.800000000000000000e+01 7.798851988443165906e-02 4.234727548895136223e-02 1.253094483453765506e-01
8.900000000000000000e+01 7.701212209717872570e-02 4.077986469894702426e-02 1.296743382565705427e-01
9.000000000000000000e+01 6.958911206368403879e-02 4.356549556903104720e-02 1.356005779051120685e-01
9.100000000000000000e+01 7.127593598919373941e-02 3.595606808595603471e-02 1.296989089454080590e-01
9.200000000000000000e+01 7.525288576495973991e-02 2.932391753939857584e-02 1.365472789710895085e-01
9.300000000000000000e+01 7.505791135457332008e-02 3.208084136153043636e-02 1.465700436015220098e-01
9.400000000000000000e+01 8.512121304277038558e-02 4.244743930000525328e-02 1.492796639911962153e-01
9.500000000000000000e+01 8.369644250122429407e-02 4.207663839064800654e-02 1.726958878208485759e-01
9.600000000000000000e+01 8.676984963543195317e-02 3.664341602649794083e-02 1.676798175115813694e-01
9.700000000000000000e+01 1.016859054027017678e-01 4.657692633737487570e-02 1.665227434730479628e-01
9.800000000000000000e+01 9.050196241767058392e-02 3.523353688200897560e-02 1.833986537731353561e-01
9.900000000000000000e+01 9.310161985985550281e-02 4.485337246968157388e-02 1.903915878556995123e-01
1.000000000000000000e+02 1.206999923695431381e-01 5.297991404278230149e-02 2.265356823040311218e-01
1.100000000000000000e+02 1.820483488706792219e-01 9.285422086014284704e-02 2.923840788308500471e-01
1.200000000000000000e+02 1.684418850012873170e-01 7.313834283334993969e-02 3.464986057892122107e-01
1.300000000000000000e+02 2.059058751972623336e-01 1.048962064116698845e-01 3.342766110920582512e-01
1.400000000000000000e+02 1.897746972601505322e-01 9.049741071161500339e-02 3.340093321372921698e-01
1.500000000000000000e+02 1.310220774958193446e-01 5.493397979690695793e-02 2.941046924341855773e-01
1.600000000000000000e+02 1.466916995090911946e-01 6.499945911155842471e-02 2.707303822449165787e-01
1.700000000000000000e+02 8.599999857868076414e-02 3.930522445504041479e-02 1.981320259959918895e-01
1.800000000000000000e+02 4.974245371800624371e-02 2.315191009678849166e-02 8.969544043099078601e-02
1.900000000000000000e+02 3.696948428602561676e-02 1.893054622979094270e-02 6.203643609240372392e-02
2.000000000000000000e+02 4.055556650427710741e-02 2.027044248937528298e-02 7.023932864229835704e-02
2.100000000000000000e+02 5.618362551803528920e-02 2.733699706357585468e-02 9.674822598186696987e-02
2.200000000000000000e+02 6.377521696060078904e-02 2.978543100750793288e-02 1.141810010150554749e-01
2.300000000000000000e+02 6.465281657964681850e-02 3.135276581836401316e-02 1.218531635838389776e-01
2.400000000000000000e+02 7.159384243662243741e-02 3.551203975028804916e-02 1.187072531190696417e-01
2.500000000000000000e+02 5.143083072226355135e-02 2.351370795610577616e-02 9.189457225631941784e-02
2.600000000000000000e+02 8.549616243762980794e-02 3.815955657738930723e-02 1.593324538741685281e-01
2.700000000000000000e+02 1.250106840407919917e-01 5.175658523761756530e-02 2.437984320454223697e-01
2.800000000000000000e+02 1.249263883622222238e-01 5.645009579001024347e-02 2.242510183402021129e-01
2.900000000000000000e+02 6.884801912181368055e-02 3.062517953352719702e-02 1.233074153914528737e-01
3.000000000000000000e+02 3.716949685367874900e-02 1.746043680623616395e-02 6.105428827327064739e-02
3.100000000000000000e+02 3.231499408571857773e-02 1.564122713952562083e-02 5.373605789500196517e-02
3.200000000000000000e+02 3.315749068720740683e-02 1.753811455348889409e-02 5.211596389186865658e-02
3.300000000000000000e+02 3.182454944612467945e-02 1.652811350544178964e-02 5.300114688236929467e-02
3.400000000000000000e+02 3.210413694272491042e-02 1.773755253010468949e-02 5.382026954504753880e-02
3.500000000000000000e+02 3.218839162194777476e-02 1.593620423976511644e-02 5.389116867199728045e-02
3.600000000000000000e+02 3.081305689606651799e-02 1.545135979178278995e-02 5.042875131501832475e-02
3.700000000000000000e+02 3.012831369488613159e-02 1.497938059303383432e-02 4.929144849271387130e-02
3.800000000000000000e+02 3.367565917561655964e-02 1.617705139020465463e-02 5.557219745693014329e-02
3.900000000000000000e+02 3.976559815821935351e-02 1.993444351426467906e-02 6.486023885703036396e-02
4.000000000000000000e+02 4.001799712600236786e-02 1.971825795176610288e-02 6.397918367659227723e-02
4.100000000000000000e+02 3.517015015925242793e-02 1.814394270946242949e-02 5.883721661131889602e-02
4.200000000000000000e+02 3.832495090937083904e-02 1.955118061969884219e-02 6.295312796389952725e-02
4.300000000000000000e+02 3.850119458275865630e-02 1.889359932064785252e-02 6.302187081942063618e-02
4.400000000000000000e+02 3.484329295313290387e-02 1.785280499495746354e-02 5.928239631787891872e-02
4.500000000000000000e+02 3.224636271216060196e-02 1.552491049938741798e-02 5.292374075424918778e-02
4.600000000000000000e+02 2.852120138337166724e-02 1.412859086390053434e-02 4.671393977356898264e-02
4.700000000000000000e+02 2.957074440724412334e-02 1.500768919021940734e-02 4.823374177280542741e-02
4.800000000000000000e+02 3.498773125050638755e-02 1.695653432790950738e-02 5.597321631298187578e-02
4.900000000000000000e+02 2.793203972336654253e-02 1.358939677638145750e-02 4.635104020571122196e-02
5.000000000000000000e+02 2.580184040096529519e-02 1.262634300034998561e-02 4.269113021122507290e-02
5.100000000000000000e+02 2.642618978519663264e-02 1.298591022074523788e-02 4.247430703986161682e-02
5.200000000000000000e+02 2.669833917740358983e-02 1.359764947325320557e-02 4.327952390533067878e-02
5.300000000000000000e+02 3.062720892131406622e-02 1.409699932658325938e-02 4.767072038114023025e-02
5.400000000000000000e+02 3.304445579866809035e-02 1.571144328960274311e-02 5.183570969067743256e-02
5.500000000000000000e+02 3.102074320490487772e-02 1.586895008678563049e-02 5.056088056959665011e-02
5.600000000000000000e+02 3.370918602698089878e-02 1.555980818712326269e-02 5.444801872310980201e-02
5.700000000000000000e+02 3.556918948706606909e-02 1.764373059828664922e-02 5.809892292885678045e-02
5.800000000000000000e+02 3.486937674438383289e-02 1.654465413712470287e-02 5.435571554797356819e-02
5.900000000000000000e+02 3.066494741619564882e-02 1.498484799844177970e-02 5.001537968970642956e-02
6.000000000000000000e+02 3.084754682021622479e-02 1.587973009489999573e-02 5.130410083709958935e-02
6.100000000000000000e+02 2.813059310279667977e-02 1.391745368585716770e-02 4.817681830251741015e-02
6.200000000000000000e+02 4.888607775512665565e-02 2.390985804488732561e-02 7.762197425220127012e-02
6.300000000000000000e+02 1.770799825188256460e-01 8.065243956619072563e-02 2.780539926134008577e-01
6.400000000000000000e+02 1.673681812307866168e-01 7.830077475658092645e-02 2.689057865362475264e-01
6.500000000000000000e+02 9.430862254829149027e-02 4.748457138603059263e-02 1.518783866596104537e-01
6.600000000000000000e+02 1.051945956099612500e-01 5.367041123197967972e-02 1.701662771356275694e-01
6.700000000000000000e+02 8.441953947336983122e-02 4.085664446444771392e-02 1.398786701453046677e-01
6.800000000000000000e+02 7.584236883973199950e-02 3.922052744263496149e-02 1.177099496857491323e-01
6.900000000000000000e+02 6.712656951975652653e-02 3.395106564298669416e-02 1.087932609681836194e-01
7.000000000000000000e+02 4.518957366629076239e-02 2.122426408905315684e-02 7.678699754173501368e-02
7.100000000000000000e+02 4.077376426461316178e-02 2.033461461621274835e-02 6.434030907488726136e-02
7.200000000000000000e+02 6.349472900937642994e-02 3.077141506699003839e-02 1.008282966394357105e-01
7.300000000000000000e+02 5.059386981422053786e-02 2.521604065259811997e-02 7.988142022034902534e-02
7.400000000000000000e+02 2.455935109190052895e-02 1.298823286446118899e-02 4.067716277557328897e-02
7.500000000000000000e+02 2.409115723303051695e-02 1.257941203940928648e-02 3.953820316029744292e-02
7.600000000000000000e+02 2.752587625930566842e-02 1.366925976691234050e-02 4.380969576558008116e-02
7.700000000000000000e+02 3.118740973459530400e-02 1.478728176829033868e-02 5.001579507881077219e-02
7.800000000000000000e+02 4.362356640067194258e-02 2.258314076597662742e-02 7.346050812702552280e-02
7.900000000000000000e+02 9.328231766686824467e-02 4.401218599475106852e-02 1.514739423650962036e-01
8.000000000000000000e+02 1.801836853211874201e-01 8.579119912252392011e-02 2.882177357531807704e-01
8.100000000000000000e+02 1.724187516267115527e-01 8.382671880399601705e-02 2.752720768154814923e-01
8.200000000000000000e+02 1.168902829099835172e-01 5.999731247272391266e-02 1.945261328667108047e-01
8.300000000000000000e+02 1.420555568849670158e-01 7.658265844412665002e-02 2.254296176152896514e-01
8.400000000000000000e+02 3.688752207977422093e-01 2.522359366433847838e-01 4.812484088016228401e-01
8.500000000000000000e+02 3.236956799787801264e-01 1.913258306688245813e-01 4.673735320414947880e-01
8.600000000000000000e+02 1.924861427403421199e-01 9.566184107683010918e-02 3.084950389329358389e-01
8.700000000000000000e+02 1.417435290689395277e-01 7.201157766372723312e-02 2.329466941748119246e-01
8.800000000000000000e+02 8.407523233234016902e-02 4.103496238247861250e-02 1.399175539025832027e-01
8.900000000000000000e+02 5.763752138001797948e-02 2.906360058616673514e-02 9.379503782463992356e-02
9.000000000000000000e+02 5.814207188508221241e-02 2.760149728807875097e-02 9.338686158197907761e-02
9.100000000000000000e+02 7.650449582472551580e-02 3.978315381401402451e-02 1.213037431556629464e-01
9.200000000000000000e+02 6.518038605758677551e-02 3.231650385287583582e-02 1.056225103873216498e-01
9.300000000000000000e+02 4.335975617364645762e-02 2.159173876094370656e-02 7.412251380844310511e-02
9.400000000000000000e+02 3.913052755256122422e-02 1.818605547602623190e-02 6.297242355802916414e-02
9.500000000000000000e+02 3.512191479259454963e-02 1.824759304023594597e-02 5.864124499575518179e-02
9.600000000000000000e+02 4.282569429102332792e-02 2.150127852019078148e-02 6.680057355733415303e-02
9.700000000000000000e+02 4.920954260298540661e-02 2.376253249088560587e-02 7.512560978771666564e-02
9.800000000000000000e+02 5.353090441761194918e-02 2.637629674691671297e-02 9.047026177976121020e-02
9.900000000000000000e+02 6.137781070154369606e-02 3.177661528746409531e-02 1.002305721156950130e-01
1.000000000000000000e+03 8.502499884289003995e-02 4.234850254003345860e-02 1.378464620568414789e-01
1.100000000000000000e+03 7.294813638030189784e-02 3.688643552562609340e-02 1.206069702688370576e-01
1.200000000000000000e+03 5.380278889428374151e-02 2.688855780992558189e-02 8.825183241914673349e-02
1.300000000000000000e+03 4.292658195051263226e-02 2.166812649848558897e-02 6.981316258526949758e-02
1.400000000000000000e+03 3.365276662705740662e-02 1.691487620306344336e-02 5.537147495744140779e-02
1.500000000000000000e+03 3.815471742513915077e-02 1.893808269673714906e-02 6.268228791404630018e-02
1.600000000000000000e+03 3.535614540412107543e-02 1.776805970695129536e-02 5.897146055358175321e-02
1.700000000000000000e+03 2.547363629003271054e-02 1.259366059431706042e-02 4.181312681472771492e-02
1.800000000000000000e+03 2.413072957917733116e-02 1.212190375558234480e-02 3.918102715803783997e-02
1.900000000000000000e+03 2.426810501065819123e-02 1.224423533357250210e-02 3.948551281471411600e-02
2.000000000000000000e+03 2.395897616028992011e-02 1.192096598015001709e-02 3.879793842943748267e-02
2.100000000000000000e+03 2.438738440687186065e-02 1.203768743470781839e-02 3.975816646921561531e-02
2.200000000000000000e+03 2.455150805543269629e-02 1.232259188448095455e-02 4.017185530741152616e-02
2.300000000000000000e+03 2.448114447652348716e-02 1.207255235117995693e-02 4.048257416027966488e-02
2.400000000000000000e+03 2.452269210011459935e-02 1.222662664389359381e-02 4.024266701490097908e-02
2.500000000000000000e+03 2.512191177706090892e-02 1.242523718250356131e-02 4.089259569028123181e-02
2.600000000000000000e+03 2.528677286001740354e-02 1.262736685721340540e-02 4.145846799406498195e-02
2.700000000000000000e+03 2.540236771000392926e-02 1.271696723824907414e-02 4.199939575611673359e-02
2.800000000000000000e+03 2.596873756921616941e-02 1.277322391035242040e-02 4.249238005369666837e-02
2.900000000000000000e+03 2.644117444553868712e-02 1.310085691866054100e-02 4.311631221325020608e-02
3.000000000000000000e+03 2.677763566663132061e-02 1.359299349209269238e-02 4.401161539424170571e-02
3.100000000000000000e+03 2.748972952285881968e-02 1.349286928771772746e-02 4.499398708990171719e-02
3.200000000000000000e+03 2.839783906809919406e-02 1.413226994760204136e-02 4.674176108984687272e-02
3.300000000000000000e+03 3.155075219040558848e-02 1.562739913459600463e-02 5.166318237857721318e-02
3.400000000000000000e+03 3.063180224611411484e-02 1.498968485307585093e-02 5.050278181409645351e-02
3.500000000000000000e+03 3.002303654811386280e-02 1.476675620482074611e-02 4.888349792852366565e-02
3.600000000000000000e+03 3.859691578290428554e-02 1.928777473408896034e-02 6.263389870882239696e-02
3.700000000000000000e+03 4.564689481230292667e-02 2.412256293038405122e-02 6.977778561667055679e-02
3.800000000000000000e+03 3.437687335943104272e-02 1.651030898564059476e-02 5.662625247740860762e-02
3.900000000000000000e+03 2.937590270088881114e-02 1.487840563249760370e-02 4.781346686865507734e-02
4.000000000000000000e+03 2.936520013305396123e-02 1.475378079193878818e-02 4.786708494806907882e-02
4.100000000000000000e+03 2.980210908043474244e-02 1.481911364468039075e-02 4.884238566174725626e-02
4.200000000000000000e+03 3.022042798534692321e-02 1.480323604199277818e-02 4.940910816056832966e-02
4.300000000000000000e+03 3.039018355682751929e-02 1.537646586046954519e-02 4.957720053215095013e-02
4.400000000000000000e+03 3.094534458976286664e-02 1.527981926700047038e-02 5.086283164526306938e-02
4.500000000000000000e+03 3.159824788830002673e-02 1.589466778189869631e-02 5.154358660064210090e-02
4.600000000000000000e+03 3.193107791691424807e-02 1.599865571448533946e-02 5.253451304963824287e-02
4.700000000000000000e+03 3.479012853280913364e-02 1.724180547131117652e-02 5.861862988326256574e-02
4.800000000000000000e+03 5.530873600180768318e-02 2.554340652197339967e-02 9.859793315912047940e-02
4.900000000000000000e+03 9.010015727386122553e-02 5.226686403302268497e-02 1.234545081395995447e-01
5.000000000000000000e+03 6.896811259548940587e-02 3.124961146740130868e-02 1.120253985384528361e-01
5.100000000000000000e+03 3.904245623584309821e-02 1.933272862094423741e-02 6.846799497533270773e-02
5.200000000000000000e+03 3.481802966913861985e-02 1.711724472814903086e-02 5.680347248038405267e-02
5.300000000000000000e+03 3.501639127438165716e-02 1.723684911381620499e-02 5.696994760700020005e-02
5.400000000000000000e+03 3.554585651572306215e-02 1.803559719907721695e-02 5.725356809322802026e-02
5.500000000000000000e+03 3.570518295775203244e-02 1.799032733958228283e-02 5.832368239199951093e-02
5.600000000000000000e+03 3.614740912789549121e-02 1.798005740569515176e-02 5.881127657107790979e-02
5.700000000000000000e+03 3.693170555835563473e-02 1.835768166877627464e-02 6.008619408002704998e-02
5.800000000000000000e+03 3.755968113283203458e-02 1.891023260516206186e-02 6.106274734000786270e-02
5.900000000000000000e+03 3.814868040759046564e-02 1.876672868475045067e-02 6.256328940977222419e-02
6.000000000000000000e+03 3.898285591132077260e-02 1.945620294129984246e-02 6.374720813331379021e-02
6.100000000000000000e+03 3.998829724954547360e-02 2.025850594603453500e-02 6.580968309462130461e-02
6.200000000000000000e+03 4.045379062068945458e-02 2.026261727286090414e-02 6.636885700856064163e-02
6.300000000000000000e+03 4.078014993895074519e-02 2.050248540366099437e-02 6.621769706331689931e-02
6.400000000000000000e+03 4.096767752186832728e-02 2.057451728366091123e-02 6.707715728141736000e-02
6.500000000000000000e+03 4.211109816336008199e-02 2.088490745271831192e-02 6.817257107498037039e-02
6.600000000000000000e+03 4.207692648556340953e-02 2.100761572590393103e-02 6.917670020341211423e-02
6.700000000000000000e+03 4.350836983120100893e-02 2.162393431700003824e-02 7.057561574636098123e-02
6.800000000000000000e+03 4.369905154693117660e-02 2.173891836618432535e-02 7.128818378604825923e-02
6.900000000000000000e+03 4.429930567655582935e-02 2.196577432019831272e-02 7.242412073454990162e-02
7.000000000000000000e+03 4.567276310692011676e-02 2.318024716061008877e-02 7.425508740281311360e-02
7.100000000000000000e+03 4.873158927138872276e-02 2.424908023414654168e-02 8.136620899799418272e-02
7.200000000000000000e+03 5.938393972913458274e-02 2.822460207482635139e-02 1.079178779699877938e-01
7.300000000000000000e+03 8.611678760330365723e-02 4.044900714100970601e-02 1.408813590314722253e-01
7.400000000000000000e+03 9.569849030410544632e-02 4.618917907419640284e-02 1.480807984641028530e-01
7.500000000000000000e+03 7.109198735360090782e-02 3.362700456873138344e-02 1.259461835232762450e-01
7.600000000000000000e+03 5.429438721352996405e-02 2.631792432558109976e-02 9.274437709978487765e-02
7.700000000000000000e+03 5.142530512657009917e-02 2.556869894338470103e-02 8.322894788542987976e-02
7.800000000000000000e+03 5.112793093771585140e-02 2.568156270267750105e-02 8.257810096810516698e-02
7.900000000000000000e+03 5.186054688599403550e-02 2.561427456834802080e-02 8.430897170047560452e-02
8.000000000000000000e+03 5.258924356097258168e-02 2.629239453659406797e-02 8.608579974539530555e-02
8.100000000000000000e+03 5.353614768584054329e-02 2.646487373114367325e-02 8.795891125429122770e-02
8.200000000000000000e+03 5.524524553427281187e-02 2.738223110499706306e-02 9.050382017920872990e-02
8.300000000000000000e+03 6.030252109759889900e-02 2.924785051487963777e-02 1.063802437955468361e-01
8.400000000000000000e+03 7.788059234375095674e-02 3.580249019409331018e-02 2.358832307775321213e-01
8.500000000000000000e+03 1.649606319463308157e-01 5.369269868345395713e-02 3.379149281496390267e-01
8.600000000000000000e+03 2.462409490472076135e-01 7.575664415491667469e-02 3.622675025624427225e-01
8.700000000000000000e+03 1.622761293964835871e-01 5.294699854191519534e-02 3.438801262380541957e-01
8.800000000000000000e+03 8.118332142345226210e-02 3.710139353717371163e-02 2.316690071166482567e-01
8.900000000000000000e+03 6.395619786221148906e-02 3.191800119659563006e-02 1.138716763864971865e-01
9.000000000000000000e+03 6.118977852953039892e-02 3.070523577715126781e-02 1.008542626768266365e-01
9.100000000000000000e+03 6.085436727815858593e-02 3.072040988324567512e-02 9.962208537215813675e-02
9.200000000000000000e+03 6.156116344306695326e-02 3.115771264015934280e-02 1.004485147244845444e-01
9.300000000000000000e+03 6.286319090024301837e-02 3.116277409356911152e-02 1.027698395149826138e-01
9.400000000000000000e+03 6.346048781371370351e-02 3.222310584755090634e-02 1.047567188006866962e-01
9.500000000000000000e+03 6.651290729289216497e-02 3.305497319042016019e-02 1.103594876054986990e-01
9.600000000000000000e+03 7.409880076406244465e-02 3.643150015787308821e-02 1.299839539881863792e-01
9.700000000000000000e+03 9.144069765776799419e-02 4.329656654999337190e-02 1.620904587200199809e-01
9.800000000000000000e+03 1.088251389565145916e-01 5.168427385090382242e-02 1.809516014648822613e-01
9.900000000000000000e+03 1.043459031041996110e-01 4.958046491201211631e-02 1.771779955148570507e-01
1.000000000000000000e+04 8.487929180956489683e-02 4.120204547399538425e-02 1.508110391406967676e-01
1.010000000000000000e+04 7.454853107056813588e-02 3.635648063509003963e-02 1.247601887910668311e-01
1.020000000000000000e+04 7.045532580581904958e-02 3.495250538908656335e-02 1.153188962087629971e-01
1.030000000000000000e+04 6.896675338504447417e-02 3.515758156735924317e-02 1.144370331801880386e-01
1.040000000000000000e+04 7.020221303913030952e-02 3.456156874422172676e-02 1.138000296598854350e-01
1.050000000000000000e+04 7.099902842945568504e-02 3.502126386925970281e-02 1.154586533883464605e-01
1.060000000000000000e+04 7.283468767639018904e-02 3.613634385564590962e-02 1.196474405189881240e-01
1.070000000000000000e+04 7.716890221857060361e-02 3.797320949413882790e-02 1.334561280221593649e-01
1.080000000000000000e+04 8.968090348911564313e-02 4.162937022873621634e-02 2.156818854807626140e-01
1.090000000000000000e+04 1.232571957000827695e-01 5.163254946329189771e-02 3.591281708746370538e-01
1.100000000000000000e+04 2.020713683882347511e-01 6.715680388523988242e-02 4.057445306122080542e-01
1.110000000000000000e+04 2.143308045500457726e-01 6.746935249605635898e-02 4.127693301452120545e-01
1.120000000000000000e+04 1.335099886517550072e-01 5.541695530770066741e-02 3.739693989940391927e-01
1.130000000000000000e+04 9.390389592244133277e-02 4.370459527289736329e-02 2.370984818658707638e-01
1.140000000000000000e+04 8.126926893634718596e-02 3.976759539114241293e-02 1.437658659672347294e-01
1.150000000000000000e+04 7.728249514664818631e-02 3.803172485720547613e-02 1.281122108302890639e-01
1.160000000000000000e+04 7.703244655770331850e-02 3.881792246157550474e-02 1.259791094348353957e-01
1.170000000000000000e+04 7.605211076465857867e-02 3.785055926965438106e-02 1.255240737678454399e-01
1.180000000000000000e+04 7.674051183966022760e-02 3.846517979077558602e-02 1.245069838129801154e-01
1.190000000000000000e+04 7.732125729691369243e-02 3.900774316382364659e-02 1.260724152585507296e-01
1.200000000000000000e+04 7.726038898000055222e-02 3.923969869572469654e-02 1.273726300674081213e-01
1.210000000000000000e+04 7.857833266950223217e-02 3.897437538441108490e-02 1.282630473111408820e-01
1.220000000000000000e+04 7.946206588315904429e-02 3.937214046058634676e-02 1.306413705128769975e-01
1.230000000000000000e+04 8.425925297732939079e-02 4.207216133687156218e-02 1.361430548425754949e-01
1.240000000000000000e+04 8.176811964076122208e-02 4.033467694328356917e-02 1.327433359506502153e-01
1.250000000000000000e+04 7.866449252788676461e-02 3.922019719790821590e-02 1.281245941044976411e-01
1.260000000000000000e+04 7.773646972657426157e-02 3.883643167101040461e-02 1.271660090944805310e-01
1.270000000000000000e+04 7.735611376475438894e-02 3.841751412054078552e-02 1.271178847311314197e-01
1.280000000000000000e+04 7.841965816593440830e-02 3.927713664194766585e-02 1.280154177075289446e-01
1.290000000000000000e+04 7.912065357500312757e-02 3.930473042634229086e-02 1.298212638354266091e-01
1.300000000000000000e+04 7.946873749963986877e-02 3.977939790507242779e-02 1.292632085176789181e-01
1.310000000000000000e+04 7.936774777065221109e-02 3.980493990473072535e-02 1.301498559212899420e-01
1.320000000000000000e+04 7.972645381458282055e-02 3.944686317441575829e-02 1.307128379292418763e-01
1.330000000000000000e+04 8.201246012860083368e-02 4.060214478451800585e-02 1.335159163925715153e-01
1.340000000000000000e+04 8.388919089563461051e-02 4.208622846300411752e-02 1.361546498671744043e-01
1.350000000000000000e+04 8.504012911673895780e-02 4.280155183496668625e-02 1.383834458842418402e-01
1.360000000000000000e+04 8.423367851577619192e-02 4.137986756566653518e-02 1.378770819764496003e-01
1.370000000000000000e+04 8.299402532553432077e-02 4.079716359414295446e-02 1.346277004678725076e-01
1.380000000000000000e+04 8.234903310498677131e-02 4.081375007218879941e-02 1.346174827241468364e-01
1.390000000000000000e+04 8.037253595902109360e-02 4.001481711594884888e-02 1.316478632298204443e-01
1.400000000000000000e+04 7.925518387390186048e-02 3.946677383535238115e-02 1.288720626924087787e-01
1.410000000000000000e+04 7.890735904853889149e-02 3.903620114173646238e-02 1.283885490383905315e-01
1.420000000000000000e+04 7.868776602735978731e-02 3.976905428421758509e-02 1.281516664978700482e-01
1.430000000000000000e+04 7.840958983710799579e-02 3.927456069230100821e-02 1.275833685620498537e-01
1.440000000000000000e+04 7.906528418875509445e-02 3.835157137513187792e-02 1.289123544493394335e-01
1.450000000000000000e+04 7.839339240548985621e-02 3.887176828011607715e-02 1.300375297882188363e-01
1.460000000000000000e+04 8.024710644703644813e-02 3.996770790981884341e-02 1.313266849375223921e-01
1.470000000000000000e+04 8.174261865375473390e-02 4.102304420522900202e-02 1.330533270995208628e-01
1.480000000000000000e+04 8.100961666638031855e-02 4.059718266095761058e-02 1.320280953182863259e-01
1.490000000000000000e+04 8.053316418583392200e-02 3.941391688252120912e-02 1.308494362223707741e-01
1.500000000000000000e+04 7.879607299307225809e-02 3.907693793470228688e-02 1.284562038821566721e-01
1.510000000000000000e+04 7.783610352328579340e-02 3.885693088960519986e-02 1.269223059569677403e-01
1.520000000000000000e+04 7.712206367707202803e-02 3.823876650297584889e-02 1.251386080954471625e-01
1.530000000000000000e+04 7.706260012426620343e-02 3.789288278865955012e-02 1.248248786225928386e-01
1.540000000000000000e+04 7.699688698236414885e-02 3.879819021209066771e-02 1.241663140651714792e-01
1.550000000000000000e+04 7.821930305714790144e-02 3.911239222741107191e-02 1.253660082213431115e-01
1.560000000000000000e+04 7.728798771355908925e-02 3.842322972822451860e-02 1.262225049402171673e-01
1.570000000000000000e+04 8.087871412029318252e-02 4.042127175813241269e-02 1.326252251207319932e-01
1.580000000000000000e+04 7.973925185904119639e-02 3.983595666235453109e-02 1.305306008221971681e-01
1.590000000000000000e+04 7.860179266673000820e-02 3.953647526434183462e-02 1.289345176833335549e-01
1.600000000000000000e+04 7.829648730133492718e-02 3.994823174730029181e-02 1.283309646843010243e-01
1.610000000000000000e+04 7.840605413311516059e-02 3.906347521695454489e-02 1.287279745904268413e-01
1.620000000000000000e+04 7.802132805672164217e-02 3.845598249008988501e-02 1.273367037427223514e-01
1.630000000000000000e+04 7.605294879380024298e-02 3.743521282560885455e-02 1.250003908601777514e-01
1.640000000000000000e+04 7.506017946872695079e-02 3.728513191125924081e-02 1.229691298191843002e-01
1.650000000000000000e+04 7.532971994625033141e-02 3.781170370663596014e-02 1.231044630009877627e-01
1.660000000000000000e+04 8.036493879458310452e-02 3.971910115986483636e-02 1.309698486148796470e-01
1.670000000000000000e+04 8.003967154439153853e-02 4.005653335573630680e-02 1.301450133582113255e-01
1.680000000000000000e+04 7.409427787413785937e-02 3.640333967021847777e-02 1.201141821224341044e-01
1.690000000000000000e+04 7.347785489066720188e-02 3.714489503339937770e-02 1.202918022380282254e-01
1.700000000000000000e+04 7.410668480515997247e-02 3.771499789236051892e-02 1.206891316733186420e-01
1.710000000000000000e+04 7.423947728807069046e-02 3.734972728992334151e-02 1.219138760807680910e-01
1.720000000000000000e+04 7.522281200954905600e-02 3.718913769143045167e-02 1.223244980246693259e-01
1.730000000000000000e+04 7.481785511489848217e-02 3.705909883262604315e-02 1.205995007393561858e-01
1.740000000000000000e+04 7.375086615600277840e-02 3.761937774701542420e-02 1.206300597832155735e-01
1.750000000000000000e+04 7.408451422388422081e-02 3.655542735839206053e-02 1.210319253687700408e-01
1.760000000000000000e+04 7.396766659901429786e-02 3.633506108748905949e-02 1.198626509464730261e-01
1.770000000000000000e+04 7.196149504465822189e-02 3.581935669383864984e-02 1.179158825703795488e-01
1.780000000000000000e+04 7.176182896969035552e-02 3.588520518839046630e-02 1.164483986683202410e-01
1.790000000000000000e+04 7.159941207196852953e-02 3.540996213012785609e-02 1.164351589867428927e-01
1.800000000000000000e+04 7.109751020041572833e-02 3.531617902967209427e-02 1.156524703457897790e-01
1.810000000000000000e+04 7.018022718466564169e-02 3.477085350789287793e-02 1.160139832000192384e-01
1.820000000000000000e+04 7.053836311306072027e-02 3.500238225496633132e-02 1.159098201291622748e-01
1.830000000000000000e+04 7.073403937829408905e-02 3.472224249766110021e-02 1.148211490321574962e-01
1.840000000000000000e+04 6.992059607065823079e-02 3.518346656619042445e-02 1.141740959370346198e-01
1.850000000000000000e+04 6.973501705571197307e-02 3.473037963836674707e-02 1.145583971245416749e-01
1.860000000000000000e+04 6.987144393936466080e-02 3.495391217152522129e-02 1.138055759281932505e-01
1.870000000000000000e+04 6.939596813360639216e-02 3.475319392833151749e-02 1.140056433255826618e-01
1.880000000000000000e+04 7.074072910449875906e-02 3.487019125514339429e-02 1.146496531614231013e-01
1.890000000000000000e+04 6.927146050866986315e-02 3.496273097754275944e-02 1.134726097866330802e-01
1.900000000000000000e+04 6.895941665999592851e-02 3.351957949482831794e-02 1.129610190106927065e-01
1.910000000000000000e+04 7.051703302017500730e-02 3.481908261968742757e-02 1.145595099420003982e-01
1.920000000000000000e+04 7.833896915740652667e-02 3.988917501237690399e-02 1.267606219963304803e-01
1.930000000000000000e+04 7.368629044672320161e-02 3.647686454679644613e-02 1.201952543923377470e-01
1.940000000000000000e+04 7.025651378628440524e-02 3.475007956276507382e-02 1.150525341020676856e-01
1.950000000000000000e+04 6.920632611130542178e-02 3.504971509383741912e-02 1.131500893508702726e-01
1.960000000000000000e+04 6.850794727347384039e-02 3.418902665712637151e-02 1.119440232645276534e-01
1.970000000000000000e+04 6.857921809279760028e-02 3.408884093588161052e-02 1.120163960049608970e-01
1.980000000000000000e+04 6.841839231350557715e-02 3.381148081017768675e-02 1.106682233916375241e-01
1.990000000000000000e+04 6.739877921942000194e-02 3.361815691111809390e-02 1.099352319249107535e-01
2.000000000000000000e+04 6.689421133813701348e-02 3.273829712535197833e-02 1.093227061956465462e-01
2.010000000000000000e+04 6.800291469526222043e-02 3.388881915720468735e-02 1.098624673687995934e-01
2.020000000000000000e+04 6.768190052807869506e-02 3.453721958647261447e-02 1.094635375660200499e-01
2.030000000000000000e+04 6.741375004522776049e-02 3.354691438715712293e-02 1.096456317107746964e-01
2.040000000000000000e+04 5.493210561901207267e-01 4.849388790495628987e-01 6.153156649254155619e-01
2.050000000000000000e+04 1.114967281390329745e+00 1.057146509556796898e+00 1.173244816163442339e+00
2.060000000000000000e+04 5.711252236725357090e-01 5.045214409378668829e-01 6.365437332014352023e-01
2.070000000000000000e+04 6.735389361292243304e-02 3.411925574094216984e-02 1.100703377565068614e-01
2.080000000000000000e+04 6.625451707107557486e-02 3.273481630143090099e-02 1.084555334834853974e-01
2.090000000000000000e+04 6.619551512794069614e-02 3.250740597622248096e-02 1.078798435059606792e-01
2.100000000000000000e+04 6.619863073525253383e-02 3.298085023715836839e-02 1.077765138620545710e-01
2.110000000000000000e+04 6.602493869348594058e-02 3.214297574531645163e-02 1.072665801121730628e-01
2.120000000000000000e+04 6.582345485003179841e-02 3.238805471727845831e-02 1.074562019452404565e-01
2.130000000000000000e+04 6.745353314573336589e-02 3.395361672236858058e-02 1.096122008622817251e-01
2.140000000000000000e+04 7.484403754644730622e-02 3.740646253353839545e-02 1.235636911240549779e-01
2.150000000000000000e+04 7.969196628401482851e-02 3.921761837242475346e-02 1.289717042025080862e-01
2.160000000000000000e+04 6.843433562682642302e-02 3.459034326474769161e-02 1.108069060220703422e-01
2.170000000000000000e+04 6.415998897677881174e-02 3.226648099376889373e-02 1.051075373556788900e-01
2.180000000000000000e+04 6.384080702991885847e-02 3.226959549237467390e-02 1.049885052632065080e-01
2.190000000000000000e+04 6.341520987148903388e-02 3.234744343245830878e-02 1.042433417119304623e-01
2.200000000000000000e+04 6.264283659744389332e-02 3.131099142633475552e-02 1.030174698105862929e-01
2.210000000000000000e+04 6.194581947765885610e-02 3.067680561024403382e-02 1.018142749535313890e-01
2.220000000000000000e+04 6.153176284389041267e-02 3.089608815720875160e-02 1.002360493566434446e-01
2.230000000000000000e+04 6.198037764904289204e-02 3.074277492522937277e-02 9.963227261486153064e-02
2.240000000000000000e+04 6.158028915849835666e-02 3.064879804791932963e-02 1.007889331236637986e-01
2.250000000000000000e+04 6.193423534585767304e-02 3.024873553120367362e-02 1.016248433119974204e-01
2.260000000000000000e+04 6.200695918402279738e-02 3.042146432350111354e-02 1.009095003864294710e-01
2.270000000000000000e+04 6.208747565376954158e-02 3.058699455772841830e-02 1.010472468866513152e-01
2.280000000000000000e+04 6.116064281683097209e-02 3.037850666933925720e-02 9.966738929265668567e-02
2.290000000000000000e+04 6.077939380480378018e-02 3.035853764984992181e-02 1.001723693510705310e-01
2.300000000000000000e+04 6.161212602714967457e-02 3.052525692182986999e-02 1.006102767636549156e-01
2.310000000000000000e+04 6.132394925766635613e-02 3.073925908254132935e-02 1.008544133539090448e-01
2.320000000000000000e+04 6.160288090121244370e-02 3.068164050385012789e-02 9.993736416007280299e-02
2.330000000000000000e+04 6.132394479177797481e-02 3.014579132074618473e-02 1.003024359948352234e-01
2.340000000000000000e+04 6.113950648341286154e-02 3.033811508026278830e-02 9.905039923233943666e-02
2.350000000000000000e+04 6.023431451190635472e-02 3.014024857763060450e-02 9.870250176433215117e-02
2.360000000000000000e+04 6.019062237662023418e-02 3.022080550449883496e-02 9.836937542575058258e-02
2.370000000000000000e+04 6.049957795921379750e-02 2.985712279011084463e-02 9.963984438306186520e-02
2.380000000000000000e+04 6.217260618529808769e-02 3.121067232289032392e-02 1.004824826116071795e-01
2.390000000000000000e+04 6.114075262792460080e-02 3.017124186633803398e-02 9.914093046362275341e-02
2.400000000000000000e+04 6.139605238713564256e-02 2.993687679130305895e-02 9.959590591149472538e-02
2.410000000000000000e+04 5.996382232708617754e-02 2.964616128092994671e-02 9.880069846372291353e-02
2.420000000000000000e+04 6.002691599279249418e-02 3.004226898936760218e-02 9.696318534349737672e-02
2.430000000000000000e+04 5.944829856389124284e-02 2.966486377403496771e-02 9.628648688127054711e-02
2.440000000000000000e+04 5.916282299625649777e-02 2.907868136623950953e-02 9.526777858101841134e-02
2.450000000000000000e+04 5.793988907585061188e-02 2.894491244269756930e-02 9.541552547499955461e-02
2.460000000000000000e+04 5.833709852989666517e-02 2.941675766921554233e-02 9.498770991358662652e-02
2.470000000000000000e+04 5.733805959260249857e-02 2.854111335452363604e-02 9.371873900979831029e-02
2.480000000000000000e+04 5.749234668302197898e-02 2.851057612084171786e-02 9.442807967681571268e-02
2.490000000000000000e+04 5.770097416620503100e-02 2.859098773379577588e-02 9.455979558754391834e-02
2.500000000000000000e+04 5.853685579421634422e-02 2.944388794584816213e-02 9.480110365952892915e-02
2.510000000000000000e+04 5.742931298675189172e-02 2.888019797114580248e-02 9.375245756646025108e-02
2.520000000000000000e+04 5.712863977999430715e-02 2.877540581963225486e-02 9.302646643683419592e-02
2.530000000000000000e+04 5.656504825222680860e-02 2.828701253179549333e-02 9.229060470894837054e-02
2.540000000000000000e+04 5.634509854713459776e-02 2.734051041702637019e-02 9.328848540038642279e-02
2.550000000000000000e+04 5.677557505300031421e-02 2.807968200502321265e-02 9.335594812641397067e-02
2.560000000000000000e+04 5.691976448283824624e-02 2.826100551881216907e-02 9.279878838365220040e-02
2.570000000000000000e+04 5.700155192539175381e-02 2.800495328634592176e-02 9.283498175551971321e-02
2.580000000000000000e+04 5.644704890121570590e-02 2.794034846867769761e-02 9.175319993945582620e-02
2.590000000000000000e+04 5.583631811904661568e-02 2.784721224250382224e-02 9.104244908084221932e-02
2.600000000000000000e+04 5.602855676528921414e-02 2.794257311837910693e-02 9.060336612721255067e-02
2.610000000000000000e+04 5.632177690773793738e-02 2.803616790750512039e-02 9.113120817564604459e-02
2.620000000000000000e+04 5.558086262730342619e-02 2.778359660687493293e-02 9.048006161252737656e-02
2.630000000000000000e+04 5.589597531867562114e-02 2.760382851096777543e-02 9.048692276815926971e-02
2.640000000000000000e+04 5.474762621101342264e-02 2.735339804343174877e-02 8.992898422934748892e-02
2.650000000000000000e+04 5.526664944801671503e-02 2.755758960293598625e-02 8.997207387598302186e-02
2.660000000000000000e+04 5.584157516588756504e-02 2.763993729945065508e-02 9.083105997295540246e-02
2.670000000000000000e+04 5.573155603729117863e-02 2.774676294639537300e-02 9.094186708962793964e-02
2.680000000000000000e+04 5.547236882080005399e-02 2.772894392192009824e-02 9.103291680616401593e-02
2.690000000000000000e+04 5.587317863075112745e-02 2.782617908296280279e-02 9.085242499165745167e-02
2.700000000000000000e+04 5.601934834393003382e-02 2.784842475267386430e-02 9.032072395375023710e-02
2.710000000000000000e+04 5.533789961605591751e-02 2.738491832061124356e-02 9.040295364751597951e-02
2.720000000000000000e+04 5.517961435106176482e-02 2.799555351533293893e-02 8.909402789097836672e-02
2.730000000000000000e+04 5.417341638824333533e-02 2.733795789786372388e-02 8.804992997852094383e-02
2.740000000000000000e+04 5.360504528856461365e-02 2.668152244132247081e-02 8.736802945171619206e-02
2.750000000000000000e+04 5.347621729635792381e-02 2.660403482551866247e-02 8.682782422955007129e-02
2.760000000000000000e+04 5.302703993178106701e-02 2.649645042414837046e-02 8.626741761076081594e-02
2.770000000000000000e+04 5.292630333586615526e-02 2.602431886525382460e-02 8.626046175283576256e-02
2.780000000000000000e+04 5.344459658203725566e-02 2.673155214998512719e-02 8.710243549997903623e-02
2.790000000000000000e+04 7.514208935809245649e-01 6.987414565711898007e-01 8.043006725501835597e-01
2.800000000000000000e+04 1.481340872673520659e+00 1.435631454548622843e+00 1.526750071627011041e+00
2.810000000000000000e+04 7.320159275103936825e-01 6.791579982900621815e-01 7.870507307985447065e-01
2.820000000000000000e+04 5.375528426633514184e-02 2.687909482310583964e-02 8.845536969657434578e-02
2.830000000000000000e+04 5.209938807079094597e-02 2.639624186098628658e-02 8.490347173518372759e-02
2.840000000000000000e+04 5.166705995585243322e-02 2.580995320544319377e-02 8.362758823281619958e-02
2.850000000000000000e+04 5.121505726872786768e-02 2.569750832572702259e-02 8.308047527352623030e-02
2.860000000000000000e+04 5.028128833183166668e-02 2.498407222170470968e-02 8.204694671457153643e-02
2.870000000000000000e+04 4.984992179157385350e-02 2.448003350950279586e-02 8.180830857820647894e-02
2.880000000000000000e+04 5.583668567675940247e-02 2.796247769351494633e-02 8.994193495122444759e-02
2.890000000000000000e+04 5.266210074776399991e-02 2.647735020227795152e-02 8.492942305636762279e-02
2.900000000000000000e+04 4.872842205717611841e-02 2.479275578020911225e-02 7.949428589332746542e-02
2.910000000000000000e+04 4.863998363183336116e-02 2.453711766333033228e-02 7.997703088947226424e-02
2.920000000000000000e+04 4.878186210570346210e-02 2.425815549839891588e-02 7.881726709876889225e-02
2.930000000000000000e+04 4.804352644689040969e-02 2.384537756987601190e-02 7.792031897705606336e-02
2.940000000000000000e+04 4.740738590873302266e-02 2.385574762213303612e-02 7.796690653729707043e-02
2.950000000000000000e+04 4.776743348727544025e-02 2.348368397702121912e-02 7.781505394895547878e-02
2.960000000000000000e+04 4.791204734337401600e-02 2.442966761746750287e-02 7.734946090886847536e-02
2.970000000000000000e+04 4.697875170309111226e-02 2.346018191165969227e-02 7.691482218254802605e-02
2.980000000000000000e+04 4.886284445021387562e-02 2.411685957158270915e-02 7.934177074917840577e-02
2.990000000000000000e+04 5.656362475970629078e-02 2.817295303250085328e-02 9.276595224653504113e-02
3.000000000000000000e+04 5.093436246776954224e-02 2.524948104124343992e-02 8.229222930246161971e-02
3.010000000000000000e+04 4.909909935424736777e-02 2.467028525724825755e-02 7.998964605589696519e-02
3.020000000000000000e+04 5.089584699843922172e-02 2.518651062899890727e-02 8.225362666644762955e-02
3.030000000000000000e+04 4.710897746253595031e-02 2.373162869338486108e-02 7.669192333535937434e-02
3.040000000000000000e+04 6.051184040057495245e-02 3.051967494290788729e-02 9.906157012949737273e-02
3.050000000000000000e+04 8.130791100907125424e-02 4.082679477628246151e-02 1.320649572551713113e-01
3.060000000000000000e+04 6.308127225571488750e-02 3.144519014973779641e-02 1.020012282798995751e-01
3.070000000000000000e+04 7.897837804670627959e-02 3.836234025781624229e-02 1.302988138383822103e-01
3.080000000000000000e+04 5.671689326967249700e-02 2.822910682904786195e-02 9.382989559839871596e-02
3.090000000000000000e+04 6.763571613611366051e-02 3.451059297133721865e-02 1.040354997005518561e-01
3.100000000000000000e+04 1.372343934184721836e-01 9.713459365647120203e-02 1.774125215633146069e-01
3.110000000000000000e+04 9.035641783532855076e-02 5.319784499824765228e-02 1.297565071251652880e-01
3.120000000000000000e+04 4.466728106716310459e-02 2.209030830347108107e-02 7.347280774385965552e-02
3.130000000000000000e+04 4.488613292819865208e-02 2.263684648003657512e-02 7.281907452007284343e-02
3.140000000000000000e+04 4.572762051616226231e-02 2.308778486353749854e-02 7.407357450686788414e-02
3.150000000000000000e+04 4.528937939254209372e-02 2.247009991198691686e-02 7.400695883359564853e-02
3.160000000000000000e+04 4.374494888238834867e-02 2.183430753456518103e-02 7.195315127491060114e-02
3.170000000000000000e+04 4.361923795873023230e-02 2.156527896713141684e-02 7.149151702325577673e-02
3.180000000000000000e+04 4.347498425394027283e-02 2.138456804659938371e-02 7.119959468770910294e-02
3.190000000000000000e+04 4.432399519424988499e-02 2.185085621905939052e-02 7.183097740176511148e-02
3.200000000000000000e+04 4.390103879618660609e-02 2.142863441565611565e-02 7.170274057822248470e-02
3.210000000000000000e+04 4.371591515549974605e-02 2.188236747063183191e-02 7.088569846972624100e-02
3.220000000000000000e+04 4.369879775733125082e-02 2.182866439412749909e-02 7.033267256806996492e-02
3.230000000000000000e+04 4.349483831037834897e-02 2.210668013727581580e-02 7.104885525368252741e-02
3.240000000000000000e+04 4.338372723350926441e-02 2.170600599907198530e-02 7.090026037668265002e-02
3.250000000000000000e+04 4.308110850752757542e-02 2.144769937379816319e-02 7.096362156477159511e-02
3.260000000000000000e+04 4.347011194848286741e-02 2.192067116996668577e-02 7.089898047586208618e-02
3.270000000000000000e+04 4.223641226719224151e-02 2.089491513934031014e-02 6.956721787289980863e-02
3.280000000000000000e+04 4.189514822844256359e-02 2.067274376674085173e-02 6.882712049636904861e-02
3.290000000000000000e+04 4.158438326396728807e-02 2.104011485118053096e-02 6.822324985924103913e-02
3.300000000000000000e+04 4.559303724709595079e-02 2.301545610062285391e-02 7.399044842294323632e-02
3.310000000000000000e+04 7.484813262062744998e-02 4.309233048956963991e-02 1.088027370398718802e-01
3.320000000000000000e+04 6.047600231961985234e-02 3.199644797930362161e-02 9.402114402287145567e-02
3.330000000000000000e+04 4.243384792716251019e-02 2.120127970849411403e-02 6.906569712052212928e-02
3.340000000000000000e+04 4.138489028372647344e-02 2.048203311076437702e-02 6.766975511282870281e-02
3.350000000000000000e+04 4.145200540832153641e-02 2.086454188964905615e-02 6.790302688776053697e-02
3.360000000000000000e+04 4.114187813868420973e-02 2.023519854783347935e-02 6.705268274952164154e-02
3.370000000000000000e+04 4.027311774196530580e-02 2.033397467493902600e-02 6.585035164796276819e-02
3.380000000000000000e+04 4.039531238752050446e-02 2.056704854356159254e-02 6.600943616591052610e-02
3.390000000000000000e+04 4.050702596932530958e-02 1.989774057279176250e-02 6.568948976079244662e-02
3.400000000000000000e+04 4.076329563776741327e-02 2.057266168853370478e-02 6.618493422138216342e-02
3.410000000000000000e+04 4.016984624289494238e-02 2.023870822039883222e-02 6.544306119740912753e-02
3.420000000000000000e+04 4.031831715002816285e-02 2.014244822739002377e-02 6.511224146028164739e-02
3.430000000000000000e+04 4.018673232232674447e-02 1.988223181561035724e-02 6.500740475922683892e-02
3.440000000000000000e+04 3.965707322130836848e-02 1.997569771784169640e-02 6.551869667270543429e-02
3.450000000000000000e+04 3.978240943417992587e-02 1.963321441162657263e-02 6.502743277180735026e-02
3.460000000000000000e+04 3.943209163955536944e-02 1.996864435909354030e-02 6.412765262969179203e-02
3.470000000000000000e+04 3.987034402963940405e-02 2.017011501830843351e-02 6.401925957468046491e-02
3.480000000000000000e+04 3.939574181096777705e-02 1.963427092374702906e-02 6.329301656240890472e-02
3.490000000000000000e+04 3.899856990600956280e-02 1.950223763398371488e-02 6.393978057600953335e-02
3.500000000000000000e+04 3.912341886457546686e-02 1.950675160053938137e-02 6.417073682956889180e-02
3.510000000000000000e+04 3.983797702104070748e-02 1.959914889928876525e-02 6.397009120015052785e-02
3.520000000000000000e+04 3.884431791839999815e-02 1.939470994085671501e-02 6.360739397620146507e-02
3.530000000000000000e+04 3.873124835450482417e-02 1.947329402140521651e-02 6.353436147306834592e-02
3.540000000000000000e+04 3.907126280789536416e-02 1.927781264632642821e-02 6.373349593715781081e-02
3.550000000000000000e+04 4.123466428805219741e-02 2.090023467456162201e-02 6.733096760052195706e-02
3.560000000000000000e+04 3.931003269721770887e-02 1.980934457245249469e-02 6.321875686818900775e-02
3.570000000000000000e+04 3.832051907574050842e-02 1.910155129295806886e-02 6.183340741241614980e-02
3.580000000000000000e+04 3.793680331949039058e-02 1.908580596095721740e-02 6.158680262560559809e-02
3.590000000000000000e+04 3.747104686541540691e-02 1.897482674272314013e-02 6.187533000278407080e-02
3.600000000000000000e+04 3.861540691676101228e-02 1.909308625486250480e-02 6.207053482388284055e-02
3.610000000000000000e+04 3.812324859954205336e-02 1.901591123753215706e-02 6.196802021473346578e-02
3.620000000000000000e+04 3.785895184215415377e-02 1.897098740654280108e-02 6.192337818719777925e-02
3.630000000000000000e+04 3.770297529716319651e-02 1.881415692208888990e-02 6.205819253693305865e-02
3.640000000000000000e+04 3.724666383099239919e-02 1.808352577007284190e-02 6.083671876050073674e-02
3.650000000000000000e+04 3.660212671254899769e-02 1.813154558173320219e-02 5.959895459223396585e-02
3.660000000000000000e+04 3.730028208484491292e-02 1.849787600357727727e-02 6.057656273563040428e-02
3.670000000000000000e+04 3.727407451887548157e-02 1.836106748958618237e-02 6.085531590813449132e-02
3.680000000000000000e+04 3.733573106126475416e-02 1.841915584454836136e-02 6.055333247620188486e-02
3.690000000000000000e+04 3.703982162651916349e-02 1.812197002528366518e-02 6.040890276393551250e-02
3.700000000000000000e+04 4.966976865479796888e-02 2.479508463664890916e-02 8.026460755367773037e-02
3.710000000000000000e+04 6.966039229936137056e-02 3.512750078245180374e-02 1.108576463702238557e-01
3.720000000000000000e+04 5.109589315719569036e-02 2.574251414392968867e-02 8.430722642850178861e-02
3.730000000000000000e+04 6.829204437951551243e-02 3.450104492054893723e-02 1.125567218920677376e-01
3.740000000000000000e+04 4.989316125638548066e-02 2.514167738029412721e-02 8.145645346876873027e-02
3.750000000000000000e+04 3.802561729216458880e-02 1.887050509112432259e-02 6.153137134339827646e-02
3.760000000000000000e+04 7.584946402743934779e-02 4.685833083037391211e-02 1.052234110230864383e-01
3.770000000000000000e+04 8.127357152669359430e-02 5.233231571930924142e-02 1.099764001776095679e-01
3.780000000000000000e+04 3.835303506787109823e-02 1.933108380433462212e-02 6.272325555961252852e-02
3.790000000000000000e+04 3.625111736533664919e-02 1.782395048749611105e-02 5.950324710346320545e-02
3.800000000000000000e+04 3.628625450793379614e-02 1.799261455170479695e-02 5.867362070349694397e-02
3.810000000000000000e+04 3.625325675705674128e-02 1.809100515389774205e-02 5.894910776802119584e-02
3.820000000000000000e+04 4.167631079568295815e-02 2.107227919402501412e-02 6.774060463211833971e-02
3.830000000000000000e+04 4.802867165677322803e-02 2.370279725091012715e-02 7.772509641788021006e-02
3.840000000000000000e+04 4.213356892874725590e-02 2.101052908806387912e-02 6.828446740519616975e-02
3.850000000000000000e+04 3.782496229910435603e-02 1.918762965612054797e-02 6.170440556309413072e-02
3.860000000000000000e+04 3.574827066231735934e-02 1.800399801659306048e-02 5.784326352142025313e-02
3.870000000000000000e+04 3.532500650964824629e-02 1.758296147453245958e-02 5.696305674685483295e-02
3.880000000000000000e+04 3.479679851293816795e-02 1.724243538954281854e-02 5.685499698831207593e-02
3.890000000000000000e+04 3.481689795447811403e-02 1.735351302206957283e-02 5.632939957495056854e-02
3.900000000000000000e+04 3.498675825967748065e-02 1.731435265685709116e-02 5.680619717846954048e-02
3.910000000000000000e+04 3.973541393865421406e-02 1.983006330060521627e-02 6.443167673901334380e-02
3.920000000000000000e+04 8.486345927038041470e-02 5.547632078298381925e-02 1.139120539401750759e-01
3.930000000000000000e+04 7.524562529084737050e-02 4.634077158738930668e-02 1.041869908220805357e-01
3.940000000000000000e+04 3.567005677113360002e-02 1.782193211702857646e-02 5.758437630501354182e-02
3.950000000000000000e+04 3.381036584590113581e-02 1.677599660929722861e-02 5.532037302987159039e-02
3.960000000000000000e+04 3.332483973132564781e-02 1.651651051905014128e-02 5.517894437692862780e-02
3.970000000000000000e+04 3.361352973324972099e-02 1.698028113758749680e-02 5.512064105222274496e-02
3.980000000000000000e+04 3.383670303701218768e-02 1.667107702153589749e-02 5.526068219132616866e-02
3.990000000000000000e+04 3.387995107092477837e-02 1.717456543255337434e-02 5.520745542142008189e-02
4.000000000000000000e+04 3.427672399742345832e-02 1.708420164437938690e-02 5.576060800583838850e-02
4.010000000000000000e+04 3.407971919159404062e-02 1.715257017776595366e-02 5.581931690264448770e-02
4.020000000000000000e+04 3.380028889727554331e-02 1.682157887896403720e-02 5.524190799936584684e-02
4.030000000000000000e+04 3.377184946360172607e-02 1.693000961509012747e-02 5.538933235807040611e-02
4.040000000000000000e+04 3.347405948215095156e-02 1.674988097863647565e-02 5.374104192063722946e-02
4.050000000000000000e+04 3.286839312625323278e-02 1.620090222394650684e-02 5.371730149168122553e-02
4.060000000000000000e+04 3.352646922472509589e-02 1.657461050127264843e-02 5.459571999381409441e-02
4.070000000000000000e+04 3.357200422192682665e-02 1.678815440132664857e-02 5.486204525449075303e-02
4.080000000000000000e+04 3.328270151085458567e-02 1.646681832639299708e-02 5.439645761777301552e-02
4.090000000000000000e+04 4.966277367293991246e-02 2.648388943468188428e-02 7.593021387083952189e-02
4.100000000000000000e+04 8.800560408734370288e-02 6.150716655878388922e-02 1.155603174877050388e-01
4.110000000000000000e+04 5.241655725552035044e-02 2.890352047882360081e-02 7.829269215393344639e-02
4.120000000000000000e+04 3.231930221739955783e-02 1.621523748871609230e-02 5.310215613761262027e-02
4.130000000000000000e+04 3.228775403865780103e-02 1.626055614658068402e-02 5.267919794493484270e-02
4.140000000000000000e+04 3.249357744434860917e-02 1.627001238218123841e-02 5.308187354840650934e-02
4.150000000000000000e+04 3.268588268787158552e-02 1.625631020637266846e-02 5.324309503194939175e-02
4.160000000000000000e+04 3.235079625244834806e-02 1.602641411554075329e-02 5.265227243787962141e-02
4.170000000000000000e+04 3.266532243228235238e-02 1.617294100188548106e-02 5.247428433964939493e-02
4.180000000000000000e+04 3.216538469958864221e-02 1.593762238840205903e-02 5.241093396883182709e-02
4.190000000000000000e+04 3.184223977072680317e-02 1.566574447992975100e-02 5.184568719089836103e-02
4.200000000000000000e+04 3.140071911677953798e-02 1.575615110853442399e-02 5.134986251625191928e-02
4.210000000000000000e+04 3.124706572133542984e-02 1.581304087906849204e-02 5.118558203964909681e-02
4.220000000000000000e+04 3.158628507453670187e-02 1.597229576861331976e-02 5.108931358289868496e-02
4.230000000000000000e+04 3.148820125594833930e-02 1.588980809220871468e-02 5.106361922809977971e-02
4.240000000000000000e+04 3.093630387171533366e-02 1.592690938602898953e-02 5.081980741830305348e-02
4.250000000000000000e+04 3.152671928788312872e-02 1.570853362530623409e-02 5.082582602841524688e-02
4.260000000000000000e+04 3.147101852733091842e-02 1.564858076836674744e-02 5.120028191964050984e-02
4.270000000000000000e+04 3.203198173795997888e-02 1.595653286029197551e-02 5.187236945198723387e-02
4.280000000000000000e+04 3.193652323325074649e-02 1.565023914683735806e-02 5.202815122425479694e-02
4.290000000000000000e+04 3.195023313548946836e-02 1.589723952913483368e-02 5.153825668593129544e-02
4.300000000000000000e+04 3.195617015805120309e-02 1.584553822980461560e-02 5.176593781363651031e-02
4.310000000000000000e+04 3.197949581653791729e-02 1.599254722503572548e-02 5.191493871226655205e-02
4.320000000000000000e+04 3.173376492734977794e-02 1.610897493401968264e-02 5.145904178821816138e-02
4.330000000000000000e+04 3.161400852399680328e-02 1.586155868927713666e-02 5.133961057684537088e-02
4.340000000000000000e+04 3.202584061040646135e-02 1.601506236842211231e-02 5.166907567756706676e-02
4.350000000000000000e+04 3.125495651572457456e-02 1.567352941495862503e-02 5.113943920919431646e-02
4.360000000000000000e+04 3.084008605703929609e-02 1.526714469505917500e-02 5.022703048768541872e-02
4.370000000000000000e+04 3.076525807912675742e-02 1.539404761478870703e-02 4.997336664612705981e-02
4.380000000000000000e+04 3.113961083989601197e-02 1.560860122943046047e-02 5.062828038669558994e-02
4.390000000000000000e+04 3.175379877941029994e-02 1.613359574156043169e-02 5.181326124069846051e-02
4.400000000000000000e+04 3.138879770562231358e-02 1.574098486963559917e-02 5.100616589463777967e-02
4.410000000000000000e+04 3.178500021056416408e-02 1.587957170401128534e-02 5.206852761497429705e-02
4.420000000000000000e+04 4.367784699475724813e-02 2.195642035094387892e-02 7.145973335694461026e-02
4.430000000000000000e+04 4.517055858639852650e-02 2.216085504763380329e-02 7.349365695575013624e-02
4.440000000000000000e+04 3.202496601844568441e-02 1.636023464058982899e-02 5.270956501124445664e-02
4.450000000000000000e+04 3.086740286250161391e-02 1.518986987040146092e-02 5.035275624946924239e-02
4.460000000000000000e+04 3.082395446950104978e-02 1.553764975709550668e-02 5.003246796997190549e-02
4.470000000000000000e+04 3.049814451931262202e-02 1.550235092626748266e-02 4.994926973621889588e-02
4.480000000000000000e+04 3.047241901931840163e-02 1.549851232618844332e-02 4.931138414297706746e-02
4.490000000000000000e+04 3.087014677402301691e-02 1.553870559994081565e-02 5.036236866293230391e-02
4.500000000000000000e+04 3.138256401708977572e-02 1.559231080450635722e-02 5.068747975194255045e-02
4.510000000000000000e+04 3.116850504742527117e-02 1.567773990718045185e-02 5.086766046757661142e-02
4.520000000000000000e+04 3.084078769530268146e-02 1.530101082691483899e-02 5.055433299672893593e-02
4.530000000000000000e+04 4.647138193281966784e-02 2.321804174286147202e-02 7.622038074759088233e-02
4.540000000000000000e+04 1.030500029176815019e-01 5.142129342556370220e-02 1.668452225675229883e-01
4.550000000000000000e+04 1.055455765915229854e-01 5.361164697427837911e-02 1.736325062455218171e-01
4.560000000000000000e+04 5.217744203550757354e-02 2.562007506432735157e-02 8.497537357220071030e-02
4.570000000000000000e+04 3.066565560361819015e-02 1.520954785402222655e-02 4.988997845545693061e-02
4.580000000000000000e+04 3.043738310575250586e-02 1.513676456613678896e-02 4.946949505933948693e-02
4.590000000000000000e+04 3.047442745799872066e-02 1.503297442611165567e-02 4.923621259588825683e-02
4.600000000000000000e+04 3.109201238128034631e-02 1.557617179113008309e-02 5.115857706172365765e-02
4.610000000000000000e+04 3.040025765279101219e-02 1.497817584046931376e-02 4.981998903180063359e-02
4.620000000000000000e+04 3.004339154299672313e-02 1.498162228892932664e-02 4.910362250509540949e-02
4.630000000000000000e+04 3.023133767029858796e-02 1.494520041388588787e-02 4.925063458648754749e-02
4.640000000000000000e+04 3.996851344349598711e-02 2.009760380057368928e-02 6.528893143502767504e-02
4.650000000000000000e+04 8.101469998446288179e-02 4.964365722515093338e-02 1.123045838315590711e-01
4.660000000000000000e+04 5.753731451253379925e-02 3.186053245732605593e-02 8.634228142605082645e-02
4.670000000000000000e+04 3.069421436402022113e-02 1.560845224186381552e-02 4.966753385440964008e-02
4.680000000000000000e+04 3.020231817556965487e-02 1.524622657084985684e-02 4.934913469818104359e-02
4.690000000000000000e+04 3.141558822705288467e-02 1.579184055456790345e-02 5.081630913717846698e-02
4.700000000000000000e+04 7.140905027883918954e-02 3.494108572816604502e-02 1.179975873224850397e-01
4.710000000000000000e+04 2.201248103498606168e-01 1.056179243155505459e-01 3.663668922621375335e-01
4.720000000000000000e+04 2.118322600458976135e-01 1.027555203056379485e-01 3.469933614361230823e-01
4.730000000000000000e+04 2.326830299673112168e-01 1.141418843031950514e-01 3.865982621139554265e-01
4.740000000000000000e+04 1.180064039686474081e-01 5.773702335112821521e-02 1.932775088559450238e-01
4.750000000000000000e+04 2.977036020236079744e-02 1.490674609521924418e-02 4.866399438836391950e-02
4.760000000000000000e+04 2.936656750845834454e-02 1.463653967943473293e-02 4.822378805970595900e-02
4.770000000000000000e+04 2.967542372897106345e-02 1.478437738700589740e-02 4.880060506199140891e-02
4.780000000000000000e+04 2.972158300729970878e-02 1.483175350596625634e-02 4.843123717287778351e-02
4.790000000000000000e+04 2.954409814010284380e-02 1.476097876867190489e-02 4.800643656144434890e-02
4.800000000000000000e+04 3.397086425761736833e-02 1.692161678155298943e-02 5.489562999583676162e-02
4.810000000000000000e+04 4.066646597841229449e-02 2.133537075564416116e-02 6.312722091710122607e-02
4.820000000000000000e+04 3.159380512231566018e-02 1.555541433005911030e-02 5.105194567380675480e-02
4.830000000000000000e+04 2.966947086963754587e-02 1.493243912227427972e-02 4.851405916259807216e-02
4.840000000000000000e+04 7.744161164758224525e-02 5.281685616983086001e-02 1.021111691557556739e-01
4.850000000000000000e+04 1.491472849391957956e-01 1.241293625948769047e-01 1.744853223342169857e-01
4.860000000000000000e+04 7.765187259726950841e-02 5.351416785042262952e-02 1.026979748681842997e-01
4.870000000000000000e+04 2.967616451349365178e-02 1.481190864042640151e-02 4.826320626843909334e-02
4.880000000000000000e+04 2.993936638655390545e-02 1.502422944366565115e-02 4.835653169441157806e-02
4.890000000000000000e+04 3.404345859966142335e-02 1.693398415962501721e-02 5.555874901271191935e-02
4.900000000000000000e+04 4.771381246991447667e-02 2.393986613573008751e-02 7.822565157002549230e-02
4.910000000000000000e+04 3.997201134787840143e-02 1.996654795150837325e-02 6.501660009696999531e-02
4.920000000000000000e+04 5.637593543975134847e-02 2.845943047232089157e-02 9.340543260459768793e-02
4.930000000000000000e+04 5.119627151720575198e-02 2.559202220284817475e-02 8.370869267044818429e-02
4.940000000000000000e+04 3.084321129335359721e-02 1.530600170662043021e-02 5.010830336341225155e-02
4.950000000000000000e+04 3.159953834053382676e-02 1.576724460860743152e-02 5.143630791818971232e-02
4.960000000000000000e+04 6.959897341939758064e-02 4.207162323721001101e-02 9.823895134628123083e-02
4.970000000000000000e+04 1.079665910481805574e-01 8.277682161937106875e-02 1.336865822964846962e-01
4.980000000000000000e+04 5.144560867896887102e-02 2.848905026713812946e-02 7.661706751872138232e-02
4.990000000000000000e+04 3.021111672861870670e-02 1.470234304700491698e-02 4.891341862839385102e-02
5.000000000000000000e+04 2.935918093700317852e-02 1.462614254557192614e-02 4.829205574905243853e-02
5.010000000000000000e+04 2.947306948989079911e-02 1.463619935075237931e-02 4.799589266076895872e-02
5.020000000000000000e+04 2.999727561049589028e-02 1.479483330096727396e-02 4.818479047504872076e-02
5.030000000000000000e+04 2.939996158048448910e-02 1.458891091438795605e-02 4.858043178480047491e-02
5.040000000000000000e+04 2.936677301528584083e-02 1.452188164243871718e-02 4.797631662526737756e-02
5.050000000000000000e+04 2.989540087642185082e-02 1.496425465856765849e-02 4.847636740063021588e-02
5.060000000000000000e+04 2.998392320199961408e-02 1.492944370491330712e-02 4.888011676423661273e-02
5.070000000000000000e+04 2.976067665101653215e-02 1.467234351758028854e-02 4.870188354188427493e-02
5.080000000000000000e+04 2.941761344898788377e-02 1.477389751069462312e-02 4.828500024214540248e-02
5.090000000000000000e+04 2.952579510307741864e-02 1.487035183378878668e-02 4.793393247698653215e-02
5.100000000000000000e+04 2.964212840998598289e-02 1.480427681002429059e-02 4.789788081004998227e-02
5.110000000000000000e+04 2.956198497726507390e-02 1.467001274397236425e-02 4.757106604056510202e-02
5.120000000000000000e+04 2.934554440956787039e-02 1.491794064392323003e-02 4.830410703683857276e-02
5.130000000000000000e+04 2.998412430992601629e-02 1.532420297383030490e-02 4.892251977294959780e-02
5.140000000000000000e+04 2.992683744505556659e-02 1.493881697080848628e-02 4.843423313953960224e-02
5.150000000000000000e+04 3.020053754731054710e-02 1.483136939976380415e-02 4.912608305601219583e-02
5.160000000000000000e+04 2.980962878665098514e-02 1.467889351523197182e-02 4.847699625500381110e-02
5.170000000000000000e+04 2.944975309810120290e-02 1.464302433803098095e-02 4.792493475624943350e-02
5.180000000000000000e+04 2.926927709355391788e-02 1.474555596100366600e-02 4.767674117220595253e-02
5.190000000000000000e+04 2.940837324349017401e-02 1.455051790710605239e-02 4.778769284992598343e-02
5.200000000000000000e+04 2.967208337954725314e-02 1.503693074240962900e-02 4.811800479084508281e-02
5.210000000000000000e+04 2.972751791101630250e-02 1.495711181803198800e-02 4.847189580576170137e-02
5.220000000000000000e+04 2.959532786008088959e-02 1.467781790642927985e-02 4.844563832712017043e-02
5.230000000000000000e+04 2.993994491359980650e-02 1.493767700574988311e-02 4.842224594387825598e-02
5.240000000000000000e+04 3.176724971475740344e-02 1.579851820617788477e-02 5.174763607874255378e-02
5.250000000000000000e+04 3.318605944991175061e-02 1.666569218887440501e-02 5.371940743157688908e-02
5.260000000000000000e+04 3.022733011140945822e-02 1.541735178335296684e-02 4.930338763742151548e-02
5.270000000000000000e+04 3.020046525903914009e-02 1.546172221540823878e-02 4.923679753412105869e-02
5.280000000000000000e+04 2.991923212670180576e-02 1.503233005643100050e-02 4.932203865255721520e-02
5.290000000000000000e+04 3.042493985451483890e-02 1.487814767559492851e-02 4.952293941359559026e-02
5.300000000000000000e+04 3.048655314080958231e-02 1.504742226378468981e-02 5.024078606764715432e-02
5.310000000000000000e+04 3.128408504174023247e-02 1.573896815241391384e-02 5.098939165932864920e-02
5.320000000000000000e+04 3.129905419710152931e-02 1.565748622037722512e-02 5.086866091370075699e-02
5.330000000000000000e+04 3.139026198381764804e-02 1.587130906330255775e-02 5.120794642758173809e-02
5.340000000000000000e+04 3.153662610478502604e-02 1.562240831885705269e-02 5.107404709728672471e-02
5.350000000000000000e+04 3.106195015024811740e-02 1.554758126242446366e-02 5.093877156345121698e-02
5.360000000000000000e+04 3.147847909311154990e-02 1.592732782973629857e-02 5.106272698571353436e-02
5.370000000000000000e+04 3.161822880164789906e-02 1.585375895972467378e-02 5.146174463071630928e-02
5.380000000000000000e+04 3.183840073386445813e-02 1.591209507767371925e-02 5.200474697105302718e-02
5.390000000000000000e+04 3.143291361042219872e-02 1.573586548357037637e-02 5.149831685609847221e-02
5.400000000000000000e+04 3.183573374418432328e-02 1.550577418504426111e-02 5.184524826854835372e-02
5.410000000000000000e+04 3.349703135057535003e-02 1.657191854118835253e-02 5.428896864669260219e-02
5.420000000000000000e+04 3.988920719472256043e-02 2.029868554985765627e-02 6.384234217751764973e-02
5.430000000000000000e+04 3.632575101107329146e-02 1.798345607105146168e-02 5.833820909312061737e-02
5.440000000000000000e+04 3.331731577658461618e-02 1.670053598963296138e-02 5.433520129169707585e-02
5.450000000000000000e+04 3.311180506954896491e-02 1.662012273603519566e-02 5.411217139956482625e-02
5.460000000000000000e+04 3.582390707869332475e-02 1.791939179009230734e-02 5.848973694393622830e-02
5.470000000000000000e+04 6.265193756118915547e-02 3.569730785304962156e-02 9.114923507680114390e-02
5.480000000000000000e+04 5.993821719263465325e-02 3.432858242139350674e-02 8.746094017572719759e-02
5.490000000000000000e+04 3.636200897556284006e-02 1.828843515927824903e-02 5.958438680670495591e-02
5.500000000000000000e+04 5.894343748165228880e-02 2.957351957178043500e-02 9.517347272375992207e-02
5.510000000000000000e+04 3.482167227723633185e-01 1.773728459246279310e-01 5.681062738170857829e-01
5.520000000000000000e+04 4.411043099397882195e-01 2.227036182963209876e-01 7.159785199856130156e-01
5.530000000000000000e+04 1.354382683275796029e-01 6.895703303978643894e-02 2.200928021766304921e-01
5.540000000000000000e+04 4.441776231822001236e-02 2.196853341710929691e-02 7.172257288111653917e-02
5.550000000000000000e+04 4.229886414286346263e-01 2.073502273013325126e-01 6.954507864689233321e-01
5.560000000000000000e+04 9.614915498458154186e-01 4.764799345771439376e-01 1.585114066574179859e+00
5.570000000000000000e+04 8.038433504689987963e-01 3.914126996077830212e-01 1.376524241729378817e+00
5.580000000000000000e+04 2.138048984415886755e-01 1.038082667972898693e-01 3.738658393556104076e-01
5.590000000000000000e+04 4.667628032411816896e-01 4.099416896110182340e-01 5.160657167551711000e-01
5.600000000000000000e+04 9.022961951193381180e-01 8.684145251597141790e-01 9.352220006325150381e-01
5.610000000000000000e+04 4.397598977295151257e-01 3.939821609528865731e-01 4.912846417749229255e-01
5.620000000000000000e+04 3.956238021175201292e-02 1.957411199951209282e-02 6.554767661104754506e-02
5.630000000000000000e+04 3.995284244291651132e-02 1.994374950362910737e-02 6.647240136501150753e-02
5.640000000000000000e+04 4.250635376893810435e-02 2.084801778775844522e-02 7.037574719074138341e-02
5.650000000000000000e+04 4.327299053073188628e-02 2.160521667609529434e-02 7.201257609993186315e-02
5.660000000000000000e+04 6.044614789331538562e-02 3.212997305990160368e-02 9.231863355013476824e-02
5.670000000000000000e+04 6.030737216027098890e-02 3.187359799998830401e-02 9.324067132236053823e-02
5.680000000000000000e+04 4.473251302301282234e-02 2.277416425289922539e-02 7.554475485487033293e-02
5.690000000000000000e+04 5.688479903966803253e-02 2.845287418597727824e-02 9.431163838684734901e-02
5.700000000000000000e+04 5.811832947281622003e-02 2.838113513749493388e-02 9.642498721781385396e-02
5.710000000000000000e+04 4.846824226262651247e-02 2.347882944967789182e-02 8.430093626763085490e-02
5.720000000000000000e+04 5.023958503443657492e-02 2.389380430560190602e-02 8.791564987511005236e-02
5.730000000000000000e+04 5.310484182821477439e-02 2.522433237741962195e-02 9.222395448312743771e-02
5.740000000000000000e+04 5.560056460644569043e-02 2.654710059620655691e-02 9.880084635640179469e-02
5.750000000000000000e+04 5.822401879997251423e-02 2.750398749049123501e-02 1.046531492304312028e-01
5.760000000000000000e+04 6.115844784513381482e-02 2.916390484047363604e-02 1.109143121341662069e-01
5.770000000000000000e+04 6.457413016009604101e-02 2.951520983616021110e-02 1.179265990035728018e-01
5.780000000000000000e+04 6.858594444481914965e-02 3.200409926591181453e-02 1.261494415918221479e-01
5.790000000000000000e+04 7.255162024544435651e-02 3.380602879631631336e-02 1.345687546286961356e-01
5.800000000000000000e+04 7.624305453779928188e-02 3.532358131198472251e-02 1.418637246691277221e-01
5.810000000000000000e+04 8.076573530202500739e-02 3.750854290603267832e-02 1.502529159087300503e-01
5.820000000000000000e+04 8.421649817209120314e-02 3.914436521850356288e-02 1.566196670595606799e-01
5.830000000000000000e+04 8.780694551885742660e-02 4.128409962288340923e-02 1.638549512450958034e-01
5.840000000000000000e+04 9.139721276989574983e-02 4.275538228267675850e-02 1.674066196096467840e-01
5.850000000000000000e+04 9.435580979084429165e-02 4.469151781362658282e-02 1.705381924692215834e-01
5.860000000000000000e+04 9.827752798106990928e-02 4.537786232014109911e-02 1.745334039632862322e-01
5.870000000000000000e+04 1.007363439118204168e-01 4.631825708388151441e-02 1.793788691280703840e-01
5.880000000000000000e+04 1.040758295793943050e-01 4.838952405324080386e-02 1.841188865648376305e-01
5.890000000000000000e+04 1.067795640137207402e-01 5.074639749157539709e-02 1.876891238309497945e-01
5.900000000000000000e+04 1.099592783482403469e-01 5.231921994048512048e-02 1.923505437460137635e-01
5.910000000000000000e+04 1.120055913709823159e-01 5.351603747458164723e-02 1.942445905259051753e-01
5.920000000000000000e+04 1.154769007483760768e-01 5.595623455751352199e-02 1.960188714488423911e-01
5.930000000000000000e+04 1.181296151300903624e-01 5.711556455676778526e-02 1.999378999076503183e-01
5.940000000000000000e+04 1.202192760173379088e-01 5.998329572250248043e-02 2.018340121029882916e-01
5.950000000000000000e+04 1.222041463598372152e-01 5.983470534491405063e-02 2.039144419324254998e-01
5.960000000000000000e+04 1.250888318670899946e-01 6.172818888574475166e-02 2.081468607948807892e-01
5.970000000000000000e+04 1.272496620200567752e-01 6.291449790975361944e-02 2.082261503013082549e-01
5.980000000000000000e+04 1.273770357307887624e-01 6.318650687369326002e-02 2.091993070616912365e-01
5.990000000000000000e+04 1.271125350086138583e-01 6.390877358226271232e-02 2.090992189267565915e-01
6.000000000000000000e+04 1.290205350534917861e-01 6.333060420982535021e-02 2.107403985372440502e-01
6.010000000000000000e+04 1.304781962302476450e-01 6.454441214508505054e-02 2.138906817097111779e-01
6.020000000000000000e+04 1.312461097219987105e-01 6.677192088164847494e-02 2.172044999367231111e-01
6.030000000000000000e+04 1.353353118918839137e-01 6.691180167897434194e-02 2.223938794900016946e-01
6.040000000000000000e+04 1.419855815126364329e-01 7.115698185947851029e-02 2.315944792598031154e-01
6.050000000000000000e+04 1.457934717041808881e-01 7.343970664479008981e-02 2.412041237757806822e-01
6.060000000000000000e+04 1.518568912449093089e-01 7.489941679132079699e-02 2.527414469015329401e-01
6.070000000000000000e+04 1.581883032467885919e-01 7.883985997118785061e-02 2.597471086525475759e-01
6.080000000000000000e+04 1.634561177066728987e-01 8.111045183680215542e-02 2.697889966969668762e-01
6.090000000000000000e+04 1.674027240912128733e-01 8.335565921816859292e-02 2.760864032155769254e-01
6.100000000000000000e+04 1.690162475053430535e-01 8.373505972988347368e-02 2.803143475011560803e-01
6.110000000000000000e+04 1.673600135059104266e-01 8.108562031138244475e-02 2.864572273629337751e-01
6.120000000000000000e+04 1.690414805558608236e-01 8.281664051456806563e-02 2.856278592054788956e-01
6.130000000000000000e+04 1.704270471570195622e-01 8.481710683981602550e-02 2.780459903761450802e-01
6.140000000000000000e+04 1.719028265451426896e-01 8.687233641298210129e-02 2.787153492344061068e-01
6.150000000000000000e+04 1.700948679425089982e-01 8.599862631590080020e-02 2.786904062123329306e-01
6.160000000000000000e+04 1.685281057088013901e-01 8.255323273896590652e-02 2.804610665378920453e-01
6.170000000000000000e+04 1.718837258872143725e-01 8.475531968786435832e-02 2.773664066333801359e-01
6.180000000000000000e+04 1.716820385630694334e-01 8.602956600532678244e-02 2.746108570792946679e-01
6.190000000000000000e+04 1.686894565002156066e-01 8.405527946154725538e-02 2.715991584543952508e-01
6.200000000000000000e+04 1.576677927428205561e-01 7.768508522607965594e-02 2.660604764476402484e-01
6.210000000000000000e+04 1.574239918174828168e-01 7.752224836030871535e-02 2.619262334086778776e-01
6.220000000000000000e+04 1.607009024579671985e-01 7.994293130263133151e-02 2.596747560495354934e-01
6.230000000000000000e+04 1.607196679753882806e-01 8.030786972213538322e-02 2.585863412368649139e-01
6.240000000000000000e+04 1.555962487601824928e-01 7.671286857647820201e-02 2.596503303830983156e-01
6.250000000000000000e+04 8.801793982186834064e-02 2.615016796165129526e-02 1.868630278103015907e-01
