# North DC Val: 0.8390823300000001 VoltsSouth DC Val: 0.57241341 Volts
# SR785 Measurement - Timestamp: May 02 2020 - 02:58:39
# Parameter File: /home/controls/Git/cit_ctnlab/ctn_scripts/TransRINSpecLong.yml
#---------- Measurement Setup ------------
# Start Frequency (Hz): 0.000000
# Frequency Span (Hz): 800.000000
# Frequency Resolution: 800
# Number of Averages: 100
# Averaging Mode: RMS
# Window function: Hanning
#---------- Measurement Parameters ----------
# Measurement Group:  "FFT" "FFT"
# Measurements:  "FFT 1" "FFT 2"
# View:  "Log Magnitude" "Log Magnitude"
# Unit:  "Vrms/rtHz" "Vrms/rtHz"
#---------- Input Parameters ----------
# Input Source: Analog
# Input Mode: Single ended, Single ended
# Input Grounding: Float, Float
# Input Coupling: AC, AC
# Input Range: -36.0dBVpk, -36.0dBVpk
# Auto Range: Off, Off
# Auto Range Mode: Tracking, Tracking
# Anti-Aliasing Filter: On, On
#---------- Source Parameters ----------
# Source Type: Sine
# Source Amplitude: 500.0mVpk
# Source On: 0

#---------- Measurement Data ----------
# [Freq(Hz) Display 0(Vrms/rtHz) Display 1(Vrms/rtHz) ]
+0.0000000e+000    +1.5780546e-003    +4.2105804e-004
+1.0000000e+000    +1.1137305e-003    +3.3143081e-004
+2.0000000e+000    +5.7445042e-004    +1.8271836e-004
+3.0000000e+000    +3.9741749e-004    +1.0049431e-004
+4.0000000e+000    +2.0183057e-004    +6.1866187e-005
+5.0000000e+000    +1.2562354e-004    +4.5478828e-005
+6.0000000e+000    +8.4876177e-005    +3.0231666e-005
+7.0000000e+000    +6.9795475e-005    +2.1305334e-005
+8.0000000e+000    +5.1429484e-005    +1.5336227e-005
+9.0000000e+000    +4.7354803e-005    +1.2159831e-005
+1.0000000e+001    +4.9130795e-005    +9.1372985e-006
+1.1000000e+001    +4.2050087e-005    +7.4411282e-006
+1.2000000e+001    +3.1634827e-005    +6.8118911e-006
+1.3000000e+001    +2.8911812e-005    +5.6574308e-006
+1.4000000e+001    +2.7083479e-005    +4.4020967e-006
+1.5000000e+001    +2.6208649e-005    +3.8715843e-006
+1.6000000e+001    +2.1770515e-005    +3.4097495e-006
+1.7000000e+001    +2.3936243e-005    +2.8479205e-006
+1.8000000e+001    +2.2442433e-005    +2.6378109e-006
+1.9000000e+001    +1.8030318e-005    +2.3705798e-006
+2.0000000e+001    +1.5660071e-005    +1.8517584e-006
+2.1000000e+001    +1.5355452e-005    +1.8093142e-006
+2.2000000e+001    +1.3293070e-005    +1.6561839e-006
+2.3000000e+001    +1.2850107e-005    +1.3680057e-006
+2.4000000e+001    +1.3905102e-005    +1.2512400e-006
+2.5000000e+001    +1.2833652e-005    +1.1357932e-006
+2.6000000e+001    +1.1300614e-005    +1.1973926e-006
+2.7000000e+001    +9.6848744e-006    +1.0772895e-006
+2.8000000e+001    +9.8980072e-006    +9.7542079e-007
+2.9000000e+001    +9.2567052e-006    +8.4757812e-007
+3.0000000e+001    +8.7398694e-006    +6.7712512e-007
+3.1000000e+001    +9.3826256e-006    +6.4708343e-007
+3.2000000e+001    +8.2885399e-006    +5.9748714e-007
+3.3000000e+001    +6.8706977e-006    +5.3630703e-007
+3.4000000e+001    +5.7906682e-006    +5.0746121e-007
+3.5000000e+001    +4.9574533e-006    +4.4884291e-007
+3.6000000e+001    +4.8884890e-006    +4.2091384e-007
+3.7000000e+001    +4.3459995e-006    +3.8518260e-007
+3.8000000e+001    +4.4525832e-006    +3.6091782e-007
+3.9000000e+001    +4.3219925e-006    +3.6313980e-007
+4.0000000e+001    +3.8893127e-006    +3.2827711e-007
+4.1000000e+001    +3.7407071e-006    +3.1053989e-007
+4.2000000e+001    +3.8541443e-006    +2.8689007e-007
+4.3000000e+001    +3.7398365e-006    +2.7668924e-007
+4.4000000e+001    +3.1570012e-006    +2.6747094e-007
+4.5000000e+001    +3.2742937e-006    +2.3696168e-007
+4.6000000e+001    +3.3236772e-006    +2.1258624e-007
+4.7000000e+001    +3.1041752e-006    +1.9833028e-007
+4.8000000e+001    +2.7774390e-006    +1.7503483e-007
+4.9000000e+001    +2.5570805e-006    +1.6928469e-007
+5.0000000e+001    +2.1739463e-006    +1.6693248e-007
+5.1000000e+001    +2.0763830e-006    +1.5984941e-007
+5.2000000e+001    +2.4440290e-006    +1.4470908e-007
+5.3000000e+001    +2.2548120e-006    +1.4501366e-007
+5.4000000e+001    +2.2007987e-006    +1.3668210e-007
+5.5000000e+001    +2.2858133e-006    +1.2633214e-007
+5.6000000e+001    +2.1887258e-006    +1.1756542e-007
+5.7000000e+001    +2.4867072e-006    +1.1602138e-007
+5.8000000e+001    +2.5131669e-006    +1.2226099e-007
+5.9000000e+001    +2.2645324e-006    +1.3090774e-007
+6.0000000e+001    +2.2422703e-006    +1.4812035e-007
+6.1000000e+001    +1.8301330e-006    +1.1907012e-007
+6.2000000e+001    +1.6503934e-006    +1.0015054e-007
+6.3000000e+001    +1.6482982e-006    +9.2645848e-008
+6.4000000e+001    +1.5623867e-006    +9.9316999e-008
+6.5000000e+001    +1.6482203e-006    +8.4648349e-008
+6.6000000e+001    +1.5892017e-006    +8.0111633e-008
+6.7000000e+001    +1.5409651e-006    +8.0559623e-008
+6.8000000e+001    +1.4480300e-006    +7.3080656e-008
+6.9000000e+001    +1.1192481e-006    +6.9781834e-008
+7.0000000e+001    +1.0681111e-006    +7.5958205e-008
+7.1000000e+001    +1.1334836e-006    +7.3946801e-008
+7.2000000e+001    +1.2286156e-006    +6.8290774e-008
+7.3000000e+001    +1.1449509e-006    +6.8095730e-008
+7.4000000e+001    +9.7160387e-007    +6.9428296e-008
+7.5000000e+001    +9.6617316e-007    +6.6994012e-008
+7.6000000e+001    +9.9684939e-007    +5.8046535e-008
+7.7000000e+001    +9.5144469e-007    +6.3176380e-008
+7.8000000e+001    +8.3789968e-007    +6.5443061e-008
+7.9000000e+001    +7.6734165e-007    +6.3119110e-008
+8.0000000e+001    +9.2794073e-007    +6.2596946e-008
+8.1000000e+001    +9.2896931e-007    +5.7267076e-008
+8.2000000e+001    +8.7265124e-007    +5.9849825e-008
+8.3000000e+001    +7.2113409e-007    +6.1687935e-008
+8.4000000e+001    +5.8271246e-007    +5.7082264e-008
+8.5000000e+001    +5.7043110e-007    +5.2368883e-008
+8.6000000e+001    +5.1888736e-007    +5.2472942e-008
+8.7000000e+001    +5.2357098e-007    +5.0880690e-008
+8.8000000e+001    +5.6817021e-007    +5.6477369e-008
+8.9000000e+001    +6.0635404e-007    +5.6206602e-008
+9.0000000e+001    +5.9141854e-007    +5.4101598e-008
+9.1000000e+001    +4.7923305e-007    +4.8196007e-008
+9.2000000e+001    +4.2459976e-007    +4.9294680e-008
+9.3000000e+001    +4.1827357e-007    +5.0440654e-008
+9.4000000e+001    +4.3579260e-007    +4.6223175e-008
+9.5000000e+001    +4.5443190e-007    +4.4389349e-008
+9.6000000e+001    +4.1405841e-007    +4.2526366e-008
+9.7000000e+001    +4.2882809e-007    +4.8719695e-008
+9.8000000e+001    +4.6544935e-007    +4.8268877e-008
+9.9000000e+001    +4.0783465e-007    +4.5153183e-008
+1.0000000e+002    +3.3737240e-007    +4.7084431e-008
+1.0100000e+002    +2.8742036e-007    +4.5801894e-008
+1.0200000e+002    +3.4494454e-007    +4.4931625e-008
+1.0300000e+002    +4.1644520e-007    +4.5782887e-008
+1.0400000e+002    +3.7956119e-007    +4.3376570e-008
+1.0500000e+002    +3.1730104e-007    +4.3098709e-008
+1.0600000e+002    +2.8920829e-007    +4.6045280e-008
+1.0700000e+002    +2.6886008e-007    +4.5080711e-008
+1.0800000e+002    +2.6914361e-007    +4.2773902e-008
+1.0900000e+002    +2.5000614e-007    +4.0817465e-008
+1.1000000e+002    +2.5935188e-007    +4.1367898e-008
+1.1100000e+002    +2.7623119e-007    +4.2435463e-008
+1.1200000e+002    +2.8574672e-007    +4.1916962e-008
+1.1300000e+002    +2.6077959e-007    +3.9652921e-008
+1.1400000e+002    +2.0736036e-007    +4.0342382e-008
+1.1500000e+002    +1.9732289e-007    +3.8561335e-008
+1.1600000e+002    +2.2389025e-007    +4.1884572e-008
+1.1700000e+002    +2.2737783e-007    +4.1762931e-008
+1.1800000e+002    +2.1098133e-007    +3.5815770e-008
+1.1900000e+002    +7.3005992e-007    +4.2196699e-008
+1.2000000e+002    +1.3774073e-006    +4.4299181e-008
+1.2100000e+002    +6.9141964e-007    +3.9947320e-008
+1.2200000e+002    +1.9635229e-007    +3.8426766e-008
+1.2300000e+002    +2.1838002e-007    +3.8432756e-008
+1.2400000e+002    +2.3767120e-007    +3.8906791e-008
+1.2500000e+002    +2.4627178e-007    +4.2278320e-008
+1.2600000e+002    +2.3504008e-007    +4.0198593e-008
+1.2700000e+002    +2.1125416e-007    +3.8873317e-008
+1.2800000e+002    +1.9322579e-007    +4.1222943e-008
+1.2900000e+002    +1.7730642e-007    +4.3797705e-008
+1.3000000e+002    +1.9021047e-007    +4.2897547e-008
+1.3100000e+002    +1.9975779e-007    +4.0877161e-008
+1.3200000e+002    +2.2094154e-007    +4.0639712e-008
+1.3300000e+002    +2.3535331e-007    +3.8645087e-008
+1.3400000e+002    +2.2241309e-007    +3.9011162e-008
+1.3500000e+002    +2.1969335e-007    +3.9427864e-008
+1.3600000e+002    +2.4206693e-007    +3.9671647e-008
+1.3700000e+002    +2.7306135e-007    +4.2031623e-008
+1.3800000e+002    +3.2653114e-007    +4.0342602e-008
+1.3900000e+002    +4.0849389e-007    +3.9633203e-008
+1.4000000e+002    +5.4724836e-007    +3.6940801e-008
+1.4100000e+002    +7.2675772e-007    +3.8508702e-008
+1.4200000e+002    +1.0311081e-006    +4.0187693e-008
+1.4300000e+002    +1.4999224e-006    +3.8403524e-008
+1.4400000e+002    +1.8591535e-006    +3.7391057e-008
+1.4500000e+002    +1.5531677e-006    +3.4769027e-008
+1.4600000e+002    +1.0009194e-006    +3.8641353e-008
+1.4700000e+002    +7.1817573e-007    +3.5619102e-008
+1.4800000e+002    +5.2199761e-007    +3.4140726e-008
+1.4900000e+002    +3.6983778e-007    +3.4597473e-008
+1.5000000e+002    +2.6715955e-007    +3.4855141e-008
+1.5100000e+002    +2.4483691e-007    +3.3977383e-008
+1.5200000e+002    +2.1488343e-007    +3.4633960e-008
+1.5300000e+002    +1.9787265e-007    +3.7305966e-008
+1.5400000e+002    +1.8897438e-007    +3.7919587e-008
+1.5500000e+002    +1.9605781e-007    +3.5142381e-008
+1.5600000e+002    +2.0659655e-007    +3.5795129e-008
+1.5700000e+002    +1.8017811e-007    +3.3150215e-008
+1.5800000e+002    +1.7780393e-007    +3.6460122e-008
+1.5900000e+002    +1.5050858e-007    +3.6759502e-008
+1.6000000e+002    +1.4256884e-007    +3.5755026e-008
+1.6100000e+002    +1.4956910e-007    +3.3934956e-008
+1.6200000e+002    +1.3482229e-007    +3.8039602e-008
+1.6300000e+002    +1.2272835e-007    +3.4420793e-008
+1.6400000e+002    +1.1419052e-007    +3.4298338e-008
+1.6500000e+002    +1.1146064e-007    +3.5635960e-008
+1.6600000e+002    +1.1189790e-007    +3.7573162e-008
+1.6700000e+002    +1.1277645e-007    +3.3683055e-008
+1.6800000e+002    +1.0696297e-007    +3.4039328e-008
+1.6900000e+002    +1.0446252e-007    +3.4706133e-008
+1.7000000e+002    +9.9339246e-008    +3.4146836e-008
+1.7100000e+002    +9.6641401e-008    +3.6058552e-008
+1.7200000e+002    +8.7972303e-008    +3.5198568e-008
+1.7300000e+002    +8.6805862e-008    +3.5414022e-008
+1.7400000e+002    +8.7006910e-008    +3.8759353e-008
+1.7500000e+002    +9.4171995e-008    +3.7463380e-008
+1.7600000e+002    +8.7001460e-008    +3.5810462e-008
+1.7700000e+002    +8.3546801e-008    +3.4194144e-008
+1.7800000e+002    +8.5064066e-008    +3.4650316e-008
+1.7900000e+002    +2.4867862e-007    +6.4862348e-008
+1.8000000e+002    +4.8559059e-007    +1.0258595e-007
+1.8100000e+002    +2.5532427e-007    +5.6892304e-008
+1.8200000e+002    +7.8620005e-008    +3.5473565e-008
+1.8300000e+002    +8.0798003e-008    +3.3891578e-008
+1.8400000e+002    +7.9637360e-008    +3.4365776e-008
+1.8500000e+002    +8.4721989e-008    +3.2199718e-008
+1.8600000e+002    +8.4496342e-008    +3.4447069e-008
+1.8700000e+002    +8.2956682e-008    +3.5300548e-008
+1.8800000e+002    +8.4553513e-008    +3.6281779e-008
+1.8900000e+002    +8.5785615e-008    +3.4837999e-008
+1.9000000e+002    +8.2083993e-008    +3.2781283e-008
+1.9100000e+002    +7.9209194e-008    +3.4108766e-008
+1.9200000e+002    +8.4164313e-008    +3.5325403e-008
+1.9300000e+002    +8.7769408e-008    +3.4043925e-008
+1.9400000e+002    +8.3468592e-008    +3.5306169e-008
+1.9500000e+002    +7.2966884e-008    +3.3990627e-008
+1.9600000e+002    +7.1497205e-008    +3.5362966e-008
+1.9700000e+002    +7.4451897e-008    +3.6884185e-008
+1.9800000e+002    +7.6823270e-008    +3.9407091e-008
+1.9900000e+002    +7.3461415e-008    +3.5447556e-008
+2.0000000e+002    +7.5052519e-008    +3.4624950e-008
+2.0100000e+002    +7.3424971e-008    +3.5174306e-008
+2.0200000e+002    +7.0047975e-008    +3.4749601e-008
+2.0300000e+002    +6.8484951e-008    +3.7812075e-008
+2.0400000e+002    +7.6038560e-008    +3.5886782e-008
+2.0500000e+002    +7.7476955e-008    +3.4705980e-008
+2.0600000e+002    +7.1607502e-008    +3.4748037e-008
+2.0700000e+002    +6.8378554e-008    +3.7698864e-008
+2.0800000e+002    +7.3747906e-008    +3.8845325e-008
+2.0900000e+002    +8.0128963e-008    +3.5954145e-008
+2.1000000e+002    +8.0510638e-008    +3.6991860e-008
+2.1100000e+002    +8.3540471e-008    +3.6825995e-008
+2.1200000e+002    +8.0485712e-008    +3.9254179e-008
+2.1300000e+002    +8.1545735e-008    +3.3969439e-008
+2.1400000e+002    +1.0073259e-007    +3.3770743e-008
+2.1500000e+002    +1.0183004e-007    +3.6904762e-008
+2.1600000e+002    +9.4296880e-008    +3.5393381e-008
+2.1700000e+002    +1.2564105e-007    +3.5010785e-008
+2.1800000e+002    +1.1547795e-007    +3.7075583e-008
+2.1900000e+002    +1.1446191e-007    +3.5796429e-008
+2.2000000e+002    +1.1832441e-007    +3.7109547e-008
+2.2100000e+002    +1.2951766e-007    +3.7978630e-008
+2.2200000e+002    +1.1901758e-007    +3.6553153e-008
+2.2300000e+002    +1.0057235e-007    +3.7031562e-008
+2.2400000e+002    +7.9516177e-008    +3.4574082e-008
+2.2500000e+002    +7.2905699e-008    +3.6984389e-008
+2.2600000e+002    +7.7826002e-008    +3.8025906e-008
+2.2700000e+002    +7.5340658e-008    +3.7389455e-008
+2.2800000e+002    +7.3319839e-008    +3.9337838e-008
+2.2900000e+002    +8.2732555e-008    +3.9467711e-008
+2.3000000e+002    +7.7372484e-008    +3.8185433e-008
+2.3100000e+002    +7.4933041e-008    +3.5730107e-008
+2.3200000e+002    +8.9494932e-008    +3.7268425e-008
+2.3300000e+002    +1.0181964e-007    +3.5558575e-008
+2.3400000e+002    +8.4936303e-008    +3.3395896e-008
+2.3500000e+002    +9.1938752e-008    +3.2514055e-008
+2.3600000e+002    +9.9029101e-008    +3.4801605e-008
+2.3700000e+002    +1.0095958e-007    +3.9933287e-008
+2.3800000e+002    +1.0892773e-007    +3.8680323e-008
+2.3900000e+002    +1.8775542e-007    +3.6576157e-008
+2.4000000e+002    +3.4159436e-007    +3.8807045e-008
+2.4100000e+002    +1.9914528e-007    +4.0298996e-008
+2.4200000e+002    +1.3481045e-007    +4.1056360e-008
+2.4300000e+002    +1.5577722e-007    +3.8924568e-008
+2.4400000e+002    +1.4296259e-007    +3.8249802e-008
+2.4500000e+002    +1.7258057e-007    +3.8586663e-008
+2.4600000e+002    +1.7920466e-007    +4.2649347e-008
+2.4700000e+002    +2.1315395e-007    +3.8742208e-008
+2.4800000e+002    +2.1922108e-007    +3.8310748e-008
+2.4900000e+002    +1.9621372e-007    +3.7647656e-008
+2.5000000e+002    +2.2812451e-007    +3.7962497e-008
+2.5100000e+002    +2.5582236e-007    +4.0094744e-008
+2.5200000e+002    +2.7666252e-007    +3.7099934e-008
+2.5300000e+002    +2.7852477e-007    +3.7758308e-008
+2.5400000e+002    +2.6413466e-007    +3.6902534e-008
+2.5500000e+002    +3.2528803e-007    +3.8471725e-008
+2.5600000e+002    +3.4991646e-007    +4.3746809e-008
+2.5700000e+002    +3.9559947e-007    +4.2798423e-008
+2.5800000e+002    +4.8229566e-007    +4.1570331e-008
+2.5900000e+002    +5.1570959e-007    +4.0072386e-008
+2.6000000e+002    +5.5031165e-007    +4.2292573e-008
+2.6100000e+002    +5.9702546e-007    +4.3908159e-008
+2.6200000e+002    +5.9727859e-007    +4.2693294e-008
+2.6300000e+002    +6.4345886e-007    +4.0706027e-008
+2.6400000e+002    +8.6697463e-007    +4.4823370e-008
+2.6500000e+002    +9.3744183e-007    +4.7069648e-008
+2.6600000e+002    +8.6615643e-007    +4.4122732e-008
+2.6700000e+002    +1.0660104e-006    +4.3492072e-008
+2.6800000e+002    +1.2684013e-006    +4.5132811e-008
+2.6900000e+002    +1.5409887e-006    +4.3493600e-008
+2.7000000e+002    +2.1271746e-006    +4.2460396e-008
+2.7100000e+002    +3.5647192e-006    +4.4944404e-008
+2.7200000e+002    +4.7284143e-006    +4.5407727e-008
+2.7300000e+002    +4.5459010e-006    +4.4073488e-008
+2.7400000e+002    +3.6733759e-006    +4.2998412e-008
+2.7500000e+002    +3.1048023e-006    +4.0405506e-008
+2.7600000e+002    +2.3110081e-006    +4.3612189e-008
+2.7700000e+002    +2.2947099e-006    +4.5909182e-008
+2.7800000e+002    +2.1054004e-006    +4.5088431e-008
+2.7900000e+002    +1.5603740e-006    +4.5214996e-008
+2.8000000e+002    +1.3591530e-006    +4.5698616e-008
+2.8100000e+002    +1.5002337e-006    +4.4459636e-008
+2.8200000e+002    +1.3425608e-006    +4.5891998e-008
+2.8300000e+002    +1.0102500e-006    +4.2182478e-008
+2.8400000e+002    +8.7752738e-007    +4.4134602e-008
+2.8500000e+002    +7.9331215e-007    +4.9250641e-008
+2.8600000e+002    +7.3236890e-007    +4.7652041e-008
+2.8700000e+002    +6.4460301e-007    +4.7480011e-008
+2.8800000e+002    +5.3059881e-007    +4.8175689e-008
+2.8900000e+002    +4.7683235e-007    +4.4086558e-008
+2.9000000e+002    +4.5948667e-007    +4.1862091e-008
+2.9100000e+002    +4.1539212e-007    +4.3670937e-008
+2.9200000e+002    +3.9915577e-007    +4.4798821e-008
+2.9300000e+002    +3.7862469e-007    +4.4437723e-008
+2.9400000e+002    +3.4772387e-007    +4.5481723e-008
+2.9500000e+002    +3.1264835e-007    +4.6090296e-008
+2.9600000e+002    +2.9315402e-007    +4.4569752e-008
+2.9700000e+002    +2.7037487e-007    +4.5882071e-008
+2.9800000e+002    +2.2843280e-007    +4.7667267e-008
+2.9900000e+002    +2.6555895e-007    +5.5149840e-008
+3.0000000e+002    +3.1534918e-007    +5.2321180e-008
+3.0100000e+002    +2.4922832e-007    +5.0933004e-008
+3.0200000e+002    +1.6937838e-007    +4.8713972e-008
+3.0300000e+002    +1.5823261e-007    +4.5390429e-008
+3.0400000e+002    +1.5938411e-007    +5.1862880e-008
+3.0500000e+002    +1.5028897e-007    +4.8263576e-008
+3.0600000e+002    +1.3894496e-007    +4.6604050e-008
+3.0700000e+002    +1.4085902e-007    +4.7235211e-008
+3.0800000e+002    +1.5954414e-007    +4.3873605e-008
+3.0900000e+002    +1.3029315e-007    +4.4386670e-008
+3.1000000e+002    +1.3412230e-007    +4.7167632e-008
+3.1100000e+002    +1.3795672e-007    +5.0800921e-008
+3.1200000e+002    +1.2572372e-007    +5.3005667e-008
+3.1300000e+002    +1.2177094e-007    +5.0797908e-008
+3.1400000e+002    +1.1506345e-007    +4.9828337e-008
+3.1500000e+002    +1.2008591e-007    +4.9724331e-008
+3.1600000e+002    +1.2024702e-007    +5.0576357e-008
+3.1700000e+002    +1.1311538e-007    +5.0089437e-008
+3.1800000e+002    +1.1027756e-007    +5.0893036e-008
+3.1900000e+002    +1.1053358e-007    +5.0541328e-008
+3.2000000e+002    +1.0457968e-007    +4.8891334e-008
+3.2100000e+002    +9.6737367e-008    +5.0727905e-008
+3.2200000e+002    +9.9958726e-008    +4.9781310e-008
+3.2300000e+002    +9.8560065e-008    +4.9910028e-008
+3.2400000e+002    +9.1051412e-008    +5.6586114e-008
+3.2500000e+002    +9.1558071e-008    +5.8809349e-008
+3.2600000e+002    +9.1181469e-008    +5.3161870e-008
+3.2700000e+002    +9.4118143e-008    +4.8760526e-008
+3.2800000e+002    +1.0139894e-007    +5.0885941e-008
+3.2900000e+002    +1.0493740e-007    +5.2407994e-008
+3.3000000e+002    +1.0499721e-007    +5.4404257e-008
+3.3100000e+002    +1.0335122e-007    +4.8029079e-008
+3.3200000e+002    +1.0857632e-007    +5.1901104e-008
+3.3300000e+002    +1.1116890e-007    +5.0934961e-008
+3.3400000e+002    +1.1236204e-007    +5.4594064e-008
+3.3500000e+002    +1.0695416e-007    +5.2631098e-008
+3.3600000e+002    +1.0377934e-007    +5.4572251e-008
+3.3700000e+002    +1.1284173e-007    +5.7345346e-008
+3.3800000e+002    +1.2455871e-007    +5.7900198e-008
+3.3900000e+002    +1.2649731e-007    +5.3821299e-008
+3.4000000e+002    +1.2509432e-007    +5.2392000e-008
+3.4100000e+002    +1.1912321e-007    +5.2262386e-008
+3.4200000e+002    +1.4022110e-007    +5.4111279e-008
+3.4300000e+002    +1.5033898e-007    +5.5295295e-008
+3.4400000e+002    +1.4583739e-007    +5.4224341e-008
+3.4500000e+002    +1.5967417e-007    +5.4413817e-008
+3.4600000e+002    +1.7159748e-007    +5.7596996e-008
+3.4700000e+002    +1.7189429e-007    +5.7680719e-008
+3.4800000e+002    +2.0177939e-007    +5.7854827e-008
+3.4900000e+002    +2.6913565e-007    +6.1856340e-008
+3.5000000e+002    +2.3575885e-007    +6.2862867e-008
+3.5100000e+002    +2.2676078e-007    +6.2079025e-008
+3.5200000e+002    +2.5286141e-007    +6.0835461e-008
+3.5300000e+002    +2.3663020e-007    +5.8327124e-008
+3.5400000e+002    +1.8455130e-007    +5.3661335e-008
+3.5500000e+002    +1.7305209e-007    +5.4553379e-008
+3.5600000e+002    +1.8272497e-007    +5.5702401e-008
+3.5700000e+002    +1.6137460e-007    +5.7895431e-008
+3.5800000e+002    +1.4330550e-007    +5.8045007e-008
+3.5900000e+002    +1.4967949e-007    +6.1293655e-008
+3.6000000e+002    +1.4073132e-007    +6.1707446e-008
+3.6100000e+002    +1.1852269e-007    +6.6610781e-008
+3.6200000e+002    +1.0513253e-007    +6.2316950e-008
+3.6300000e+002    +1.0467193e-007    +5.8337179e-008
+3.6400000e+002    +1.0222178e-007    +5.7320484e-008
+3.6500000e+002    +9.9906607e-008    +6.0522204e-008
+3.6600000e+002    +1.0000329e-007    +5.9369693e-008
+3.6700000e+002    +9.9114487e-008    +5.9952626e-008
+3.6800000e+002    +9.7433009e-008    +6.0730819e-008
+3.6900000e+002    +9.2124168e-008    +6.2743993e-008
+3.7000000e+002    +8.9399371e-008    +6.3440169e-008
+3.7100000e+002    +8.4469441e-008    +6.3966354e-008
+3.7200000e+002    +8.7708138e-008    +6.1644876e-008
+3.7300000e+002    +1.0247192e-007    +6.3979769e-008
+3.7400000e+002    +1.0778858e-007    +5.9892621e-008
+3.7500000e+002    +1.0034601e-007    +6.2217822e-008
+3.7600000e+002    +9.5611838e-008    +6.6466853e-008
+3.7700000e+002    +1.0016615e-007    +6.4051605e-008
+3.7800000e+002    +9.6736201e-008    +6.2115028e-008
+3.7900000e+002    +9.0276657e-008    +6.1174447e-008
+3.8000000e+002    +1.0155939e-007    +6.1371772e-008
+3.8100000e+002    +9.9950604e-008    +6.4192548e-008
+3.8200000e+002    +9.7625112e-008    +6.6373069e-008
+3.8300000e+002    +9.2425275e-008    +6.5388832e-008
+3.8400000e+002    +9.2940191e-008    +6.8074122e-008
+3.8500000e+002    +8.2896229e-008    +6.9979095e-008
+3.8600000e+002    +9.5597876e-008    +6.8606873e-008
+3.8700000e+002    +1.0821666e-007    +7.2693808e-008
+3.8800000e+002    +9.3347829e-008    +6.2573854e-008
+3.8900000e+002    +1.0363018e-007    +6.3891463e-008
+3.9000000e+002    +1.0962554e-007    +6.7334334e-008
+3.9100000e+002    +1.0669179e-007    +6.8831412e-008
+3.9200000e+002    +1.0166024e-007    +6.7234161e-008
+3.9300000e+002    +9.4191847e-008    +7.0294519e-008
+3.9400000e+002    +8.4110084e-008    +7.4231352e-008
+3.9500000e+002    +7.8390208e-008    +7.1276176e-008
+3.9600000e+002    +7.8301696e-008    +6.7867177e-008
+3.9700000e+002    +7.1504502e-008    +6.6133531e-008
+3.9800000e+002    +7.3925364e-008    +6.6269379e-008
+3.9900000e+002    +7.7784826e-008    +6.7577488e-008
+4.0000000e+002    +7.7217258e-008    +6.7515188e-008
+4.0100000e+002    +7.4299436e-008    +6.7375822e-008
+4.0200000e+002    +7.6828755e-008    +7.1782573e-008
+4.0300000e+002    +7.6918901e-008    +7.3559889e-008
+4.0400000e+002    +7.9907039e-008    +7.2203804e-008
+4.0500000e+002    +9.0091199e-008    +7.0785859e-008
+4.0600000e+002    +9.4516729e-008    +6.5846464e-008
+4.0700000e+002    +9.3628671e-008    +6.6838474e-008
+4.0800000e+002    +8.9468600e-008    +6.9742235e-008
+4.0900000e+002    +8.5133301e-008    +7.2381603e-008
+4.1000000e+002    +8.8929561e-008    +7.3612888e-008
+4.1100000e+002    +8.6710891e-008    +7.4066570e-008
+4.1200000e+002    +8.3443119e-008    +7.3901589e-008
+4.1300000e+002    +7.8848231e-008    +6.7781016e-008
+4.1400000e+002    +8.0644938e-008    +7.0996556e-008
+4.1500000e+002    +7.4745856e-008    +7.1225713e-008
+4.1600000e+002    +7.2883452e-008    +7.3727101e-008
+4.1700000e+002    +7.6754304e-008    +6.9490838e-008
+4.1800000e+002    +8.0984691e-008    +7.0005683e-008
+4.1900000e+002    +8.8550934e-008    +7.1825696e-008
+4.2000000e+002    +1.0971706e-007    +7.9018875e-008
+4.2100000e+002    +8.1704457e-008    +7.6727090e-008
+4.2200000e+002    +7.6920081e-008    +7.2350062e-008
+4.2300000e+002    +7.1997583e-008    +7.8634514e-008
+4.2400000e+002    +7.0564006e-008    +7.5467000e-008
+4.2500000e+002    +6.4569385e-008    +7.2390904e-008
+4.2600000e+002    +6.5817190e-008    +7.2783010e-008
+4.2700000e+002    +7.1473345e-008    +7.5628250e-008
+4.2800000e+002    +7.1405339e-008    +7.9587011e-008
+4.2900000e+002    +6.1757191e-008    +8.1593740e-008
+4.3000000e+002    +6.3026803e-008    +8.1419508e-008
+4.3100000e+002    +6.2016831e-008    +7.9774580e-008
+4.3200000e+002    +6.5481153e-008    +7.9243549e-008
+4.3300000e+002    +6.4624423e-008    +7.9882561e-008
+4.3400000e+002    +9.0113751e-008    +7.4341706e-008
+4.3500000e+002    +9.1930978e-008    +7.8574878e-008
+4.3600000e+002    +7.9584126e-008    +8.2710940e-008
+4.3700000e+002    +9.0544972e-008    +7.3679921e-008
+4.3800000e+002    +9.2892542e-008    +7.4348399e-008
+4.3900000e+002    +1.1451282e-007    +7.7778424e-008
+4.4000000e+002    +1.2154426e-007    +7.7693500e-008
+4.4100000e+002    +1.3269941e-007    +7.9211020e-008
+4.4200000e+002    +1.4901605e-007    +7.1396556e-008
+4.4300000e+002    +1.7911240e-007    +7.1746015e-008
+4.4400000e+002    +1.8483459e-007    +7.6355136e-008
+4.4500000e+002    +1.6710504e-007    +6.9846067e-008
+4.4600000e+002    +1.4928035e-007    +7.2846568e-008
+4.4700000e+002    +1.2802943e-007    +7.8413194e-008
+4.4800000e+002    +1.1664584e-007    +8.0256989e-008
+4.4900000e+002    +1.1150213e-007    +8.6243460e-008
+4.5000000e+002    +9.4986333e-008    +8.1973305e-008
+4.5100000e+002    +8.9182905e-008    +7.3302935e-008
+4.5200000e+002    +8.4133731e-008    +7.8934846e-008
+4.5300000e+002    +8.5574420e-008    +7.6742758e-008
+4.5400000e+002    +8.0982822e-008    +7.7134729e-008
+4.5500000e+002    +7.1593512e-008    +8.2797442e-008
+4.5600000e+002    +7.2231316e-008    +7.9835125e-008
+4.5700000e+002    +7.1029383e-008    +8.5752653e-008
+4.5800000e+002    +6.9388669e-008    +8.4568832e-008
+4.5900000e+002    +7.0670069e-008    +8.1485865e-008
+4.6000000e+002    +6.8430680e-008    +8.1301323e-008
+4.6100000e+002    +6.2750395e-008    +8.5053045e-008
+4.6200000e+002    +6.2873916e-008    +7.8286909e-008
+4.6300000e+002    +6.3034271e-008    +7.9150858e-008
+4.6400000e+002    +6.2057765e-008    +8.3345242e-008
+4.6500000e+002    +6.1151681e-008    +8.3856598e-008
+4.6600000e+002    +5.6478360e-008    +8.2178225e-008
+4.6700000e+002    +6.2142789e-008    +8.7237247e-008
+4.6800000e+002    +6.2589109e-008    +8.7608143e-008
+4.6900000e+002    +6.2515831e-008    +9.0616680e-008
+4.7000000e+002    +6.6634847e-008    +8.5672852e-008
+4.7100000e+002    +7.8504080e-008    +8.6597190e-008
+4.7200000e+002    +8.1806881e-008    +8.2142684e-008
+4.7300000e+002    +8.0419909e-008    +8.3345512e-008
+4.7400000e+002    +9.0494389e-008    +8.8131337e-008
+4.7500000e+002    +1.0631257e-007    +8.7329731e-008
+4.7600000e+002    +1.1011809e-007    +8.2310699e-008
+4.7700000e+002    +1.2278861e-007    +8.1186698e-008
+4.7800000e+002    +1.2578488e-007    +7.9848363e-008
+4.7900000e+002    +1.7316212e-007    +8.2383757e-008
+4.8000000e+002    +2.5936043e-007    +8.1298730e-008
+4.8100000e+002    +1.6675369e-007    +8.9579672e-008
+4.8200000e+002    +1.2967162e-007    +9.4782145e-008
+4.8300000e+002    +1.3651129e-007    +8.5806434e-008
+4.8400000e+002    +1.4976268e-007    +8.0154130e-008
+4.8500000e+002    +1.6831778e-007    +8.3928079e-008
+4.8600000e+002    +1.8025449e-007    +9.1008637e-008
+4.8700000e+002    +1.6169048e-007    +9.2363592e-008
+4.8800000e+002    +1.6386929e-007    +8.7689649e-008
+4.8900000e+002    +1.8414102e-007    +8.7034614e-008
+4.9000000e+002    +1.9020901e-007    +9.7199006e-008
+4.9100000e+002    +2.1873541e-007    +9.1239549e-008
+4.9200000e+002    +2.4433314e-007    +8.7502684e-008
+4.9300000e+002    +2.3967326e-007    +9.2327703e-008
+4.9400000e+002    +2.2991510e-007    +9.5113030e-008
+4.9500000e+002    +2.0760001e-007    +9.1683610e-008
+4.9600000e+002    +1.9674873e-007    +9.0386649e-008
+4.9700000e+002    +2.1092458e-007    +9.0347456e-008
+4.9800000e+002    +2.1195487e-007    +8.9681230e-008
+4.9900000e+002    +2.0390516e-007    +9.0071417e-008
+5.0000000e+002    +1.8087502e-007    +9.2677894e-008
+5.0100000e+002    +1.5629837e-007    +9.8053086e-008
+5.0200000e+002    +1.4575608e-007    +9.5306945e-008
+5.0300000e+002    +1.7365353e-007    +9.1193684e-008
+5.0400000e+002    +2.1207219e-007    +8.8850896e-008
+5.0500000e+002    +2.2600267e-007    +8.8524295e-008
+5.0600000e+002    +2.8417048e-007    +8.6354412e-008
+5.0700000e+002    +3.5228376e-007    +9.4246886e-008
+5.0800000e+002    +3.9681493e-007    +9.7778191e-008
+5.0900000e+002    +4.2483106e-007    +8.9999844e-008
+5.1000000e+002    +4.6779581e-007    +9.4280111e-008
+5.1100000e+002    +4.9719256e-007    +9.3528591e-008
+5.1200000e+002    +4.2866708e-007    +9.6476541e-008
+5.1300000e+002    +3.3834726e-007    +9.9893114e-008
+5.1400000e+002    +2.3928359e-007    +8.7472522e-008
+5.1500000e+002    +2.0172091e-007    +8.5822258e-008
+5.1600000e+002    +1.9505468e-007    +9.2712398e-008
+5.1700000e+002    +1.7720366e-007    +9.8225279e-008
+5.1800000e+002    +1.6112480e-007    +9.6250332e-008
+5.1900000e+002    +1.5294877e-007    +9.0289838e-008
+5.2000000e+002    +1.3579940e-007    +9.5050289e-008
+5.2100000e+002    +1.3732442e-007    +9.6140489e-008
+5.2200000e+002    +1.4937774e-007    +8.9457501e-008
+5.2300000e+002    +1.3911256e-007    +9.4320178e-008
+5.2400000e+002    +1.2937653e-007    +9.6791553e-008
+5.2500000e+002    +1.5576747e-007    +9.4414673e-008
+5.2600000e+002    +2.1854144e-007    +9.3481574e-008
+5.2700000e+002    +3.8460195e-007    +9.3564751e-008
+5.2800000e+002    +5.2986701e-007    +9.6693299e-008
+5.2900000e+002    +7.8680802e-007    +1.0066825e-007
+5.3000000e+002    +9.6271367e-007    +1.0265457e-007
+5.3100000e+002    +1.0313868e-006    +1.0524340e-007
+5.3200000e+002    +1.0528836e-006    +1.0693608e-007
+5.3300000e+002    +1.1601335e-006    +1.0124597e-007
+5.3400000e+002    +1.2424074e-006    +9.8773157e-008
+5.3500000e+002    +1.2665880e-006    +1.0435969e-007
+5.3600000e+002    +1.1771267e-006    +9.8794089e-008
+5.3700000e+002    +1.0249903e-006    +1.0007238e-007
+5.3800000e+002    +9.6543613e-007    +1.0384157e-007
+5.3900000e+002    +9.5456699e-007    +1.0408242e-007
+5.4000000e+002    +1.0884620e-006    +1.0394663e-007
+5.4100000e+002    +1.0245504e-006    +1.0355750e-007
+5.4200000e+002    +1.1034151e-006    +9.8002289e-008
+5.4300000e+002    +1.1805670e-006    +9.8611373e-008
+5.4400000e+002    +1.3505148e-006    +1.0547105e-007
+5.4500000e+002    +1.8754073e-006    +1.1292601e-007
+5.4600000e+002    +2.2357608e-006    +1.1213293e-007
+5.4700000e+002    +2.4334549e-006    +1.0660865e-007
+5.4800000e+002    +2.6117989e-006    +1.0561011e-007
+5.4900000e+002    +2.2660622e-006    +1.0947555e-007
+5.5000000e+002    +1.6909818e-006    +1.0705450e-007
+5.5100000e+002    +1.3984611e-006    +1.0127233e-007
+5.5200000e+002    +1.2564768e-006    +1.0466848e-007
+5.5300000e+002    +1.1924543e-006    +1.0645216e-007
+5.5400000e+002    +7.8725475e-007    +1.0162955e-007
+5.5500000e+002    +5.9436354e-007    +1.0841991e-007
+5.5600000e+002    +5.8454259e-007    +1.0667704e-007
+5.5700000e+002    +5.9068589e-007    +1.0617563e-007
+5.5800000e+002    +5.4594960e-007    +1.0987630e-007
+5.5900000e+002    +5.1620356e-007    +1.0820490e-007
+5.6000000e+002    +4.6501006e-007    +1.0534271e-007
+5.6100000e+002    +4.3558595e-007    +1.1652833e-007
+5.6200000e+002    +4.4365817e-007    +1.0687938e-007
+5.6300000e+002    +4.1791276e-007    +1.0303760e-007
+5.6400000e+002    +3.5174693e-007    +1.0802980e-007
+5.6500000e+002    +3.5646136e-007    +1.1329734e-007
+5.6600000e+002    +3.5857161e-007    +1.1406622e-007
+5.6700000e+002    +3.5652789e-007    +1.0862581e-007
+5.6800000e+002    +3.8650691e-007    +1.0972681e-007
+5.6900000e+002    +3.8459774e-007    +1.1449107e-007
+5.7000000e+002    +4.2820983e-007    +1.0729820e-007
+5.7100000e+002    +4.8340314e-007    +1.0578047e-007
+5.7200000e+002    +5.3203678e-007    +1.1203202e-007
+5.7300000e+002    +5.8771587e-007    +1.1867492e-007
+5.7400000e+002    +7.1050522e-007    +1.1850682e-007
+5.7500000e+002    +7.2589722e-007    +1.1363084e-007
+5.7600000e+002    +7.2163306e-007    +1.0821155e-007
+5.7700000e+002    +7.1396636e-007    +1.1469817e-007
+5.7800000e+002    +7.9485187e-007    +1.1360589e-007
+5.7900000e+002    +7.4626706e-007    +1.1420218e-007
+5.8000000e+002    +5.8396523e-007    +1.1527488e-007
+5.8100000e+002    +4.2936045e-007    +1.2036537e-007
+5.8200000e+002    +4.0162772e-007    +1.1614551e-007
+5.8300000e+002    +3.8600223e-007    +1.1511867e-007
+5.8400000e+002    +3.5074925e-007    +1.1671784e-007
+5.8500000e+002    +3.3165068e-007    +1.1565724e-007
+5.8600000e+002    +3.0118159e-007    +1.1769276e-007
+5.8700000e+002    +2.9380783e-007    +1.2037039e-007
+5.8800000e+002    +2.6769334e-007    +1.1327570e-007
+5.8900000e+002    +2.3469066e-007    +1.1607374e-007
+5.9000000e+002    +2.0207138e-007    +1.1828102e-007
+5.9100000e+002    +1.7082468e-007    +1.1519188e-007
+5.9200000e+002    +1.6127011e-007    +1.1401638e-007
+5.9300000e+002    +1.6445183e-007    +1.1970667e-007
+5.9400000e+002    +1.7139864e-007    +1.2151369e-007
+5.9500000e+002    +1.6366718e-007    +1.2390508e-007
+5.9600000e+002    +1.5235494e-007    +1.2170463e-007
+5.9700000e+002    +1.4210094e-007    +1.3090917e-007
+5.9800000e+002    +1.4798331e-007    +1.2908934e-007
+5.9900000e+002    +1.4279411e-007    +1.2012707e-007
+6.0000000e+002    +1.4102088e-007    +1.2340925e-007
+6.0100000e+002    +1.7825604e-007    +1.2844690e-007
+6.0200000e+002    +2.7170628e-007    +1.2098080e-007
+6.0300000e+002    +2.8272240e-007    +1.1824168e-007
+6.0400000e+002    +3.2985491e-007    +1.1588324e-007
+6.0500000e+002    +3.3080480e-007    +1.2512743e-007
+6.0600000e+002    +2.4574453e-007    +1.2612813e-007
+6.0700000e+002    +1.5873985e-007    +1.2133532e-007
+6.0800000e+002    +9.9424796e-008    +1.1836248e-007
+6.0900000e+002    +8.0482799e-008    +1.2727455e-007
+6.1000000e+002    +7.6464872e-008    +1.3069045e-007
+6.1100000e+002    +6.8693097e-008    +1.2908524e-007
+6.1200000e+002    +6.4173591e-008    +1.2803477e-007
+6.1300000e+002    +7.1602784e-008    +1.2819527e-007
+6.1400000e+002    +6.9022043e-008    +1.2246130e-007
+6.1500000e+002    +5.3505193e-008    +1.1669400e-007
+6.1600000e+002    +5.7444979e-008    +1.2612786e-007
+6.1700000e+002    +5.4631961e-008    +1.2592777e-007
+6.1800000e+002    +5.6212095e-008    +1.2704740e-007
+6.1900000e+002    +5.9274274e-008    +1.3117130e-007
+6.2000000e+002    +5.1559184e-008    +1.2992358e-007
+6.2100000e+002    +5.1579566e-008    +1.2638334e-007
+6.2200000e+002    +5.4248162e-008    +1.2246547e-007
+6.2300000e+002    +5.5360296e-008    +1.2010517e-007
+6.2400000e+002    +5.8841707e-008    +1.1838574e-007
+6.2500000e+002    +5.2493455e-008    +1.2185077e-007
+6.2600000e+002    +5.3420958e-008    +1.3067294e-007
+6.2700000e+002    +4.8475105e-008    +1.2902261e-007
+6.2800000e+002    +5.1418020e-008    +1.2780485e-007
+6.2900000e+002    +5.2597940e-008    +1.3528077e-007
+6.3000000e+002    +5.3328950e-008    +1.4449030e-007
+6.3100000e+002    +5.4116864e-008    +1.4980577e-007
+6.3200000e+002    +6.9177879e-008    +1.3567093e-007
+6.3300000e+002    +7.6862506e-008    +1.3203785e-007
+6.3400000e+002    +6.9697684e-008    +1.2620058e-007
+6.3500000e+002    +7.0280471e-008    +1.2381804e-007
+6.3600000e+002    +7.0712453e-008    +1.3177166e-007
+6.3700000e+002    +6.6518474e-008    +1.2739353e-007
+6.3800000e+002    +6.6221375e-008    +1.3159166e-007
+6.3900000e+002    +7.6468481e-008    +1.2695369e-007
+6.4000000e+002    +7.7550744e-008    +1.3402058e-007
+6.4100000e+002    +8.0305817e-008    +1.3215896e-007
+6.4200000e+002    +8.3149729e-008    +1.3040220e-007
+6.4300000e+002    +9.0836132e-008    +1.3049157e-007
+6.4400000e+002    +1.2133692e-007    +1.2673421e-007
+6.4500000e+002    +1.6203080e-007    +1.1918365e-007
+6.4600000e+002    +1.5328315e-007    +1.3035640e-007
+6.4700000e+002    +1.5441525e-007    +1.3000079e-007
+6.4800000e+002    +1.6724896e-007    +1.4104890e-007
+6.4900000e+002    +2.0422578e-007    +1.3650694e-007
+6.5000000e+002    +2.4612336e-007    +1.4010676e-007
+6.5100000e+002    +2.4053216e-007    +1.2679837e-007
+6.5200000e+002    +1.9140734e-007    +1.2686075e-007
+6.5300000e+002    +1.7259156e-007    +1.3497203e-007
+6.5400000e+002    +1.6982679e-007    +1.3771292e-007
+6.5500000e+002    +1.4593446e-007    +1.4085113e-007
+6.5600000e+002    +1.3326316e-007    +1.3054402e-007
+6.5700000e+002    +1.0751082e-007    +1.2480430e-007
+6.5800000e+002    +8.8815973e-008    +1.2992216e-007
+6.5900000e+002    +7.5003499e-008    +1.3020505e-007
+6.6000000e+002    +7.1787220e-008    +1.3718999e-007
+6.6100000e+002    +7.0914055e-008    +1.4011199e-007
+6.6200000e+002    +6.8041324e-008    +1.3533263e-007
+6.6300000e+002    +7.4710492e-008    +1.3275144e-007
+6.6400000e+002    +7.6952098e-008    +1.2955977e-007
+6.6500000e+002    +8.4804633e-008    +1.3262019e-007
+6.6600000e+002    +8.5380151e-008    +1.3879598e-007
+6.6700000e+002    +9.3768790e-008    +1.3054144e-007
+6.6800000e+002    +1.0816665e-007    +1.3404619e-007
+6.6900000e+002    +1.0845718e-007    +1.3431020e-007
+6.7000000e+002    +1.0970103e-007    +1.4132421e-007
+6.7100000e+002    +1.2290960e-007    +1.3540500e-007
+6.7200000e+002    +1.1363122e-007    +1.3974051e-007
+6.7300000e+002    +1.0022401e-007    +1.3671573e-007
+6.7400000e+002    +9.7324275e-008    +1.2558920e-007
+6.7500000e+002    +8.5399741e-008    +1.2914435e-007
+6.7600000e+002    +8.8338560e-008    +1.3639817e-007
+6.7700000e+002    +9.2384283e-008    +1.4096638e-007
+6.7800000e+002    +8.8765574e-008    +1.3441051e-007
+6.7900000e+002    +8.9284114e-008    +1.4659562e-007
+6.8000000e+002    +9.0878331e-008    +1.4534250e-007
+6.8100000e+002    +1.0249780e-007    +1.3859999e-007
+6.8200000e+002    +1.0731812e-007    +1.3791067e-007
+6.8300000e+002    +1.1485935e-007    +1.3299493e-007
+6.8400000e+002    +1.3257505e-007    +1.3765955e-007
+6.8500000e+002    +1.6349333e-007    +1.3503147e-007
+6.8600000e+002    +1.9681160e-007    +1.3834412e-007
+6.8700000e+002    +2.1851552e-007    +1.3970538e-007
+6.8800000e+002    +2.3947126e-007    +1.4330928e-007
+6.8900000e+002    +2.4313931e-007    +1.4074492e-007
+6.9000000e+002    +2.2695755e-007    +1.2992516e-007
+6.9100000e+002    +2.1986516e-007    +1.3052869e-007
+6.9200000e+002    +2.2718343e-007    +1.4219661e-007
+6.9300000e+002    +2.4048674e-007    +1.3628321e-007
+6.9400000e+002    +2.2306263e-007    +1.4031397e-007
+6.9500000e+002    +2.1096210e-007    +1.6326801e-007
+6.9600000e+002    +2.1956048e-007    +1.5962929e-007
+6.9700000e+002    +1.9273148e-007    +1.4029503e-007
+6.9800000e+002    +1.8455412e-007    +1.3856271e-007
+6.9900000e+002    +2.0011319e-007    +1.3267217e-007
+7.0000000e+002    +1.9472344e-007    +1.4496781e-007
+7.0100000e+002    +2.0495831e-007    +1.4936643e-007
+7.0200000e+002    +3.0373533e-007    +1.4728096e-007
+7.0300000e+002    +3.1068348e-007    +1.5267597e-007
+7.0400000e+002    +2.5226274e-007    +1.4758885e-007
+7.0500000e+002    +2.4101328e-007    +1.4029303e-007
+7.0600000e+002    +2.3679472e-007    +1.3662539e-007
+7.0700000e+002    +2.3175818e-007    +1.5674073e-007
+7.0800000e+002    +2.1776060e-007    +1.6819622e-007
+7.0900000e+002    +2.2538936e-007    +1.4303843e-007
+7.1000000e+002    +2.1875174e-007    +1.4840424e-007
+7.1100000e+002    +2.1311510e-007    +1.4313301e-007
+7.1200000e+002    +2.4010100e-007    +1.5239308e-007
+7.1300000e+002    +2.3621227e-007    +1.6331893e-007
+7.1400000e+002    +2.5231813e-007    +1.5468403e-007
+7.1500000e+002    +2.1663763e-007    +1.4513901e-007
+7.1600000e+002    +1.7863046e-007    +1.5039990e-007
+7.1700000e+002    +1.6894934e-007    +1.4993643e-007
+7.1800000e+002    +1.4493678e-007    +1.4491975e-007
+7.1900000e+002    +1.3887158e-007    +1.4780242e-007
+7.2000000e+002    +1.5677635e-007    +1.3781441e-007
+7.2100000e+002    +1.4935642e-007    +1.4358254e-007
+7.2200000e+002    +1.2482006e-007    +1.3733074e-007
+7.2300000e+002    +1.0656336e-007    +1.4968936e-007
+7.2400000e+002    +9.8494510e-008    +1.5763575e-007
+7.2500000e+002    +9.1481702e-008    +1.4409898e-007
+7.2600000e+002    +8.9212485e-008    +1.5564763e-007
+7.2700000e+002    +8.1330427e-008    +1.5009751e-007
+7.2800000e+002    +8.2630429e-008    +1.5247610e-007
+7.2900000e+002    +8.2313051e-008    +1.5351355e-007
+7.3000000e+002    +8.2401577e-008    +1.5061720e-007
+7.3100000e+002    +8.1825561e-008    +1.4716070e-007
+7.3200000e+002    +7.8255631e-008    +1.5072257e-007
+7.3300000e+002    +7.7061671e-008    +1.4925233e-007
+7.3400000e+002    +7.6257031e-008    +1.4486804e-007
+7.3500000e+002    +7.0943493e-008    +1.4882458e-007
+7.3600000e+002    +7.1303958e-008    +1.5756896e-007
+7.3700000e+002    +7.9514777e-008    +1.5391068e-007
+7.3800000e+002    +7.5073942e-008    +1.5162318e-007
+7.3900000e+002    +6.9477863e-008    +1.4792110e-007
+7.4000000e+002    +6.7642439e-008    +1.6423259e-007
+7.4100000e+002    +6.2049182e-008    +1.6114355e-007
+7.4200000e+002    +6.3845107e-008    +1.5239041e-007
+7.4300000e+002    +6.3351074e-008    +1.4895502e-007
+7.4400000e+002    +6.3909418e-008    +1.6329078e-007
+7.4500000e+002    +6.2151180e-008    +1.6970191e-007
+7.4600000e+002    +6.9204773e-008    +1.6960504e-007
+7.4700000e+002    +7.2101770e-008    +1.6559459e-007
+7.4800000e+002    +6.6046525e-008    +1.6024725e-007
+7.4900000e+002    +6.3976117e-008    +1.5838974e-007
+7.5000000e+002    +6.5621286e-008    +1.5825624e-007
+7.5100000e+002    +6.6164759e-008    +1.5621002e-007
+7.5200000e+002    +5.9914328e-008    +1.4093698e-007
+7.5300000e+002    +5.5218607e-008    +1.5773306e-007
+7.5400000e+002    +5.3405710e-008    +1.6223285e-007
+7.5500000e+002    +5.2517901e-008    +1.5038701e-007
+7.5600000e+002    +4.7355062e-008    +1.5059008e-007
+7.5700000e+002    +4.9544656e-008    +1.4894243e-007
+7.5800000e+002    +5.0276661e-008    +1.5922862e-007
+7.5900000e+002    +5.3241894e-008    +1.6431827e-007
+7.6000000e+002    +5.6304131e-008    +1.6000867e-007
+7.6100000e+002    +5.6349030e-008    +1.6481063e-007
+7.6200000e+002    +5.6083557e-008    +1.6630207e-007
+7.6300000e+002    +5.9364936e-008    +1.5646870e-007
+7.6400000e+002    +6.5142828e-008    +1.4821943e-007
+7.6500000e+002    +6.7314822e-008    +1.4900246e-007
+7.6600000e+002    +6.9815094e-008    +1.6077790e-007
+7.6700000e+002    +6.5489928e-008    +1.6096124e-007
+7.6800000e+002    +5.7310100e-008    +1.5697304e-007
+7.6900000e+002    +5.5777310e-008    +1.6049711e-007
+7.7000000e+002    +5.5306224e-008    +1.5251813e-007
+7.7100000e+002    +4.9187957e-008    +1.5818728e-007
+7.7200000e+002    +4.8336069e-008    +1.5350547e-007
+7.7300000e+002    +4.6705320e-008    +1.6460213e-007
+7.7400000e+002    +4.8638348e-008    +1.6567041e-007
+7.7500000e+002    +5.0568527e-008    +1.6309887e-007
+7.7600000e+002    +5.0560423e-008    +1.7273221e-007
+7.7700000e+002    +5.1925610e-008    +1.6586789e-007
+7.7800000e+002    +5.5732745e-008    +1.6031166e-007
+7.7900000e+002    +6.1488720e-008    +1.7663665e-007
+7.8000000e+002    +6.9210472e-008    +1.7880215e-007
+7.8100000e+002    +5.5377924e-008    +1.7054320e-007
+7.8200000e+002    +5.1344514e-008    +1.7505117e-007
+7.8300000e+002    +5.1669804e-008    +1.8340172e-007
+7.8400000e+002    +5.7890855e-008    +1.7211619e-007
+7.8500000e+002    +5.6986643e-008    +1.6979995e-007
+7.8600000e+002    +5.3879358e-008    +1.5942139e-007
+7.8700000e+002    +5.4331313e-008    +1.5653916e-007
+7.8800000e+002    +5.5502102e-008    +1.6765048e-007
+7.8900000e+002    +5.3103300e-008    +1.7082806e-007
+7.9000000e+002    +4.7107182e-008    +1.7037962e-007
+7.9100000e+002    +4.6395645e-008    +1.7113950e-007
+7.9200000e+002    +4.9877819e-008    +1.7306596e-007
+7.9300000e+002    +5.7014994e-008    +1.6887219e-007
+7.9400000e+002    +5.6078449e-008    +1.6694311e-007
+7.9500000e+002    +5.6859268e-008    +1.5931204e-007
+7.9600000e+002    +5.4937228e-008    +1.5329931e-007
+7.9700000e+002    +5.2338933e-008    +1.6535566e-007
+7.9800000e+002    +5.0090094e-008    +1.6923116e-007
+7.9900000e+002    +5.2509829e-008    +1.7257184e-007
#
#
# North DC Val: 0.8410798500000001 VoltsSouth DC Val: 0.5719140300000001 Volts
# SR785 Measurement - Timestamp: May 02 2020 - 02:57:50
# Parameter File: /home/controls/Git/cit_ctnlab/ctn_scripts/TransRINSpecShort.yml
#---------- Measurement Setup ------------
# Start Frequency (Hz): 0.000000
# Frequency Span (Hz): 102400.000000
# Frequency Resolution: 800
# Number of Averages: 100
# Averaging Mode: RMS
# Window function: Hanning
#---------- Measurement Parameters ----------
# Measurement Group:  "FFT" "FFT"
# Measurements:  "FFT 1" "FFT 2"
# View:  "Log Magnitude" "Log Magnitude"
# Unit:  "Vrms/rtHz" "Vrms/rtHz"
#---------- Input Parameters ----------
# Input Source: Analog
# Input Mode: Single ended, Single ended
# Input Grounding: Float, Float
# Input Coupling: AC, AC
# Input Range: -36.0dBVpk, -36.0dBVpk
# Auto Range: Off, Off
# Auto Range Mode: Tracking, Tracking
# Anti-Aliasing Filter: On, On
#---------- Source Parameters ----------
# Source Type: Sine
# Source Amplitude: 500.0mVpk
# Source On: 0

#---------- Measurement Data ----------
# [Freq(Hz) Display 0(Vrms/rtHz) Display 1(Vrms/rtHz) ]
+8.9600000e+002    +2.0574362e-007    +1.7370330e-007
+1.0240000e+003    +1.3266009e-007    +2.0068131e-007
+1.1520000e+003    +9.5859377e-008    +2.1960604e-007
+1.2800000e+003    +6.8078009e-008    +2.5617538e-007
+1.4080000e+003    +6.8418210e-008    +2.7807832e-007
+1.5360000e+003    +8.4060510e-008    +2.9441168e-007
+1.6640000e+003    +9.5406932e-008    +3.4939436e-007
+1.7920000e+003    +1.0462712e-007    +3.8405000e-007
+1.9200000e+003    +1.2818697e-007    +4.0313336e-007
+2.0480000e+003    +1.3268762e-007    +4.2916014e-007
+2.1760000e+003    +1.4058676e-007    +4.2108948e-007
+2.3040000e+003    +1.4429229e-007    +4.4867193e-007
+2.4320000e+003    +1.6175333e-007    +4.6079924e-007
+2.5600000e+003    +1.7961754e-007    +4.8807340e-007
+2.6880000e+003    +1.8840755e-007    +5.0543269e-007
+2.8160000e+003    +1.9794740e-007    +4.9343413e-007
+2.9440000e+003    +2.0736195e-007    +5.1161288e-007
+3.0720000e+003    +2.2665672e-007    +5.4149376e-007
+3.2000000e+003    +2.3820702e-007    +5.6845971e-007
+3.3280000e+003    +2.5065231e-007    +6.0146658e-007
+3.4560000e+003    +2.6119480e-007    +5.7421079e-007
+3.5840000e+003    +2.6862551e-007    +6.0323708e-007
+3.7120000e+003    +2.8194620e-007    +5.9370802e-007
+3.8400000e+003    +3.0748805e-007    +6.6482403e-007
+3.9680000e+003    +3.2136037e-007    +7.1774690e-007
+4.0960000e+003    +3.3959219e-007    +7.3904431e-007
+4.2240000e+003    +3.3374855e-007    +7.2086885e-007
+4.3520000e+003    +3.6058313e-007    +7.0352502e-007
+4.4800000e+003    +3.6571740e-007    +8.0970818e-007
+4.6080000e+003    +3.6820416e-007    +9.2539409e-007
+4.7360000e+003    +3.9112982e-007    +9.9971783e-007
+4.8640000e+003    +4.0542065e-007    +9.8866576e-007
+4.9920000e+003    +3.9096579e-007    +1.1479228e-006
+5.1200000e+003    +4.0657787e-007    +1.2255317e-006
+5.2480000e+003    +4.5241663e-007    +1.3046650e-006
+5.3760000e+003    +4.6636910e-007    +1.5146163e-006
+5.5040000e+003    +4.3940520e-007    +1.8210429e-006
+5.6320000e+003    +4.6822902e-007    +2.1802305e-006
+5.7600000e+003    +5.1621379e-007    +2.6248390e-006
+5.8880000e+003    +5.4657397e-007    +3.1176774e-006
+6.0160000e+003    +5.8556458e-007    +5.1835495e-006
+6.1440000e+003    +5.5378837e-007    +8.3376353e-006
+6.2720000e+003    +5.3451936e-007    +1.0337664e-005
+6.4000000e+003    +5.6616193e-007    +1.1738510e-005
+6.5280000e+003    +5.9515042e-007    +1.4338530e-005
+6.6560000e+003    +6.2280424e-007    +1.5659056e-005
+6.7840000e+003    +6.1420371e-007    +1.2922207e-005
+6.9120000e+003    +5.7558748e-007    +9.9576864e-006
+7.0400000e+003    +5.8704711e-007    +8.7367034e-006
+7.1680000e+003    +6.6365715e-007    +8.1847402e-006
+7.2960000e+003    +6.6797679e-007    +4.3934924e-006
+7.4240000e+003    +7.2457857e-007    +3.2162443e-006
+7.5520000e+003    +7.9500637e-007    +2.8467732e-006
+7.6800000e+003    +7.7698786e-007    +2.3493815e-006
+7.8080000e+003    +7.2748981e-007    +2.2654401e-006
+7.9360000e+003    +7.0914444e-007    +2.3135317e-006
+8.0640000e+003    +7.9136868e-007    +2.3273301e-006
+8.1920000e+003    +8.3991591e-007    +2.2730942e-006
+8.3200000e+003    +8.3287335e-007    +2.1847186e-006
+8.4480000e+003    +8.2246561e-007    +2.0098187e-006
+8.5760000e+003    +7.6172091e-007    +1.9111524e-006
+8.7040000e+003    +7.6947958e-007    +1.8168091e-006
+8.8320000e+003    +8.0103626e-007    +1.6808159e-006
+8.9600000e+003    +8.2187972e-007    +1.6704396e-006
+9.0880000e+003    +8.5793147e-007    +1.5748335e-006
+9.2160000e+003    +8.7531896e-007    +1.6092254e-006
+9.3440000e+003    +8.6229636e-007    +1.5185060e-006
+9.4720000e+003    +8.3984310e-007    +1.4713276e-006
+9.6000000e+003    +7.7149548e-007    +1.3696529e-006
+9.7280000e+003    +8.5593683e-007    +1.3482851e-006
+9.8560000e+003    +9.7092880e-007    +1.2741759e-006
+9.9840000e+003    +9.8651003e-007    +1.2775660e-006
+1.0112000e+004    +9.7614611e-007    +1.3300793e-006
+1.0240000e+004    +9.6954602e-007    +1.3429471e-006
+1.0368000e+004    +1.0508810e-006    +1.2697487e-006
+1.0496000e+004    +1.1051101e-006    +1.2169996e-006
+1.0624000e+004    +1.0194336e-006    +1.2289191e-006
+1.0752000e+004    +9.7824477e-007    +1.2449595e-006
+1.0880000e+004    +9.5945825e-007    +1.3011787e-006
+1.1008000e+004    +9.2528842e-007    +1.3149489e-006
+1.1136000e+004    +9.1789673e-007    +1.3303129e-006
+1.1264000e+004    +9.2919373e-007    +1.3124018e-006
+1.1392000e+004    +9.6969836e-007    +1.2870440e-006
+1.1520000e+004    +9.5070016e-007    +1.2660666e-006
+1.1648000e+004    +1.0583367e-006    +1.4570776e-006
+1.1776000e+004    +9.8676571e-007    +1.5092444e-006
+1.1904000e+004    +1.0067532e-006    +1.6531372e-006
+1.2032000e+004    +1.0484607e-006    +1.8938462e-006
+1.2160000e+004    +1.0316948e-006    +2.5513232e-006
+1.2288000e+004    +9.7489396e-007    +3.1791410e-006
+1.2416000e+004    +9.5166200e-007    +3.0383271e-006
+1.2544000e+004    +9.9434624e-007    +3.7281520e-006
+1.2672000e+004    +9.9748013e-007    +4.0698610e-006
+1.2800000e+004    +9.5441089e-007    +3.9615975e-006
+1.2928000e+004    +9.7859493e-007    +4.3955670e-006
+1.3056000e+004    +1.0993326e-006    +5.4775387e-006
+1.3184000e+004    +1.1275739e-006    +5.9670633e-006
+1.3312000e+004    +1.0411271e-006    +5.8692722e-006
+1.3440000e+004    +1.0392381e-006    +6.0736816e-006
+1.3568000e+004    +1.0139248e-006    +4.9099413e-006
+1.3696000e+004    +1.0980491e-006    +4.4513758e-006
+1.3824000e+004    +1.0889246e-006    +4.3522882e-006
+1.3952000e+004    +1.0753562e-006    +4.1234262e-006
+1.4080000e+004    +1.0049100e-006    +3.4969946e-006
+1.4208000e+004    +1.0724826e-006    +4.2244633e-006
+1.4336000e+004    +1.0180499e-006    +3.9873657e-006
+1.4464000e+004    +1.0115920e-006    +2.7471226e-006
+1.4592000e+004    +1.0673972e-006    +2.0105733e-006
+1.4720000e+004    +1.0422983e-006    +2.0460980e-006
+1.4848000e+004    +9.6447945e-007    +2.0726725e-006
+1.4976000e+004    +9.7777013e-007    +2.1467920e-006
+1.5104000e+004    +9.7507382e-007    +1.8989163e-006
+1.5232000e+004    +9.8730322e-007    +1.6758828e-006
+1.5360000e+004    +9.3347211e-007    +1.6170894e-006
+1.5488000e+004    +8.9193776e-007    +1.4600835e-006
+1.5616000e+004    +8.8730400e-007    +1.3935701e-006
+1.5744000e+004    +8.9456518e-007    +1.6755166e-006
+1.5872000e+004    +8.7018657e-007    +1.5917758e-006
+1.6000000e+004    +9.5991345e-007    +1.3591546e-006
+1.6128000e+004    +1.0161393e-006    +1.1724496e-006
+1.6256000e+004    +9.3463922e-007    +1.1564340e-006
+1.6384000e+004    +9.3569372e-007    +1.1585818e-006
+1.6512000e+004    +9.1090408e-007    +1.1485405e-006
+1.6640000e+004    +8.9862891e-007    +1.1733832e-006
+1.6768000e+004    +9.0903876e-007    +1.1365954e-006
+1.6896000e+004    +8.8119725e-007    +1.1404805e-006
+1.7024000e+004    +8.4779219e-007    +1.1122115e-006
+1.7152000e+004    +8.2198892e-007    +1.0827645e-006
+1.7280000e+004    +8.7399656e-007    +1.1566968e-006
+1.7408000e+004    +9.4656826e-007    +1.2170624e-006
+1.7536000e+004    +8.8863186e-007    +1.1107032e-006
+1.7664000e+004    +8.2687063e-007    +1.0982046e-006
+1.7792000e+004    +8.5930407e-007    +1.0871374e-006
+1.7920000e+004    +8.3274898e-007    +1.0588853e-006
+1.8048000e+004    +8.7137596e-007    +1.1284260e-006
+1.8176000e+004    +9.0218492e-007    +1.1138796e-006
+1.8304000e+004    +8.9336578e-007    +1.2663905e-006
+1.8432000e+004    +8.2528879e-007    +1.3949340e-006
+1.8560000e+004    +8.2970985e-007    +1.4760992e-006
+1.8688000e+004    +8.2887669e-007    +1.6171249e-006
+1.8816000e+004    +7.5712745e-007    +1.5323536e-006
+1.8944000e+004    +7.5014617e-007    +1.8231616e-006
+1.9072000e+004    +8.1763955e-007    +1.7923240e-006
+1.9200000e+004    +7.9123225e-007    +1.7653427e-006
+1.9328000e+004    +7.8793619e-007    +1.7470095e-006
+1.9456000e+004    +8.0010454e-007    +1.8839639e-006
+1.9584000e+004    +8.8873821e-007    +2.1015412e-006
+1.9712000e+004    +8.1943972e-007    +2.2907050e-006
+1.9840000e+004    +7.7915092e-007    +2.5265911e-006
+1.9968000e+004    +7.2970971e-007    +2.5124855e-006
+2.0096000e+004    +7.1708212e-007    +2.3683763e-006
+2.0224000e+004    +7.1380725e-007    +2.0859322e-006
+2.0352000e+004    +7.6699803e-007    +1.9100426e-006
+2.0480000e+004    +7.7387097e-007    +1.6459146e-006
+2.0608000e+004    +7.8890054e-007    +1.9248932e-006
+2.0736000e+004    +7.7329082e-007    +1.9481838e-006
+2.0864000e+004    +7.2490167e-007    +1.6933841e-006
+2.0992000e+004    +6.8525867e-007    +1.5634163e-006
+2.1120000e+004    +7.1549584e-007    +1.5471376e-006
+2.1248000e+004    +7.2470829e-007    +1.4557822e-006
+2.1376000e+004    +7.3339163e-007    +2.1358267e-006
+2.1504000e+004    +7.7514312e-007    +2.0442544e-006
+2.1632000e+004    +7.3361792e-007    +1.4094038e-006
+2.1760000e+004    +7.6232919e-007    +1.2213487e-006
+2.1888000e+004    +7.6838455e-007    +1.2954866e-006
+2.2016000e+004    +6.8461043e-007    +1.0776586e-006
+2.2144000e+004    +6.6391146e-007    +1.0162541e-006
+2.2272000e+004    +6.6587234e-007    +1.0941991e-006
+2.2400000e+004    +6.7038968e-007    +9.7318400e-007
+2.2528000e+004    +7.0849541e-007    +9.5091832e-007
+2.2656000e+004    +6.7028662e-007    +8.6761457e-007
+2.2784000e+004    +6.7284822e-007    +9.4699658e-007
+2.2912000e+004    +6.8797488e-007    +1.0110346e-006
+2.3040000e+004    +7.3599631e-007    +9.0347953e-007
+2.3168000e+004    +7.4841284e-007    +7.3046880e-007
+2.3296000e+004    +6.8898783e-007    +7.5697949e-007
+2.3424000e+004    +6.2762388e-007    +8.4439307e-007
+2.3552000e+004    +6.4769262e-007    +9.0719914e-007
+2.3680000e+004    +7.3711317e-007    +8.8455221e-007
+2.3808000e+004    +7.5137854e-007    +8.1963947e-007
+2.3936000e+004    +7.0857629e-007    +8.2476612e-007
+2.4064000e+004    +6.9705106e-007    +7.7196324e-007
+2.4192000e+004    +7.8101812e-007    +8.1429698e-007
+2.4320000e+004    +7.4184089e-007    +8.7477900e-007
+2.4448000e+004    +6.7017481e-007    +9.2713418e-007
+2.4576000e+004    +6.0122164e-007    +8.9456421e-007
+2.4704000e+004    +5.8453230e-007    +8.4605330e-007
+2.4832000e+004    +6.0964578e-007    +9.6887993e-007
+2.4960000e+004    +6.3675623e-007    +9.2145416e-007
+2.5088000e+004    +6.1870333e-007    +9.3853043e-007
+2.5216000e+004    +6.0876351e-007    +9.2633945e-007
+2.5344000e+004    +6.1597245e-007    +9.8006694e-007
+2.5472000e+004    +6.4742954e-007    +9.7985821e-007
+2.5600000e+004    +6.5907659e-007    +9.2115675e-007
+2.5728000e+004    +6.3203373e-007    +1.0248779e-006
+2.5856000e+004    +6.4146542e-007    +1.0183596e-006
+2.5984000e+004    +6.4200583e-007    +8.9217968e-007
+2.6112000e+004    +6.3169517e-007    +9.5060517e-007
+2.6240000e+004    +6.0020460e-007    +1.1134957e-006
+2.6368000e+004    +5.6404184e-007    +1.1030081e-006
+2.6496000e+004    +5.3442193e-007    +1.1142014e-006
+2.6624000e+004    +5.8210367e-007    +1.1203275e-006
+2.6752000e+004    +5.7672929e-007    +1.0920088e-006
+2.6880000e+004    +5.5975659e-007    +9.4593037e-007
+2.7008000e+004    +6.0172357e-007    +9.0435191e-007
+2.7136000e+004    +6.0178502e-007    +9.2982242e-007
+2.7264000e+004    +5.6616130e-007    +9.6906183e-007
+2.7392000e+004    +5.5598349e-007    +9.9998897e-007
+2.7520000e+004    +6.2578323e-007    +9.4036125e-007
+2.7648000e+004    +6.1627145e-007    +8.7564382e-007
+2.7776000e+004    +6.1907230e-007    +8.5162378e-007
+2.7904000e+004    +6.0121965e-007    +8.5424784e-007
+2.8032000e+004    +5.8617951e-007    +8.7753125e-007
+2.8160000e+004    +6.1835766e-007    +8.8195998e-007
+2.8288000e+004    +5.9326425e-007    +8.9699154e-007
+2.8416000e+004    +5.6601215e-007    +9.3135401e-007
+2.8544000e+004    +5.3845179e-007    +9.8415592e-007
+2.8672000e+004    +5.4936561e-007    +8.6400883e-007
+2.8800000e+004    +6.1054607e-007    +8.5174725e-007
+2.8928000e+004    +5.6216106e-007    +8.7219149e-007
+2.9056000e+004    +5.2756701e-007    +7.8890747e-007
+2.9184000e+004    +5.0939326e-007    +7.9072510e-007
+2.9312000e+004    +5.2160232e-007    +8.1245724e-007
+2.9440000e+004    +5.1628234e-007    +7.9479338e-007
+2.9568000e+004    +5.3220970e-007    +7.9430049e-007
+2.9696000e+004    +5.3058716e-007    +7.6346083e-007
+2.9824000e+004    +5.2409143e-007    +7.7517291e-007
+2.9952000e+004    +5.5386317e-007    +7.7886955e-007
+3.0080000e+004    +5.5885630e-007    +8.2475708e-007
+3.0208000e+004    +4.9144717e-007    +8.1441050e-007
+3.0336000e+004    +5.0135378e-007    +8.1840119e-007
+3.0464000e+004    +5.2424571e-007    +7.9067644e-007
+3.0592000e+004    +5.3723880e-007    +7.2028655e-007
+3.0720000e+004    +5.6991087e-007    +8.1591770e-007
+3.0848000e+004    +5.6539784e-007    +8.2842632e-007
+3.0976000e+004    +4.8234972e-007    +8.3533320e-007
+3.1104000e+004    +4.9883954e-007    +8.2350743e-007
+3.1232000e+004    +5.6505343e-007    +8.7969596e-007
+3.1360000e+004    +5.5554352e-007    +8.7696969e-007
+3.1488000e+004    +5.6326763e-007    +8.6819301e-007
+3.1616000e+004    +5.6064658e-007    +8.4819533e-007
+3.1744000e+004    +5.4931741e-007    +7.6710330e-007
+3.1872000e+004    +4.9941713e-007    +8.0185731e-007
+3.2000000e+004    +4.9884937e-007    +8.4963449e-007
+3.2128000e+004    +5.0214322e-007    +8.4498572e-007
+3.2256000e+004    +5.0857955e-007    +9.0587633e-007
+3.2384000e+004    +5.1785838e-007    +9.2769216e-007
+3.2512000e+004    +5.2539588e-007    +8.6519833e-007
+3.2640000e+004    +5.2482449e-007    +8.2534768e-007
+3.2768000e+004    +5.3269025e-007    +8.6822064e-007
+3.2896000e+004    +4.6127457e-007    +9.2817203e-007
+3.3024000e+004    +4.9538346e-007    +9.2504871e-007
+3.3152000e+004    +5.1990190e-007    +9.3727613e-007
+3.3280000e+004    +4.8387892e-007    +9.2135701e-007
+3.3408000e+004    +5.0969481e-007    +9.5631685e-007
+3.3536000e+004    +5.1811600e-007    +8.9341773e-007
+3.3664000e+004    +5.2070851e-007    +8.3994451e-007
+3.3792000e+004    +4.9485726e-007    +9.2446891e-007
+3.3920000e+004    +5.0004263e-007    +8.7142570e-007
+3.4048000e+004    +5.3094436e-007    +8.7814232e-007
+3.4176000e+004    +5.1868119e-007    +8.7217427e-007
+3.4304000e+004    +5.1164096e-007    +8.3429103e-007
+3.4432000e+004    +4.9867083e-007    +9.2415939e-007
+3.4560000e+004    +5.2057192e-007    +8.6923933e-007
+3.4688000e+004    +5.2648551e-007    +8.6722218e-007
+3.4816000e+004    +5.1311321e-007    +9.1643557e-007
+3.4944000e+004    +4.9162094e-007    +8.8860162e-007
+3.5072000e+004    +4.8507098e-007    +8.9089053e-007
+3.5200000e+004    +5.2655491e-007    +8.9541521e-007
+3.5328000e+004    +5.2448979e-007    +9.9850240e-007
+3.5456000e+004    +4.7734676e-007    +9.7048974e-007
+3.5584000e+004    +5.1664983e-007    +9.0298369e-007
+3.5712000e+004    +4.9249451e-007    +9.3996181e-007
+3.5840000e+004    +4.8680232e-007    +9.6117276e-007
+3.5968000e+004    +4.7662976e-007    +9.8140220e-007
+3.6096000e+004    +4.5830365e-007    +9.0248710e-007
+3.6224000e+004    +4.7385643e-007    +8.8016645e-007
+3.6352000e+004    +5.4499196e-007    +9.0197096e-007
+3.6480000e+004    +4.8266702e-007    +9.5188460e-007
+3.6608000e+004    +4.6085287e-007    +9.1708881e-007
+3.6736000e+004    +5.0656774e-007    +8.7881455e-007
+3.6864000e+004    +4.8874477e-007    +7.9610084e-007
+3.6992000e+004    +4.8688946e-007    +7.6693061e-007
+3.7120000e+004    +5.1194775e-007    +8.3271971e-007
+3.7248000e+004    +4.7304863e-007    +8.7259951e-007
+3.7376000e+004    +5.0633753e-007    +8.9956768e-007
+3.7504000e+004    +5.1275106e-007    +8.7219917e-007
+3.7632000e+004    +4.6908781e-007    +9.0857577e-007
+3.7760000e+004    +4.7872607e-007    +1.0101990e-006
+3.7888000e+004    +4.4690591e-007    +9.9203442e-007
+3.8016000e+004    +4.6588190e-007    +8.8053474e-007
+3.8144000e+004    +4.9737491e-007    +8.8001860e-007
+3.8272000e+004    +4.8871260e-007    +9.1121518e-007
+3.8400000e+004    +4.6634352e-007    +8.5161162e-007
+3.8528000e+004    +4.2888834e-007    +8.4674474e-007
+3.8656000e+004    +4.5008997e-007    +8.8350197e-007
+3.8784000e+004    +4.6443247e-007    +9.4465895e-007
+3.8912000e+004    +4.7353606e-007    +9.4324110e-007
+3.9040000e+004    +4.5896584e-007    +9.7697068e-007
+3.9168000e+004    +4.7340973e-007    +9.4913253e-007
+3.9296000e+004    +4.8577402e-007    +8.8475326e-007
+3.9424000e+004    +4.8708569e-007    +9.0841218e-007
+3.9552000e+004    +4.9115101e-007    +9.1703242e-007
+3.9680000e+004    +4.7191668e-007    +8.7544197e-007
+3.9808000e+004    +4.5203976e-007    +9.5790995e-007
+3.9936000e+004    +4.2947124e-007    +9.6377028e-007
+4.0064000e+004    +4.8491870e-007    +9.8268538e-007
+4.0192000e+004    +4.8811467e-007    +9.3624556e-007
+4.0320000e+004    +4.6601644e-007    +8.9933860e-007
+4.0448000e+004    +4.5299919e-007    +9.4384097e-007
+4.0576000e+004    +4.4362309e-007    +9.2286251e-007
+4.0704000e+004    +4.3378091e-007    +9.5681253e-007
+4.0832000e+004    +4.6926090e-007    +8.9362476e-007
+4.0960000e+004    +4.5869530e-007    +8.9259220e-007
+4.1088000e+004    +4.0981374e-007    +9.2370084e-007
+4.1216000e+004    +4.4741751e-007    +8.7800538e-007
+4.1344000e+004    +4.3483189e-007    +8.5441570e-007
+4.1472000e+004    +4.7271323e-007    +9.8015414e-007
+4.1600000e+004    +4.5930005e-007    +9.8944111e-007
+4.1728000e+004    +4.3401340e-007    +9.6235965e-007
+4.1856000e+004    +4.3955575e-007    +9.8878081e-007
+4.1984000e+004    +4.1405386e-007    +9.0097427e-007
+4.2112000e+004    +3.8929824e-007    +9.2443946e-007
+4.2240000e+004    +4.4506768e-007    +1.0002746e-006
+4.2368000e+004    +4.4391300e-007    +9.8917383e-007
+4.2496000e+004    +4.2113479e-007    +9.6741508e-007
+4.2624000e+004    +4.3620955e-007    +9.3928605e-007
+4.2752000e+004    +3.9048916e-007    +9.7343514e-007
+4.2880000e+004    +4.3380092e-007    +9.9069223e-007
+4.3008000e+004    +4.2793960e-007    +9.8717317e-007
+4.3136000e+004    +4.3481137e-007    +8.9684778e-007
+4.3264000e+004    +4.2685323e-007    +8.7015411e-007
+4.3392000e+004    +4.0572701e-007    +8.5004132e-007
+4.3520000e+004    +4.0480595e-007    +8.9035075e-007
+4.3648000e+004    +4.2782167e-007    +8.8025922e-007
+4.3776000e+004    +4.0223051e-007    +8.5956833e-007
+4.3904000e+004    +4.1199732e-007    +8.4991530e-007
+4.4032000e+004    +4.5442840e-007    +8.8112949e-007
+4.4160000e+004    +4.2779209e-007    +8.6464183e-007
+4.4288000e+004    +4.3150698e-007    +9.1339984e-007
+4.4416000e+004    +4.2580567e-007    +9.6230895e-007
+4.4544000e+004    +4.1600603e-007    +9.5699852e-007
+4.4672000e+004    +4.1583249e-007    +9.2443037e-007
+4.4800000e+004    +4.2230349e-007    +9.3697980e-007
+4.4928000e+004    +4.0463797e-007    +9.5413111e-007
+4.5056000e+004    +3.8740760e-007    +9.6894803e-007
+4.5184000e+004    +4.0460731e-007    +9.5979544e-007
+4.5312000e+004    +3.9683584e-007    +9.2525590e-007
+4.5440000e+004    +4.1979462e-007    +1.0109002e-006
+4.5568000e+004    +4.2075442e-007    +1.0414152e-006
+4.5696000e+004    +4.0516167e-007    +8.7732604e-007
+4.5824000e+004    +4.0868275e-007    +8.5780999e-007
+4.5952000e+004    +4.0673279e-007    +9.3769609e-007
+4.6080000e+004    +4.1392295e-007    +1.0006172e-006
+4.6208000e+004    +3.9341293e-007    +9.5838016e-007
+4.6336000e+004    +3.8270514e-007    +9.8097235e-007
+4.6464000e+004    +4.2997846e-007    +9.5366084e-007
+4.6592000e+004    +4.3401960e-007    +9.6625377e-007
+4.6720000e+004    +4.0953799e-007    +1.0369096e-006
+4.6848000e+004    +4.0840061e-007    +1.0101014e-006
+4.6976000e+004    +4.1267640e-007    +9.5011995e-007
+4.7104000e+004    +4.2379170e-007    +9.8369139e-007
+4.7232000e+004    +4.0451758e-007    +8.7397927e-007
+4.7360000e+004    +4.1589459e-007    +9.6169106e-007
+4.7488000e+004    +4.0904007e-007    +9.5134754e-007
+4.7616000e+004    +4.5052704e-007    +9.6311544e-007
+4.7744000e+004    +4.7337855e-007    +9.8492023e-007
+4.7872000e+004    +4.4736544e-007    +9.5529890e-007
+4.8000000e+004    +4.2237582e-007    +9.2488824e-007
+4.8128000e+004    +4.2841771e-007    +1.0112333e-006
+4.8256000e+004    +3.9470268e-007    +9.6509382e-007
+4.8384000e+004    +3.9238881e-007    +9.3355106e-007
+4.8512000e+004    +4.0165327e-007    +9.7524730e-007
+4.8640000e+004    +4.3714735e-007    +9.5378448e-007
+4.8768000e+004    +4.7724347e-007    +1.0289176e-006
+4.8896000e+004    +4.5962241e-007    +1.0128000e-006
+4.9024000e+004    +4.4201232e-007    +1.0040486e-006
+4.9152000e+004    +4.2153357e-007    +1.0258066e-006
+4.9280000e+004    +4.1714628e-007    +1.0927740e-006
+4.9408000e+004    +4.2964433e-007    +1.0238487e-006
+4.9536000e+004    +4.1134510e-007    +1.0636850e-006
+4.9664000e+004    +4.2605865e-007    +1.0248418e-006
+4.9792000e+004    +4.2289554e-007    +1.0407979e-006
+4.9920000e+004    +4.3072598e-007    +1.1121822e-006
+5.0048000e+004    +4.2836692e-007    +1.1290407e-006
+5.0176000e+004    +4.0247306e-007    +1.1314332e-006
+5.0304000e+004    +3.8370356e-007    +1.0781982e-006
+5.0432000e+004    +3.9971843e-007    +9.3906436e-007
+5.0560000e+004    +4.1693610e-007    +9.7588782e-007
+5.0688000e+004    +4.0026302e-007    +1.0178678e-006
+5.0816000e+004    +4.1919446e-007    +1.0886652e-006
+5.0944000e+004    +4.0418638e-007    +1.0858598e-006
+5.1072000e+004    +3.9086879e-007    +1.0608578e-006
+5.1200000e+004    +3.9243750e-007    +1.1351549e-006
+5.1328000e+004    +4.0981868e-007    +1.0796399e-006
+5.1456000e+004    +4.3253772e-007    +1.0641569e-006
+5.1584000e+004    +4.1378937e-007    +1.2245149e-006
+5.1712000e+004    +4.1698280e-007    +1.1250091e-006
+5.1840000e+004    +3.9315299e-007    +9.8654039e-007
+5.1968000e+004    +3.8437230e-007    +9.3751390e-007
+5.2096000e+004    +4.0503224e-007    +1.0849184e-006
+5.2224000e+004    +4.1564033e-007    +1.0923685e-006
+5.2352000e+004    +3.9892925e-007    +1.0180210e-006
+5.2480000e+004    +4.1065377e-007    +1.0942459e-006
+5.2608000e+004    +3.8342856e-007    +1.1961037e-006
+5.2736000e+004    +3.8322653e-007    +1.1239041e-006
+5.2864000e+004    +3.8943847e-007    +1.0251040e-006
+5.2992000e+004    +4.1018151e-007    +1.0551043e-006
+5.3120000e+004    +4.1751696e-007    +1.0664155e-006
+5.3248000e+004    +4.0074013e-007    +9.9015836e-007
+5.3376000e+004    +3.8654170e-007    +1.0108992e-006
+5.3504000e+004    +3.7800410e-007    +1.0932648e-006
+5.3632000e+004    +3.9536891e-007    +1.1810830e-006
+5.3760000e+004    +3.8171140e-007    +1.1244151e-006
+5.3888000e+004    +3.7233619e-007    +1.1341670e-006
+5.4016000e+004    +3.8750503e-007    +1.1986765e-006
+5.4144000e+004    +3.9565595e-007    +1.0535068e-006
+5.4272000e+004    +3.9289839e-007    +1.0068946e-006
+5.4400000e+004    +3.6595762e-007    +1.0590982e-006
+5.4528000e+004    +3.7864007e-007    +1.1270849e-006
+5.4656000e+004    +3.7711865e-007    +1.0913723e-006
+5.4784000e+004    +3.7625341e-007    +1.0413797e-006
+5.4912000e+004    +3.7780163e-007    +1.1692036e-006
+5.5040000e+004    +4.1870689e-007    +1.1621478e-006
+5.5168000e+004    +5.5892502e-007    +1.1261362e-006
+5.5296000e+004    +4.3195448e-007    +1.1481699e-006
+5.5424000e+004    +4.7057193e-007    +1.2131454e-006
+5.5552000e+004    +9.8642886e-007    +1.2316167e-006
+5.5680000e+004    +7.7512948e-007    +1.4802946e-006
+5.5808000e+004    +3.6042917e-007    +1.3111386e-006
+5.5936000e+004    +3.6740457e-007    +1.1678270e-006
+5.6064000e+004    +3.7770542e-007    +1.1661011e-006
+5.6192000e+004    +3.6918379e-007    +1.1362160e-006
+5.6320000e+004    +3.8581155e-007    +1.1240497e-006
+5.6448000e+004    +4.0400536e-007    +1.1526121e-006
+5.6576000e+004    +3.8318825e-007    +1.1781779e-006
+5.6704000e+004    +3.5156700e-007    +1.1396019e-006
+5.6832000e+004    +3.5470447e-007    +1.1145587e-006
+5.6960000e+004    +3.3838629e-007    +1.1655175e-006
+5.7088000e+004    +3.8089377e-007    +1.1961378e-006
+5.7216000e+004    +3.6474376e-007    +1.1768527e-006
+5.7344000e+004    +3.6767614e-007    +1.1167133e-006
+5.7472000e+004    +3.7426585e-007    +1.0981769e-006
+5.7600000e+004    +3.5551389e-007    +1.2253219e-006
+5.7728000e+004    +3.5963856e-007    +1.1878703e-006
+5.7856000e+004    +3.5877798e-007    +1.1126073e-006
+5.7984000e+004    +3.3917300e-007    +1.1956532e-006
+5.8112000e+004    +3.4743994e-007    +1.2121454e-006
+5.8240000e+004    +3.5766530e-007    +1.2481335e-006
+5.8368000e+004    +3.6274210e-007    +1.3036785e-006
+5.8496000e+004    +3.5870394e-007    +1.2239113e-006
+5.8624000e+004    +3.7808050e-007    +1.1844230e-006
+5.8752000e+004    +3.9468406e-007    +1.3119407e-006
+5.8880000e+004    +3.7450016e-007    +1.2041759e-006
+5.9008000e+004    +3.4626279e-007    +1.1933816e-006
+5.9136000e+004    +3.3453659e-007    +1.2333718e-006
+5.9264000e+004    +3.4168249e-007    +1.2744501e-006
+5.9392000e+004    +3.4076163e-007    +1.2967305e-006
+5.9520000e+004    +3.4472609e-007    +1.2481979e-006
+5.9648000e+004    +3.5818405e-007    +1.2151877e-006
+5.9776000e+004    +3.4775439e-007    +1.1662062e-006
+5.9904000e+004    +3.5418688e-007    +1.2644039e-006
+6.0032000e+004    +3.7162758e-007    +1.2473827e-006
+6.0160000e+004    +3.3053757e-007    +1.2727036e-006
+6.0288000e+004    +3.5275443e-007    +1.2414911e-006
+6.0416000e+004    +3.5883590e-007    +1.2437122e-006
+6.0544000e+004    +3.7523031e-007    +1.2429164e-006
+6.0672000e+004    +3.4820064e-007    +1.2834569e-006
+6.0800000e+004    +3.5477458e-007    +1.3659809e-006
+6.0928000e+004    +3.6448955e-007    +1.2796000e-006
+6.1056000e+004    +3.6489598e-007    +1.2553681e-006
+6.1184000e+004    +3.7780330e-007    +1.3067150e-006
+6.1312000e+004    +3.4965302e-007    +1.2807695e-006
+6.1440000e+004    +3.6200484e-007    +1.2516191e-006
+6.1568000e+004    +3.7116109e-007    +1.2695731e-006
+6.1696000e+004    +3.6282017e-007    +1.3413614e-006
+6.1824000e+004    +3.7525831e-007    +1.1862332e-006
+6.1952000e+004    +3.7033189e-007    +1.3084264e-006
+6.2080000e+004    +3.4805961e-007    +1.3231344e-006
+6.2208000e+004    +3.3324579e-007    +1.2574843e-006
+6.2336000e+004    +3.3808732e-007    +1.2443869e-006
+6.2464000e+004    +3.5051863e-007    +1.3104823e-006
+6.2592000e+004    +3.3760659e-007    +1.2548279e-006
+6.2720000e+004    +3.2735821e-007    +1.3051164e-006
+6.2848000e+004    +3.5766254e-007    +1.2997366e-006
+6.2976000e+004    +3.5534845e-007    +1.3322848e-006
+6.3104000e+004    +3.6255656e-007    +1.4429181e-006
+6.3232000e+004    +3.6524230e-007    +1.3282580e-006
+6.3360000e+004    +3.4952865e-007    +1.3785602e-006
+6.3488000e+004    +3.2410051e-007    +1.2931532e-006
+6.3616000e+004    +3.2522232e-007    +1.3290750e-006
+6.3744000e+004    +3.4025092e-007    +1.2856881e-006
+6.3872000e+004    +3.5367160e-007    +1.2784135e-006
+6.4000000e+004    +3.4431378e-007    +1.2446357e-006
+6.4128000e+004    +3.4576018e-007    +1.3884079e-006
+6.4256000e+004    +3.2951610e-007    +1.3292632e-006
+6.4384000e+004    +3.3476735e-007    +1.3945282e-006
+6.4512000e+004    +3.4365812e-007    +1.4460123e-006
+6.4640000e+004    +3.5590017e-007    +1.4622541e-006
+6.4768000e+004    +3.5176933e-007    +1.5644706e-006
+6.4896000e+004    +3.4860233e-007    +1.5035300e-006
+6.5024000e+004    +3.4623162e-007    +1.5240714e-006
+6.5152000e+004    +3.2470780e-007    +1.4522972e-006
+6.5280000e+004    +3.4583837e-007    +1.2873605e-006
+6.5408000e+004    +3.4008733e-007    +1.2400197e-006
+6.5536000e+004    +3.2524159e-007    +1.4159291e-006
+6.5664000e+004    +3.3711729e-007    +1.4485596e-006
+6.5792000e+004    +3.6336715e-007    +1.4098124e-006
+6.5920000e+004    +3.5741601e-007    +1.3539801e-006
+6.6048000e+004    +3.4520900e-007    +1.3553828e-006
+6.6176000e+004    +3.6062866e-007    +1.3706488e-006
+6.6304000e+004    +3.4315025e-007    +1.4122603e-006
+6.6432000e+004    +3.4049123e-007    +1.4339554e-006
+6.6560000e+004    +3.5277185e-007    +1.5355081e-006
+6.6688000e+004    +3.4069353e-007    +1.4385427e-006
+6.6816000e+004    +3.3012012e-007    +1.2952776e-006
+6.6944000e+004    +3.3629988e-007    +1.3752646e-006
+6.7072000e+004    +3.5435065e-007    +1.4483480e-006
+6.7200000e+004    +3.6226371e-007    +1.4646370e-006
+6.7328000e+004    +3.5232324e-007    +1.4856728e-006
+6.7456000e+004    +3.2349791e-007    +1.5100649e-006
+6.7584000e+004    +3.4887302e-007    +1.4499631e-006
+6.7712000e+004    +3.3512075e-007    +1.4771255e-006
+6.7840000e+004    +3.3683941e-007    +1.5641253e-006
+6.7968000e+004    +3.4785941e-007    +1.6205394e-006
+6.8096000e+004    +3.5388291e-007    +1.4911867e-006
+6.8224000e+004    +3.5238318e-007    +1.5016872e-006
+6.8352000e+004    +3.2760414e-007    +1.4007816e-006
+6.8480000e+004    +3.1732475e-007    +1.4123734e-006
+6.8608000e+004    +3.3678026e-007    +1.5664988e-006
+6.8736000e+004    +3.3570998e-007    +1.4705975e-006
+6.8864000e+004    +3.3516270e-007    +1.5075137e-006
+6.8992000e+004    +3.3471477e-007    +1.4361470e-006
+6.9120000e+004    +3.3429131e-007    +1.4487758e-006
+6.9248000e+004    +3.3898127e-007    +1.3439458e-006
+6.9376000e+004    +3.5577631e-007    +1.3980726e-006
+6.9504000e+004    +3.4019041e-007    +1.5186728e-006
+6.9632000e+004    +3.3254804e-007    +1.4564409e-006
+6.9760000e+004    +3.3588105e-007    +1.3963131e-006
+6.9888000e+004    +3.3181058e-007    +1.4795829e-006
+7.0016000e+004    +3.1783802e-007    +1.5090307e-006
+7.0144000e+004    +4.8383487e-007    +1.6151783e-006
+7.0272000e+004    +6.7762340e-007    +1.7019172e-006
+7.0400000e+004    +4.3714735e-007    +1.5482167e-006
+7.0528000e+004    +3.5961406e-007    +1.4567528e-006
+7.0656000e+004    +4.1674846e-007    +1.5320138e-006
+7.0784000e+004    +4.9550914e-007    +1.6544066e-006
+7.0912000e+004    +3.7910598e-007    +1.5621860e-006
+7.1040000e+004    +3.4001118e-007    +1.4703053e-006
+7.1168000e+004    +3.3259661e-007    +1.3855115e-006
+7.1296000e+004    +3.4556587e-007    +1.3751800e-006
+7.1424000e+004    +3.2243091e-007    +1.5191064e-006
+7.1552000e+004    +3.4758111e-007    +1.7178315e-006
+7.1680000e+004    +3.7167084e-007    +1.6020521e-006
+7.1808000e+004    +3.6342459e-007    +1.6425279e-006
+7.1936000e+004    +3.6493924e-007    +1.6813733e-006
+7.2064000e+004    +3.5056135e-007    +1.6737625e-006
+7.2192000e+004    +3.7110973e-007    +1.6196517e-006
+7.2320000e+004    +3.9174398e-007    +1.5093638e-006
+7.2448000e+004    +3.4936176e-007    +1.4977419e-006
+7.2576000e+004    +3.2947955e-007    +1.6135778e-006
+7.2704000e+004    +3.2334876e-007    +1.7503387e-006
+7.2832000e+004    +3.2368231e-007    +1.7295198e-006
+7.2960000e+004    +3.2404179e-007    +1.8346677e-006
+7.3088000e+004    +3.6974848e-007    +1.7028406e-006
+7.3216000e+004    +3.5689879e-007    +1.5441813e-006
+7.3344000e+004    +3.4450133e-007    +1.5314286e-006
+7.3472000e+004    +3.5804248e-007    +1.6118903e-006
+7.3600000e+004    +3.6199731e-007    +1.7817210e-006
+7.3728000e+004    +3.6497332e-007    +1.5965244e-006
+7.3856000e+004    +3.6810229e-007    +1.5411799e-006
+7.3984000e+004    +3.6032273e-007    +1.7730895e-006
+7.4112000e+004    +3.4755172e-007    +1.7305302e-006
+7.4240000e+004    +3.5164305e-007    +1.6814101e-006
+7.4368000e+004    +3.3487541e-007    +1.4913635e-006
+7.4496000e+004    +3.3907170e-007    +1.6035356e-006
+7.4624000e+004    +3.4113671e-007    +1.7510384e-006
+7.4752000e+004    +3.2950305e-007    +1.6510386e-006
+7.4880000e+004    +3.4741018e-007    +1.7396612e-006
+7.5008000e+004    +3.5261735e-007    +1.7917122e-006
+7.5136000e+004    +3.4096522e-007    +1.6477752e-006
+7.5264000e+004    +3.5816871e-007    +1.6259610e-006
+7.5392000e+004    +3.6903506e-007    +1.6911823e-006
+7.5520000e+004    +3.3392777e-007    +1.6457484e-006
+7.5648000e+004    +3.4424500e-007    +1.6762730e-006
+7.5776000e+004    +3.6024440e-007    +1.6478349e-006
+7.5904000e+004    +3.7218700e-007    +1.5573172e-006
+7.6032000e+004    +3.4793581e-007    +1.4852096e-006
+7.6160000e+004    +3.6305568e-007    +1.7927492e-006
+7.6288000e+004    +3.5252521e-007    +2.6965918e-006
+7.6416000e+004    +3.5767158e-007    +1.0022974e-005
+7.6544000e+004    +3.6802953e-007    +9.9241024e-006
+7.6672000e+004    +3.5111026e-007    +2.6326579e-006
+7.6800000e+004    +3.3087670e-007    +1.5773600e-006
+7.6928000e+004    +3.5625359e-007    +1.6758221e-006
+7.7056000e+004    +3.4151336e-007    +1.8301652e-006
+7.7184000e+004    +3.2768330e-007    +1.7902295e-006
+7.7312000e+004    +3.5095147e-007    +1.6787870e-006
+7.7440000e+004    +3.3289217e-007    +1.5982431e-006
+7.7568000e+004    +5.5419167e-007    +1.6246065e-006
+7.7696000e+004    +9.5960161e-007    +1.6625735e-006
+7.7824000e+004    +5.6639448e-007    +1.6605539e-006
+7.7952000e+004    +3.5323697e-007    +1.7860967e-006
+7.8080000e+004    +3.4993300e-007    +1.7900841e-006
+7.8208000e+004    +3.4091804e-007    +1.7365963e-006
+7.8336000e+004    +3.6905774e-007    +1.6948777e-006
+7.8464000e+004    +3.2974989e-007    +1.7168285e-006
+7.8592000e+004    +3.4205485e-007    +1.6312879e-006
+7.8720000e+004    +3.5563221e-007    +1.6688410e-006
+7.8848000e+004    +3.4830276e-007    +1.7801254e-006
+7.8976000e+004    +3.4801300e-007    +1.7484564e-006
+7.9104000e+004    +3.4648906e-007    +1.8009820e-006
+7.9232000e+004    +3.4200605e-007    +1.8442693e-006
+7.9360000e+004    +3.9836155e-007    +1.7579271e-006
+7.9488000e+004    +5.8904862e-007    +1.6707037e-006
+7.9616000e+004    +4.3967833e-007    +1.8536645e-006
+7.9744000e+004    +3.5446934e-007    +1.9358297e-006
+7.9872000e+004    +3.5480147e-007    +1.8582331e-006
+8.0000000e+004    +3.5524195e-007    +1.7398427e-006
+8.0128000e+004    +3.5182495e-007    +1.7132319e-006
+8.0256000e+004    +3.5809398e-007    +1.8518336e-006
+8.0384000e+004    +3.8347906e-007    +1.8062238e-006
+8.0512000e+004    +3.7727932e-007    +1.7591763e-006
+8.0640000e+004    +3.8844644e-007    +1.8190586e-006
+8.0768000e+004    +3.8184427e-007    +1.8708602e-006
+8.0896000e+004    +3.5947431e-007    +1.8751335e-006
+8.1024000e+004    +3.4754180e-007    +1.8360864e-006
+8.1152000e+004    +3.5588454e-007    +1.7715016e-006
+8.1280000e+004    +3.6431950e-007    +1.7456615e-006
+8.1408000e+004    +3.6454679e-007    +1.7896556e-006
+8.1536000e+004    +3.7914594e-007    +1.8252646e-006
+8.1664000e+004    +3.9422324e-007    +1.8811280e-006
+8.1792000e+004    +3.7985595e-007    +1.9362144e-006
+8.1920000e+004    +4.1145077e-007    +1.9374074e-006
+8.2048000e+004    +3.9736994e-007    +1.8564447e-006
+8.2176000e+004    +3.5319664e-007    +1.8283314e-006
+8.2304000e+004    +3.7163167e-007    +1.8078587e-006
+8.2432000e+004    +3.6384142e-007    +1.7614473e-006
+8.2560000e+004    +3.8176043e-007    +1.9232011e-006
+8.2688000e+004    +3.8096530e-007    +1.8771769e-006
+8.2816000e+004    +3.7137386e-007    +1.9133568e-006
+8.2944000e+004    +3.6800208e-007    +1.9800304e-006
+8.3072000e+004    +3.7694312e-007    +1.8721382e-006
+8.3200000e+004    +3.6907923e-007    +1.7787207e-006
+8.3328000e+004    +3.7789457e-007    +1.9149120e-006
+8.3456000e+004    +3.6499696e-007    +2.0227649e-006
+8.3584000e+004    +3.6339947e-007    +1.8731046e-006
+8.3712000e+004    +3.3887073e-007    +1.7782833e-006
+8.3840000e+004    +3.2871461e-007    +1.8813263e-006
+8.3968000e+004    +3.5764646e-007    +1.7833964e-006
+8.4096000e+004    +3.6909543e-007    +1.8465406e-006
+8.4224000e+004    +3.7852618e-007    +1.8151920e-006
+8.4352000e+004    +3.6969325e-007    +1.6994188e-006
+8.4480000e+004    +3.8241151e-007    +1.8295865e-006
+8.4608000e+004    +3.9122472e-007    +1.8786698e-006
+8.4736000e+004    +3.7616255e-007    +2.0453051e-006
+8.4864000e+004    +3.8798950e-007    +2.0504767e-006
+8.4992000e+004    +3.7198561e-007    +1.8962306e-006
+8.5120000e+004    +3.5369453e-007    +1.9210634e-006
+8.5248000e+004    +3.6833677e-007    +1.8514982e-006
+8.5376000e+004    +3.5057712e-007    +1.8236660e-006
+8.5504000e+004    +3.4508395e-007    +1.8319201e-006
+8.5632000e+004    +3.4860957e-007    +1.8109280e-006
+8.5760000e+004    +3.4186451e-007    +1.6995326e-006
+8.5888000e+004    +3.5297256e-007    +1.7799262e-006
+8.6016000e+004    +3.4211195e-007    +1.8953398e-006
+8.6144000e+004    +3.4778915e-007    +1.8566872e-006
+8.6272000e+004    +3.5011016e-007    +1.5982782e-006
+8.6400000e+004    +3.2827964e-007    +1.7340984e-006
+8.6528000e+004    +3.4837160e-007    +1.8312445e-006
+8.6656000e+004    +3.6703523e-007    +1.9336162e-006
+8.6784000e+004    +3.9813898e-007    +1.8810701e-006
+8.6912000e+004    +3.6710617e-007    +1.7848557e-006
+8.7040000e+004    +3.5030510e-007    +1.7596611e-006
+8.7168000e+004    +3.2677215e-007    +1.6773721e-006
+8.7296000e+004    +3.3915063e-007    +1.9812787e-006
+8.7424000e+004    +3.5032051e-007    +1.8151761e-006
+8.7552000e+004    +3.3321982e-007    +1.7428176e-006
+8.7680000e+004    +3.6599417e-007    +1.8358687e-006
+8.7808000e+004    +4.7823590e-007    +1.9386757e-006
+8.7936000e+004    +6.2283846e-007    +1.9416941e-006
+8.8064000e+004    +4.1028511e-007    +2.0478330e-006
+8.8192000e+004    +3.4798165e-007    +1.9738875e-006
+8.8320000e+004    +3.6134446e-007    +1.7833024e-006
+8.8448000e+004    +3.5809950e-007    +1.8161111e-006
+8.8576000e+004    +3.6183121e-007    +1.8945595e-006
+8.8704000e+004    +3.3082114e-007    +1.8566586e-006
+8.8832000e+004    +3.3435703e-007    +1.7296280e-006
+8.8960000e+004    +3.2151672e-007    +1.7648601e-006
+8.9088000e+004    +3.3507953e-007    +1.6299791e-006
+8.9216000e+004    +3.3307936e-007    +1.7401197e-006
+8.9344000e+004    +3.0008209e-007    +1.8069637e-006
+8.9472000e+004    +3.0843583e-007    +1.7606854e-006
+8.9600000e+004    +3.3480080e-007    +1.8344865e-006
+8.9728000e+004    +3.1537792e-007    +1.7600398e-006
+8.9856000e+004    +3.3261341e-007    +1.6888146e-006
+8.9984000e+004    +3.3254986e-007    +1.6954547e-006
+9.0112000e+004    +3.5008057e-007    +1.8479643e-006
+9.0240000e+004    +3.1720910e-007    +1.9184245e-006
+9.0368000e+004    +3.0172376e-007    +1.9112510e-006
+9.0496000e+004    +3.1230184e-007    +1.8875189e-006
+9.0624000e+004    +2.9680828e-007    +1.8312163e-006
+9.0752000e+004    +3.0958023e-007    +1.8504434e-006
+9.0880000e+004    +3.2790246e-007    +1.8957186e-006
+9.1008000e+004    +3.2460693e-007    +1.8510043e-006
+9.1136000e+004    +3.1023831e-007    +1.9061061e-006
+9.1264000e+004    +2.9450544e-007    +1.8227072e-006
+9.1392000e+004    +3.0280165e-007    +1.9831634e-006
+9.1520000e+004    +3.0770286e-007    +1.9348734e-006
+9.1648000e+004    +3.2212060e-007    +1.7695344e-006
+9.1776000e+004    +3.2608546e-007    +1.7612577e-006
+9.1904000e+004    +3.1925029e-007    +1.9388970e-006
+9.2032000e+004    +3.2113184e-007    +1.9234271e-006
+9.2160000e+004    +3.2637379e-007    +1.7785273e-006
+9.2288000e+004    +3.3857322e-007    +1.6980740e-006
+9.2416000e+004    +3.3429461e-007    +1.7553098e-006
+9.2544000e+004    +3.2580738e-007    +1.8548330e-006
+9.2672000e+004    +3.1427282e-007    +1.8127403e-006
+9.2800000e+004    +3.0367332e-007    +1.7199510e-006
+9.2928000e+004    +3.1803000e-007    +1.9113475e-006
+9.3056000e+004    +3.0700767e-007    +1.9063887e-006
+9.3184000e+004    +3.0044507e-007    +1.7206763e-006
+9.3312000e+004    +3.0763968e-007    +1.5998197e-006
+9.3440000e+004    +2.9109583e-007    +1.7205441e-006
+9.3568000e+004    +2.9825088e-007    +1.7384583e-006
+9.3696000e+004    +3.2038028e-007    +1.6404157e-006
+9.3824000e+004    +3.0650685e-007    +1.6308635e-006
+9.3952000e+004    +2.8960326e-007    +1.7185956e-006
+9.4080000e+004    +2.8402323e-007    +1.7600050e-006
+9.4208000e+004    +3.0101563e-007    +1.8436577e-006
+9.4336000e+004    +3.8495006e-007    +1.8849695e-006
+9.4464000e+004    +9.8169971e-007    +1.9002803e-006
+9.4592000e+004    +8.4896402e-007    +2.0240977e-006
+9.4720000e+004    +3.4353550e-007    +1.8945054e-006
+9.4848000e+004    +3.4660056e-007    +1.9430634e-006
+9.4976000e+004    +3.2668427e-007    +1.8944555e-006
+9.5104000e+004    +3.0243021e-007    +1.9443928e-006
+9.5232000e+004    +2.9092490e-007    +1.9283286e-006
+9.5360000e+004    +2.7201432e-007    +1.8820432e-006
+9.5488000e+004    +2.6625293e-007    +1.7663004e-006
+9.5616000e+004    +2.6897317e-007    +1.7990136e-006
+9.5744000e+004    +2.5286030e-007    +1.7801352e-006
+9.5872000e+004    +2.6219010e-007    +1.8194880e-006
+9.6000000e+004    +2.7676461e-007    +1.8679660e-006
+9.6128000e+004    +2.8724023e-007    +1.7832358e-006
+9.6256000e+004    +2.7558019e-007    +1.8385537e-006
+9.6384000e+004    +2.6948396e-007    +1.7527099e-006
+9.6512000e+004    +2.9472798e-007    +1.7351803e-006
+9.6640000e+004    +3.2427599e-007    +1.7540036e-006
+9.6768000e+004    +2.9688812e-007    +1.7126206e-006
+9.6896000e+004    +2.9670142e-007    +1.9023448e-006
+9.7024000e+004    +3.0633089e-007    +2.0688190e-006
+9.7152000e+004    +2.9933972e-007    +1.9488427e-006
+9.7280000e+004    +2.9473836e-007    +1.7699618e-006
+9.7408000e+004    +3.1551679e-007    +1.8064935e-006
+9.7536000e+004    +3.6754457e-007    +1.7210069e-006
+9.7664000e+004    +4.0925886e-007    +1.7982395e-006
+9.7792000e+004    +4.8813985e-007    +1.8206971e-006
+9.7920000e+004    +6.0399191e-007    +1.8969324e-006
+9.8048000e+004    +7.2192785e-007    +1.9643294e-006
+9.8176000e+004    +8.5744369e-007    +1.7397376e-006
+9.8304000e+004    +1.0035438e-006    +1.8418308e-006
+9.8432000e+004    +1.1881938e-006    +1.8458494e-006
+9.8560000e+004    +1.3391116e-006    +1.6881769e-006
+9.8688000e+004    +1.4073704e-006    +1.7905007e-006
+9.8816000e+004    +1.4767654e-006    +1.9536481e-006
+9.8944000e+004    +1.4242693e-006    +1.8638871e-006
+9.9072000e+004    +1.2434227e-006    +1.7775629e-006
+9.9200000e+004    +1.1506320e-006    +1.6960616e-006
+9.9328000e+004    +1.3677864e-006    +1.7260425e-006
+9.9456000e+004    +1.5257776e-006    +1.7824841e-006
+9.9584000e+004    +1.3692769e-006    +1.6776668e-006
+9.9712000e+004    +1.2026683e-006    +1.6329473e-006
+9.9840000e+004    +1.3645314e-006    +1.6190970e-006
+9.9968000e+004    +1.3590635e-006    +1.6839468e-006
+1.0009600e+005    +1.2199200e-006    +1.6972987e-006
+1.0022400e+005    +1.3133272e-006    +1.6636052e-006
+1.0035200e+005    +1.2034965e-006    +1.6817610e-006
+1.0048000e+005    +1.2542990e-006    +1.6339319e-006
+1.0060800e+005    +1.1715758e-006    +1.8415234e-006
+1.0073600e+005    +1.2080612e-006    +1.8117096e-006
+1.0086400e+005    +1.2614281e-006    +1.6243961e-006
+1.0099200e+005    +1.2884296e-006    +1.7393614e-006
+1.0112000e+005    +1.3675611e-006    +1.7571281e-006
+1.0124800e+005    +1.4227282e-006    +1.6050134e-006
+1.0137600e+005    +1.4590162e-006    +1.6535076e-006
+1.0150400e+005    +1.5510154e-006    +1.6956242e-006
+1.0163200e+005    +1.5428357e-006    +1.7636921e-006
+1.0176000e+005    +1.6413651e-006    +1.8442287e-006
+1.0188800e+005    +1.4993807e-006    +1.7568889e-006
+1.0201600e+005    +1.4522079e-006    +1.5635519e-006
+1.0214400e+005    +1.5641529e-006    +1.6562112e-006
+1.0227200e+005    +1.3868585e-006    +1.7641298e-006
