# Comments from moku data file:% Moku:Phasemeter 
# 
# % Ch 1 - DC coupling, 50 Ohm impedance, 1 V range
# 
# % Ch 1 bandwidth = 1.0000000000e+04 (Hz)
# 
# % Acquisition rate: 1.2500000000e+05 Hz
# 
# % External 10 MHz clock
# 
# % Acquired 2020-03-11 T 19:30:21 -0700
# 
# % Time, Set frequency 1 (Hz), Frequency 1 (Hz), Phase 1 (cyc), I 1 (V), Q 1 (V)
# 
# #########################################################
# ASD calculated by mokuReadFreqNoise.py
# Frequency [Hz]         Freq ASD1 [Hz/rtHz]      Freq ASDlb1 [Hz/rtHz]    Freq ASDub1 [Hz/rtHz]    
# 
0.000000000000000000e+00 2.028926093285472234e+02 8.139501010325425057e+01 2.756275075761407152e+02
1.000000000000000056e-01 2.237630793259893665e+02 1.426921806032312929e+02 3.127554482821918214e+02
2.000000000000000111e-01 1.369309261474239179e+02 7.255252639364762501e+01 1.948826755068027410e+02
3.000000000000000444e-01 7.686262994805120741e+01 4.654237973779680004e+01 1.469327222491585303e+02
4.000000000000000222e-01 6.977963366331029249e+01 3.346604243492847530e+01 1.017964924776991325e+02
5.000000000000000000e-01 4.488979205001153616e+01 1.804285790812260615e+01 7.229769232249655886e+01
6.000000000000000888e-01 3.775300648836129369e+01 2.273331072041163736e+01 5.160428405775471816e+01
7.000000000000000666e-01 1.491112563482969300e+01 1.065534738647949276e+01 3.872305652819812849e+01
8.000000000000000444e-01 1.861345808962395054e+01 9.346939472092625323e+00 3.498204396047557907e+01
9.000000000000000222e-01 1.932290853415205945e+01 1.010719592118051757e+01 3.091775963628111867e+01
1.000000000000000000e+00 2.785554835822633279e+01 1.912055710050648472e+01 3.597301421923972953e+01
1.100000000000000089e+00 2.303619129050672498e+01 2.002901935453007098e+01 4.605535475648698451e+01
1.200000000000000178e+00 2.004258743056422531e+01 9.942397768011058901e+00 3.015682998025627626e+01
1.300000000000000044e+00 2.253489519127779417e+01 6.929609417421155548e+00 3.041593287005009216e+01
1.400000000000000133e+00 2.288167949319824501e+01 1.439627015459509884e+01 4.001288907258652472e+01
1.500000000000000000e+00 1.929477697827363869e+01 1.333161029855111401e+01 3.838809207197401463e+01
1.600000000000000089e+00 2.426239285794662592e+01 9.681829636899292879e+00 2.873745455952953520e+01
1.700000000000000178e+00 1.677001120238520571e+01 1.451630494423805651e+01 3.449420760394724539e+01
1.800000000000000044e+00 3.292366129075806214e+01 1.518075699402490919e+01 4.533229460938948563e+01
1.900000000000000133e+00 3.729658917834671428e+01 1.520213050285269496e+01 6.076749653510988480e+01
2.000000000000000000e+00 3.356764183900185827e+01 2.165499904719038682e+01 5.982096974040387494e+01
2.100000000000000089e+00 2.397926596462001569e+01 1.283684620214763861e+01 3.292554865828253696e+01
2.200000000000000178e+00 1.909285995933791114e+01 1.294411181574087522e+01 3.928200071770258006e+01
2.300000000000000266e+00 1.808095312257299980e+01 6.273814110725930426e+00 2.856602999632777440e+01
2.400000000000000355e+00 1.718925092219154394e+01 9.357324644601673569e+00 2.637243872372584974e+01
2.500000000000000000e+00 1.797442501366078105e+01 9.390730842757660568e+00 2.438506373287880535e+01
2.600000000000000089e+00 1.947768353830941379e+01 6.952555431843897793e+00 3.771715319134698774e+01
2.700000000000000178e+00 1.605166455372314616e+01 1.306944451788859674e+01 3.217945519293345313e+01
2.800000000000000266e+00 2.160460290342025047e+01 1.166541029074217661e+01 4.294134487527340838e+01
2.900000000000000355e+00 2.090249922181305919e+01 1.242723488169154855e+01 4.459377876371158322e+01
3.000000000000000000e+00 1.183740770782469554e+01 4.116043553337047634e+00 2.703921164416043510e+01
3.100000000000000089e+00 1.222293381301074255e+01 6.736879631171668770e+00 2.809589636349963016e+01
3.200000000000000178e+00 1.165425917289267410e+01 4.129952125324177992e+00 2.513530980599406917e+01
3.300000000000000266e+00 1.110577404123088030e+01 8.032686514823915047e+00 2.144826590534755084e+01
3.400000000000000355e+00 1.461018550651947301e+01 1.048568417569823197e+01 2.084034226852702076e+01
3.500000000000000000e+00 1.962668760361614062e+01 1.432921233587087251e+01 3.149603415913049886e+01
3.600000000000000089e+00 1.563426741837876399e+01 1.037887927669241073e+01 2.515434933176616639e+01
3.700000000000000178e+00 1.927773904758725010e+01 1.096502081655121685e+01 2.219769938490823691e+01
3.800000000000000266e+00 1.698950299921604312e+01 6.829708560962264308e+00 1.957670970061630555e+01
3.900000000000000355e+00 1.266864241273263225e+01 9.921382521133157439e+00 1.999617814071631727e+01
4.000000000000000000e+00 7.395663167398294213e+00 5.943910360086701594e+00 1.651484876768167354e+01
4.100000000000000533e+00 9.792810292504643854e+00 7.045106742147603462e+00 1.874644497692317202e+01
4.200000000000000178e+00 1.234641050711964994e+01 8.815157723962119718e+00 2.217756623427295182e+01
4.299999999999999822e+00 1.883838445695539576e+01 6.414033415629336154e+00 2.463716795868220188e+01
4.400000000000000355e+00 1.633551121880735479e+01 1.059733539282605186e+01 2.600709038877175772e+01
4.500000000000000000e+00 1.470314133145101465e+01 5.705531526036518919e+00 2.335257828752275699e+01
4.600000000000000533e+00 1.542689174566934263e+01 9.779637448910646569e+00 2.155342503027015866e+01
4.700000000000000178e+00 1.636464362255278360e+01 9.073137581513501360e+00 2.319791476742569003e+01
4.800000000000000711e+00 1.572032064792607464e+01 1.183924616831614429e+01 2.393973422285449715e+01
4.900000000000000355e+00 1.775333791364511171e+01 5.310367561026818173e+00 3.004061928136585635e+01
5.000000000000000000e+00 2.302295279678239837e+01 1.115999780668933106e+01 2.561577581155428618e+01
5.100000000000000533e+00 1.646072074821713116e+01 7.838491500288043312e+00 2.787217671530006768e+01
5.200000000000000178e+00 2.177602083820879031e+01 1.388455794394204368e+01 2.887845441484141773e+01
5.300000000000000711e+00 3.483463206057222550e+01 1.415003728085915036e+01 4.033490501269472617e+01
5.400000000000000355e+00 3.300090451718162399e+01 2.279096385917118894e+01 4.380891170757816155e+01
5.500000000000000000e+00 2.593642879110042188e+01 1.414721702338332499e+01 3.473833924749737889e+01
5.600000000000000533e+00 1.961327652262082921e+01 9.398972706483052164e+00 3.545398091407148655e+01
5.700000000000000178e+00 1.924358890458841032e+01 1.288851196012757860e+01 2.738930219484828399e+01
5.800000000000000711e+00 1.968596860831904749e+01 1.108449470549123639e+01 2.745636028127424666e+01
5.900000000000000355e+00 1.820960472503672278e+01 1.227486176605665769e+01 2.720074634381040113e+01
6.000000000000000000e+00 1.634594803238196548e+01 6.910885875740958362e+00 2.595289716158190885e+01
6.100000000000000533e+00 1.808406446016079627e+01 1.201140820064236436e+01 2.479452278482094485e+01
6.200000000000000178e+00 1.358836376679077951e+01 8.425781665567935619e+00 3.122723662529137201e+01
6.300000000000000711e+00 1.458446922225770237e+01 9.420734219263948717e+00 2.152432584609530508e+01
6.400000000000000355e+00 1.451101914474467236e+01 8.018985718270366547e+00 2.356881676427666505e+01
6.500000000000000000e+00 1.401848006736197050e+01 6.954740174062891356e+00 2.934509181991788651e+01
6.600000000000000533e+00 1.647752711508562484e+01 9.440967999639539698e+00 2.881866442866166267e+01
6.700000000000000178e+00 1.557888892215955501e+01 6.293663216639532543e+00 4.054316307735236080e+01
6.800000000000000711e+00 2.624362924305357225e+01 1.459575743004901938e+01 3.812091443899151244e+01
6.900000000000000355e+00 2.408515100516470397e+01 1.791612961189468223e+01 3.113562922479027151e+01
7.000000000000000000e+00 1.547512511346255693e+01 1.051893768493541970e+01 3.090978701518034200e+01
7.100000000000000533e+00 1.932481316202016686e+01 1.478858674478908952e+01 3.209346650384516408e+01
7.200000000000000178e+00 2.624352534029090123e+01 1.514050310306353531e+01 3.377435681471050799e+01
7.300000000000000711e+00 2.218127424045171381e+01 1.492476071957839956e+01 2.813625852100242142e+01
7.400000000000000355e+00 1.899650105454681537e+01 1.469497454218493537e+01 2.184191272300056141e+01
7.500000000000000000e+00 2.205102513484385085e+01 9.697075275601534372e+00 2.757920461862824624e+01
7.600000000000000533e+00 1.349087948902553613e+01 7.614009111918103478e+00 2.633402910906277583e+01
7.700000000000000178e+00 1.117955451557714674e+01 4.520897514347112178e+00 1.935402395241682783e+01
7.800000000000000711e+00 8.145105933076553839e+00 5.558070312750363229e+00 1.335550195703824805e+01
7.900000000000000355e+00 1.209108532434272476e+01 8.898330453597754541e+00 1.602822823116549955e+01
8.000000000000000000e+00 9.894876806121533974e+00 6.018286598077086325e+00 1.947326810777051875e+01
8.099999999999999645e+00 1.195028909368530634e+01 5.951600287259171118e+00 1.488687567802527312e+01
8.200000000000001066e+00 9.124380648446720699e+00 5.862607666228056402e+00 1.883948741232275381e+01
8.300000000000000711e+00 1.342260566902387176e+01 9.062954765545381264e+00 1.754203361132214667e+01
8.400000000000000355e+00 1.292466010635556017e+01 8.182809642560679109e+00 1.762497577690809436e+01
8.500000000000000000e+00 1.038696603544817165e+01 8.703220967241067640e+00 1.571621143480525973e+01
8.599999999999999645e+00 6.501398080004474167e+00 4.158878179392893948e+00 1.063993280028632249e+01
8.700000000000001066e+00 7.894053377072969724e+00 5.331439240308424310e+00 1.680401306189000010e+01
8.800000000000000711e+00 1.337714322198453765e+01 5.833862489012004104e+00 1.895285791938035658e+01
8.900000000000000355e+00 9.242690054340101824e+00 3.597069351396464221e+00 1.679065316726034851e+01
9.000000000000000000e+00 8.965533354987350378e+00 7.130568416489224681e+00 1.761456930539872445e+01
9.099999999999999645e+00 1.031188977499348525e+01 5.605349028577633952e+00 1.449910619363149422e+01
9.200000000000001066e+00 9.249820180387217761e+00 7.187691581072774838e+00 1.572645595466740254e+01
9.300000000000000711e+00 7.331225294626580791e+00 4.800935889584002858e+00 1.654214637905682039e+01
9.400000000000000355e+00 8.717212402287087158e+00 6.921949820883818383e+00 1.588575967274357836e+01
9.500000000000000000e+00 1.604331067466701199e+01 1.005390502043740852e+01 1.746172257134216110e+01
9.600000000000001421e+00 9.771654166919935491e+00 7.140380678073610099e+00 1.697084036347579072e+01
9.700000000000001066e+00 8.337752118496318587e+00 5.046637828973410400e+00 1.167220639000275639e+01
9.800000000000000711e+00 6.770006090411373911e+00 3.737814847152613584e+00 1.196182284061974421e+01
9.900000000000000355e+00 6.872171386177420516e+00 4.283195133567813784e+00 1.128281905568158905e+01
1.000000000000000000e+01 7.588797479819406888e+00 5.123897082504040412e+00 1.300134400861563932e+01
1.000000000000000000e+01 9.621723336758826406e+00 3.946873153038565452e+00 1.576039666881294643e+01
1.100000000000000000e+01 7.053361493007328065e+00 2.798187853869515518e+00 1.410376148798806817e+01
1.200000000000000000e+01 6.735613581824718921e+00 2.222415325097649053e+00 1.427320439349644587e+01
1.300000000000000000e+01 5.208371560011548773e+00 1.722140729082606958e+00 1.504610810316720126e+01
1.400000000000000000e+01 4.459753772141210604e+00 1.480205934198985274e+00 1.161929407254321589e+01
1.500000000000000000e+01 3.324259223098274596e+00 1.330373941240300839e+00 9.841124118114850106e+00
1.600000000000000000e+01 2.711256399691199359e+00 8.675187366607504114e-01 9.343788135610875401e+00
1.700000000000000000e+01 2.493341893664617892e+00 6.864629789550942274e-01 7.131877826813068033e+00
1.800000000000000000e+01 1.600727440731923634e+00 6.224588201496477069e-01 5.331051659151255784e+00
1.900000000000000000e+01 1.276807427997814548e+00 5.120987306558890673e-01 4.525858132491873853e+00
2.000000000000000000e+01 1.179172566549615109e+00 5.110917972894618577e-01 3.651554637536711390e+00
2.100000000000000000e+01 9.716997973418820544e-01 3.342729135411564023e-01 2.980314997976556413e+00
2.200000000000000000e+01 9.278970346094089772e-01 4.137515960645618551e-01 2.437890866707102422e+00
2.300000000000000000e+01 8.536302584704904550e-01 3.805437163717491633e-01 2.274142346687504812e+00
2.400000000000000000e+01 5.766489920943409508e-01 2.977208763548238046e-01 1.603231105210037644e+00
2.500000000000000000e+01 5.908430824843075024e-01 2.991088506001874370e-01 1.130008111456373587e+00
2.600000000000000000e+01 4.803791965009475695e-01 2.276348060492286440e-01 1.110609048279432631e+00
2.700000000000000000e+01 4.208411250867536424e-01 1.876301822217203707e-01 8.933358772596780017e-01
2.800000000000000000e+01 3.851088648231100753e-01 1.987975620617161987e-01 8.753920000807811075e-01
2.900000000000000000e+01 3.634176119905061508e-01 1.690370644098062869e-01 6.997384330554285992e-01
3.000000000000000000e+01 2.767078943739247898e-01 1.491707237327954128e-01 6.517036535042569634e-01
3.100000000000000000e+01 2.105808051849280271e-01 1.236165173754574381e-01 5.150020054339067288e-01
3.200000000000000000e+01 1.927268082826471274e-01 9.602085201546115001e-02 5.317831412140900937e-01
3.300000000000000000e+01 2.041657420836895664e-01 1.064926184838922707e-01 3.896577862110349177e-01
3.400000000000000000e+01 1.763306057122649151e-01 8.768446703985305346e-02 3.707430047199906653e-01
3.500000000000000000e+01 1.719519395315310117e-01 7.607976578830605296e-02 3.620997901464508839e-01
3.600000000000000000e+01 1.445687959571223813e-01 7.278259696224008424e-02 2.781956298680436923e-01
3.700000000000000000e+01 1.274192895534854153e-01 5.530719741615188617e-02 2.356935097450709449e-01
3.800000000000000000e+01 1.233037421000557771e-01 6.421855279785329551e-02 2.195912616286123387e-01
3.900000000000000000e+01 1.156513624959863151e-01 6.017700789507696851e-02 2.286942564133961076e-01
4.000000000000000000e+01 1.013256452144901676e-01 5.464639063011307585e-02 1.936536437767015506e-01
4.100000000000000000e+01 9.607393873070822765e-02 4.167411408536566414e-02 1.839050500243224195e-01
4.200000000000000000e+01 1.037573550921719184e-01 4.563335117583571660e-02 1.668088078316915246e-01
4.300000000000000000e+01 9.610523990212439804e-02 4.503258170244813646e-02 1.759594334097336898e-01
4.400000000000000000e+01 9.217145297611098465e-02 3.791186700918105362e-02 1.867909846304913468e-01
4.500000000000000000e+01 9.626710326600987355e-02 4.896334534524730137e-02 1.749040492703602401e-01
4.600000000000000000e+01 1.004399010308026502e-01 4.997836044800715166e-02 1.697131767743068342e-01
4.700000000000000000e+01 1.304752388412976916e-01 6.898450846190688768e-02 2.089826711964553607e-01
4.800000000000000000e+01 1.565423756441872982e-01 8.433927338257889150e-02 2.236788023722217633e-01
4.900000000000000000e+01 1.133778549206808511e-01 4.035392795211470429e-02 1.773223213809330123e-01
5.000000000000000000e+01 1.094468316804476093e-01 6.400681043572067908e-02 1.724507218695962851e-01
5.100000000000000000e+01 1.240756272035193897e-01 7.124807290876317145e-02 1.999724560977035881e-01
5.200000000000000000e+01 1.339842214577408874e-01 6.286358750628598391e-02 2.475544659402874881e-01
5.300000000000000000e+01 1.267036307022585406e-01 6.780643526897019158e-02 2.267136263583574007e-01
5.400000000000000000e+01 1.372943547737051906e-01 7.752335567427524887e-02 1.924485617585545150e-01
5.500000000000000000e+01 1.241957495270197276e-01 6.536040948861046584e-02 1.993866687943798288e-01
5.600000000000000000e+01 1.174391168543520159e-01 7.497908492619963228e-02 1.737634449299549633e-01
5.700000000000000000e+01 1.135550291095777931e-01 4.353928206316133587e-02 1.920695979531610864e-01
5.800000000000000000e+01 1.188067854725780859e-01 6.560193400422406618e-02 1.923427911691827086e-01
5.900000000000000000e+01 1.225445227446873564e-01 6.924477372209092430e-02 1.988679077169193121e-01
6.000000000000000000e+01 1.245408131599073515e-01 6.110818456421690525e-02 2.100909163859634721e-01
6.100000000000000000e+01 1.341161549608374248e-01 6.933841104007529288e-02 1.979601400813159051e-01
6.200000000000000000e+01 1.163489816022682255e-01 6.252702778640172043e-02 1.858377174046784985e-01
6.300000000000000000e+01 1.108191253979533553e-01 5.444944443483797775e-02 1.902377787171697643e-01
6.400000000000000000e+01 1.138486077987663492e-01 5.305271353091752656e-02 1.901279421355371035e-01
6.500000000000000000e+01 1.219770812340590926e-01 6.021222420562959143e-02 1.792645181105647634e-01
6.600000000000000000e+01 1.261583139365257122e-01 6.058608621489663254e-02 2.075532475303819568e-01
6.700000000000000000e+01 1.024634484426281272e-01 5.046681874722089983e-02 1.982479300726034954e-01
6.800000000000000000e+01 1.019494885701990317e-01 5.342907390995238481e-02 1.705707421832484971e-01
6.900000000000000000e+01 9.739753803677519972e-02 4.133905032001818081e-02 1.498196107363329588e-01
7.000000000000000000e+01 8.921834777789852677e-02 4.917049865426772332e-02 1.398490370776430125e-01
7.100000000000000000e+01 7.419767836418500462e-02 4.423900947212165008e-02 1.377777960149444980e-01
7.200000000000000000e+01 7.951283188058842766e-02 3.603754051013451781e-02 1.264857284465611686e-01
7.300000000000000000e+01 6.428750614374613426e-02 3.510280514959730758e-02 1.200669037515485066e-01
7.400000000000000000e+01 6.358513338978558083e-02 3.101254703933453705e-02 1.026886206828389048e-01
7.500000000000000000e+01 6.183854895316030081e-02 2.598142749903262563e-02 1.030510072374717784e-01
7.600000000000000000e+01 5.810241649274426601e-02 2.728855013709628047e-02 9.968727688346998295e-02
7.700000000000000000e+01 5.523866592417484706e-02 3.192259495485513104e-02 9.653118933238911958e-02
7.800000000000000000e+01 5.533386116561698348e-02 2.765596810766872762e-02 9.303845437911634209e-02
7.900000000000000000e+01 5.868182821291845902e-02 2.641926203882182314e-02 8.625084874717185712e-02
8.000000000000000000e+01 5.212882349514198765e-02 3.100924084826397337e-02 8.148814646873951684e-02
8.100000000000000000e+01 5.678598910246119430e-02 3.106853722249843658e-02 9.305474355796654329e-02
8.200000000000000000e+01 5.746110273247950068e-02 3.031152056505198936e-02 9.701745944605515148e-02
8.300000000000000000e+01 5.676312704810301812e-02 3.116668600982516052e-02 9.310820979199982417e-02
8.400000000000000000e+01 5.149238292113488685e-02 2.504717033995415912e-02 7.811671101985742660e-02
8.500000000000000000e+01 5.157844628977924922e-02 2.523271802903376271e-02 8.586190512250825579e-02
8.600000000000000000e+01 5.139459555742852126e-02 2.507848396161116086e-02 8.487377436021166510e-02
8.700000000000000000e+01 4.916809068291969065e-02 2.496637295282104832e-02 8.184678424816305142e-02
8.800000000000000000e+01 5.314649886935707279e-02 2.670736218693163869e-02 8.020540230630336664e-02
8.900000000000000000e+01 5.261938104464420479e-02 2.671609610794819373e-02 8.464700652570041062e-02
9.000000000000000000e+01 5.374494847253794005e-02 2.798491571739065292e-02 8.284181933441879531e-02
9.100000000000000000e+01 4.228144409004363363e-02 1.815621836688556881e-02 7.252730813005685284e-02
9.200000000000000000e+01 4.524823973204043087e-02 2.430825270429667548e-02 7.777440417053638200e-02
9.300000000000000000e+01 4.351804778353135505e-02 2.489815662491632123e-02 7.269653981210841276e-02
9.400000000000000000e+01 4.720336537199091437e-02 2.110931337232436339e-02 7.430018214987035852e-02
9.500000000000000000e+01 4.348348413236616944e-02 2.376404626284353214e-02 7.422758855140429435e-02
9.600000000000000000e+01 5.351591320419232800e-02 3.101605614148548670e-02 7.483223145227459183e-02
9.700000000000000000e+01 4.702605925987237562e-02 2.208599675480293900e-02 7.408556055205235691e-02
9.800000000000000000e+01 4.504929115366868714e-02 2.155609658761433942e-02 6.983220747384891181e-02
9.900000000000000000e+01 4.739320543288443044e-02 1.992090910692098649e-02 8.069198778097834424e-02
1.000000000000000000e+02 4.868065393641953648e-02 2.170422614600056241e-02 7.881661595495816075e-02
1.000000000000000000e+02 5.679208201141171253e-02 2.726063845854104911e-02 9.733653380342002781e-02
1.100000000000000000e+02 1.095403928089983686e-01 5.463496933254802929e-02 1.857453577420956070e-01
1.200000000000000000e+02 1.351080113542006966e-01 6.383493071326783175e-02 2.463115732498074306e-01
1.300000000000000000e+02 9.579413801936811912e-02 4.462009624133398550e-02 1.676224759870314773e-01
1.400000000000000000e+02 6.350977450916509004e-02 3.030375717029812344e-02 1.076054661035623083e-01
1.500000000000000000e+02 6.009536541299896617e-02 2.752483809607078266e-02 1.181090611717185851e-01
1.600000000000000000e+02 5.240751158394444525e-02 2.560853118697103623e-02 9.257758166266200073e-02
1.700000000000000000e+02 3.687320909428042082e-02 1.951185825118298411e-02 6.154178864685576344e-02
1.800000000000000000e+02 3.382657586682306233e-02 1.661228133219533679e-02 5.751448559313553782e-02
1.900000000000000000e+02 3.363156746426528010e-02 1.683101709878204524e-02 5.441359814280846002e-02
2.000000000000000000e+02 3.328120289375732788e-02 1.691972875404398197e-02 5.598857351928571841e-02
2.100000000000000000e+02 3.653605730601551527e-02 1.799401868984067468e-02 5.922822278674809426e-02
2.200000000000000000e+02 4.185561969340349103e-02 2.001965881122638388e-02 6.787271830020719099e-02
2.300000000000000000e+02 4.284979618289071202e-02 2.139437045050284619e-02 7.228865985724276799e-02
2.400000000000000000e+02 4.448086661518700635e-02 2.277112509046646735e-02 6.883673749377403062e-02
2.500000000000000000e+02 3.405068079105449258e-02 1.804037945018677203e-02 5.479591410739365065e-02
2.600000000000000000e+02 3.021206564589250243e-02 1.571680955959367867e-02 4.980864612547705045e-02
2.700000000000000000e+02 2.874427552587165147e-02 1.619744739092531319e-02 4.905560329289111732e-02
2.800000000000000000e+02 3.019568017691475620e-02 1.387865255416851663e-02 4.886719097064179396e-02
2.900000000000000000e+02 2.981676929005153479e-02 1.463288201156009299e-02 4.820098141850432533e-02
3.000000000000000000e+02 2.845852732547974467e-02 1.568385923531709705e-02 4.912138938695375517e-02
3.100000000000000000e+02 2.869417458896139986e-02 1.464099738493507795e-02 4.770230481150308788e-02
3.200000000000000000e+02 2.908864431881020077e-02 1.419520282276565820e-02 4.599748307005485648e-02
3.300000000000000000e+02 2.862278168463403341e-02 1.442105907582462258e-02 4.733441243551143873e-02
3.400000000000000000e+02 3.043103387558058343e-02 1.607603142393240411e-02 4.887519147992444579e-02
3.500000000000000000e+02 3.737165319849727885e-02 2.030923969529664988e-02 6.064766809162236427e-02
3.600000000000000000e+02 5.317877538511912860e-02 2.976390153539876238e-02 7.627079037798449590e-02
3.700000000000000000e+02 3.406676899095262279e-02 1.813182065851916616e-02 5.549594450341934632e-02
3.800000000000000000e+02 2.825250339476834474e-02 1.409573840698514179e-02 4.541249368618117954e-02
3.900000000000000000e+02 3.027264630426809711e-02 1.545744460478215045e-02 5.066355374345812151e-02
4.000000000000000000e+02 3.052634717478361001e-02 1.563292036316812558e-02 5.005587394287614594e-02
4.100000000000000000e+02 3.038993163981970266e-02 1.537262156027936234e-02 4.737083594145870963e-02
4.200000000000000000e+02 3.226008965038416193e-02 1.623470841606891590e-02 5.225054899948079062e-02
4.300000000000000000e+02 3.030541921287005155e-02 1.538081784710808135e-02 4.977164369881602324e-02
4.400000000000000000e+02 2.881718223299714957e-02 1.480866842541669545e-02 4.680454212672455205e-02
4.500000000000000000e+02 2.763428292764610189e-02 1.410548072209123760e-02 4.454951846141797650e-02
4.600000000000000000e+02 2.686536875760928145e-02 1.375902483450083293e-02 4.336685906209172131e-02
4.700000000000000000e+02 2.992492226111296422e-02 1.459377849865601054e-02 4.901710369261309819e-02
4.800000000000000000e+02 3.884544191253134354e-02 2.027742348077655674e-02 6.008919465636203272e-02
4.900000000000000000e+02 2.854602961425199356e-02 1.425641805020465107e-02 4.813041054731178464e-02
5.000000000000000000e+02 2.605545054815828002e-02 1.361272860467076587e-02 4.292970137400012320e-02
5.100000000000000000e+02 2.618424927734611454e-02 1.378061368372084615e-02 4.387179059629545130e-02
5.200000000000000000e+02 2.639800007312909091e-02 1.284842938364156618e-02 4.237201764110767183e-02
5.300000000000000000e+02 2.578994735987589354e-02 1.236430551715638447e-02 4.160622341344637209e-02
5.400000000000000000e+02 2.653436292236766025e-02 1.275671115184024568e-02 4.152014441745683487e-02
5.500000000000000000e+02 2.654479730101041643e-02 1.342669812680189617e-02 4.362445448015998123e-02
5.600000000000000000e+02 2.700107749762278159e-02 1.356718343142730883e-02 4.377983066954436314e-02
5.700000000000000000e+02 2.641341219634849025e-02 1.394222930751345089e-02 4.410607384125469349e-02
5.800000000000000000e+02 2.699988044190055128e-02 1.381598358009496902e-02 4.401894363672220062e-02
5.900000000000000000e+02 2.934263404554068519e-02 1.543353964034638488e-02 4.681019841328989961e-02
6.000000000000000000e+02 3.473782060897774582e-02 1.785158107748870127e-02 5.532148276163870865e-02
6.100000000000000000e+02 2.838091289234974737e-02 1.507256440867315792e-02 4.540174880738680890e-02
6.200000000000000000e+02 2.789273550497384235e-02 1.331457620604338879e-02 4.561562718864538984e-02
6.300000000000000000e+02 5.841407757638312354e-02 2.788225581556522115e-02 9.048284436594795921e-02
6.400000000000000000e+02 6.658910316242347416e-02 3.363809572582164564e-02 1.070458874855137882e-01
6.500000000000000000e+02 6.534856492725232835e-02 3.173137556519688846e-02 1.062430358559737775e-01
6.600000000000000000e+02 5.573515909982673655e-02 2.716424555035559102e-02 9.287964105891469146e-02
6.700000000000000000e+02 4.453244014944558044e-02 2.112143345149967641e-02 7.573039297717060192e-02
6.800000000000000000e+02 4.292763113295698651e-02 1.983586505592248306e-02 7.205956258090073785e-02
6.900000000000000000e+02 3.932455549492136493e-02 1.872495310760534729e-02 6.813553028086029306e-02
7.000000000000000000e+02 3.110885271072144631e-02 1.499834696109682980e-02 5.075082664926668791e-02
7.100000000000000000e+02 2.892207602797718102e-02 1.391005267644072722e-02 4.587760891758617399e-02
7.200000000000000000e+02 3.839208514739805844e-02 1.916302539659968732e-02 6.186898280032791103e-02
7.300000000000000000e+02 3.326172345081557929e-02 1.675124822424771051e-02 5.431243304311225706e-02
7.400000000000000000e+02 2.519079407915937943e-02 1.277159243122265135e-02 4.160083307634426797e-02
7.500000000000000000e+02 2.651020536004077000e-02 1.265124983323468594e-02 4.254090599245462234e-02
7.600000000000000000e+02 2.720338960614965967e-02 1.383627178174366007e-02 4.437926236774900057e-02
7.700000000000000000e+02 2.835855171666140651e-02 1.408443329116031498e-02 4.728145675071746684e-02
7.800000000000000000e+02 3.566489004641678479e-02 1.743981808109678830e-02 5.789888665072560892e-02
7.900000000000000000e+02 7.025487667372090628e-02 3.512634898337982370e-02 1.455315071464657328e-01
8.000000000000000000e+02 1.579092136645913191e-01 7.737710819069273938e-02 2.666035974512051543e-01
8.100000000000000000e+02 1.154060758817101739e-01 5.701930539474807380e-02 1.833985767391478061e-01
8.200000000000000000e+02 4.803731353993286740e-02 2.376441582757438109e-02 7.927195699399204598e-02
8.300000000000000000e+02 3.941127981249295531e-02 1.979027501087261484e-02 6.544143926360450336e-02
8.400000000000000000e+02 4.729463390604114748e-02 2.318124776289511024e-02 7.425598182997125707e-02
8.500000000000000000e+02 5.045341523353063379e-02 2.419319567616390332e-02 8.104838069539477274e-02
8.600000000000000000e+02 5.739091715814462202e-02 2.851424296994074445e-02 8.972460942048238186e-02
8.700000000000000000e+02 4.944076014287610010e-02 2.519282075483509145e-02 7.856386993705505306e-02
8.800000000000000000e+02 3.374085722131821286e-02 1.617782338500273198e-02 5.574183342555680265e-02
8.900000000000000000e+02 2.960915701533787039e-02 1.435360859292583897e-02 4.864738295287851511e-02
9.000000000000000000e+02 3.131418976393837011e-02 1.545613729071067255e-02 5.206600297285525480e-02
9.100000000000000000e+02 3.954114977001459835e-02 1.886378530172758139e-02 6.530195156834109338e-02
9.200000000000000000e+02 3.999785513376066803e-02 2.046255436856304205e-02 6.534748987972371914e-02
9.300000000000000000e+02 3.417791127588672151e-02 1.764920415106817700e-02 5.377165532332112835e-02
9.400000000000000000e+02 3.153719115770991371e-02 1.580069606380934619e-02 5.085507944923674251e-02
9.500000000000000000e+02 2.876153772904257652e-02 1.370871504544938363e-02 4.843913346675619153e-02
9.600000000000000000e+02 3.221556625755323672e-02 1.689095350628043793e-02 5.297343213136720269e-02
9.700000000000000000e+02 3.356276442869891852e-02 1.710421468056461114e-02 5.526681345821359004e-02
9.800000000000000000e+02 3.633503708504510349e-02 1.875826179230278765e-02 5.971277498365173270e-02
9.900000000000000000e+02 5.270012846561190900e-02 2.393278681798174934e-02 9.035116953885019564e-02
1.000000000000000000e+03 1.164433892451709612e-01 5.855785905819502896e-02 2.081596269002618793e-01
1.000000000000000000e+03 6.046891632576453790e-02 3.016536203396276081e-02 9.813181407366859677e-02
1.100000000000000000e+03 4.872431901634867446e-02 2.410934737703018110e-02 7.936158768896113547e-02
1.200000000000000000e+03 3.713191766725003340e-02 1.854601275385847972e-02 6.036746345514482082e-02
1.300000000000000000e+03 3.226445451400644648e-02 1.596767115544928464e-02 5.255305534288361863e-02
1.400000000000000000e+03 3.127157329291507804e-02 1.579198820976301584e-02 5.077977228777860036e-02
1.500000000000000000e+03 3.395233811052613543e-02 1.684393059617785016e-02 5.532142807682457336e-02
1.600000000000000000e+03 3.321479082203541988e-02 1.689012788211573593e-02 5.331358450786707892e-02
1.700000000000000000e+03 3.129104990655699747e-02 1.573757765896873634e-02 5.100858045673034580e-02
1.800000000000000000e+03 3.210816755751492307e-02 1.589800475451268527e-02 5.238406748441127442e-02
1.900000000000000000e+03 3.288122687265612742e-02 1.633356248885733594e-02 5.297913237115601387e-02
2.000000000000000000e+03 3.336043284706186746e-02 1.648346479304706527e-02 5.431327652503036701e-02
2.100000000000000000e+03 3.409702371201232124e-02 1.738420431283198633e-02 5.582576605987350782e-02
2.200000000000000000e+03 3.513104729407730970e-02 1.746805185462011259e-02 5.708105497348590213e-02
2.300000000000000000e+03 3.521387640572638117e-02 1.744111001529732863e-02 5.814164991967823992e-02
2.400000000000000000e+03 3.669271619467684431e-02 1.837735489329622024e-02 5.967127965722118788e-02
2.500000000000000000e+03 3.695089688743705136e-02 1.844407906544462059e-02 6.050774576761983742e-02
2.600000000000000000e+03 3.772790045756609090e-02 1.907278945934039877e-02 6.199926434632504341e-02
2.700000000000000000e+03 3.869639631273299324e-02 1.938029884148072257e-02 6.386351406275335429e-02
2.800000000000000000e+03 3.976651794436719678e-02 2.004093938388427573e-02 6.520525813319492936e-02
2.900000000000000000e+03 4.046555453547432540e-02 1.977031816452997845e-02 6.593587348952786864e-02
3.000000000000000000e+03 4.124174502348337823e-02 2.036935192575186487e-02 6.717733725667736355e-02
3.100000000000000000e+03 4.237720691169876569e-02 2.101284741244894769e-02 6.887777336226455493e-02
3.200000000000000000e+03 4.292083277489287113e-02 2.144622149936677852e-02 7.039261189891968251e-02
3.300000000000000000e+03 4.392534339162278839e-02 2.185945073572895941e-02 7.249318761148004775e-02
3.400000000000000000e+03 4.495883959103567917e-02 2.257718359213775269e-02 7.304475993383161003e-02
3.500000000000000000e+03 5.083216826024811175e-02 2.498518180756297349e-02 8.234369232059526866e-02
3.600000000000000000e+03 6.340296485521128289e-02 3.270477212221635510e-02 9.920519750133090231e-02
3.700000000000000000e+03 5.604802108353403728e-02 2.822822469560560751e-02 9.019377932547641141e-02
3.800000000000000000e+03 4.932179424969523884e-02 2.449835231328436475e-02 8.022610158169692085e-02
3.900000000000000000e+03 4.873182314307115265e-02 2.442744121967040799e-02 7.878170516787753874e-02
4.000000000000000000e+03 4.898761055736828435e-02 2.461620522493471533e-02 8.016843588736163873e-02
4.100000000000000000e+03 4.963057163220276069e-02 2.460271724113648542e-02 8.166918238114548312e-02
4.200000000000000000e+03 5.091911149683457649e-02 2.547139561446490688e-02 8.269127020076071088e-02
4.300000000000000000e+03 5.116867318823473121e-02 2.554221531566858161e-02 8.367035354706146844e-02
4.400000000000000000e+03 5.173558890142107569e-02 2.632808744713950599e-02 8.497108967254385359e-02
4.500000000000000000e+03 5.343853513380817516e-02 2.640755582636018436e-02 8.598146698435633895e-02
4.600000000000000000e+03 5.463673703598808523e-02 2.709171570846454283e-02 8.962899215029224154e-02
4.700000000000000000e+03 6.467775793460739386e-02 3.181526079846808824e-02 1.066039704513539327e-01
4.800000000000000000e+03 8.410685086218280815e-02 4.326796428657946059e-02 1.297933584040141253e-01
4.900000000000000000e+03 7.443214084626260940e-02 3.727343898739034211e-02 1.195204892778606171e-01
5.000000000000000000e+03 5.925940643622944898e-02 2.972022298055122108e-02 9.760033641090724854e-02
5.100000000000000000e+03 5.799314733378483494e-02 2.963708047027499223e-02 9.373882334749533696e-02
5.200000000000000000e+03 5.876289881052878389e-02 2.924667272809668497e-02 9.559232963515920667e-02
5.300000000000000000e+03 5.887581718520532720e-02 2.954657610761559847e-02 9.595194903805974451e-02
5.400000000000000000e+03 5.916691316882963930e-02 2.995301833535200103e-02 9.661447059561105444e-02
5.500000000000000000e+03 6.010351164003975566e-02 3.022454814562357955e-02 9.804476925584069968e-02
5.600000000000000000e+03 6.122277724392789083e-02 3.035770797216462424e-02 1.013093837850120582e-01
5.700000000000000000e+03 6.329110201820672965e-02 3.183140786306340453e-02 1.025120915315178016e-01
5.800000000000000000e+03 6.428450274305741452e-02 3.210182601817930526e-02 1.040621948753431836e-01
5.900000000000000000e+03 6.458073836167844972e-02 3.251300357104288524e-02 1.053006510017850533e-01
6.000000000000000000e+03 6.614787308045184944e-02 3.257562028002822935e-02 1.070781508634536527e-01
6.100000000000000000e+03 6.602441369311660979e-02 3.233073091662359150e-02 1.081253007251947451e-01
6.200000000000000000e+03 6.604224522974266876e-02 3.339968270048074284e-02 1.083172018925375457e-01
6.300000000000000000e+03 6.775589105074625307e-02 3.349727496354966416e-02 1.103260255901688386e-01
6.400000000000000000e+03 6.855360148300207457e-02 3.448297847420661588e-02 1.121984910853428968e-01
6.500000000000000000e+03 6.920132360450767517e-02 3.510149016515914239e-02 1.129709238237180113e-01
6.600000000000000000e+03 7.002846131571686950e-02 3.534606458130223894e-02 1.143956065488735546e-01
6.700000000000000000e+03 7.086352121578665120e-02 3.568287367755156037e-02 1.143769360373377009e-01
6.800000000000000000e+03 7.138318731612455781e-02 3.528286908453780180e-02 1.166082227927708881e-01
6.900000000000000000e+03 7.287167258481995480e-02 3.660131842840595728e-02 1.187610213298509604e-01
7.000000000000000000e+03 7.681623944136092841e-02 3.791579437014268306e-02 1.261741530446078285e-01
7.100000000000000000e+03 9.228890439865465589e-02 4.484974844270079447e-02 1.531087252879652638e-01
7.200000000000000000e+03 1.143333205548457965e-01 5.797731455865738626e-02 1.809410979644989204e-01
7.300000000000000000e+03 1.094989884651466905e-01 5.421032497628495289e-02 1.763999320256128545e-01
7.400000000000000000e+03 8.832547812651368735e-02 4.327387731431877466e-02 1.455962506240936760e-01
7.500000000000000000e+03 7.958622685728426738e-02 3.936516736665317956e-02 1.304099658767741698e-01
7.600000000000000000e+03 7.831201183638766827e-02 3.944823290239126562e-02 1.287051339472289058e-01
7.700000000000000000e+03 7.971373313456750487e-02 3.960535927428809194e-02 1.288470069371409621e-01
7.800000000000000000e+03 8.046549636329593247e-02 4.026689927514098821e-02 1.308220242401067768e-01
7.900000000000000000e+03 8.095852927504713914e-02 4.000584452397187851e-02 1.314277373405432214e-01
8.000000000000000000e+03 8.115365195996999959e-02 4.067134553358334875e-02 1.340872387924776366e-01
8.100000000000000000e+03 8.401536018055597022e-02 4.137888148643058955e-02 1.408503238254003032e-01
8.200000000000000000e+03 9.980066740089271748e-02 4.791703041970474947e-02 1.932729284124051206e-01
8.300000000000000000e+03 1.615854865272486063e-01 6.601743923262698432e-02 4.010996155335554980e-01
8.400000000000000000e+03 3.161406158520860821e-01 1.105202970543475299e-01 4.679758808068387177e-01
8.500000000000000000e+03 2.934638149249925720e-01 9.666378200605070525e-02 4.619835541247562238e-01
8.600000000000000000e+03 1.367197645012309948e-01 5.890408732275593390e-02 3.650817547244634698e-01
8.700000000000000000e+03 9.630556677755695849e-02 4.713078269386461461e-02 1.756691797202483141e-01
8.800000000000000000e+03 8.932592463590464937e-02 4.465371577802988712e-02 1.466270784232770186e-01
8.900000000000000000e+03 8.820227967065699670e-02 4.423775817757720497e-02 1.436950245920230740e-01
9.000000000000000000e+03 8.803205190215583620e-02 4.387642492546883766e-02 1.440453824964927632e-01
9.100000000000000000e+03 8.848544029489012475e-02 4.526283873508209210e-02 1.457376837464191832e-01
9.200000000000000000e+03 8.892714776031905577e-02 4.449196209475025920e-02 1.449834317384393334e-01
9.300000000000000000e+03 9.040211116603141805e-02 4.504820568271800107e-02 1.492666773243453981e-01
9.400000000000000000e+03 9.718874329740252727e-02 4.884295311150230190e-02 1.617525070140251875e-01
9.500000000000000000e+03 1.112721614785470159e-01 5.511956150547695638e-02 1.880434795265580883e-01
9.600000000000000000e+03 1.290215489729434895e-01 6.277503290148180037e-02 2.115623865927044600e-01
9.700000000000000000e+03 1.276189531467499527e-01 6.229811797022855036e-02 2.092135633305314824e-01
9.800000000000000000e+03 1.114230977202512185e-01 5.492150945987341049e-02 1.861151476121538917e-01
9.900000000000000000e+03 9.955658460064246984e-02 4.945223955417091255e-02 1.644472079611948578e-01
1.000000000000000000e+04 9.509987457949753420e-02 4.687362476496675229e-02 1.539878209703013923e-01
1.010000000000000000e+04 9.391475218586439744e-02 4.708712861372324476e-02 1.527314303874274248e-01
1.020000000000000000e+04 9.315948394736944804e-02 4.634402923017678921e-02 1.538086606989535754e-01
1.030000000000000000e+04 9.447871132007548689e-02 4.723816815522825785e-02 1.517302296640308523e-01
1.040000000000000000e+04 9.601139376560732797e-02 4.741871488691672826e-02 1.556769037025667879e-01
1.050000000000000000e+04 9.947385717241416514e-02 4.941716509749886216e-02 1.658269789352991019e-01
1.060000000000000000e+04 1.119652685578865770e-01 5.448637350237618693e-02 2.066532985271002099e-01
1.070000000000000000e+04 1.446977102269333959e-01 6.587611410989760441e-02 2.991684132671888485e-01
1.080000000000000000e+04 1.966711420543691413e-01 8.213209374107349747e-02 3.412642618123910010e-01
1.090000000000000000e+04 1.946124031839202573e-01 8.014619746014124690e-02 3.454449018197441323e-01
1.100000000000000000e+04 1.411965994999615781e-01 6.379504171633451626e-02 2.986487944311241316e-01
1.110000000000000000e+04 1.101792823183125186e-01 5.350443595229359417e-02 2.063845786769613611e-01
1.120000000000000000e+04 1.005834679772891760e-01 4.953227736802753162e-02 1.675630752556510894e-01
1.130000000000000000e+04 9.743256541636992341e-02 4.874691724899717776e-02 1.580775823235389954e-01
1.140000000000000000e+04 9.498448228341274668e-02 4.727386168828569962e-02 1.552536129602091197e-01
1.150000000000000000e+04 9.558407102669132238e-02 4.764122233148995050e-02 1.552923634319839097e-01
1.160000000000000000e+04 9.518077399288482621e-02 4.638776343539724456e-02 1.551242125534670335e-01
1.170000000000000000e+04 9.511410498866937346e-02 4.655315681007052980e-02 1.556231913459918126e-01
1.180000000000000000e+04 9.501149512806358888e-02 4.716337647294421842e-02 1.562626070872280837e-01
1.190000000000000000e+04 9.670789490093108232e-02 4.762457518140360280e-02 1.562778947386615491e-01
1.200000000000000000e+04 9.623183542824849390e-02 4.797774349135089378e-02 1.568420726395116094e-01
1.210000000000000000e+04 9.517032589501395190e-02 4.777432038413716164e-02 1.565866052465085256e-01
1.220000000000000000e+04 9.607334395282561557e-02 4.823620774415458140e-02 1.563148642416094247e-01
1.230000000000000000e+04 9.474789565749860976e-02 4.871309584248775110e-02 1.548848925934126208e-01
1.240000000000000000e+04 9.548969329172909970e-02 4.711542947612343268e-02 1.538151186849997520e-01
1.250000000000000000e+04 9.411270920967797216e-02 4.793777343294234466e-02 1.544946790203653719e-01
1.260000000000000000e+04 9.404595155904037218e-02 4.731625200608219339e-02 1.527317022011192293e-01
1.270000000000000000e+04 9.263284422069978374e-02 4.605612590538907258e-02 1.515990672592446853e-01
1.280000000000000000e+04 9.231423478072166289e-02 4.619063288386020955e-02 1.514480871581301014e-01
1.290000000000000000e+04 9.340225489803768988e-02 4.576927823122075439e-02 1.509132688610151096e-01
1.300000000000000000e+04 9.334474653229869745e-02 4.732110880079254400e-02 1.525666424342257965e-01
1.310000000000000000e+04 9.467614254102227345e-02 4.661834533846306861e-02 1.538425237219400166e-01
1.320000000000000000e+04 9.499455824226439582e-02 4.779607865027548502e-02 1.535572871800960082e-01
1.330000000000000000e+04 9.456784838001384974e-02 4.769085249224307155e-02 1.545913108790235302e-01
1.340000000000000000e+04 9.403220634058477578e-02 4.723026929901308346e-02 1.526160465739420935e-01
1.350000000000000000e+04 9.116656087130785291e-02 4.625296967555388855e-02 1.498350920647409934e-01
1.360000000000000000e+04 8.964344916753298753e-02 4.535346913579255124e-02 1.469264000937089143e-01
1.370000000000000000e+04 8.920943358780344945e-02 4.490220961162549873e-02 1.472736242472424406e-01
1.380000000000000000e+04 8.890635021941709071e-02 4.473061103496209917e-02 1.455845060388936962e-01
1.390000000000000000e+04 9.007493083789405719e-02 4.535835427209979065e-02 1.454318770838952946e-01
1.400000000000000000e+04 8.942719821802161406e-02 4.475680099425108360e-02 1.451686272068822281e-01
1.410000000000000000e+04 8.844133175756503651e-02 4.418213392386381722e-02 1.435218374107310180e-01
1.420000000000000000e+04 8.725378448011347765e-02 4.362550618020523407e-02 1.402799949822025327e-01
1.430000000000000000e+04 8.555215014867137424e-02 4.326116016960637051e-02 1.400792888674648740e-01
1.440000000000000000e+04 8.680066228317764865e-02 4.374098229937499471e-02 1.422830348701310532e-01
1.450000000000000000e+04 8.704079548477891559e-02 4.337873384690776185e-02 1.409595307927072327e-01
1.460000000000000000e+04 8.446879259761022607e-02 4.154762626568769823e-02 1.389171600783344618e-01
1.470000000000000000e+04 8.360161425964214577e-02 4.133453860146581171e-02 1.359762392704119138e-01
1.480000000000000000e+04 8.338291197503601426e-02 4.179153544220051697e-02 1.336263143659728869e-01
1.490000000000000000e+04 8.256909214439382694e-02 4.172778567732810667e-02 1.335364854790914435e-01
1.500000000000000000e+04 8.254283926058340881e-02 4.168591472889857791e-02 1.338621785352507032e-01
1.510000000000000000e+04 8.185918445562639922e-02 4.071049517113083799e-02 1.322802961666585952e-01
1.520000000000000000e+04 8.120415247168399908e-02 4.056228113936111157e-02 1.309898276835007591e-01
1.530000000000000000e+04 8.048882226870317236e-02 3.968917658515792868e-02 1.317252125114951600e-01
1.540000000000000000e+04 7.988992031210954969e-02 4.067738915098183944e-02 1.303290540388556684e-01
1.550000000000000000e+04 7.919842996184638106e-02 3.979979632312481003e-02 1.310085295429034014e-01
1.560000000000000000e+04 7.989722963199696881e-02 3.954689085148167110e-02 1.308959825702077917e-01
1.570000000000000000e+04 7.906402027819457723e-02 3.965106610869564147e-02 1.287652204154689506e-01
1.580000000000000000e+04 7.830767122909922107e-02 3.961392429068332638e-02 1.263973443229224614e-01
1.590000000000000000e+04 7.841289212437388412e-02 3.965466324100894169e-02 1.282709074910672320e-01
1.600000000000000000e+04 7.664822838911566905e-02 3.878833731534559598e-02 1.271144101569081364e-01
1.610000000000000000e+04 7.604410036269286521e-02 3.842808732105048447e-02 1.235591869443517926e-01
1.620000000000000000e+04 7.533173085414579528e-02 3.762299031774558877e-02 1.229092271775273498e-01
1.630000000000000000e+04 7.362955582753773209e-02 3.693880375108125891e-02 1.214101375974534353e-01
1.640000000000000000e+04 7.455784139278533174e-02 3.732333991731812128e-02 1.199210460568220504e-01
1.650000000000000000e+04 7.368794202263612148e-02 3.679950728196295512e-02 1.208727942438679315e-01
1.660000000000000000e+04 7.309914564260557024e-02 3.643819888757402620e-02 1.201500836647211440e-01
1.670000000000000000e+04 7.242833150066878278e-02 3.605254636237065907e-02 1.179302003453594483e-01
1.680000000000000000e+04 7.194423585325387949e-02 3.594275393904411420e-02 1.180159499940807155e-01
1.690000000000000000e+04 7.119856355417941707e-02 3.576620911620902177e-02 1.158955192923763200e-01
1.700000000000000000e+04 7.121449741233515374e-02 3.526615074309143866e-02 1.149214448010302536e-01
1.710000000000000000e+04 7.031416448965011057e-02 3.507286189680463434e-02 1.135842507623716496e-01
1.720000000000000000e+04 6.958903646944686328e-02 3.474641460851721902e-02 1.126249806481310067e-01
1.730000000000000000e+04 6.861269443679904323e-02 3.433035445465190683e-02 1.120120281522380273e-01
1.740000000000000000e+04 6.893459544740379585e-02 3.415055030812357700e-02 1.122244914858753634e-01
1.750000000000000000e+04 6.874726269526772182e-02 3.350024345751259625e-02 1.113771504713205462e-01
1.760000000000000000e+04 6.825945039980767237e-02 3.393615592361965555e-02 1.104743482107543306e-01
1.770000000000000000e+04 6.658046545944173999e-02 3.375716340043833502e-02 1.097169686690353807e-01
1.780000000000000000e+04 6.572680694152338576e-02 3.265739361816665659e-02 1.069906238045436053e-01
1.790000000000000000e+04 6.524027226280275371e-02 3.189019487707695638e-02 1.063407705033651840e-01
1.800000000000000000e+04 6.567321564421627067e-02 3.291184709290425475e-02 1.068471386446351729e-01
1.810000000000000000e+04 6.548856191440206864e-02 3.265354648974742868e-02 1.063810232986821258e-01
1.820000000000000000e+04 6.541804443471734010e-02 3.215889352534465062e-02 1.056911029709423216e-01
1.830000000000000000e+04 6.525292800874793464e-02 3.327887824813271361e-02 1.053502502163261162e-01
1.840000000000000000e+04 6.367185743609191095e-02 3.216864032770708204e-02 1.044895902699230078e-01
1.850000000000000000e+04 6.354223010844038677e-02 3.226998867053437747e-02 1.028170830857465939e-01
1.860000000000000000e+04 6.248207205923615726e-02 3.158899026548270261e-02 1.021101681301444242e-01
1.870000000000000000e+04 6.204589631280892081e-02 3.049854432736772564e-02 1.003882755748848193e-01
1.880000000000000000e+04 6.101706476065263396e-02 3.104784021637076868e-02 9.952510315405900532e-02
1.890000000000000000e+04 6.145322840031342687e-02 3.053370337233320478e-02 9.922916408054190118e-02
1.900000000000000000e+04 6.109442689661376269e-02 3.057745785333032193e-02 9.957641831820011891e-02
1.910000000000000000e+04 6.021335977487594915e-02 2.991098724775868162e-02 9.833734291716896003e-02
1.920000000000000000e+04 6.087536593783902938e-02 3.083114764449050582e-02 9.958506318142823499e-02
1.930000000000000000e+04 6.121845289028880754e-02 3.048638466590404550e-02 1.001273275609550761e-01
1.940000000000000000e+04 2.749170552046116822e-01 2.222323567931246135e-01 3.284647471469782087e-01
1.950000000000000000e+04 5.143975412564385508e-01 4.627307653886400529e-01 5.644443155294316394e-01
1.960000000000000000e+04 2.473537668655002020e-01 1.951679173257422628e-01 2.994506678101583885e-01
1.970000000000000000e+04 5.824439510820533794e-02 2.888966018095726757e-02 9.395152969826939260e-02
1.980000000000000000e+04 5.721783502963773138e-02 2.832585016548203743e-02 9.334697455160492763e-02
1.990000000000000000e+04 5.630643172981328326e-02 2.848600472914883386e-02 9.293963717737820096e-02
2.000000000000000000e+04 5.626842835458915892e-02 2.810477887515808876e-02 9.252382596822417149e-02
2.010000000000000000e+04 5.635796728063115907e-02 2.846105083001941247e-02 9.124080804729532701e-02
2.020000000000000000e+04 5.685294137931738018e-02 2.811737143638132208e-02 9.070847217350934411e-02
2.030000000000000000e+04 5.580502957468810865e-02 2.759625825521703699e-02 9.088156102669574243e-02
2.040000000000000000e+04 5.587289932493141181e-02 2.787612874182910164e-02 9.064183535549341642e-02
2.050000000000000000e+04 5.477003891366571259e-02 2.748534043025168197e-02 9.003867509609025932e-02
2.060000000000000000e+04 5.497288362361131553e-02 2.752003202834023277e-02 8.865877684472568687e-02
2.070000000000000000e+04 5.397492342415190214e-02 2.680654052745987115e-02 8.839040693217931066e-02
2.080000000000000000e+04 5.332020040060720528e-02 2.671444696325274079e-02 8.671067878668022033e-02
2.090000000000000000e+04 5.268822023104570429e-02 2.637342238297037816e-02 8.643519902915922093e-02
2.100000000000000000e+04 5.213556097378544557e-02 2.619220136988188383e-02 8.606894066592662984e-02
2.110000000000000000e+04 5.199601909060086458e-02 2.605085192282059411e-02 8.443424777661157066e-02
2.120000000000000000e+04 5.174145115119815203e-02 2.602061091819775351e-02 8.477136631756791718e-02
2.130000000000000000e+04 5.213800159137117751e-02 2.625806570172104989e-02 8.512888045485550448e-02
2.140000000000000000e+04 5.421674392209126919e-02 2.635319674039942467e-02 8.821398254341393519e-02
2.150000000000000000e+04 5.665025914822630071e-02 2.780766949392271190e-02 9.167961294750139045e-02
2.160000000000000000e+04 5.718636548336146486e-02 2.872582018610062710e-02 9.302110215199346777e-02
2.170000000000000000e+04 5.595081290179949873e-02 2.790723109912131988e-02 9.210271734611875927e-02
2.180000000000000000e+04 5.408468826899322235e-02 2.741935339219883291e-02 8.850260640833143566e-02
2.190000000000000000e+04 5.208912631260020909e-02 2.551658617675843163e-02 8.435021359054405143e-02
2.200000000000000000e+04 5.000368066133840245e-02 2.527071118986199544e-02 8.238239184770367041e-02
2.210000000000000000e+04 4.965114807333405322e-02 2.498757565437770972e-02 8.080271301687844132e-02
2.220000000000000000e+04 4.908496058295132997e-02 2.422608105809391163e-02 7.989102846087604848e-02
2.230000000000000000e+04 4.824208815143488788e-02 2.382410162769135059e-02 7.809794045079090918e-02
2.240000000000000000e+04 4.775557296836940857e-02 2.322119026266802541e-02 7.748424236231489515e-02
2.250000000000000000e+04 4.793541421795045887e-02 2.341363755688713119e-02 7.808130408707658621e-02
2.260000000000000000e+04 4.764422835056329741e-02 2.380114218391658765e-02 7.702240221483468152e-02
2.270000000000000000e+04 4.760308405174142055e-02 2.393441712175336383e-02 7.776129031822788529e-02
2.280000000000000000e+04 4.776686917479977534e-02 2.384904714917591984e-02 7.747987007564162421e-02
2.290000000000000000e+04 4.732913145891749079e-02 2.316891042088903285e-02 7.698295820640975451e-02
2.300000000000000000e+04 4.637143830619450124e-02 2.329327737285862010e-02 7.545851691513068282e-02
2.310000000000000000e+04 4.613936581963070521e-02 2.306476058693937570e-02 7.471308567902792963e-02
2.320000000000000000e+04 4.578506644974620482e-02 2.275797009919313871e-02 7.492771268833672837e-02
2.330000000000000000e+04 4.548503253952604353e-02 2.277773894183885914e-02 7.491355632509777429e-02
2.340000000000000000e+04 4.504771157162478640e-02 2.268034076708683872e-02 7.395241540175941097e-02
2.350000000000000000e+04 4.540991779857007915e-02 2.250858757420689735e-02 7.369217217365407746e-02
2.360000000000000000e+04 4.505872407958680381e-02 2.259531937996311565e-02 7.300198019739018163e-02
2.370000000000000000e+04 4.553081390377214377e-02 2.255198595787325649e-02 7.399106506451948173e-02
2.380000000000000000e+04 4.626705382179198411e-02 2.310016182967380288e-02 7.562230957567808720e-02
2.390000000000000000e+04 4.561282635267965152e-02 2.295430541694800514e-02 7.478687603821400354e-02
2.400000000000000000e+04 4.595973848938152834e-02 2.288906527871256702e-02 7.551608049290851887e-02
2.410000000000000000e+04 4.545005000586778421e-02 2.259549346552200758e-02 7.393588421284109924e-02
2.420000000000000000e+04 4.557930027394081068e-02 2.294844164222153635e-02 7.415845251633587654e-02
2.430000000000000000e+04 4.452373339987421991e-02 2.246717347453476912e-02 7.238458322856665406e-02
2.440000000000000000e+04 4.264111679503623104e-02 2.112861430713409983e-02 6.994578012602606365e-02
2.450000000000000000e+04 4.198728845540897203e-02 2.118337714641954986e-02 6.927670954302436734e-02
2.460000000000000000e+04 4.271447936775158577e-02 2.110931973354528840e-02 6.929207911823907773e-02
2.470000000000000000e+04 4.228560159062185603e-02 2.090880555885775774e-02 6.861814008153199751e-02
2.480000000000000000e+04 4.192710430289986467e-02 2.079082277190106090e-02 6.742296776264621039e-02
2.490000000000000000e+04 4.182471136019162705e-02 2.042115198187197805e-02 6.787234823741693235e-02
2.500000000000000000e+04 4.151958403610437470e-02 2.067387320186993976e-02 6.735105189904819212e-02
2.510000000000000000e+04 4.110973940024593987e-02 2.086189837691142940e-02 6.690305639950012984e-02
2.520000000000000000e+04 4.074820550447779549e-02 2.005102456484302367e-02 6.651242767198593808e-02
2.530000000000000000e+04 4.054914558857244944e-02 2.063389672868796987e-02 6.552299123651443569e-02
2.540000000000000000e+04 4.030957240862955565e-02 2.005516884278040271e-02 6.592709123627094048e-02
2.550000000000000000e+04 4.022539239938126288e-02 2.007469839731680292e-02 6.516284257915086475e-02
2.560000000000000000e+04 3.952751658840522597e-02 1.978431748056400791e-02 6.491053048725638208e-02
2.570000000000000000e+04 3.960663496339544148e-02 1.947903279372087404e-02 6.480984148392103517e-02
2.580000000000000000e+04 3.919072829456528989e-02 1.963292162565262802e-02 6.455091120672447336e-02
2.590000000000000000e+04 3.905281138623925563e-02 1.973241860868025707e-02 6.364667188847628054e-02
2.600000000000000000e+04 3.903674552428695876e-02 1.947297800076923380e-02 6.316765964796366983e-02
2.610000000000000000e+04 3.871633503230476059e-02 1.941699198770397566e-02 6.269352974141235990e-02
2.620000000000000000e+04 3.878348647902126606e-02 1.938642307888703911e-02 6.333084600801197617e-02
2.630000000000000000e+04 3.868368904153745430e-02 1.924220223164965771e-02 6.329430724672978348e-02
2.640000000000000000e+04 3.830979092814779108e-02 1.899163200977410301e-02 6.248541699344332956e-02
2.650000000000000000e+04 3.847051187167487007e-02 1.919117557880585176e-02 6.205732289549761860e-02
2.660000000000000000e+04 3.782734360252951178e-02 1.882923689542321741e-02 6.163067370638449644e-02
2.670000000000000000e+04 3.725469442922981628e-02 1.841477928218458390e-02 6.171173385361840291e-02
2.680000000000000000e+04 3.752274430617552614e-02 1.869869386801473882e-02 6.191512184342393837e-02
2.690000000000000000e+04 3.767594339976858969e-02 1.850175476085324719e-02 6.122913873390849887e-02
2.700000000000000000e+04 3.710885962028634411e-02 1.865072113216638752e-02 6.057908250567672903e-02
2.710000000000000000e+04 3.737645421661978801e-02 1.879645458848158354e-02 6.114544040026169414e-02
2.720000000000000000e+04 3.766030366974128935e-02 1.912164517442948436e-02 6.115428565028539071e-02
2.730000000000000000e+04 3.743496454712114119e-02 1.843885358108849140e-02 6.065565082076829900e-02
2.740000000000000000e+04 3.718208685550075665e-02 1.861125534495329872e-02 6.047739733788337624e-02
2.750000000000000000e+04 3.709759175330241965e-02 1.861721290041131946e-02 6.074011683654312321e-02
2.760000000000000000e+04 3.676419844956763799e-02 1.844612120422751272e-02 6.094050211279700840e-02
2.770000000000000000e+04 3.670626397363525861e-02 1.820911681188607315e-02 5.956459046465273355e-02
2.780000000000000000e+04 3.633769259694263204e-02 1.785529853611266329e-02 5.932981732616136872e-02
2.790000000000000000e+04 3.607879961526413298e-02 1.832323685694859511e-02 5.878010752795576749e-02
2.800000000000000000e+04 3.620121073966825476e-02 1.797625388472132504e-02 5.908874573340022751e-02
2.810000000000000000e+04 3.586485287791088550e-02 1.810066847837283818e-02 5.834581371310419706e-02
2.820000000000000000e+04 3.573769826135374944e-02 1.760871585297977410e-02 5.847576498923307692e-02
2.830000000000000000e+04 3.535627825590908352e-02 1.780227568786635697e-02 5.769130903909527180e-02
2.840000000000000000e+04 3.578361260181247422e-02 1.824200974158270150e-02 5.817038531545321023e-02
2.850000000000000000e+04 6.098600190854068515e-02 3.404956864220889945e-02 8.976864495436923108e-02
2.860000000000000000e+04 4.551792176525825684e-01 4.231650144046936735e-01 4.874812682590835000e-01
2.870000000000000000e+04 5.873909286858901568e-01 5.576538991784177890e-01 6.187172089399592956e-01
2.880000000000000000e+04 1.786017399613239187e-01 1.458609883376585370e-01 2.112303959850758972e-01
2.890000000000000000e+04 3.918730030949069826e-02 1.979661073309242278e-02 6.256187285250194852e-02
2.900000000000000000e+04 3.477398818759674937e-02 1.738356258785241429e-02 5.649213962026549546e-02
2.910000000000000000e+04 3.391868517030870861e-02 1.720316574015113426e-02 5.505993981205109522e-02
2.920000000000000000e+04 3.398817694546353574e-02 1.683944240208429255e-02 5.528308262213511848e-02
2.930000000000000000e+04 3.406393387478126589e-02 1.740183267939038672e-02 5.562455758927453697e-02
2.940000000000000000e+04 3.337692502707553799e-02 1.648842771286662678e-02 5.484587413061116357e-02
2.950000000000000000e+04 3.321578221140768228e-02 1.654612322197738031e-02 5.424492161233495507e-02
2.960000000000000000e+04 3.297702636246024194e-02 1.652013130180916486e-02 5.433691541090986121e-02
2.970000000000000000e+04 3.292102686484207202e-02 1.652693577896037491e-02 5.334965434443116050e-02
2.980000000000000000e+04 3.360660427128511762e-02 1.647384283902738472e-02 5.468591185901072738e-02
2.990000000000000000e+04 3.483778902799635618e-02 1.734742489080509653e-02 5.709717919272203762e-02
3.000000000000000000e+04 3.327602506088169626e-02 1.644044806943233475e-02 5.396445371727278534e-02
3.010000000000000000e+04 3.327873855073319037e-02 1.666181001116858601e-02 5.376492941894582545e-02
3.020000000000000000e+04 3.295691028982058318e-02 1.669433210427149344e-02 5.423739590456366083e-02
3.030000000000000000e+04 3.245604367316719946e-02 1.607808163371594531e-02 5.290277977698872036e-02
3.040000000000000000e+04 3.457339323457486041e-02 1.725864381475807757e-02 5.641496704153026176e-02
3.050000000000000000e+04 3.965605048706360991e-02 1.959251758262899046e-02 6.417527104454086306e-02
3.060000000000000000e+04 3.608216847642848474e-02 1.799055340470558095e-02 5.837245307903647651e-02
3.070000000000000000e+04 4.058515941217204215e-02 2.043435789897002364e-02 6.583566495080796221e-02
3.080000000000000000e+04 3.430936233918085998e-02 1.680462074332186168e-02 5.563915808638453947e-02
3.090000000000000000e+04 3.751852346922713438e-02 1.868509999464440172e-02 6.111808412618693898e-02
3.100000000000000000e+04 5.648645537320966248e-02 3.205838764850003908e-02 8.241677333789317050e-02
3.110000000000000000e+04 4.244796850637791441e-02 2.179827635915755277e-02 6.745140625570572590e-02
3.120000000000000000e+04 3.084126802690102115e-02 1.523377224150044944e-02 5.089962636356420295e-02
3.130000000000000000e+04 3.096489153076090878e-02 1.565824372457399333e-02 5.038230693504318347e-02
3.140000000000000000e+04 3.082160499478486804e-02 1.540655035607830375e-02 4.996119082879037221e-02
3.150000000000000000e+04 3.034616844015683088e-02 1.553358510623693844e-02 4.924951382749977874e-02
3.160000000000000000e+04 3.024266849309280997e-02 1.485562373942968077e-02 4.918239221930882643e-02
3.170000000000000000e+04 3.020653936821760324e-02 1.503828673863906625e-02 4.859262939533600528e-02
3.180000000000000000e+04 3.030784747011127864e-02 1.518656053680709356e-02 4.905564711786003507e-02
3.190000000000000000e+04 3.070857699657478582e-02 1.519805601407914208e-02 4.967534187753756131e-02
3.200000000000000000e+04 3.032043832192832591e-02 1.513430676687265580e-02 4.879779491524607188e-02
3.210000000000000000e+04 2.981102725280716445e-02 1.487556530541864729e-02 4.898561057757062215e-02
3.220000000000000000e+04 3.008110998506116629e-02 1.505620517594550775e-02 4.882049484649346460e-02
3.230000000000000000e+04 2.987940667430155975e-02 1.479068837834397222e-02 4.828105581664418611e-02
3.240000000000000000e+04 2.943753916659101744e-02 1.471715029376587623e-02 4.765848960040923454e-02
3.250000000000000000e+04 2.905621729484016494e-02 1.440799116818133017e-02 4.773528652460112126e-02
3.260000000000000000e+04 2.875158997438220440e-02 1.435663239894139492e-02 4.666038162979876253e-02
3.270000000000000000e+04 2.837748147120673289e-02 1.419788465740482765e-02 4.645097372063761859e-02
3.280000000000000000e+04 2.832739319117206014e-02 1.418688782326096333e-02 4.564253235252861696e-02
3.290000000000000000e+04 2.792432407155254204e-02 1.389482494636228894e-02 4.558101755630878521e-02
3.300000000000000000e+04 2.760882280108653206e-02 1.387925532544544670e-02 4.472647523314984136e-02
3.310000000000000000e+04 3.259456340633458404e-02 1.626124848393375316e-02 5.169922270295446154e-02
3.320000000000000000e+04 3.611584067008379723e-02 1.826838823723515512e-02 5.661584276998302828e-02
3.330000000000000000e+04 2.812599747387137597e-02 1.423782271730567213e-02 4.574459287878091668e-02
3.340000000000000000e+04 2.726123132116534467e-02 1.374572709459916282e-02 4.430777234770660877e-02
3.350000000000000000e+04 2.678377401372116287e-02 1.347035374214845295e-02 4.405942272747186833e-02
3.360000000000000000e+04 2.639237157976397422e-02 1.338016220887392957e-02 4.321665908831293784e-02
3.370000000000000000e+04 2.622302791769643912e-02 1.290322874502597590e-02 4.290007556105444181e-02
3.380000000000000000e+04 2.649156450274820634e-02 1.332097116585654467e-02 4.320468857159898840e-02
3.390000000000000000e+04 2.654506520113323470e-02 1.338869466276142693e-02 4.339352058224484748e-02
3.400000000000000000e+04 2.648885169219776861e-02 1.321628311393244562e-02 4.295890016072337336e-02
3.410000000000000000e+04 2.609453567110023645e-02 1.275147284054204029e-02 4.264710579064415197e-02
3.420000000000000000e+04 2.619498869217500372e-02 1.301130257332251856e-02 4.247476333159945494e-02
3.430000000000000000e+04 2.609248579281715427e-02 1.328055763478594963e-02 4.246748719196793975e-02
3.440000000000000000e+04 2.595759985997332653e-02 1.265650014591626453e-02 4.207721399233655540e-02
3.450000000000000000e+04 2.571583764339529718e-02 1.280349683395259897e-02 4.168958204638837511e-02
3.460000000000000000e+04 2.596855151074519905e-02 1.309443202610231262e-02 4.204168430953480334e-02
3.470000000000000000e+04 2.560106824110104651e-02 1.287044389103415148e-02 4.155912574200595205e-02
3.480000000000000000e+04 2.563927046358201525e-02 1.274478394343285526e-02 4.167084564449650280e-02
3.490000000000000000e+04 2.525269804276356750e-02 1.269744662417664899e-02 4.129160514928246345e-02
3.500000000000000000e+04 2.525933621112008351e-02 1.247891119874637231e-02 4.110530627643736029e-02
3.510000000000000000e+04 2.497818672510002114e-02 1.246217310503198485e-02 4.100398151989361611e-02
3.520000000000000000e+04 2.501801500827974603e-02 1.239683725877703535e-02 4.096446806649355066e-02
3.530000000000000000e+04 2.480301438905154268e-02 1.232063531589127833e-02 4.065831164425388888e-02
3.540000000000000000e+04 2.473373656440862670e-02 1.234427103204879979e-02 4.018813939787471701e-02
3.550000000000000000e+04 2.470273885703908046e-02 1.225843161281631177e-02 4.024682177983868181e-02
3.560000000000000000e+04 2.452380434415776453e-02 1.231054459222138790e-02 3.999789298993578629e-02
3.570000000000000000e+04 2.464543340978329541e-02 1.228915154641209602e-02 4.005446707155101149e-02
3.580000000000000000e+04 2.436548196415978806e-02 1.225052287010723780e-02 3.975799115156399000e-02
3.590000000000000000e+04 2.448275996970528806e-02 1.210012464525470587e-02 3.930275763177247528e-02
3.600000000000000000e+04 2.423570299457177349e-02 1.217936191958485237e-02 3.929935861072270109e-02
3.610000000000000000e+04 2.436370774034824632e-02 1.201352337682300674e-02 3.913496287029113313e-02
3.620000000000000000e+04 2.423012266309815602e-02 1.215776923298120434e-02 3.956621609400785139e-02
3.630000000000000000e+04 2.434629269452488406e-02 1.218370726138877369e-02 3.989182406134709341e-02
3.640000000000000000e+04 2.456472416910521900e-02 1.212806002818212978e-02 3.968235119557295132e-02
3.650000000000000000e+04 2.385551276455292330e-02 1.184508640816340358e-02 3.894403809151422008e-02
3.660000000000000000e+04 2.365290326780912500e-02 1.151762085225950007e-02 3.860429611197157412e-02
3.670000000000000000e+04 2.362518584986764494e-02 1.167036521384753715e-02 3.886309488461069106e-02
3.680000000000000000e+04 2.371652840867849790e-02 1.185728996622134601e-02 3.970306509318506649e-02
3.690000000000000000e+04 2.392236608271412074e-02 1.187256824924864257e-02 3.975414236898922732e-02
3.700000000000000000e+04 2.646248316649787297e-02 1.326845130322352843e-02 4.395273704052995306e-02
3.710000000000000000e+04 3.157512164980229297e-02 1.597485186297012416e-02 5.258745314294352435e-02
3.720000000000000000e+04 2.804072980545796803e-02 1.377538995418501645e-02 4.672741050649408673e-02
3.730000000000000000e+04 3.400711808367250927e-02 1.705161113446780966e-02 5.676307581132719604e-02
3.740000000000000000e+04 2.764245264333669086e-02 1.375554036242879717e-02 4.659447056085479211e-02
3.750000000000000000e+04 2.579013362349116475e-02 1.288843502086629844e-02 4.388181469274403390e-02
3.760000000000000000e+04 3.625154216815132391e-02 1.915111019462900285e-02 5.730489565672660518e-02
3.770000000000000000e+04 3.050211149586583986e-02 1.549759862595841142e-02 5.164818048054650723e-02
3.780000000000000000e+04 2.550815459589513695e-02 1.252925881266774705e-02 4.619444022458013555e-02
3.790000000000000000e+04 2.570101245382021976e-02 1.257492108323470144e-02 4.749763015007441025e-02
3.800000000000000000e+04 2.524134438617363363e-02 1.244647845033657226e-02 4.768531153105250858e-02
3.810000000000000000e+04 2.593263128153523375e-02 1.242395443716529276e-02 4.939061081176875784e-02
3.820000000000000000e+04 2.683894852808499723e-02 1.286923817582077793e-02 5.236148730467857226e-02
3.830000000000000000e+04 2.867459013113071026e-02 1.387622218558035025e-02 5.609338794905557174e-02
3.840000000000000000e+04 2.765784219507266481e-02 1.324225039286207675e-02 5.720103200030120932e-02
3.850000000000000000e+04 2.625001966885222304e-02 1.276115880714187752e-02 5.601110879418440963e-02
3.860000000000000000e+04 2.506718399055714655e-02 1.208458830813569952e-02 5.131859967038673864e-02
3.870000000000000000e+04 2.490690988982762616e-02 1.199186588524329793e-02 4.977078250934310194e-02
3.880000000000000000e+04 2.456833980039980006e-02 1.193735409241185493e-02 4.847752944631256167e-02
3.890000000000000000e+04 2.712256330987203659e-02 1.340934015696907192e-02 4.955530581847154142e-02
3.900000000000000000e+04 3.290269396879613034e-02 1.679172434692164859e-02 5.456832790313391468e-02
3.910000000000000000e+04 2.618365118783418793e-02 1.330410348252288218e-02 4.608504777022167515e-02
3.920000000000000000e+04 3.375733725454885953e-02 1.755053200201118005e-02 5.393553179087860749e-02
3.930000000000000000e+04 3.147522760113150714e-02 1.599433712166250035e-02 4.980065037971832809e-02
3.940000000000000000e+04 2.243008379405577249e-02 1.120166923959627081e-02 3.750228189172268023e-02
3.950000000000000000e+04 2.149152142741045726e-02 1.081234672900106310e-02 3.648324915630463822e-02
3.960000000000000000e+04 2.162500739843142838e-02 1.079574180479182105e-02 3.546030657482261012e-02
3.970000000000000000e+04 2.101588444897888736e-02 1.056212219868940365e-02 3.510925509701270236e-02
3.980000000000000000e+04 2.079122521745786073e-02 1.053620172411524718e-02 3.432519852641075647e-02
3.990000000000000000e+04 2.071146632785523037e-02 1.025573185178087383e-02 3.411398433412790587e-02
4.000000000000000000e+04 2.052129545200104960e-02 1.011446352304165401e-02 3.375972867379013059e-02
4.010000000000000000e+04 2.044128316074405108e-02 1.021187599894757790e-02 3.321879027981147758e-02
4.020000000000000000e+04 2.033533521679573713e-02 1.007151425515647077e-02 3.330587790590088665e-02
4.030000000000000000e+04 2.034570793883403589e-02 1.011246604317179998e-02 3.304923862874705603e-02
4.040000000000000000e+04 2.011521326001774676e-02 1.012716398868986588e-02 3.266296117871472782e-02
4.050000000000000000e+04 1.992124439776283770e-02 9.971266492429622583e-03 3.281118465176229015e-02
4.060000000000000000e+04 2.014521530360694618e-02 1.008380901125560322e-02 3.296920769970684145e-02
4.070000000000000000e+04 1.997214141608544269e-02 9.974232399150984377e-03 3.305413994257085097e-02
4.080000000000000000e+04 2.011733857194481639e-02 1.002818938896973301e-02 3.277691047023310877e-02
4.090000000000000000e+04 1.997061457570560583e-02 9.921322391771627072e-03 3.236834437426647226e-02
4.100000000000000000e+04 1.994696444202553182e-02 9.772104294007877279e-03 3.231398950580079144e-02
4.110000000000000000e+04 1.984994669699042397e-02 9.764412893598082774e-03 3.236360016546005469e-02
4.120000000000000000e+04 2.001554943187256255e-02 9.890608176048648267e-03 3.214284507320287754e-02
4.130000000000000000e+04 1.988655516301735676e-02 9.885176806653739323e-03 3.218785629942900323e-02
4.140000000000000000e+04 1.970089782703184772e-02 9.873607341901707857e-03 3.222172009853056102e-02
4.150000000000000000e+04 1.979040966251776820e-02 9.725345417724665445e-03 3.239459388323901595e-02
4.160000000000000000e+04 1.993737908074228946e-02 1.010311370448982796e-02 3.224650238941573904e-02
4.170000000000000000e+04 1.958807145896829249e-02 9.692985299934673768e-03 3.191928709882733972e-02
4.180000000000000000e+04 1.965428009030933953e-02 9.892815375575535197e-03 3.192144247064641199e-02
4.190000000000000000e+04 1.951860132767513009e-02 9.793523050577221389e-03 3.177186464135038635e-02
4.200000000000000000e+04 1.946994631915122120e-02 9.635184378835594601e-03 3.150596229618985583e-02
4.210000000000000000e+04 1.933639431668558381e-02 9.579903686189199935e-03 3.156341905870119896e-02
4.220000000000000000e+04 1.883306177607207976e-02 9.230447420245329118e-03 3.102785169104719729e-02
4.230000000000000000e+04 1.914249433458797139e-02 9.625325950756208684e-03 3.111004786411324802e-02
4.240000000000000000e+04 1.915687596182637578e-02 9.525469034314653499e-03 3.123784152460768598e-02
4.250000000000000000e+04 1.894202615966288084e-02 9.539032149149971260e-03 3.134102297406009957e-02
4.260000000000000000e+04 1.957779926719902669e-02 9.589653298008390600e-03 3.305373087787526198e-02
4.270000000000000000e+04 2.036015328026526475e-02 9.993295192100565619e-03 3.555827628933266177e-02
4.280000000000000000e+04 2.121572324727938330e-02 1.041577713245292990e-02 4.087064582632425613e-02
4.290000000000000000e+04 2.209468640069705767e-02 1.058168067254407554e-02 8.049466539902452866e-02
4.300000000000000000e+04 2.450894646483824449e-02 1.116552373074000508e-02 1.977639764008634893e-01
4.310000000000000000e+04 2.740589378323127212e-02 1.195222545305294620e-02 2.714620722954370624e-01
4.320000000000000000e+04 3.062770812877141716e-02 1.301929779288898796e-02 2.986755131307650135e-01
4.330000000000000000e+04 3.108997853943994485e-02 1.299512557295591161e-02 3.090167715365552681e-01
4.340000000000000000e+04 2.973467459568035834e-02 1.251917804085502829e-02 2.804093738644212186e-01
4.350000000000000000e+04 2.639180164442589752e-02 1.186280142198267371e-02 2.556624169352118003e-01
4.360000000000000000e+04 2.471961752362121859e-02 1.132423933602732385e-02 2.020015502675705787e-01
4.370000000000000000e+04 2.367564917879094386e-02 1.121122829564776512e-02 1.080243940042117934e-01
4.380000000000000000e+04 2.318403724788984516e-02 1.100476343671644673e-02 4.883342869916444673e-02
4.390000000000000000e+04 2.260935368517520694e-02 1.105811900601900294e-02 4.239145809046660635e-02
4.400000000000000000e+04 2.173769286701811645e-02 1.058658669501591487e-02 3.968849595043851680e-02
4.410000000000000000e+04 2.092853466651704852e-02 1.037881192333352763e-02 3.603928175559675817e-02
4.420000000000000000e+04 2.243949766762581496e-02 1.116764353793712854e-02 3.766675362340972388e-02
4.430000000000000000e+04 2.185491478751794975e-02 1.074768350403903540e-02 3.607021134475427854e-02
4.440000000000000000e+04 1.874733949222344084e-02 9.425248610121181661e-03 3.035131351826027626e-02
4.450000000000000000e+04 1.810363734185813089e-02 9.081554354587392797e-03 2.951922298739507317e-02
4.460000000000000000e+04 1.789392590678787198e-02 8.918609830919521642e-03 2.920383331853560957e-02
4.470000000000000000e+04 1.764029849853347709e-02 8.763528253215696270e-03 2.862329282814650086e-02
4.480000000000000000e+04 1.720182606212974918e-02 8.458490211313259358e-03 2.773484374346564182e-02
4.490000000000000000e+04 1.724724546782960971e-02 8.718053117391320536e-03 2.852607284254429082e-02
4.500000000000000000e+04 1.778721729596629414e-02 8.888225681577974213e-03 2.864860365566951339e-02
4.510000000000000000e+04 1.770628140776353901e-02 8.800433969031557987e-03 2.892147726592669832e-02
4.520000000000000000e+04 1.772322243553260679e-02 8.875808761716607112e-03 2.895291761442565087e-02
4.530000000000000000e+04 2.198788269485285607e-02 1.100816357671239275e-02 3.582074066253278927e-02
4.540000000000000000e+04 3.930458807424119100e-02 1.975213670145153921e-02 6.426931762872105380e-02
4.550000000000000000e+04 3.928207190794928000e-02 2.002399268494033796e-02 6.360483955481520402e-02
4.560000000000000000e+04 2.295256298689779886e-02 1.147243251499034840e-02 3.704043130325910399e-02
4.570000000000000000e+04 1.750909009148520282e-02 8.656178046886736296e-03 2.867132517648334974e-02
4.580000000000000000e+04 1.726197940541992701e-02 8.574676100435729004e-03 2.812538549037836566e-02
4.590000000000000000e+04 1.711347562829128310e-02 8.724302811807952210e-03 2.827499610782963774e-02
4.600000000000000000e+04 1.716634092227533812e-02 8.560801979618976043e-03 2.785299705025483588e-02
4.610000000000000000e+04 1.736708617461016693e-02 8.637917125137254890e-03 2.810652996434495621e-02
4.620000000000000000e+04 1.722530580735683742e-02 8.593682165522260885e-03 2.804160623733309779e-02
4.630000000000000000e+04 1.766260385537194930e-02 8.910323691505741064e-03 2.887297524223677789e-02
4.640000000000000000e+04 2.089304688266458224e-02 1.019107628464290156e-02 3.508815962167106256e-02
4.650000000000000000e+04 3.141824350707578262e-02 1.621813753884131584e-02 4.774530274380443806e-02
4.660000000000000000e+04 2.463839498534995884e-02 1.238493351742917144e-02 3.971012416692047686e-02
4.670000000000000000e+04 1.734683002913702671e-02 8.570447134631961963e-03 2.807331406578509464e-02
4.680000000000000000e+04 1.713574132302615391e-02 8.675405838219900356e-03 2.792579703473136235e-02
4.690000000000000000e+04 1.725275280770654715e-02 8.609666037361192459e-03 2.826959432345245785e-02
4.700000000000000000e+04 3.092484363701611394e-02 1.537028861277553796e-02 4.972735782307108332e-02
4.710000000000000000e+04 8.605334145715147487e-02 4.219211367490812575e-02 1.376933484344832481e-01
4.720000000000000000e+04 8.099098930874719382e-02 4.080157686861900918e-02 1.327387685636675640e-01
4.730000000000000000e+04 9.183309143294797472e-02 4.397234644736117831e-02 1.519307154383757463e-01
4.740000000000000000e+04 4.765187749148808161e-02 2.321728715696263004e-02 7.914931657198653880e-02
4.750000000000000000e+04 1.686012314484601482e-02 8.381830954154808819e-03 2.698975252562410554e-02
4.760000000000000000e+04 1.661325904143226215e-02 8.374758867859316905e-03 2.725297268217149321e-02
4.770000000000000000e+04 1.666172354063204936e-02 8.438351460250546193e-03 2.706089816867624995e-02
4.780000000000000000e+04 1.647940722855229315e-02 8.174421844797727724e-03 2.701452557667283552e-02
4.790000000000000000e+04 1.656056668387840755e-02 8.355639725248172056e-03 2.708028966182948402e-02
4.800000000000000000e+04 1.794488150335200177e-02 9.122107045807551287e-03 2.932123109785633383e-02
4.810000000000000000e+04 3.576799839084627425e-02 2.160189594381969544e-02 5.105265331642232923e-02
4.820000000000000000e+04 4.225516479741601994e-02 2.866425311872577292e-02 5.586306458240933998e-02
4.830000000000000000e+04 1.923981069341401326e-02 9.635237036024512855e-03 3.095435772788604489e-02
4.840000000000000000e+04 1.649511845863016121e-02 8.302594747222584101e-03 2.708090697238922998e-02
4.850000000000000000e+04 1.642336846991774776e-02 8.243729920225447913e-03 2.664680534263300787e-02
4.860000000000000000e+04 1.631554372632254904e-02 8.047045264724333666e-03 2.662874822237493860e-02
4.870000000000000000e+04 1.623955192657310781e-02 8.130775492053911313e-03 2.640099047467204738e-02
4.880000000000000000e+04 1.619615361766500727e-02 8.240107717346220606e-03 2.639618380831200775e-02
4.890000000000000000e+04 1.730827605294405977e-02 8.856038543278283576e-03 2.833226997546008444e-02
4.900000000000000000e+04 2.190131820506526633e-02 1.076974467576653424e-02 3.559392144292103377e-02
4.910000000000000000e+04 1.929443253060616342e-02 9.541392879335990410e-03 3.147379759202671018e-02
4.920000000000000000e+04 2.500144153762525606e-02 1.259161848744731749e-02 4.071632560900607933e-02
4.930000000000000000e+04 2.281093685043860189e-02 1.137490939140924778e-02 3.756122009849965221e-02
4.940000000000000000e+04 1.630747352452113080e-02 8.032458487381566661e-03 2.636181159220468348e-02
4.950000000000000000e+04 1.621560177987635409e-02 8.025535775754159135e-03 2.655777594676812098e-02
4.960000000000000000e+04 1.770087643840558347e-02 8.850419869286802257e-03 2.903667258766286924e-02
4.970000000000000000e+04 3.661544432735546611e-02 2.335414568279090691e-02 4.992349266486352521e-02
4.980000000000000000e+04 3.935938351811736624e-02 2.636857067627411400e-02 5.259498177705749372e-02
4.990000000000000000e+04 1.769655608063945909e-02 8.813957435071627031e-03 2.892631023538669646e-02
5.000000000000000000e+04 1.617643508061616248e-02 7.970715031568636338e-03 2.607273196784577404e-02
5.010000000000000000e+04 1.596389504363149997e-02 7.947383328402718786e-03 2.614399476292848801e-02
5.020000000000000000e+04 1.592169904037437494e-02 7.996377686735719331e-03 2.605884280468391892e-02
5.030000000000000000e+04 1.583950736138493159e-02 7.844480984155535741e-03 2.605863931232329372e-02
5.040000000000000000e+04 1.597383001734167807e-02 7.869994249570943720e-03 2.604012635592044614e-02
5.050000000000000000e+04 1.634419725697171602e-02 8.098874124589356890e-03 2.669940925907015108e-02
5.060000000000000000e+04 1.591055582629518489e-02 7.957510766983188003e-03 2.609661252941987072e-02
5.070000000000000000e+04 1.583171014062021223e-02 7.839375784204214576e-03 2.552243226092765910e-02
5.080000000000000000e+04 1.557874271048833789e-02 7.685400383900793317e-03 2.553149224180730273e-02
5.090000000000000000e+04 1.558583130142862476e-02 7.985873989064955908e-03 2.537000296076953251e-02
5.100000000000000000e+04 1.552953700682252122e-02 7.690210662648313232e-03 2.533784185026592348e-02
5.110000000000000000e+04 1.537010950408039187e-02 7.573625096022560191e-03 2.513545447709914643e-02
5.120000000000000000e+04 1.545064313855758209e-02 7.740604337332692916e-03 2.518454458403321383e-02
5.130000000000000000e+04 1.556031254791779769e-02 7.744338803190676211e-03 2.513546923267853325e-02
5.140000000000000000e+04 1.551787972339648859e-02 7.595677992749089863e-03 2.529545932609143441e-02
5.150000000000000000e+04 1.536948765373782541e-02 7.689478450914854525e-03 2.505593752063439705e-02
5.160000000000000000e+04 1.547246573839597232e-02 7.639896759664079225e-03 2.511863305090739421e-02
5.170000000000000000e+04 1.540587412857127164e-02 7.663684864076243317e-03 2.521115721261605117e-02
5.180000000000000000e+04 1.561422849962868474e-02 7.804645914241248490e-03 2.542880986645715963e-02
5.190000000000000000e+04 1.550911110608246476e-02 7.778738987916341066e-03 2.556307764495431914e-02
5.200000000000000000e+04 1.556394282355002753e-02 7.815591128780625257e-03 2.495069684042737837e-02
5.210000000000000000e+04 1.543475783208983314e-02 7.729349836577656049e-03 2.503604129691052588e-02
5.220000000000000000e+04 1.522210255028599336e-02 7.672796662526888342e-03 2.518940388294112209e-02
5.230000000000000000e+04 1.537192072115609216e-02 7.572435578549681010e-03 2.525757634315088998e-02
5.240000000000000000e+04 1.527919939381621427e-02 7.700717526516690642e-03 2.502475914689755027e-02
5.250000000000000000e+04 1.534358231266885753e-02 7.692653261453809808e-03 2.504062843318913267e-02
5.260000000000000000e+04 1.529587305541847513e-02 7.731545379643596332e-03 2.493328039997991241e-02
5.270000000000000000e+04 1.545291446231935803e-02 7.734006046612025738e-03 2.510366284851124966e-02
5.280000000000000000e+04 1.552369974343543492e-02 7.678060107680218481e-03 2.543864193529993961e-02
5.290000000000000000e+04 1.550039411437776314e-02 7.741157405679321112e-03 2.506359892625791008e-02
5.300000000000000000e+04 1.555283204166643674e-02 7.659227470359335904e-03 2.522820228175243207e-02
5.310000000000000000e+04 1.557210165503394861e-02 7.741386617097456742e-03 2.535365516436884417e-02
5.320000000000000000e+04 1.575350876912207099e-02 7.897120225406969660e-03 2.568472300723066010e-02
5.330000000000000000e+04 1.562088940805424903e-02 7.725053720517766932e-03 2.567010687618006062e-02
5.340000000000000000e+04 1.570258578294333324e-02 7.863829043908379668e-03 2.547517112116419458e-02
5.350000000000000000e+04 1.585407558493591093e-02 7.969594105103386047e-03 2.565735792568703266e-02
5.360000000000000000e+04 1.589096480226032115e-02 7.949450572145362603e-03 2.607455817691127845e-02
5.370000000000000000e+04 1.604839653003176103e-02 8.100831585014888273e-03 2.627096254473253178e-02
5.380000000000000000e+04 1.642867220859009492e-02 8.226838933120256617e-03 2.684107896650278491e-02
5.390000000000000000e+04 1.672500687263216851e-02 8.280598664956197869e-03 2.758974451692795121e-02
5.400000000000000000e+04 1.720537091850574823e-02 8.546341137015196765e-03 2.802772642320330507e-02
5.410000000000000000e+04 1.764575320187354579e-02 8.673250563311109967e-03 2.898610036892658448e-02
5.420000000000000000e+04 1.853239145629407419e-02 9.388584205097770530e-03 3.007497218614978152e-02
5.430000000000000000e+04 1.788015143790334938e-02 8.887152964136078859e-03 2.915533162806757672e-02
5.440000000000000000e+04 1.739598133116557199e-02 8.738097602434647532e-03 2.813412033619136499e-02
5.450000000000000000e+04 1.741488092206077906e-02 8.631983772811739272e-03 2.846650033262659515e-02
5.460000000000000000e+04 1.793025572021045289e-02 8.757369039479866515e-03 2.919296126886943010e-02
5.470000000000000000e+04 2.251614113662089162e-02 1.132320817855652154e-02 3.535343678484511448e-02
5.480000000000000000e+04 2.178165059585139562e-02 1.125975081067649361e-02 3.446166553891156364e-02
5.490000000000000000e+04 1.782333947907367364e-02 8.906952391001698999e-03 2.910028890540063834e-02
5.500000000000000000e+04 2.529746774836463125e-02 1.278831656646593241e-02 4.096670649293054217e-02
5.510000000000000000e+04 1.421408486729186238e-01 7.224943256293192562e-02 2.255361867490668915e-01
5.520000000000000000e+04 1.786779305428450315e-01 9.167546123618387777e-02 2.845791165945599221e-01
5.530000000000000000e+04 5.589765355543364206e-02 2.847419408260773097e-02 9.023835047200538806e-02
5.540000000000000000e+04 2.662404545425542390e-02 1.354248686590798362e-02 4.169383233229305430e-02
5.550000000000000000e+04 1.624208750267790158e-01 8.053676708489070080e-02 2.670894183347750084e-01
5.560000000000000000e+04 3.710034487204126319e-01 1.825962229878403398e-01 6.094396151602117229e-01
5.570000000000000000e+04 3.292814845667302315e-01 1.613267356238513861e-01 5.357910006325496965e-01
5.580000000000000000e+04 9.159086945968103466e-02 4.430960086472019582e-02 1.501721796234746775e-01
5.590000000000000000e+04 2.052023150986388364e-02 1.036314309133733180e-02 3.337946658231241009e-02
5.600000000000000000e+04 1.862737318730776914e-02 9.108250586652511319e-03 3.029003906476265134e-02
5.610000000000000000e+04 1.840141668269570235e-02 9.152266514786391513e-03 3.022778077905357089e-02
5.620000000000000000e+04 1.856673902007669255e-02 9.403438917660527502e-03 3.007472019935589908e-02
5.630000000000000000e+04 1.872488760944868505e-02 9.339731386432289367e-03 3.062304976861085146e-02
5.640000000000000000e+04 1.917737967474100400e-02 9.468517590142366477e-03 3.136414569788985307e-02
5.650000000000000000e+04 1.970843452133026405e-02 9.704586294230831828e-03 3.226064863701642860e-02
5.660000000000000000e+04 2.009762350606394965e-02 1.000452999852982118e-02 3.332215565340786861e-02
5.670000000000000000e+04 2.085982343307833664e-02 1.040225218073069675e-02 3.447082756324616054e-02
5.680000000000000000e+04 2.169738764315771659e-02 1.091902755028517635e-02 3.597328023348700388e-02
5.690000000000000000e+04 2.630427187539807754e-02 1.298364480864087726e-02 4.419992275372610496e-02
5.700000000000000000e+04 2.773445480798096205e-02 1.361821150080085030e-02 4.598373448074677405e-02
5.710000000000000000e+04 2.733659426991631725e-02 1.360634537248710599e-02 4.555227470297450870e-02
5.720000000000000000e+04 1.129158057141816662e-01 8.373590898147867390e-02 1.399037988127263266e-01
5.730000000000000000e+04 4.227212207094370733e-01 3.957007977999502657e-01 4.486830007537034870e-01
5.740000000000000000e+04 3.617573235265925113e-01 3.331564988724848297e-01 3.914895776537688499e-01
5.750000000000000000e+04 5.939491114942236499e-02 3.458809940857147242e-02 8.763308387509802233e-02
5.760000000000000000e+04 3.109228976857028592e-02 1.490412486930523667e-02 5.424548025098802767e-02
5.770000000000000000e+04 3.145907522323185268e-02 1.501408553223584040e-02 5.503940550730193615e-02
5.780000000000000000e+04 3.238212048750403749e-02 1.532965651733951724e-02 5.864099869517045566e-02
5.790000000000000000e+04 3.414740981008084625e-02 1.620458572312111559e-02 6.230068601061421185e-02
5.800000000000000000e+04 3.576376895405755652e-02 1.674044272536710093e-02 6.541398879270644839e-02
5.810000000000000000e+04 3.711329549750124607e-02 1.715377314050882396e-02 6.749754120953668779e-02
5.820000000000000000e+04 3.798185767776251359e-02 1.779822076255741306e-02 6.901790905608359838e-02
5.830000000000000000e+04 3.936148197617299338e-02 1.853116382768858067e-02 7.089588442310458538e-02
5.840000000000000000e+04 4.023030338825749758e-02 1.917706517838754093e-02 7.260160431628968902e-02
5.850000000000000000e+04 4.097983452286511896e-02 1.928495321807000354e-02 7.313362674187177948e-02
5.860000000000000000e+04 4.205047420345996156e-02 1.970496302197638841e-02 7.429980437988578656e-02
5.870000000000000000e+04 4.284541120109559842e-02 2.024222411514624287e-02 7.632114049037140580e-02
5.880000000000000000e+04 4.443247189935036617e-02 2.112445956320022772e-02 7.827912344722386118e-02
5.890000000000000000e+04 4.578746646612971011e-02 2.200551421214812578e-02 7.865943014092247054e-02
5.900000000000000000e+04 4.676342479366894789e-02 2.256693539040183910e-02 7.898784757288908331e-02
5.910000000000000000e+04 4.690612415908618910e-02 2.290850921106710528e-02 7.881271207544995883e-02
5.920000000000000000e+04 4.770082972904440832e-02 2.306250563514660942e-02 7.982389086867366923e-02
5.930000000000000000e+04 4.728752878401277365e-02 2.384564953003940821e-02 7.926583973594335253e-02
5.940000000000000000e+04 4.709781628158352801e-02 2.308573175741106265e-02 7.816384438794027334e-02
5.950000000000000000e+04 4.709093199407509561e-02 2.323885065227348709e-02 7.810295800843643221e-02
5.960000000000000000e+04 4.772810644259067175e-02 2.352278312859402282e-02 7.857304273265976191e-02
5.970000000000000000e+04 4.836950201620122958e-02 2.361732259664035827e-02 7.984899713978636793e-02
5.980000000000000000e+04 4.942405075253315794e-02 2.443814754190593713e-02 8.084740829152735342e-02
5.990000000000000000e+04 4.984709555183517576e-02 2.448596180065217356e-02 8.235613150779673430e-02
6.000000000000000000e+04 5.063105355817597297e-02 2.522422496833433975e-02 8.328750422109547358e-02
6.010000000000000000e+04 5.138717393575598785e-02 2.505179958203173490e-02 8.519805762090372492e-02
6.020000000000000000e+04 5.224770567108732999e-02 2.528265051238490213e-02 8.733941135695368063e-02
6.030000000000000000e+04 5.429703947119461638e-02 2.620950331142710144e-02 8.965316673892570476e-02
6.040000000000000000e+04 5.608486921504816924e-02 2.774560899531017949e-02 9.452570499719926966e-02
6.050000000000000000e+04 5.833415866089449592e-02 2.957663176000910679e-02 9.968079980272330498e-02
6.060000000000000000e+04 6.165304141143688327e-02 3.040416101509990990e-02 1.041108716374697374e-01
6.070000000000000000e+04 6.357633671451827506e-02 3.103250600615177143e-02 1.102587587736470892e-01
6.080000000000000000e+04 6.592677740697777677e-02 3.206246733441006636e-02 1.126336584014771269e-01
6.090000000000000000e+04 6.708219827063441332e-02 3.337363712831459273e-02 1.147417015088765951e-01
6.100000000000000000e+04 6.803729423425565470e-02 3.358877792874040424e-02 1.137623142731724463e-01
6.110000000000000000e+04 6.580685587165700789e-02 3.195501900913952364e-02 1.128727757619488042e-01
6.120000000000000000e+04 6.601404074066630212e-02 3.232910735630257354e-02 1.126751908258417090e-01
6.130000000000000000e+04 6.647790406630847693e-02 3.279219071884471870e-02 1.101883116323298661e-01
6.140000000000000000e+04 6.587640981801244633e-02 3.269821206897280397e-02 1.086972925084515457e-01
6.150000000000000000e+04 6.546284393312724881e-02 3.263997621942626992e-02 1.067427337216499406e-01
6.160000000000000000e+04 6.474879100055568049e-02 3.201722867294777564e-02 1.068105297681149063e-01
6.170000000000000000e+04 6.569507207580202457e-02 3.272656439577065896e-02 1.057470827597420115e-01
6.180000000000000000e+04 6.494400850573862904e-02 3.279509409688287358e-02 1.037276563645239541e-01
6.190000000000000000e+04 6.446028498773398452e-02 3.212123613348284723e-02 1.027047942895943089e-01
6.200000000000000000e+04 5.950374849922761278e-02 2.894200756578095904e-02 1.005547860105720503e-01
6.210000000000000000e+04 5.928085734627613207e-02 2.898707027368465847e-02 1.003786480857902924e-01
6.220000000000000000e+04 6.131982437946236625e-02 3.032657299862087652e-02 9.959723917743000532e-02
6.230000000000000000e+04 6.062220999075979000e-02 2.988518735078518618e-02 9.781018137933092382e-02
6.240000000000000000e+04 5.823762986060197072e-02 2.808013356553845652e-02 9.796165202695492069e-02
6.250000000000000000e+04 3.369590648009854889e-02 1.007949837922057952e-02 7.074158358846958927e-02
