# North DC Val: 0.68427453 VoltsSouth DC Val: 0.56442333 Volts
# SR785 Measurement - Timestamp: May 30 2020 - 03:00:56
# Parameter File: /home/controls/Git/cit_ctnlab/ctn_scripts/TransRINSpecLong.yml
#---------- Measurement Setup ------------
# Start Frequency (Hz): 0.000000
# Frequency Span (Hz): 800.000000
# Frequency Resolution: 800
# Number of Averages: 100
# Averaging Mode: RMS
# Window function: Hanning
#---------- Measurement Parameters ----------
# Measurement Group:  "FFT" "FFT"
# Measurements:  "FFT 1" "FFT 2"
# View:  "Log Magnitude" "Log Magnitude"
# Unit:  "Vrms/rtHz" "Vrms/rtHz"
#---------- Input Parameters ----------
# Input Source: Analog
# Input Mode: Single ended, Single ended
# Input Grounding: Float, Float
# Input Coupling: AC, AC
# Input Range: -36.0dBVpk, -36.0dBVpk
# Auto Range: Off, Off
# Auto Range Mode: Tracking, Tracking
# Anti-Aliasing Filter: On, On
#---------- Source Parameters ----------
# Source Type: Sine
# Source Amplitude: 500.0mVpk
# Source On: 0

#---------- Measurement Data ----------
# [Freq(Hz) Display 0(Vrms/rtHz) Display 1(Vrms/rtHz) ]
+0.0000000e+000    +5.7250605e-004    +1.3672399e-004
+1.0000000e+000    +4.6545573e-004    +8.1352846e-005
+2.0000000e+000    +2.7133155e-004    +2.0881869e-005
+3.0000000e+000    +1.9927160e-004    +9.6872882e-006
+4.0000000e+000    +9.5234769e-005    +4.6445389e-006
+5.0000000e+000    +3.9528164e-005    +2.8422228e-006
+6.0000000e+000    +1.6032081e-005    +2.0503687e-006
+7.0000000e+000    +1.2192238e-005    +1.7476311e-006
+8.0000000e+000    +9.7025959e-006    +1.1820015e-006
+9.0000000e+000    +1.1977424e-005    +8.7667223e-007
+1.0000000e+001    +1.8100793e-005    +8.1659618e-007
+1.1000000e+001    +1.6243817e-005    +6.3714856e-007
+1.2000000e+001    +7.0998271e-006    +5.2422672e-007
+1.3000000e+001    +3.8129210e-006    +4.7421452e-007
+1.4000000e+001    +3.2477590e-006    +4.3212049e-007
+1.5000000e+001    +3.4622021e-006    +3.7854736e-007
+1.6000000e+001    +4.0231575e-006    +3.3408693e-007
+1.7000000e+001    +5.4835141e-006    +3.0999792e-007
+1.8000000e+001    +5.0649264e-006    +2.7629974e-007
+1.9000000e+001    +2.7158221e-006    +2.5563619e-007
+2.0000000e+001    +1.7416297e-006    +2.2112501e-007
+2.1000000e+001    +1.2843957e-006    +2.0907312e-007
+2.2000000e+001    +1.3774240e-006    +1.9353281e-007
+2.3000000e+001    +1.6736486e-006    +1.8864768e-007
+2.4000000e+001    +1.8943869e-006    +1.7771121e-007
+2.5000000e+001    +1.6062369e-006    +1.7074592e-007
+2.6000000e+001    +1.2048159e-006    +1.6675114e-007
+2.7000000e+001    +8.4866298e-007    +1.5266959e-007
+2.8000000e+001    +7.7511589e-007    +1.4923660e-007
+2.9000000e+001    +1.0698999e-006    +1.3795187e-007
+3.0000000e+001    +1.2144674e-006    +1.2871683e-007
+3.1000000e+001    +9.7631869e-007    +1.2396700e-007
+3.2000000e+001    +8.2873112e-007    +1.2883956e-007
+3.3000000e+001    +8.5402746e-007    +1.1554415e-007
+3.4000000e+001    +1.3213169e-006    +1.1321838e-007
+3.5000000e+001    +8.3746465e-007    +1.0445185e-007
+3.6000000e+001    +4.3818196e-007    +1.0327374e-007
+3.7000000e+001    +3.9494546e-007    +9.6188323e-008
+3.8000000e+001    +4.2543601e-007    +9.1528115e-008
+3.9000000e+001    +4.1727225e-007    +8.7799862e-008
+4.0000000e+001    +3.6601347e-007    +9.8141086e-008
+4.1000000e+001    +3.6107161e-007    +9.2795808e-008
+4.2000000e+001    +3.6947941e-007    +8.9769699e-008
+4.3000000e+001    +3.8055435e-007    +8.5887116e-008
+4.4000000e+001    +3.6910598e-007    +7.8661543e-008
+4.5000000e+001    +3.6482066e-007    +7.8040522e-008
+4.6000000e+001    +3.7940453e-007    +7.6148595e-008
+4.7000000e+001    +4.4156411e-007    +7.3442784e-008
+4.8000000e+001    +4.6722863e-007    +6.7751408e-008
+4.9000000e+001    +4.1882319e-007    +7.1909497e-008
+5.0000000e+001    +3.5969975e-007    +6.9319150e-008
+5.1000000e+001    +3.4212471e-007    +6.3677646e-008
+5.2000000e+001    +3.9296958e-007    +6.4937161e-008
+5.3000000e+001    +4.1626964e-007    +7.3626467e-008
+5.4000000e+001    +4.6765922e-007    +6.9970028e-008
+5.5000000e+001    +4.4774430e-007    +6.8652682e-008
+5.6000000e+001    +4.0522795e-007    +6.8163871e-008
+5.7000000e+001    +4.2192715e-007    +6.5733346e-008
+5.8000000e+001    +4.8086065e-007    +6.3521234e-008
+5.9000000e+001    +5.5523310e-007    +7.0061510e-008
+6.0000000e+001    +7.4269991e-007    +9.5807714e-008
+6.1000000e+001    +6.0552441e-007    +6.7914364e-008
+6.2000000e+001    +5.7477217e-007    +5.5210908e-008
+6.3000000e+001    +6.0705617e-007    +5.3982927e-008
+6.4000000e+001    +5.3827978e-007    +5.3899239e-008
+6.5000000e+001    +5.1665489e-007    +5.4049170e-008
+6.6000000e+001    +4.9918964e-007    +5.2109915e-008
+6.7000000e+001    +4.7758368e-007    +5.2522513e-008
+6.8000000e+001    +5.6422886e-007    +5.6018511e-008
+6.9000000e+001    +5.3335566e-007    +5.1107051e-008
+7.0000000e+001    +4.4379749e-007    +5.1585456e-008
+7.1000000e+001    +3.7260446e-007    +5.7065407e-008
+7.2000000e+001    +3.4054281e-007    +5.5335136e-008
+7.3000000e+001    +3.3995929e-007    +5.3684907e-008
+7.4000000e+001    +3.3537768e-007    +5.3600210e-008
+7.5000000e+001    +3.1290867e-007    +5.0347534e-008
+7.6000000e+001    +3.1065926e-007    +5.0017661e-008
+7.7000000e+001    +2.7538420e-007    +5.0621690e-008
+7.8000000e+001    +2.6154146e-007    +5.1891245e-008
+7.9000000e+001    +2.3219957e-007    +5.0175029e-008
+8.0000000e+001    +2.1851889e-007    +4.9023459e-008
+8.1000000e+001    +2.1311463e-007    +4.9245777e-008
+8.2000000e+001    +2.1427205e-007    +5.0147158e-008
+8.3000000e+001    +2.0213196e-007    +5.3313027e-008
+8.4000000e+001    +1.7940566e-007    +4.9675876e-008
+8.5000000e+001    +1.6977143e-007    +4.8395172e-008
+8.6000000e+001    +1.6360681e-007    +5.1199947e-008
+8.7000000e+001    +1.7539439e-007    +5.0953421e-008
+8.8000000e+001    +1.6883622e-007    +4.8215483e-008
+8.9000000e+001    +1.5133364e-007    +4.5996622e-008
+9.0000000e+001    +1.4734388e-007    +4.9005699e-008
+9.1000000e+001    +1.5121172e-007    +4.4374048e-008
+9.2000000e+001    +1.3565187e-007    +4.8706163e-008
+9.3000000e+001    +1.3061327e-007    +4.7734151e-008
+9.4000000e+001    +1.3751695e-007    +4.9418940e-008
+9.5000000e+001    +1.4174472e-007    +4.6234291e-008
+9.6000000e+001    +1.4284554e-007    +4.1113513e-008
+9.7000000e+001    +1.2926124e-007    +3.8988127e-008
+9.8000000e+001    +1.3407519e-007    +4.2719456e-008
+9.9000000e+001    +1.4376678e-007    +4.1048292e-008
+1.0000000e+002    +1.3764760e-007    +4.3096296e-008
+1.0100000e+002    +1.2507688e-007    +4.6901416e-008
+1.0200000e+002    +1.1915905e-007    +4.6762121e-008
+1.0300000e+002    +1.1710151e-007    +3.9817660e-008
+1.0400000e+002    +1.1926953e-007    +4.5246878e-008
+1.0500000e+002    +1.1729582e-007    +4.4784901e-008
+1.0600000e+002    +1.2830525e-007    +4.3687194e-008
+1.0700000e+002    +1.2448461e-007    +4.6690964e-008
+1.0800000e+002    +1.0940778e-007    +4.5311459e-008
+1.0900000e+002    +1.1615814e-007    +4.4578123e-008
+1.1000000e+002    +1.1185761e-007    +4.2687809e-008
+1.1100000e+002    +1.1170272e-007    +4.2369258e-008
+1.1200000e+002    +1.2227038e-007    +4.1293248e-008
+1.1300000e+002    +1.2588947e-007    +4.0989111e-008
+1.1400000e+002    +1.2017799e-007    +4.3497945e-008
+1.1500000e+002    +1.1082182e-007    +4.1566313e-008
+1.1600000e+002    +1.1176124e-007    +4.2457554e-008
+1.1700000e+002    +1.2792573e-007    +4.4068070e-008
+1.1800000e+002    +1.3077700e-007    +4.1660709e-008
+1.1900000e+002    +4.6796535e-007    +4.0259149e-008
+1.2000000e+002    +9.1052414e-007    +4.0674532e-008
+1.2100000e+002    +4.7381795e-007    +4.3280519e-008
+1.2200000e+002    +1.4687934e-007    +4.1876941e-008
+1.2300000e+002    +1.4348609e-007    +3.8799421e-008
+1.2400000e+002    +1.4351950e-007    +4.0592351e-008
+1.2500000e+002    +1.4537154e-007    +4.2414595e-008
+1.2600000e+002    +1.5358066e-007    +4.3945441e-008
+1.2700000e+002    +1.7769932e-007    +4.4092268e-008
+1.2800000e+002    +1.6548553e-007    +4.5185171e-008
+1.2900000e+002    +1.4055776e-007    +4.1548429e-008
+1.3000000e+002    +1.4147372e-007    +4.2794195e-008
+1.3100000e+002    +1.4417921e-007    +4.1297692e-008
+1.3200000e+002    +1.3466487e-007    +3.8413983e-008
+1.3300000e+002    +1.3024824e-007    +3.9507729e-008
+1.3400000e+002    +1.3039089e-007    +3.7914511e-008
+1.3500000e+002    +1.2710795e-007    +3.6329094e-008
+1.3600000e+002    +1.2968458e-007    +3.6991576e-008
+1.3700000e+002    +1.3622696e-007    +3.6516369e-008
+1.3800000e+002    +1.4286562e-007    +3.9018573e-008
+1.3900000e+002    +1.3744706e-007    +3.9439424e-008
+1.4000000e+002    +1.4923430e-007    +3.7510919e-008
+1.4100000e+002    +1.7498986e-007    +3.8414658e-008
+1.4200000e+002    +2.5216607e-007    +3.6005972e-008
+1.4300000e+002    +3.9233410e-007    +3.6275843e-008
+1.4400000e+002    +5.8387997e-007    +3.6681769e-008
+1.4500000e+002    +6.9834260e-007    +4.0041069e-008
+1.4600000e+002    +5.8742751e-007    +3.7634763e-008
+1.4700000e+002    +3.6704006e-007    +3.5854484e-008
+1.4800000e+002    +2.6155035e-007    +3.7703295e-008
+1.4900000e+002    +1.8518743e-007    +3.8684313e-008
+1.5000000e+002    +1.4667081e-007    +3.7906144e-008
+1.5100000e+002    +1.6273951e-007    +3.7954578e-008
+1.5200000e+002    +1.3361874e-007    +3.8882323e-008
+1.5300000e+002    +1.3020505e-007    +3.9269828e-008
+1.5400000e+002    +1.1907901e-007    +3.6699937e-008
+1.5500000e+002    +9.6941832e-008    +4.0014044e-008
+1.5600000e+002    +9.7329405e-008    +3.9502872e-008
+1.5700000e+002    +9.2953762e-008    +3.7378577e-008
+1.5800000e+002    +8.7819437e-008    +3.7441463e-008
+1.5900000e+002    +9.2529554e-008    +3.3179600e-008
+1.6000000e+002    +8.5996099e-008    +3.4166526e-008
+1.6100000e+002    +9.1512241e-008    +3.4440529e-008
+1.6200000e+002    +9.1358842e-008    +3.6926853e-008
+1.6300000e+002    +8.8497771e-008    +3.9331489e-008
+1.6400000e+002    +9.2096052e-008    +3.7534072e-008
+1.6500000e+002    +8.7310077e-008    +3.6965755e-008
+1.6600000e+002    +8.6044928e-008    +3.6275644e-008
+1.6700000e+002    +8.0423703e-008    +3.6295923e-008
+1.6800000e+002    +8.3627292e-008    +3.6511640e-008
+1.6900000e+002    +8.8548603e-008    +3.8439300e-008
+1.7000000e+002    +8.6711175e-008    +3.5281563e-008
+1.7100000e+002    +8.3375902e-008    +3.7164511e-008
+1.7200000e+002    +7.9927659e-008    +3.9376211e-008
+1.7300000e+002    +7.5642618e-008    +3.9092846e-008
+1.7400000e+002    +7.8270411e-008    +3.5880792e-008
+1.7500000e+002    +7.6578296e-008    +3.6061678e-008
+1.7600000e+002    +8.1146325e-008    +3.6593832e-008
+1.7700000e+002    +8.2504236e-008    +3.5160173e-008
+1.7800000e+002    +8.0010281e-008    +3.2727915e-008
+1.7900000e+002    +2.7814642e-007    +5.8651107e-008
+1.8000000e+002    +5.4199580e-007    +9.9389979e-008
+1.8100000e+002    +2.7633706e-007    +6.0469127e-008
+1.8200000e+002    +8.8914135e-008    +4.2204945e-008
+1.8300000e+002    +8.6619252e-008    +4.0466418e-008
+1.8400000e+002    +8.0056942e-008    +3.8014885e-008
+1.8500000e+002    +7.5044277e-008    +3.6047901e-008
+1.8600000e+002    +7.7553977e-008    +3.4919111e-008
+1.8700000e+002    +8.3299312e-008    +3.4457663e-008
+1.8800000e+002    +8.6341423e-008    +3.6751469e-008
+1.8900000e+002    +8.8155431e-008    +3.3809922e-008
+1.9000000e+002    +7.9664559e-008    +3.6181412e-008
+1.9100000e+002    +7.4939379e-008    +3.8907604e-008
+1.9200000e+002    +7.5390311e-008    +3.8326775e-008
+1.9300000e+002    +7.6685488e-008    +3.4605602e-008
+1.9400000e+002    +7.4466691e-008    +3.8046075e-008
+1.9500000e+002    +7.5782438e-008    +3.4569982e-008
+1.9600000e+002    +7.6062946e-008    +3.3970071e-008
+1.9700000e+002    +7.3218878e-008    +3.6540115e-008
+1.9800000e+002    +7.6354802e-008    +3.5785622e-008
+1.9900000e+002    +8.0676287e-008    +3.6687045e-008
+2.0000000e+002    +7.8452807e-008    +3.8541696e-008
+2.0100000e+002    +7.0891872e-008    +3.4527496e-008
+2.0200000e+002    +7.0616323e-008    +3.3420250e-008
+2.0300000e+002    +6.9902299e-008    +3.5950038e-008
+2.0400000e+002    +6.9513270e-008    +3.3789437e-008
+2.0500000e+002    +6.9009772e-008    +3.5399523e-008
+2.0600000e+002    +6.7344466e-008    +3.6126078e-008
+2.0700000e+002    +6.7612589e-008    +3.7288725e-008
+2.0800000e+002    +7.2886891e-008    +3.5378889e-008
+2.0900000e+002    +7.1560031e-008    +3.4303159e-008
+2.1000000e+002    +6.8125040e-008    +3.5557324e-008
+2.1100000e+002    +7.0022367e-008    +3.5246369e-008
+2.1200000e+002    +7.5098349e-008    +3.6944776e-008
+2.1300000e+002    +7.9180495e-008    +3.9918778e-008
+2.1400000e+002    +7.8389782e-008    +3.9087009e-008
+2.1500000e+002    +6.9190186e-008    +3.3906577e-008
+2.1600000e+002    +7.7239477e-008    +3.3768853e-008
+2.1700000e+002    +1.2646468e-007    +3.5506531e-008
+2.1800000e+002    +1.0361926e-007    +3.4062097e-008
+2.1900000e+002    +7.2433757e-008    +3.6127147e-008
+2.2000000e+002    +7.1976004e-008    +3.6805542e-008
+2.2100000e+002    +6.9316329e-008    +3.6036070e-008
+2.2200000e+002    +7.3361790e-008    +3.8509803e-008
+2.2300000e+002    +7.4485257e-008    +3.8289301e-008
+2.2400000e+002    +7.1805587e-008    +3.6380627e-008
+2.2500000e+002    +7.1511337e-008    +3.5592283e-008
+2.2600000e+002    +7.3238979e-008    +3.7290281e-008
+2.2700000e+002    +6.8818871e-008    +3.6704652e-008
+2.2800000e+002    +7.0175375e-008    +3.7660598e-008
+2.2900000e+002    +7.0697624e-008    +3.7513885e-008
+2.3000000e+002    +7.0363321e-008    +3.7148848e-008
+2.3100000e+002    +6.7847878e-008    +3.5772853e-008
+2.3200000e+002    +6.7074900e-008    +3.4468599e-008
+2.3300000e+002    +7.1404237e-008    +3.3742761e-008
+2.3400000e+002    +7.2616508e-008    +3.7193903e-008
+2.3500000e+002    +6.7852874e-008    +4.1067089e-008
+2.3600000e+002    +6.2917834e-008    +4.0101302e-008
+2.3700000e+002    +6.2606084e-008    +3.6660992e-008
+2.3800000e+002    +6.7253211e-008    +3.7442657e-008
+2.3900000e+002    +1.9311000e-007    +4.0021380e-008
+2.4000000e+002    +3.6130163e-007    +4.3911196e-008
+2.4100000e+002    +1.8583269e-007    +3.9214761e-008
+2.4200000e+002    +6.5315000e-008    +3.5750748e-008
+2.4300000e+002    +6.8294973e-008    +3.7101440e-008
+2.4400000e+002    +6.8759881e-008    +3.9889947e-008
+2.4500000e+002    +6.6527164e-008    +3.8300190e-008
+2.4600000e+002    +7.1079704e-008    +3.9503565e-008
+2.4700000e+002    +6.7676091e-008    +3.8862176e-008
+2.4800000e+002    +7.0757181e-008    +4.0774108e-008
+2.4900000e+002    +7.1241985e-008    +4.0610630e-008
+2.5000000e+002    +7.5016267e-008    +3.7601843e-008
+2.5100000e+002    +7.6390691e-008    +3.6154727e-008
+2.5200000e+002    +7.3109383e-008    +3.9250430e-008
+2.5300000e+002    +7.3327648e-008    +3.7836330e-008
+2.5400000e+002    +8.0267206e-008    +3.8375834e-008
+2.5500000e+002    +8.7358693e-008    +3.8969723e-008
+2.5600000e+002    +1.0387601e-007    +3.9369638e-008
+2.5700000e+002    +1.1244571e-007    +3.7731080e-008
+2.5800000e+002    +1.1685093e-007    +3.9162011e-008
+2.5900000e+002    +1.2275666e-007    +3.9266940e-008
+2.6000000e+002    +1.2353505e-007    +3.9768157e-008
+2.6100000e+002    +1.3513143e-007    +3.8587807e-008
+2.6200000e+002    +1.4351004e-007    +3.5269906e-008
+2.6300000e+002    +1.5737099e-007    +3.7461408e-008
+2.6400000e+002    +1.9306759e-007    +3.9750216e-008
+2.6500000e+002    +2.3828942e-007    +4.3106517e-008
+2.6600000e+002    +3.0393014e-007    +4.0352127e-008
+2.6700000e+002    +3.2068752e-007    +3.6526153e-008
+2.6800000e+002    +3.6254821e-007    +3.7919964e-008
+2.6900000e+002    +3.8003657e-007    +3.7515658e-008
+2.7000000e+002    +4.9236314e-007    +3.7878184e-008
+2.7100000e+002    +1.0236239e-006    +3.8866702e-008
+2.7200000e+002    +1.2773064e-006    +3.7517921e-008
+2.7300000e+002    +1.4959603e-006    +3.5889776e-008
+2.7400000e+002    +1.7458551e-006    +3.2736828e-008
+2.7500000e+002    +1.5103136e-006    +3.4598422e-008
+2.7600000e+002    +1.2131507e-006    +3.7900275e-008
+2.7700000e+002    +1.2752046e-006    +3.7340183e-008
+2.7800000e+002    +1.0611595e-006    +3.8172566e-008
+2.7900000e+002    +6.9282396e-007    +4.0270820e-008
+2.8000000e+002    +6.3434180e-007    +3.9842412e-008
+2.8100000e+002    +6.4705148e-007    +3.9330150e-008
+2.8200000e+002    +6.0215245e-007    +3.8406181e-008
+2.8300000e+002    +4.1695304e-007    +4.0008068e-008
+2.8400000e+002    +3.7283201e-007    +3.9188293e-008
+2.8500000e+002    +2.8441707e-007    +4.2461330e-008
+2.8600000e+002    +2.1693278e-007    +4.2624816e-008
+2.8700000e+002    +1.8702461e-007    +4.0912813e-008
+2.8800000e+002    +1.8514555e-007    +4.0712330e-008
+2.8900000e+002    +1.8380187e-007    +4.3350049e-008
+2.9000000e+002    +1.6784978e-007    +3.8699014e-008
+2.9100000e+002    +1.5506579e-007    +3.7593960e-008
+2.9200000e+002    +1.2910422e-007    +4.1498552e-008
+2.9300000e+002    +1.0901352e-007    +4.3214943e-008
+2.9400000e+002    +1.1196574e-007    +4.2343959e-008
+2.9500000e+002    +1.0293289e-007    +4.0954699e-008
+2.9600000e+002    +1.0175583e-007    +4.3079549e-008
+2.9700000e+002    +1.0984760e-007    +4.1723926e-008
+2.9800000e+002    +1.0812094e-007    +4.0639353e-008
+2.9900000e+002    +1.3724363e-007    +4.2663817e-008
+3.0000000e+002    +2.0859139e-007    +4.4997087e-008
+3.0100000e+002    +1.2580946e-007    +3.7502272e-008
+3.0200000e+002    +8.7380180e-008    +4.0321126e-008
+3.0300000e+002    +8.3353015e-008    +4.3239481e-008
+3.0400000e+002    +7.9127133e-008    +4.4269324e-008
+3.0500000e+002    +7.5029774e-008    +4.3785157e-008
+3.0600000e+002    +7.3611915e-008    +4.3551466e-008
+3.0700000e+002    +7.4315587e-008    +4.0219827e-008
+3.0800000e+002    +7.1703013e-008    +3.8752631e-008
+3.0900000e+002    +7.0466143e-008    +4.0954699e-008
+3.1000000e+002    +7.3888202e-008    +4.2616954e-008
+3.1100000e+002    +8.3870226e-008    +4.2904190e-008
+3.1200000e+002    +8.1778857e-008    +4.0606036e-008
+3.1300000e+002    +7.2326706e-008    +4.1656456e-008
+3.1400000e+002    +7.3803875e-008    +4.4909775e-008
+3.1500000e+002    +8.4690093e-008    +4.7851799e-008
+3.1600000e+002    +7.8847620e-008    +4.2310639e-008
+3.1700000e+002    +7.5002347e-008    +3.9081687e-008
+3.1800000e+002    +6.9843615e-008    +4.5012357e-008
+3.1900000e+002    +7.1673654e-008    +4.5442491e-008
+3.2000000e+002    +7.1485275e-008    +4.3915826e-008
+3.2100000e+002    +6.5465628e-008    +4.6288893e-008
+3.2200000e+002    +6.8440521e-008    +4.8631033e-008
+3.2300000e+002    +7.4691137e-008    +4.8560921e-008
+3.2400000e+002    +7.4159985e-008    +4.5312355e-008
+3.2500000e+002    +6.9854046e-008    +4.4613767e-008
+3.2600000e+002    +6.8439249e-008    +4.0126803e-008
+3.2700000e+002    +6.8838439e-008    +4.2356842e-008
+3.2800000e+002    +6.8784800e-008    +4.7067164e-008
+3.2900000e+002    +6.8008234e-008    +4.4821650e-008
+3.3000000e+002    +7.1120063e-008    +4.3799147e-008
+3.3100000e+002    +6.9452391e-008    +4.2868496e-008
+3.3200000e+002    +6.7956137e-008    +4.2802089e-008
+3.3300000e+002    +6.2318115e-008    +4.4372001e-008
+3.3400000e+002    +5.8134106e-008    +4.4692850e-008
+3.3500000e+002    +5.9197788e-008    +4.7464582e-008
+3.3600000e+002    +6.0353585e-008    +4.8339945e-008
+3.3700000e+002    +6.4802336e-008    +4.9349104e-008
+3.3800000e+002    +7.2373339e-008    +4.6877222e-008
+3.3900000e+002    +7.1732387e-008    +4.3332538e-008
+3.4000000e+002    +6.6422643e-008    +4.8857686e-008
+3.4100000e+002    +7.4859770e-008    +4.5881468e-008
+3.4200000e+002    +9.0538116e-008    +4.2997893e-008
+3.4300000e+002    +8.0144005e-008    +4.4265825e-008
+3.4400000e+002    +9.0082494e-008    +4.4093817e-008
+3.4500000e+002    +9.9061069e-008    +4.6803830e-008
+3.4600000e+002    +8.4957193e-008    +4.7375604e-008
+3.4700000e+002    +7.5743174e-008    +4.7628347e-008
+3.4800000e+002    +9.5055398e-008    +5.0603298e-008
+3.4900000e+002    +1.1927646e-007    +4.9179317e-008
+3.5000000e+002    +1.0494189e-007    +5.0083880e-008
+3.5100000e+002    +1.1201529e-007    +4.9222262e-008
+3.5200000e+002    +1.1670772e-007    +4.8598473e-008
+3.5300000e+002    +9.5769643e-008    +5.1768325e-008
+3.5400000e+002    +8.3196483e-008    +5.0238366e-008
+3.5500000e+002    +8.5572914e-008    +4.6699526e-008
+3.5600000e+002    +9.5362211e-008    +4.8363834e-008
+3.5700000e+002    +8.9793453e-008    +4.9120494e-008
+3.5800000e+002    +9.6141655e-008    +5.2506252e-008
+3.5900000e+002    +1.0995016e-007    +5.1962225e-008
+3.6000000e+002    +1.3586383e-007    +4.9461335e-008
+3.6100000e+002    +8.6244405e-008    +4.7328342e-008
+3.6200000e+002    +6.9346555e-008    +4.5939032e-008
+3.6300000e+002    +7.3867845e-008    +5.0100876e-008
+3.6400000e+002    +6.3612802e-008    +5.1100656e-008
+3.6500000e+002    +5.9316463e-008    +4.9668458e-008
+3.6600000e+002    +6.4811090e-008    +5.1395446e-008
+3.6700000e+002    +6.7586242e-008    +4.8055451e-008
+3.6800000e+002    +6.5211815e-008    +5.2151872e-008
+3.6900000e+002    +6.8807608e-008    +5.5144511e-008
+3.7000000e+002    +6.8908612e-008    +4.9756228e-008
+3.7100000e+002    +6.6616479e-008    +5.1679109e-008
+3.7200000e+002    +6.9530365e-008    +5.1772133e-008
+3.7300000e+002    +6.8101485e-008    +5.3510071e-008
+3.7400000e+002    +6.3710452e-008    +5.1917290e-008
+3.7500000e+002    +6.3985041e-008    +5.3133391e-008
+3.7600000e+002    +6.2528869e-008    +5.0742777e-008
+3.7700000e+002    +6.7159569e-008    +5.0795567e-008
+3.7800000e+002    +6.4505116e-008    +5.4604016e-008
+3.7900000e+002    +6.4092895e-008    +5.3882378e-008
+3.8000000e+002    +6.7086681e-008    +4.9908714e-008
+3.8100000e+002    +6.2795543e-008    +5.1098354e-008
+3.8200000e+002    +6.1758485e-008    +5.2284999e-008
+3.8300000e+002    +6.3715838e-008    +5.2415476e-008
+3.8400000e+002    +5.8945815e-008    +5.1559635e-008
+3.8500000e+002    +5.8116363e-008    +5.4007945e-008
+3.8600000e+002    +6.0598467e-008    +5.2103051e-008
+3.8700000e+002    +6.1427521e-008    +5.2907289e-008
+3.8800000e+002    +5.8791208e-008    +5.2059764e-008
+3.8900000e+002    +6.3697371e-008    +5.3823250e-008
+3.9000000e+002    +6.9043722e-008    +5.6002090e-008
+3.9100000e+002    +6.5666477e-008    +5.4300898e-008
+3.9200000e+002    +6.4474598e-008    +5.7557230e-008
+3.9300000e+002    +6.2715479e-008    +6.0681558e-008
+3.9400000e+002    +5.6099264e-008    +5.7044360e-008
+3.9500000e+002    +5.9635397e-008    +5.4993894e-008
+3.9600000e+002    +5.6527991e-008    +5.8954942e-008
+3.9700000e+002    +5.6016603e-008    +5.6305428e-008
+3.9800000e+002    +5.4936624e-008    +5.8579928e-008
+3.9900000e+002    +5.7145161e-008    +5.8204808e-008
+4.0000000e+002    +6.3803412e-008    +5.9386711e-008
+4.0100000e+002    +6.4711330e-008    +5.8401074e-008
+4.0200000e+002    +6.4051392e-008    +6.2456550e-008
+4.0300000e+002    +6.2581002e-008    +6.1241657e-008
+4.0400000e+002    +6.0654180e-008    +5.7701875e-008
+4.0500000e+002    +6.0366638e-008    +5.9027354e-008
+4.0600000e+002    +6.1412749e-008    +6.2289111e-008
+4.0700000e+002    +5.6754175e-008    +6.1566340e-008
+4.0800000e+002    +6.0319664e-008    +6.1410326e-008
+4.0900000e+002    +5.6664138e-008    +6.0736888e-008
+4.1000000e+002    +5.5646471e-008    +5.6465279e-008
+4.1100000e+002    +5.8068910e-008    +5.5864220e-008
+4.1200000e+002    +5.3450293e-008    +6.0870001e-008
+4.1300000e+002    +5.1665264e-008    +6.3868242e-008
+4.1400000e+002    +6.0934596e-008    +6.0554704e-008
+4.1500000e+002    +6.4213062e-008    +5.9875788e-008
+4.1600000e+002    +5.8751329e-008    +6.0529707e-008
+4.1700000e+002    +5.8337374e-008    +6.4372529e-008
+4.1800000e+002    +5.6526130e-008    +6.2497364e-008
+4.1900000e+002    +6.6938128e-008    +5.9128542e-008
+4.2000000e+002    +1.0010667e-007    +6.0830118e-008
+4.2100000e+002    +7.2031270e-008    +6.4694277e-008
+4.2200000e+002    +5.8711091e-008    +6.3201426e-008
+4.2300000e+002    +6.1109532e-008    +6.3081771e-008
+4.2400000e+002    +6.2544800e-008    +6.2493662e-008
+4.2500000e+002    +6.0391301e-008    +6.1021836e-008
+4.2600000e+002    +6.3987287e-008    +6.2053402e-008
+4.2700000e+002    +5.7946306e-008    +6.6950037e-008
+4.2800000e+002    +5.3183118e-008    +6.4572859e-008
+4.2900000e+002    +5.7713535e-008    +6.5842414e-008
+4.3000000e+002    +5.6670611e-008    +6.8489008e-008
+4.3100000e+002    +5.8727917e-008    +6.3182000e-008
+4.3200000e+002    +7.3099514e-008    +6.2668811e-008
+4.3300000e+002    +6.9174156e-008    +6.2949617e-008
+4.3400000e+002    +8.1269640e-008    +6.8240780e-008
+4.3500000e+002    +8.3440369e-008    +7.1832403e-008
+4.3600000e+002    +8.0472198e-008    +6.5198428e-008
+4.3700000e+002    +8.4951225e-008    +6.6824967e-008
+4.3800000e+002    +8.5786930e-008    +6.5766699e-008
+4.3900000e+002    +8.4422624e-008    +6.6533296e-008
+4.4000000e+002    +8.5784670e-008    +6.3872172e-008
+4.4100000e+002    +8.0116997e-008    +6.5758030e-008
+4.4200000e+002    +7.9940563e-008    +6.9292589e-008
+4.4300000e+002    +7.6835924e-008    +6.9260338e-008
+4.4400000e+002    +7.8442561e-008    +6.4816781e-008
+4.4500000e+002    +7.2448152e-008    +7.0100214e-008
+4.4600000e+002    +6.6789688e-008    +6.7562873e-008
+4.4700000e+002    +6.5666185e-008    +6.7154481e-008
+4.4800000e+002    +6.1398254e-008    +6.4295890e-008
+4.4900000e+002    +5.8709027e-008    +6.7103919e-008
+4.5000000e+002    +5.7270345e-008    +7.3517903e-008
+4.5100000e+002    +6.1847850e-008    +7.0910865e-008
+4.5200000e+002    +6.1333033e-008    +6.9760382e-008
+4.5300000e+002    +5.7078129e-008    +7.3527907e-008
+4.5400000e+002    +5.7685345e-008    +7.0548900e-008
+4.5500000e+002    +5.7625712e-008    +6.5683928e-008
+4.5600000e+002    +5.8311759e-008    +6.9824601e-008
+4.5700000e+002    +6.0303307e-008    +6.9395149e-008
+4.5800000e+002    +5.9571985e-008    +7.5693130e-008
+4.5900000e+002    +6.3884023e-008    +6.8690689e-008
+4.6000000e+002    +5.6687909e-008    +6.5030420e-008
+4.6100000e+002    +5.7155514e-008    +7.3599473e-008
+4.6200000e+002    +5.7549709e-008    +7.3128014e-008
+4.6300000e+002    +5.7436527e-008    +7.2053894e-008
+4.6400000e+002    +5.7196196e-008    +7.1621422e-008
+4.6500000e+002    +5.3016379e-008    +7.3216306e-008
+4.6600000e+002    +5.9649672e-008    +7.5182498e-008
+4.6700000e+002    +5.8436800e-008    +7.4725101e-008
+4.6800000e+002    +6.0280342e-008    +7.5668446e-008
+4.6900000e+002    +6.0306220e-008    +7.6277793e-008
+4.7000000e+002    +5.8828981e-008    +7.8723055e-008
+4.7100000e+002    +5.9400470e-008    +8.0331745e-008
+4.7200000e+002    +6.0872878e-008    +8.0657422e-008
+4.7300000e+002    +5.8622458e-008    +6.8054845e-008
+4.7400000e+002    +6.1730823e-008    +6.6777957e-008
+4.7500000e+002    +6.3084194e-008    +7.3043431e-008
+4.7600000e+002    +5.9889928e-008    +7.6535507e-008
+4.7700000e+002    +6.2215086e-008    +7.4590417e-008
+4.7800000e+002    +6.4936451e-008    +7.8399765e-008
+4.7900000e+002    +1.7105423e-007    +7.9634034e-008
+4.8000000e+002    +3.0984785e-007    +7.8545547e-008
+4.8100000e+002    +1.6544919e-007    +7.6996720e-008
+4.8200000e+002    +6.0067336e-008    +7.3874979e-008
+4.8300000e+002    +6.2096753e-008    +7.4655723e-008
+4.8400000e+002    +6.9440802e-008    +7.4753821e-008
+4.8500000e+002    +7.6206973e-008    +7.4039576e-008
+4.8600000e+002    +7.6960205e-008    +7.7876862e-008
+4.8700000e+002    +8.0094310e-008    +8.0101081e-008
+4.8800000e+002    +8.4931457e-008    +7.9359353e-008
+4.8900000e+002    +8.2125823e-008    +8.3815820e-008
+4.9000000e+002    +8.5134332e-008    +8.9417242e-008
+4.9100000e+002    +8.6472824e-008    +8.8017906e-008
+4.9200000e+002    +9.4154004e-008    +7.8445055e-008
+4.9300000e+002    +9.2161400e-008    +7.6017358e-008
+4.9400000e+002    +8.8603059e-008    +7.6930213e-008
+4.9500000e+002    +8.0442952e-008    +7.6722628e-008
+4.9600000e+002    +7.9385408e-008    +7.9466076e-008
+4.9700000e+002    +8.1023288e-008    +8.5807187e-008
+4.9800000e+002    +8.1854047e-008    +8.0867402e-008
+4.9900000e+002    +8.9273819e-008    +8.4657273e-008
+5.0000000e+002    +8.8710721e-008    +8.5289734e-008
+5.0100000e+002    +8.5453955e-008    +8.0701980e-008
+5.0200000e+002    +8.8637023e-008    +8.5889191e-008
+5.0300000e+002    +8.9267061e-008    +8.4772424e-008
+5.0400000e+002    +1.0581810e-007    +8.5339380e-008
+5.0500000e+002    +1.2359230e-007    +9.0131365e-008
+5.0600000e+002    +1.3801322e-007    +8.6384283e-008
+5.0700000e+002    +1.3287860e-007    +8.4530953e-008
+5.0800000e+002    +1.4767996e-007    +8.7551889e-008
+5.0900000e+002    +1.2942100e-007    +8.9424603e-008
+5.1000000e+002    +1.1948200e-007    +9.4948795e-008
+5.1100000e+002    +1.1455344e-007    +9.6253082e-008
+5.1200000e+002    +1.0935758e-007    +9.4374457e-008
+5.1300000e+002    +9.7082435e-008    +9.3280413e-008
+5.1400000e+002    +7.6458491e-008    +8.1270883e-008
+5.1500000e+002    +8.1006746e-008    +9.1517563e-008
+5.1600000e+002    +7.5024090e-008    +8.6292147e-008
+5.1700000e+002    +7.0061127e-008    +8.1996710e-008
+5.1800000e+002    +7.1643839e-008    +9.0375337e-008
+5.1900000e+002    +6.4230619e-008    +8.9168807e-008
+5.2000000e+002    +6.3069791e-008    +8.2423838e-008
+5.2100000e+002    +6.3091747e-008    +8.6254254e-008
+5.2200000e+002    +5.5759983e-008    +9.0632106e-008
+5.2300000e+002    +5.9428846e-008    +8.5937202e-008
+5.2400000e+002    +6.6909550e-008    +9.0667335e-008
+5.2500000e+002    +8.3863966e-008    +9.1903928e-008
+5.2600000e+002    +9.2633741e-008    +9.4788490e-008
+5.2700000e+002    +1.0704756e-007    +8.9885781e-008
+5.2800000e+002    +1.3217434e-007    +8.9060102e-008
+5.2900000e+002    +1.7610527e-007    +9.0424166e-008
+5.3000000e+002    +2.2708417e-007    +9.1315215e-008
+5.3100000e+002    +2.2922950e-007    +9.4103775e-008
+5.3200000e+002    +2.3903493e-007    +9.0674206e-008
+5.3300000e+002    +2.3910056e-007    +9.3623427e-008
+5.3400000e+002    +2.4316361e-007    +9.3268120e-008
+5.3500000e+002    +2.6525240e-007    +9.9038665e-008
+5.3600000e+002    +2.6329786e-007    +9.2659178e-008
+5.3700000e+002    +2.5796825e-007    +8.6181650e-008
+5.3800000e+002    +2.4777680e-007    +9.2238032e-008
+5.3900000e+002    +2.6526288e-007    +9.5021903e-008
+5.4000000e+002    +3.5599160e-007    +1.0629448e-007
+5.4100000e+002    +3.2603066e-007    +1.0058604e-007
+5.4200000e+002    +3.1619720e-007    +1.0154612e-007
+5.4300000e+002    +3.5596972e-007    +1.0213909e-007
+5.4400000e+002    +4.5821358e-007    +1.0032872e-007
+5.4500000e+002    +4.8969446e-007    +9.6541818e-008
+5.4600000e+002    +5.4483223e-007    +9.6175967e-008
+5.4700000e+002    +6.1764450e-007    +1.0394298e-007
+5.4800000e+002    +6.3616642e-007    +1.0575654e-007
+5.4900000e+002    +7.0172291e-007    +1.0093154e-007
+5.5000000e+002    +6.6710317e-007    +1.0143491e-007
+5.5100000e+002    +6.7428516e-007    +1.0445059e-007
+5.5200000e+002    +8.2124922e-007    +1.0162989e-007
+5.5300000e+002    +9.1238752e-007    +1.0815525e-007
+5.5400000e+002    +4.4130820e-007    +1.1306968e-007
+5.5500000e+002    +2.5785724e-007    +1.0176399e-007
+5.5600000e+002    +2.1058835e-007    +9.8659889e-008
+5.5700000e+002    +1.8869677e-007    +1.0264724e-007
+5.5800000e+002    +1.5127333e-007    +9.4176031e-008
+5.5900000e+002    +1.3726472e-007    +9.9684613e-008
+5.6000000e+002    +1.2928906e-007    +1.0653002e-007
+5.6100000e+002    +1.2184356e-007    +1.0623603e-007
+5.6200000e+002    +1.2510503e-007    +1.0946113e-007
+5.6300000e+002    +1.2175342e-007    +1.0964263e-007
+5.6400000e+002    +1.1353232e-007    +9.9225005e-008
+5.6500000e+002    +1.0639454e-007    +1.0432337e-007
+5.6600000e+002    +1.1016477e-007    +1.0233823e-007
+5.6700000e+002    +1.2045871e-007    +1.0174399e-007
+5.6800000e+002    +1.1482607e-007    +1.0750645e-007
+5.6900000e+002    +1.0697425e-007    +1.0615604e-007
+5.7000000e+002    +1.1707310e-007    +1.0257840e-007
+5.7100000e+002    +1.3873505e-007    +1.0068593e-007
+5.7200000e+002    +1.6290882e-007    +9.8884264e-008
+5.7300000e+002    +2.0053791e-007    +9.4426490e-008
+5.7400000e+002    +1.9716479e-007    +1.0076356e-007
+5.7500000e+002    +2.0719808e-007    +1.1379864e-007
+5.7600000e+002    +2.4051420e-007    +1.1113766e-007
+5.7700000e+002    +2.6725488e-007    +1.0950200e-007
+5.7800000e+002    +2.2664851e-007    +1.0762586e-007
+5.7900000e+002    +1.8857457e-007    +1.1501230e-007
+5.8000000e+002    +1.8832876e-007    +1.1327309e-007
+5.8100000e+002    +1.8519984e-007    +1.1204764e-007
+5.8200000e+002    +1.4609574e-007    +1.1214290e-007
+5.8300000e+002    +1.1726259e-007    +1.1852477e-007
+5.8400000e+002    +1.1378403e-007    +1.1938194e-007
+5.8500000e+002    +1.1730175e-007    +1.2374615e-007
+5.8600000e+002    +9.4709947e-008    +1.3217405e-007
+5.8700000e+002    +8.0694271e-008    +1.2039220e-007
+5.8800000e+002    +7.0579887e-008    +1.1570589e-007
+5.8900000e+002    +6.3755657e-008    +1.1318818e-007
+5.9000000e+002    +6.1894248e-008    +1.1599602e-007
+5.9100000e+002    +6.1114832e-008    +1.1169524e-007
+5.9200000e+002    +6.0366112e-008    +1.1633606e-007
+5.9300000e+002    +6.5357753e-008    +1.1648445e-007
+5.9400000e+002    +6.5387901e-008    +1.1597807e-007
+5.9500000e+002    +6.1498987e-008    +1.1202710e-007
+5.9600000e+002    +6.1666874e-008    +1.1010624e-007
+5.9700000e+002    +6.5742007e-008    +1.2011256e-007
+5.9800000e+002    +7.2628303e-008    +1.1666390e-007
+5.9900000e+002    +1.4492946e-007    +1.1707696e-007
+6.0000000e+002    +2.5842354e-007    +1.1922894e-007
+6.0100000e+002    +1.5306031e-007    +1.1159056e-007
+6.0200000e+002    +1.2802802e-007    +1.1267237e-007
+6.0300000e+002    +2.1457717e-007    +1.1133503e-007
+6.0400000e+002    +2.5100482e-007    +1.2004782e-007
+6.0500000e+002    +2.7942650e-007    +1.2411749e-007
+6.0600000e+002    +2.0700958e-007    +1.2994727e-007
+6.0700000e+002    +1.0174164e-007    +1.2306542e-007
+6.0800000e+002    +7.1268033e-008    +1.2597326e-007
+6.0900000e+002    +6.3353717e-008    +1.2126394e-007
+6.1000000e+002    +6.0093392e-008    +1.2035757e-007
+6.1100000e+002    +6.0242364e-008    +1.2352854e-007
+6.1200000e+002    +6.0480751e-008    +1.2851702e-007
+6.1300000e+002    +6.3602954e-008    +1.3029859e-007
+6.1400000e+002    +6.3640883e-008    +1.3452508e-007
+6.1500000e+002    +6.5875533e-008    +1.2376640e-007
+6.1600000e+002    +5.7207750e-008    +1.1017686e-007
+6.1700000e+002    +6.2279945e-008    +1.2651203e-007
+6.1800000e+002    +6.3503869e-008    +1.3262716e-007
+6.1900000e+002    +6.2914793e-008    +1.2924194e-007
+6.2000000e+002    +6.3216348e-008    +1.3446571e-007
+6.2100000e+002    +6.2351170e-008    +1.3682430e-007
+6.2200000e+002    +6.1127786e-008    +1.3349717e-007
+6.2300000e+002    +5.9370215e-008    +1.2672557e-007
+6.2400000e+002    +6.3692127e-008    +1.3152507e-007
+6.2500000e+002    +7.2769112e-008    +1.3060682e-007
+6.2600000e+002    +6.9894092e-008    +1.3995378e-007
+6.2700000e+002    +6.6579631e-008    +1.4504343e-007
+6.2800000e+002    +6.1081359e-008    +1.2644912e-007
+6.2900000e+002    +6.1771978e-008    +1.3072331e-007
+6.3000000e+002    +6.2216593e-008    +1.3459334e-007
+6.3100000e+002    +6.4968972e-008    +1.2938051e-007
+6.3200000e+002    +7.2215144e-008    +1.2973271e-007
+6.3300000e+002    +6.9258896e-008    +1.3374584e-007
+6.3400000e+002    +6.7209655e-008    +1.3615323e-007
+6.3500000e+002    +6.8390044e-008    +1.3044273e-007
+6.3600000e+002    +6.4217012e-008    +1.2428617e-007
+6.3700000e+002    +5.8999881e-008    +1.2971762e-007
+6.3800000e+002    +6.2971807e-008    +1.3100163e-007
+6.3900000e+002    +6.2937460e-008    +1.3924719e-007
+6.4000000e+002    +5.7556409e-008    +1.4035187e-007
+6.4100000e+002    +5.5800832e-008    +1.4042880e-007
+6.4200000e+002    +7.2765992e-008    +1.4094239e-007
+6.4300000e+002    +9.2296283e-008    +1.3861749e-007
+6.4400000e+002    +1.1464201e-007    +1.4079917e-007
+6.4500000e+002    +1.7778987e-007    +1.4624709e-007
+6.4600000e+002    +2.0849498e-007    +1.4020033e-007
+6.4700000e+002    +1.5983080e-007    +1.3724996e-007
+6.4800000e+002    +1.1116023e-007    +1.3895578e-007
+6.4900000e+002    +1.0291820e-007    +1.3138002e-007
+6.5000000e+002    +1.0673139e-007    +1.3465940e-007
+6.5100000e+002    +1.4502814e-007    +1.4199473e-007
+6.5200000e+002    +1.5497966e-007    +1.5407062e-007
+6.5300000e+002    +9.2518171e-008    +1.4944156e-007
+6.5400000e+002    +7.7853862e-008    +1.4661799e-007
+6.5500000e+002    +6.8284400e-008    +1.4933659e-007
+6.5600000e+002    +6.3871397e-008    +1.4271794e-007
+6.5700000e+002    +5.9093885e-008    +1.3291012e-007
+6.5800000e+002    +6.2036854e-008    +1.3472417e-007
+6.5900000e+002    +1.3705404e-007    +1.3579567e-007
+6.6000000e+002    +2.3823553e-007    +1.5029012e-007
+6.6100000e+002    +1.2297465e-007    +1.4294345e-007
+6.6200000e+002    +6.1290088e-008    +1.4186601e-007
+6.6300000e+002    +6.3878410e-008    +1.3555866e-007
+6.6400000e+002    +5.8825364e-008    +1.3978271e-007
+6.6500000e+002    +6.3970290e-008    +1.4927281e-007
+6.6600000e+002    +6.9612483e-008    +1.3971673e-007
+6.6700000e+002    +6.9084521e-008    +1.5520887e-007
+6.6800000e+002    +7.8308574e-008    +1.4850743e-007
+6.6900000e+002    +7.2189614e-008    +1.4304518e-007
+6.7000000e+002    +6.5480002e-008    +1.4865783e-007
+6.7100000e+002    +6.9729296e-008    +1.4282453e-007
+6.7200000e+002    +7.5099997e-008    +1.4036775e-007
+6.7300000e+002    +7.3662044e-008    +1.5510138e-007
+6.7400000e+002    +7.5592055e-008    +1.5337136e-007
+6.7500000e+002    +7.5548741e-008    +1.4886690e-007
+6.7600000e+002    +7.6783301e-008    +1.5229742e-007
+6.7700000e+002    +7.1218679e-008    +1.5077555e-007
+6.7800000e+002    +7.3016494e-008    +1.4991848e-007
+6.7900000e+002    +7.0833671e-008    +1.4879974e-007
+6.8000000e+002    +7.0592364e-008    +1.4333446e-007
+6.8100000e+002    +7.1539290e-008    +1.3193394e-007
+6.8200000e+002    +7.6320688e-008    +1.4312043e-007
+6.8300000e+002    +7.9257475e-008    +1.4664118e-007
+6.8400000e+002    +8.0746737e-008    +1.5182576e-007
+6.8500000e+002    +8.5479293e-008    +1.4844677e-007
+6.8600000e+002    +1.0687152e-007    +1.4610039e-007
+6.8700000e+002    +1.1432299e-007    +1.6716174e-007
+6.8800000e+002    +1.1017094e-007    +1.6856191e-007
+6.8900000e+002    +1.1800991e-007    +1.6945559e-007
+6.9000000e+002    +1.1066460e-007    +1.7263818e-007
+6.9100000e+002    +1.1551104e-007    +1.7174337e-007
+6.9200000e+002    +1.2610086e-007    +1.6328272e-007
+6.9300000e+002    +1.2073704e-007    +1.6728183e-007
+6.9400000e+002    +1.5205748e-007    +1.7850145e-007
+6.9500000e+002    +1.4185775e-007    +1.6239557e-007
+6.9600000e+002    +1.1782413e-007    +1.6881917e-007
+6.9700000e+002    +1.1322298e-007    +1.7043781e-007
+6.9800000e+002    +9.9861317e-008    +1.5601000e-007
+6.9900000e+002    +9.9143442e-008    +1.6933915e-007
+7.0000000e+002    +1.0810586e-007    +1.6251329e-007
+7.0100000e+002    +1.0825278e-007    +1.5612498e-007
+7.0200000e+002    +1.0638882e-007    +1.6754045e-007
+7.0300000e+002    +1.1112729e-007    +1.6422665e-007
+7.0400000e+002    +1.0566647e-007    +1.7355613e-007
+7.0500000e+002    +1.0219630e-007    +1.6141502e-007
+7.0600000e+002    +1.0896601e-007    +1.6279044e-007
+7.0700000e+002    +1.1095270e-007    +1.6268682e-007
+7.0800000e+002    +1.0897020e-007    +1.5810393e-007
+7.0900000e+002    +1.0626799e-007    +1.7619230e-007
+7.1000000e+002    +9.0803823e-008    +1.8654778e-007
+7.1100000e+002    +9.0472433e-008    +1.8388565e-007
+7.1200000e+002    +1.0088822e-007    +1.6822763e-007
+7.1300000e+002    +1.0602034e-007    +1.8263592e-007
+7.1400000e+002    +1.1186191e-007    +1.8839329e-007
+7.1500000e+002    +1.0925508e-007    +1.7389108e-007
+7.1600000e+002    +1.0789680e-007    +1.7180976e-007
+7.1700000e+002    +9.2499995e-008    +1.8683353e-007
+7.1800000e+002    +9.5893697e-008    +1.7991084e-007
+7.1900000e+002    +1.6013557e-007    +1.8966345e-007
+7.2000000e+002    +2.4300908e-007    +1.8062377e-007
+7.2100000e+002    +1.4032152e-007    +1.7888738e-007
+7.2200000e+002    +9.0048076e-008    +1.7882670e-007
+7.2300000e+002    +8.6576847e-008    +1.6517819e-007
+7.2400000e+002    +8.3094697e-008    +1.5925256e-007
+7.2500000e+002    +7.9696754e-008    +1.6460700e-007
+7.2600000e+002    +7.5038592e-008    +1.6654072e-007
+7.2700000e+002    +7.5554468e-008    +1.7504310e-007
+7.2800000e+002    +7.3191551e-008    +1.9066231e-007
+7.2900000e+002    +7.3814903e-008    +1.7854673e-007
+7.3000000e+002    +6.9158212e-008    +1.7301579e-007
+7.3100000e+002    +6.5717401e-008    +1.6386083e-007
+7.3200000e+002    +6.9882425e-008    +1.7303232e-007
+7.3300000e+002    +6.3514882e-008    +1.8712812e-007
+7.3400000e+002    +6.4475095e-008    +1.9770152e-007
+7.3500000e+002    +6.8676961e-008    +1.9892107e-007
+7.3600000e+002    +6.9585816e-008    +1.8334816e-007
+7.3700000e+002    +7.7942303e-008    +1.7058871e-007
+7.3800000e+002    +7.9045861e-008    +1.7181277e-007
+7.3900000e+002    +6.9881963e-008    +1.7973393e-007
+7.4000000e+002    +6.4386455e-008    +1.7913541e-007
+7.4100000e+002    +6.4206645e-008    +1.8575211e-007
+7.4200000e+002    +6.7673490e-008    +1.7336758e-007
+7.4300000e+002    +7.2713760e-008    +1.6894637e-007
+7.4400000e+002    +6.8395600e-008    +1.9239044e-007
+7.4500000e+002    +6.9173169e-008    +1.9224728e-007
+7.4600000e+002    +7.1382999e-008    +1.9342703e-007
+7.4700000e+002    +7.7788158e-008    +1.9750712e-007
+7.4800000e+002    +8.1842813e-008    +1.9311572e-007
+7.4900000e+002    +8.8302677e-008    +1.8414102e-007
+7.5000000e+002    +1.0078448e-007    +1.7167456e-007
+7.5100000e+002    +9.6169735e-008    +1.8481146e-007
+7.5200000e+002    +8.7668667e-008    +1.8021966e-007
+7.5300000e+002    +8.5817739e-008    +1.9533930e-007
+7.5400000e+002    +7.6203207e-008    +2.0458802e-007
+7.5500000e+002    +8.3881098e-008    +1.9646465e-007
+7.5600000e+002    +7.7406980e-008    +1.7784785e-007
+7.5700000e+002    +7.5174079e-008    +1.9025057e-007
+7.5800000e+002    +7.5532981e-008    +2.1430475e-007
+7.5900000e+002    +7.3347778e-008    +2.2106481e-007
+7.6000000e+002    +7.3573453e-008    +2.0206694e-007
+7.6100000e+002    +6.8776792e-008    +1.8009425e-007
+7.6200000e+002    +6.3604070e-008    +1.9278841e-007
+7.6300000e+002    +6.4527214e-008    +2.0381138e-007
+7.6400000e+002    +6.9194442e-008    +1.9189994e-007
+7.6500000e+002    +6.7816899e-008    +2.0410697e-007
+7.6600000e+002    +7.1488728e-008    +1.9848800e-007
+7.6700000e+002    +7.0665727e-008    +1.9555947e-007
+7.6800000e+002    +6.1201192e-008    +2.0299488e-007
+7.6900000e+002    +6.3699467e-008    +2.0711620e-007
+7.7000000e+002    +6.5328486e-008    +2.0742274e-007
+7.7100000e+002    +6.6046667e-008    +2.0331855e-007
+7.7200000e+002    +6.2585059e-008    +1.9759909e-007
+7.7300000e+002    +6.5238169e-008    +1.9285743e-007
+7.7400000e+002    +6.7800670e-008    +2.0035768e-007
+7.7500000e+002    +6.4235984e-008    +2.1230494e-007
+7.7600000e+002    +5.9077990e-008    +2.2799856e-007
+7.7700000e+002    +6.6027965e-008    +2.1147625e-007
+7.7800000e+002    +6.8067401e-008    +1.7795412e-007
+7.7900000e+002    +1.7101760e-007    +1.8684234e-007
+7.8000000e+002    +2.9089136e-007    +1.9401897e-007
+7.8100000e+002    +1.5799009e-007    +1.8253508e-007
+7.8200000e+002    +6.2253903e-008    +1.9078837e-007
+7.8300000e+002    +5.8592921e-008    +2.1611947e-007
+7.8400000e+002    +6.9069806e-008    +2.1332581e-007
+7.8500000e+002    +7.4354354e-008    +2.2748969e-007
+7.8600000e+002    +7.6570728e-008    +2.2078852e-007
+7.8700000e+002    +7.4992059e-008    +2.3183401e-007
+7.8800000e+002    +6.9300121e-008    +2.3139941e-007
+7.8900000e+002    +7.2612522e-008    +2.1226322e-007
+7.9000000e+002    +7.2369126e-008    +2.0467654e-007
+7.9100000e+002    +6.6205018e-008    +2.0924053e-007
+7.9200000e+002    +6.7224640e-008    +2.1459601e-007
+7.9300000e+002    +6.3548505e-008    +2.1886585e-007
+7.9400000e+002    +6.4957916e-008    +2.2001778e-007
+7.9500000e+002    +6.5952896e-008    +2.2435509e-007
+7.9600000e+002    +6.9273881e-008    +1.9622600e-007
+7.9700000e+002    +7.0740640e-008    +1.9803174e-007
+7.9800000e+002    +7.1824829e-008    +2.1130519e-007
+7.9900000e+002    +7.4419695e-008    +2.1376589e-007
#
#
# North DC Val: 0.68427453 VoltsSouth DC Val: 0.5639239500000001 Volts
# SR785 Measurement - Timestamp: May 30 2020 - 03:00:03
# Parameter File: /home/controls/Git/cit_ctnlab/ctn_scripts/TransRINSpecShort.yml
#---------- Measurement Setup ------------
# Start Frequency (Hz): 0.000000
# Frequency Span (Hz): 102400.000000
# Frequency Resolution: 800
# Number of Averages: 100
# Averaging Mode: RMS
# Window function: Hanning
#---------- Measurement Parameters ----------
# Measurement Group:  "FFT" "FFT"
# Measurements:  "FFT 1" "FFT 2"
# View:  "Log Magnitude" "Log Magnitude"
# Unit:  "Vrms/rtHz" "Vrms/rtHz"
#---------- Input Parameters ----------
# Input Source: Analog
# Input Mode: Single ended, Single ended
# Input Grounding: Float, Float
# Input Coupling: AC, AC
# Input Range: -36.0dBVpk, -36.0dBVpk
# Auto Range: Off, Off
# Auto Range Mode: Tracking, Tracking
# Anti-Aliasing Filter: On, On
#---------- Source Parameters ----------
# Source Type: Sine
# Source Amplitude: 500.0mVpk
# Source On: 0

#---------- Measurement Data ----------
# [Freq(Hz) Display 0(Vrms/rtHz) Display 1(Vrms/rtHz) ]
+8.9600000e+002    +1.3129451e-007    +2.4791993e-007
+1.0240000e+003    +1.2847215e-007    +3.1230081e-007
+1.1520000e+003    +1.1731230e-007    +3.7679334e-007
+1.2800000e+003    +1.2841080e-007    +3.9875803e-007
+1.4080000e+003    +1.3668721e-007    +4.3060066e-007
+1.5360000e+003    +1.7209975e-007    +4.5501253e-007
+1.6640000e+003    +2.0539444e-007    +4.5605987e-007
+1.7920000e+003    +2.9233954e-007    +4.3625073e-007
+1.9200000e+003    +3.0193485e-007    +3.9309731e-007
+2.0480000e+003    +2.6869364e-007    +3.8634397e-007
+2.1760000e+003    +2.8930768e-007    +4.3812182e-007
+2.3040000e+003    +3.1179272e-007    +4.5262033e-007
+2.4320000e+003    +3.0457355e-007    +4.1362856e-007
+2.5600000e+003    +3.2905331e-007    +3.6864427e-007
+2.6880000e+003    +3.8748206e-007    +3.9935347e-007
+2.8160000e+003    +4.1041307e-007    +3.8322105e-007
+2.9440000e+003    +4.1565585e-007    +3.9382567e-007
+3.0720000e+003    +4.5769369e-007    +3.7118676e-007
+3.2000000e+003    +4.7341908e-007    +3.7165574e-007
+3.3280000e+003    +5.3306474e-007    +3.6439872e-007
+3.4560000e+003    +5.3316774e-007    +3.5209197e-007
+3.5840000e+003    +5.4121557e-007    +3.4698971e-007
+3.7120000e+003    +5.8179444e-007    +3.4242873e-007
+3.8400000e+003    +6.0986338e-007    +3.4262544e-007
+3.9680000e+003    +5.8349286e-007    +3.2332639e-007
+4.0960000e+003    +6.0652320e-007    +2.9993123e-007
+4.2240000e+003    +7.2025097e-007    +2.7515361e-007
+4.3520000e+003    +7.4391022e-007    +2.8040753e-007
+4.4800000e+003    +7.9641120e-007    +3.0903345e-007
+4.6080000e+003    +7.6721528e-007    +3.3361593e-007
+4.7360000e+003    +7.7686161e-007    +3.1390485e-007
+4.8640000e+003    +8.6501217e-007    +2.8611842e-007
+4.9920000e+003    +9.8894577e-007    +2.9454489e-007
+5.1200000e+003    +9.5608061e-007    +2.9085751e-007
+5.2480000e+003    +9.1073207e-007    +2.8594727e-007
+5.3760000e+003    +8.9400748e-007    +2.5900954e-007
+5.5040000e+003    +1.0057312e-006    +2.4930523e-007
+5.6320000e+003    +1.0239611e-006    +2.3889507e-007
+5.7600000e+003    +1.0257177e-006    +2.4163435e-007
+5.8880000e+003    +1.1139200e-006    +2.3930173e-007
+6.0160000e+003    +1.1546121e-006    +2.6676793e-007
+6.1440000e+003    +1.1453697e-006    +2.3936059e-007
+6.2720000e+003    +1.1453847e-006    +2.2020338e-007
+6.4000000e+003    +1.2610154e-006    +2.3365963e-007
+6.5280000e+003    +1.1998484e-006    +2.3768921e-007
+6.6560000e+003    +1.2151837e-006    +2.3039473e-007
+6.7840000e+003    +1.3264115e-006    +2.3608445e-007
+6.9120000e+003    +1.3045318e-006    +2.2739705e-007
+7.0400000e+003    +1.2867685e-006    +2.1643815e-007
+7.1680000e+003    +1.3535016e-006    +1.9272132e-007
+7.2960000e+003    +1.4640260e-006    +1.9716761e-007
+7.4240000e+003    +1.4893786e-006    +2.0338217e-007
+7.5520000e+003    +1.5613458e-006    +2.1960098e-007
+7.6800000e+003    +1.6252452e-006    +2.3123127e-007
+7.8080000e+003    +1.5687089e-006    +2.2939240e-007
+7.9360000e+003    +1.5391794e-006    +2.0777468e-007
+8.0640000e+003    +1.7373306e-006    +1.9561229e-007
+8.1920000e+003    +1.7763222e-006    +1.9087449e-007
+8.3200000e+003    +1.7312601e-006    +1.9370330e-007
+8.4480000e+003    +1.8400056e-006    +1.9863582e-007
+8.5760000e+003    +1.9459862e-006    +1.9142730e-007
+8.7040000e+003    +1.9052839e-006    +2.0682533e-007
+8.8320000e+003    +1.8582290e-006    +2.2253229e-007
+8.9600000e+003    +1.7521307e-006    +2.2069085e-007
+9.0880000e+003    +1.8594903e-006    +2.1295862e-007
+9.2160000e+003    +1.8815639e-006    +2.0654939e-007
+9.3440000e+003    +1.9782333e-006    +2.1291561e-007
+9.4720000e+003    +1.9777099e-006    +2.1263783e-007
+9.6000000e+003    +1.9421611e-006    +1.9732873e-007
+9.7280000e+003    +1.7850224e-006    +1.9391673e-007
+9.8560000e+003    +1.9469264e-006    +2.1018850e-007
+9.9840000e+003    +2.0885354e-006    +2.2033446e-007
+1.0112000e+004    +2.0678015e-006    +2.1261401e-007
+1.0240000e+004    +2.0186758e-006    +2.1051068e-007
+1.0368000e+004    +2.1323940e-006    +2.1594347e-007
+1.0496000e+004    +2.3062023e-006    +2.2231079e-007
+1.0624000e+004    +2.1564779e-006    +2.2004315e-007
+1.0752000e+004    +2.0888176e-006    +2.2022418e-007
+1.0880000e+004    +2.1659648e-006    +2.0775872e-007
+1.1008000e+004    +2.2483225e-006    +1.9918923e-007
+1.1136000e+004    +2.2690274e-006    +1.7845031e-007
+1.1264000e+004    +2.2102815e-006    +2.0004356e-007
+1.1392000e+004    +2.1586952e-006    +2.0635173e-007
+1.1520000e+004    +2.4553929e-006    +2.0362238e-007
+1.1648000e+004    +2.4356202e-006    +2.0303301e-007
+1.1776000e+004    +2.3530629e-006    +2.2639259e-007
+1.1904000e+004    +2.1836970e-006    +2.0170984e-007
+1.2032000e+004    +2.1122030e-006    +1.9625983e-007
+1.2160000e+004    +2.3617961e-006    +2.1455290e-007
+1.2288000e+004    +2.5539437e-006    +2.1316659e-007
+1.2416000e+004    +2.5692577e-006    +1.9881452e-007
+1.2544000e+004    +2.3047292e-006    +2.1211551e-007
+1.2672000e+004    +2.3979146e-006    +2.1292145e-007
+1.2800000e+004    +2.3234595e-006    +2.1013680e-007
+1.2928000e+004    +2.4159908e-006    +2.1376566e-007
+1.3056000e+004    +2.4626854e-006    +2.2269508e-007
+1.3184000e+004    +2.4950184e-006    +2.1341623e-007
+1.3312000e+004    +2.3772157e-006    +2.0508257e-007
+1.3440000e+004    +2.2418519e-006    +2.0282424e-007
+1.3568000e+004    +2.1625572e-006    +2.1649876e-007
+1.3696000e+004    +2.1978383e-006    +2.1492495e-007
+1.3824000e+004    +2.1626142e-006    +2.2439747e-007
+1.3952000e+004    +2.2600689e-006    +2.1982726e-007
+1.4080000e+004    +2.3157299e-006    +2.1430475e-007
+1.4208000e+004    +2.2480090e-006    +2.0987119e-007
+1.4336000e+004    +2.2295073e-006    +2.2080792e-007
+1.4464000e+004    +2.3270056e-006    +2.2429845e-007
+1.4592000e+004    +2.3250648e-006    +2.2349262e-007
+1.4720000e+004    +2.2784516e-006    +2.3934641e-007
+1.4848000e+004    +2.1604878e-006    +2.0641835e-007
+1.4976000e+004    +2.0926511e-006    +2.0525084e-007
+1.5104000e+004    +2.1106218e-006    +2.2829438e-007
+1.5232000e+004    +2.0829546e-006    +2.1686157e-007
+1.5360000e+004    +1.8028754e-006    +2.2719590e-007
+1.5488000e+004    +2.0164496e-006    +2.3320317e-007
+1.5616000e+004    +2.0520824e-006    +2.4076704e-007
+1.5744000e+004    +1.9764075e-006    +2.3609482e-007
+1.5872000e+004    +2.0881823e-006    +2.2746822e-007
+1.6000000e+004    +1.9958241e-006    +2.2245558e-007
+1.6128000e+004    +1.9917939e-006    +2.2899656e-007
+1.6256000e+004    +1.8973969e-006    +2.1940697e-007
+1.6384000e+004    +1.8990413e-006    +2.1595106e-007
+1.6512000e+004    +1.8259341e-006    +2.2026747e-007
+1.6640000e+004    +1.8862447e-006    +2.3411415e-007
+1.6768000e+004    +2.0047100e-006    +2.4052582e-007
+1.6896000e+004    +2.0961488e-006    +2.3997873e-007
+1.7024000e+004    +1.9712149e-006    +2.3690549e-007
+1.7152000e+004    +1.8132519e-006    +2.3394458e-007
+1.7280000e+004    +1.7842366e-006    +2.3193432e-007
+1.7408000e+004    +1.8752673e-006    +2.2972989e-007
+1.7536000e+004    +1.9187614e-006    +2.3447508e-007
+1.7664000e+004    +1.8404198e-006    +2.3884945e-007
+1.7792000e+004    +1.7664905e-006    +2.2537674e-007
+1.7920000e+004    +1.7763554e-006    +2.0729206e-007
+1.8048000e+004    +1.7141181e-006    +2.3655149e-007
+1.8176000e+004    +1.7813239e-006    +2.2992317e-007
+1.8304000e+004    +1.7811617e-006    +2.5183240e-007
+1.8432000e+004    +1.6899479e-006    +2.6109359e-007
+1.8560000e+004    +1.6342638e-006    +2.4828086e-007
+1.8688000e+004    +1.5838818e-006    +2.3639363e-007
+1.8816000e+004    +1.7302852e-006    +2.3941078e-007
+1.8944000e+004    +1.6591653e-006    +2.4583898e-007
+1.9072000e+004    +1.7174016e-006    +2.3719571e-007
+1.9200000e+004    +1.8576048e-006    +2.2587491e-007
+1.9328000e+004    +1.7245441e-006    +2.4738969e-007
+1.9456000e+004    +1.5602062e-006    +2.4106384e-007
+1.9584000e+004    +1.5859143e-006    +2.2824426e-007
+1.9712000e+004    +1.5544149e-006    +2.4417545e-007
+1.9840000e+004    +1.5204463e-006    +2.5793824e-007
+1.9968000e+004    +1.5173227e-006    +2.9183411e-007
+2.0096000e+004    +1.5654947e-006    +2.9222559e-007
+2.0224000e+004    +1.5099455e-006    +2.7617236e-007
+2.0352000e+004    +1.4950244e-006    +2.7263533e-007
+2.0480000e+004    +1.5125672e-006    +2.6042508e-007
+2.0608000e+004    +1.5090307e-006    +2.6088497e-007
+2.0736000e+004    +1.5731071e-006    +2.4506608e-007
+2.0864000e+004    +1.6349978e-006    +2.6532376e-007
+2.0992000e+004    +1.5579415e-006    +2.7728927e-007
+2.1120000e+004    +1.4388870e-006    +2.6420602e-007
+2.1248000e+004    +1.5463207e-006    +2.8147821e-007
+2.1376000e+004    +1.5304369e-006    +2.9538984e-007
+2.1504000e+004    +1.4605019e-006    +2.8201524e-007
+2.1632000e+004    +1.3734432e-006    +2.4435889e-007
+2.1760000e+004    +1.4011754e-006    +2.3246052e-007
+2.1888000e+004    +1.4206303e-006    +2.4501682e-007
+2.2016000e+004    +1.4678971e-006    +2.4598992e-007
+2.2144000e+004    +1.5717656e-006    +2.7297889e-007
+2.2272000e+004    +1.6550642e-006    +2.6443092e-007
+2.2400000e+004    +1.5215635e-006    +2.5757060e-007
+2.2528000e+004    +1.3263867e-006    +2.7672266e-007
+2.2656000e+004    +1.4668788e-006    +2.7747964e-007
+2.2784000e+004    +1.5371646e-006    +2.7086423e-007
+2.2912000e+004    +1.4583084e-006    +2.5398415e-007
+2.3040000e+004    +1.4335823e-006    +2.6776624e-007
+2.3168000e+004    +1.4143117e-006    +2.8103230e-007
+2.3296000e+004    +1.3673705e-006    +2.7350242e-007
+2.3424000e+004    +1.3613604e-006    +2.8699245e-007
+2.3552000e+004    +1.4505363e-006    +3.0581370e-007
+2.3680000e+004    +1.2886630e-006    +2.9682099e-007
+2.3808000e+004    +1.4121487e-006    +2.7973070e-007
+2.3936000e+004    +1.5621191e-006    +2.7525209e-007
+2.4064000e+004    +1.4884255e-006    +2.7199550e-007
+2.4192000e+004    +1.4783440e-006    +2.7746958e-007
+2.4320000e+004    +1.3371487e-006    +2.6992490e-007
+2.4448000e+004    +1.4704393e-006    +2.9167009e-007
+2.4576000e+004    +1.3929123e-006    +3.1370467e-007
+2.4704000e+004    +1.2449253e-006    +3.2807353e-007
+2.4832000e+004    +1.2865170e-006    +3.2608330e-007
+2.4960000e+004    +1.3670042e-006    +3.2523445e-007
+2.5088000e+004    +1.2912847e-006    +3.1564673e-007
+2.5216000e+004    +1.2804686e-006    +2.8948310e-007
+2.5344000e+004    +1.3335273e-006    +3.2114522e-007
+2.5472000e+004    +1.4027099e-006    +3.2114099e-007
+2.5600000e+004    +1.3324531e-006    +3.3090177e-007
+2.5728000e+004    +1.2911131e-006    +3.1230252e-007
+2.5856000e+004    +1.2339407e-006    +3.0852897e-007
+2.5984000e+004    +1.3948390e-006    +2.9553485e-007
+2.6112000e+004    +1.3643817e-006    +2.9095906e-007
+2.6240000e+004    +1.2225186e-006    +3.2598592e-007
+2.6368000e+004    +1.2170638e-006    +3.5938828e-007
+2.6496000e+004    +1.3020806e-006    +3.3498242e-007
+2.6624000e+004    +1.3230865e-006    +3.6636607e-007
+2.6752000e+004    +1.3263460e-006    +3.7970042e-007
+2.6880000e+004    +1.3025395e-006    +3.2659460e-007
+2.7008000e+004    +1.3083488e-006    +3.3650895e-007
+2.7136000e+004    +1.1201381e-006    +3.2974410e-007
+2.7264000e+004    +1.3086706e-006    +3.1313414e-007
+2.7392000e+004    +1.4219146e-006    +3.5834375e-007
+2.7520000e+004    +1.2846044e-006    +3.4605222e-007
+2.7648000e+004    +1.2406258e-006    +3.3232430e-007
+2.7776000e+004    +1.2099475e-006    +3.7617824e-007
+2.7904000e+004    +1.2929077e-006    +3.8373261e-007
+2.8032000e+004    +1.3588457e-006    +3.6428872e-007
+2.8160000e+004    +1.2466488e-006    +3.7088611e-007
+2.8288000e+004    +1.2596054e-006    +3.6348683e-007
+2.8416000e+004    +1.2867119e-006    +3.6639423e-007
+2.8544000e+004    +1.2833976e-006    +3.7567386e-007
+2.8672000e+004    +1.2652384e-006    +3.6990480e-007
+2.8800000e+004    +1.2644482e-006    +4.2356794e-007
+2.8928000e+004    +1.3015446e-006    +4.1017384e-007
+2.9056000e+004    +1.2258224e-006    +3.8274337e-007
+2.9184000e+004    +1.2613851e-006    +3.7424613e-007
+2.9312000e+004    +1.2824004e-006    +3.5659875e-007
+2.9440000e+004    +1.2599304e-006    +3.7034044e-007
+2.9568000e+004    +1.3648026e-006    +3.8469486e-007
+2.9696000e+004    +1.2428399e-006    +3.2090168e-007
+2.9824000e+004    +1.1350938e-006    +3.2872254e-007
+2.9952000e+004    +1.2418728e-006    +3.7704163e-007
+3.0080000e+004    +1.2620792e-006    +3.8713631e-007
+3.0208000e+004    +1.2465804e-006    +3.8773655e-007
+3.0336000e+004    +1.2118168e-006    +3.8989498e-007
+3.0464000e+004    +1.2973157e-006    +4.2324160e-007
+3.0592000e+004    +1.2929020e-006    +4.0611252e-007
+3.0720000e+004    +1.3008531e-006    +3.9405620e-007
+3.0848000e+004    +1.3073939e-006    +3.9121528e-007
+3.0976000e+004    +1.2069157e-006    +3.8450526e-007
+3.1104000e+004    +1.2295372e-006    +3.8387211e-007
+3.1232000e+004    +1.1767377e-006    +4.0046567e-007
+3.1360000e+004    +1.2377305e-006    +4.3221729e-007
+3.1488000e+004    +1.3497277e-006    +4.1768249e-007
+3.1616000e+004    +1.3189166e-006    +4.0723194e-007
+3.1744000e+004    +1.2731634e-006    +3.8331953e-007
+3.1872000e+004    +1.2034436e-006    +4.1288445e-007
+3.2000000e+004    +1.3086117e-006    +4.1597360e-007
+3.2128000e+004    +1.3235993e-006    +4.1090857e-007
+3.2256000e+004    +1.2852181e-006    +4.2333221e-007
+3.2384000e+004    +1.2752157e-006    +4.6333844e-007
+3.2512000e+004    +1.3493899e-006    +4.3292496e-007
+3.2640000e+004    +1.3234729e-006    +4.2320954e-007
+3.2768000e+004    +1.3429781e-006    +4.1078226e-007
+3.2896000e+004    +1.3198031e-006    +4.3924939e-007
+3.3024000e+004    +1.3152232e-006    +4.4668221e-007
+3.3152000e+004    +1.3182622e-006    +4.5965825e-007
+3.3280000e+004    +1.2547797e-006    +4.5715026e-007
+3.3408000e+004    +1.3133214e-006    +4.3196016e-007
+3.3536000e+004    +1.3627931e-006    +4.5179513e-007
+3.3664000e+004    +1.3860608e-006    +4.9142398e-007
+3.3792000e+004    +1.3805354e-006    +5.0579081e-007
+3.3920000e+004    +1.3329446e-006    +4.6692759e-007
+3.4048000e+004    +1.2476827e-006    +4.7888170e-007
+3.4176000e+004    +1.2474347e-006    +4.7274020e-007
+3.4304000e+004    +1.2429259e-006    +4.6883397e-007
+3.4432000e+004    +1.2820400e-006    +4.8029023e-007
+3.4560000e+004    +1.3769568e-006    +5.0018156e-007
+3.4688000e+004    +1.3148017e-006    +4.7706698e-007
+3.4816000e+004    +1.3486700e-006    +4.4547150e-007
+3.4944000e+004    +1.3214141e-006    +4.6211858e-007
+3.5072000e+004    +1.2475197e-006    +5.0314929e-007
+3.5200000e+004    +1.3536799e-006    +5.3897702e-007
+3.5328000e+004    +1.3381062e-006    +5.2233702e-007
+3.5456000e+004    +1.3390792e-006    +5.6401086e-007
+3.5584000e+004    +1.3345203e-006    +5.5652214e-007
+3.5712000e+004    +1.2703373e-006    +4.7477926e-007
+3.5840000e+004    +1.2804222e-006    +5.0577302e-007
+3.5968000e+004    +1.2832581e-006    +4.9090357e-007
+3.6096000e+004    +1.2644426e-006    +5.0045566e-007
+3.6224000e+004    +1.2376612e-006    +5.2870649e-007
+3.6352000e+004    +1.2405263e-006    +5.5152930e-007
+3.6480000e+004    +1.1809715e-006    +5.3065531e-007
+3.6608000e+004    +1.2398183e-006    +5.1222048e-007
+3.6736000e+004    +1.3583832e-006    +5.5564783e-007
+3.6864000e+004    +1.3528999e-006    +5.4836346e-007
+3.6992000e+004    +1.3438543e-006    +5.0333995e-007
+3.7120000e+004    +1.3211413e-006    +5.0650658e-007
+3.7248000e+004    +1.3280130e-006    +5.3337970e-007
+3.7376000e+004    +1.3114741e-006    +5.6044900e-007
+3.7504000e+004    +1.3148334e-006    +5.1772531e-007
+3.7632000e+004    +1.3484879e-006    +5.5237768e-007
+3.7760000e+004    +1.3074355e-006    +5.4740457e-007
+3.7888000e+004    +1.2550649e-006    +5.0527677e-007
+3.8016000e+004    +1.2680268e-006    +5.5867713e-007
+3.8144000e+004    +1.3560497e-006    +5.8675778e-007
+3.8272000e+004    +1.2884451e-006    +5.5832027e-007
+3.8400000e+004    +1.2591961e-006    +5.8794046e-007
+3.8528000e+004    +1.3657125e-006    +5.8729853e-007
+3.8656000e+004    +1.3381812e-006    +5.9377714e-007
+3.8784000e+004    +1.2591836e-006    +5.6687600e-007
+3.8912000e+004    +1.2506644e-006    +5.7162731e-007
+3.9040000e+004    +1.2719004e-006    +5.5457389e-007
+3.9168000e+004    +1.2502375e-006    +5.9539877e-007
+3.9296000e+004    +1.2338878e-006    +5.8730177e-007
+3.9424000e+004    +1.2869818e-006    +5.6379787e-007
+3.9552000e+004    +1.3232434e-006    +5.6519428e-007
+3.9680000e+004    +1.3536531e-006    +5.6095445e-007
+3.9808000e+004    +1.3127994e-006    +6.0134579e-007
+3.9936000e+004    +1.3248920e-006    +6.4732859e-007
+4.0064000e+004    +1.3758385e-006    +6.2107591e-007
+4.0192000e+004    +1.3353235e-006    +5.9165041e-007
+4.0320000e+004    +1.3004803e-006    +6.2296976e-007
+4.0448000e+004    +1.3079093e-006    +6.3607843e-007
+4.0576000e+004    +1.2915073e-006    +6.0558563e-007
+4.0704000e+004    +1.3163617e-006    +6.3027215e-007
+4.0832000e+004    +1.3115806e-006    +6.1016141e-007
+4.0960000e+004    +1.3069188e-006    +5.9020226e-007
+4.1088000e+004    +1.2191675e-006    +6.1400345e-007
+4.1216000e+004    +1.2182563e-006    +6.0195350e-007
+4.1344000e+004    +1.2762537e-006    +6.2422822e-007
+4.1472000e+004    +1.2597949e-006    +6.3440592e-007
+4.1600000e+004    +1.2428167e-006    +6.9796852e-007
+4.1728000e+004    +1.2929687e-006    +7.0241668e-007
+4.1856000e+004    +1.2441657e-006    +6.1758345e-007
+4.1984000e+004    +1.2548817e-006    +5.9901828e-007
+4.2112000e+004    +1.2402976e-006    +6.3327434e-007
+4.2240000e+004    +1.2653468e-006    +6.4220535e-007
+4.2368000e+004    +1.2668481e-006    +6.8934952e-007
+4.2496000e+004    +1.2931305e-006    +6.8770981e-007
+4.2624000e+004    +1.2737856e-006    +6.6804870e-007
+4.2752000e+004    +1.2920916e-006    +6.2438517e-007
+4.2880000e+004    +1.2724172e-006    +6.5809388e-007
+4.3008000e+004    +1.3054832e-006    +6.6258758e-007
+4.3136000e+004    +1.3051794e-006    +6.3903946e-007
+4.3264000e+004    +1.1871584e-006    +7.0627954e-007
+4.3392000e+004    +1.2570839e-006    +7.0293896e-007
+4.3520000e+004    +1.2711437e-006    +7.0852496e-007
+4.3648000e+004    +1.2769489e-006    +7.5576202e-007
+4.3776000e+004    +1.2246049e-006    +7.6135802e-007
+4.3904000e+004    +1.2469815e-006    +7.4184089e-007
+4.4032000e+004    +1.1960077e-006    +7.2211100e-007
+4.4160000e+004    +1.1755290e-006    +7.1640216e-007
+4.4288000e+004    +1.2377957e-006    +6.8377204e-007
+4.4416000e+004    +1.2585092e-006    +6.6495033e-007
+4.4544000e+004    +1.2112567e-006    +6.6128371e-007
+4.4672000e+004    +1.1963979e-006    +6.7722772e-007
+4.4800000e+004    +1.2766335e-006    +7.1967554e-007
+4.4928000e+004    +1.2573062e-006    +7.4568555e-007
+4.5056000e+004    +1.3203031e-006    +7.3847002e-007
+4.5184000e+004    +1.2623398e-006    +7.5608239e-007
+4.5312000e+004    +1.1883072e-006    +7.2274872e-007
+4.5440000e+004    +1.2726379e-006    +7.0083900e-007
+4.5568000e+004    +1.2237084e-006    +7.1710258e-007
+4.5696000e+004    +1.2547480e-006    +7.5039168e-007
+4.5824000e+004    +1.3520192e-006    +7.2883455e-007
+4.5952000e+004    +1.2414174e-006    +6.8855672e-007
+4.6080000e+004    +1.1877581e-006    +7.7834375e-007
+4.6208000e+004    +1.2650481e-006    +7.8252623e-007
+4.6336000e+004    +1.2883235e-006    +7.5711745e-007
+4.6464000e+004    +1.2804869e-006    +8.2029038e-007
+4.6592000e+004    +1.2222099e-006    +7.9394562e-007
+4.6720000e+004    +1.2054101e-006    +7.5270793e-007
+4.6848000e+004    +1.2202992e-006    +7.9724060e-007
+4.6976000e+004    +1.3059062e-006    +8.3101264e-007
+4.7104000e+004    +1.2895448e-006    +8.8485234e-007
+4.7232000e+004    +1.2644705e-006    +8.6578274e-007
+4.7360000e+004    +1.2749581e-006    +8.1321230e-007
+4.7488000e+004    +1.3746954e-006    +8.4644540e-007
+4.7616000e+004    +1.3946828e-006    +8.5967213e-007
+4.7744000e+004    +1.2966550e-006    +8.7626802e-007
+4.7872000e+004    +1.2892361e-006    +8.8845820e-007
+4.8000000e+004    +1.2109616e-006    +7.8047287e-007
+4.8128000e+004    +1.0945872e-006    +7.2622566e-007
+4.8256000e+004    +1.1392441e-006    +7.5988152e-007
+4.8384000e+004    +1.1658580e-006    +7.9632377e-007
+4.8512000e+004    +1.1789983e-006    +8.4902086e-007
+4.8640000e+004    +1.1499917e-006    +8.0104070e-007
+4.8768000e+004    +1.1182507e-006    +7.5599024e-007
+4.8896000e+004    +1.0615930e-006    +7.3598017e-007
+4.9024000e+004    +1.0307301e-006    +7.5783436e-007
+4.9152000e+004    +1.0375871e-006    +8.0444102e-007
+4.9280000e+004    +1.0492990e-006    +7.8135258e-007
+4.9408000e+004    +1.0499606e-006    +8.4939660e-007
+4.9536000e+004    +1.0386016e-006    +9.0454057e-007
+4.9664000e+004    +1.0580439e-006    +9.1600901e-007
+4.9792000e+004    +1.0683832e-006    +8.0577848e-007
+4.9920000e+004    +1.0892403e-006    +7.5894684e-007
+5.0048000e+004    +1.0802269e-006    +7.8366372e-007
+5.0176000e+004    +1.0522826e-006    +9.3985034e-007
+5.0304000e+004    +1.0171260e-006    +9.9234160e-007
+5.0432000e+004    +1.0480463e-006    +8.3914534e-007
+5.0560000e+004    +1.0283935e-006    +9.4338822e-007
+5.0688000e+004    +9.9954332e-007    +9.1271011e-007
+5.0816000e+004    +9.7166571e-007    +9.0228400e-007
+5.0944000e+004    +9.5476196e-007    +8.9609381e-007
+5.1072000e+004    +9.4791511e-007    +9.8004227e-007
+5.1200000e+004    +9.3137646e-007    +8.5545673e-007
+5.1328000e+004    +9.3277134e-007    +7.8225992e-007
+5.1456000e+004    +9.4487473e-007    +9.0265559e-007
+5.1584000e+004    +9.4806290e-007    +9.3684400e-007
+5.1712000e+004    +9.2755772e-007    +8.8767331e-007
+5.1840000e+004    +9.4052547e-007    +8.8530129e-007
+5.1968000e+004    +9.2452171e-007    +9.2631814e-007
+5.2096000e+004    +9.3349468e-007    +9.7022337e-007
+5.2224000e+004    +9.4851481e-007    +9.4932744e-007
+5.2352000e+004    +9.2791936e-007    +9.6013480e-007
+5.2480000e+004    +9.3867880e-007    +1.0074210e-006
+5.2608000e+004    +9.0999742e-007    +1.0420580e-006
+5.2736000e+004    +9.5263840e-007    +1.0109535e-006
+5.2864000e+004    +9.2439785e-007    +9.1826666e-007
+5.2992000e+004    +9.0929331e-007    +8.7445153e-007
+5.3120000e+004    +9.1760148e-007    +9.3103091e-007
+5.3248000e+004    +9.4422552e-007    +9.8452347e-007
+5.3376000e+004    +9.1328553e-007    +9.8317093e-007
+5.3504000e+004    +8.7876924e-007    +9.5349753e-007
+5.3632000e+004    +9.0502238e-007    +9.0730475e-007
+5.3760000e+004    +8.8956216e-007    +8.8478532e-007
+5.3888000e+004    +8.8809344e-007    +9.2435522e-007
+5.4016000e+004    +8.6363991e-007    +1.0079698e-006
+5.4144000e+004    +8.5566154e-007    +9.7942154e-007
+5.4272000e+004    +8.5950319e-007    +9.0111871e-007
+5.4400000e+004    +8.5541728e-007    +8.8383962e-007
+5.4528000e+004    +8.7304608e-007    +9.1361250e-007
+5.4656000e+004    +8.5803231e-007    +9.9185570e-007
+5.4784000e+004    +8.1395103e-007    +9.6442761e-007
+5.4912000e+004    +8.0990026e-007    +8.7485773e-007
+5.5040000e+004    +8.4751207e-007    +9.3397142e-007
+5.5168000e+004    +9.1626350e-007    +9.1358743e-007
+5.5296000e+004    +8.7321388e-007    +9.2873881e-007
+5.5424000e+004    +9.3835422e-007    +1.0203406e-006
+5.5552000e+004    +1.6476504e-006    +1.0189692e-006
+5.5680000e+004    +1.4185978e-006    +1.1376766e-006
+5.5808000e+004    +8.6556793e-007    +1.0399914e-006
+5.5936000e+004    +8.3765042e-007    +9.2768096e-007
+5.6064000e+004    +8.4049435e-007    +9.8786165e-007
+5.6192000e+004    +8.4484009e-007    +1.0899880e-006
+5.6320000e+004    +8.6334603e-007    +1.1478585e-006
+5.6448000e+004    +8.4985555e-007    +1.1356386e-006
+5.6576000e+004    +8.2476339e-007    +1.0418429e-006
+5.6704000e+004    +8.0185731e-007    +9.9023339e-007
+5.6832000e+004    +8.0697907e-007    +1.0527299e-006
+5.6960000e+004    +7.8941605e-007    +1.0617026e-006
+5.7088000e+004    +7.8802100e-007    +1.0743671e-006
+5.7216000e+004    +7.7143619e-007    +1.0424814e-006
+5.7344000e+004    +8.0686476e-007    +1.0765185e-006
+5.7472000e+004    +8.2131686e-007    +1.0619253e-006
+5.7600000e+004    +7.9273400e-007    +1.0604327e-006
+5.7728000e+004    +7.7617273e-007    +1.0874406e-006
+5.7856000e+004    +7.7472703e-007    +1.0893049e-006
+5.7984000e+004    +7.8387200e-007    +1.0394560e-006
+5.8112000e+004    +8.1774101e-007    +9.8389455e-007
+5.8240000e+004    +7.6738041e-007    +1.0338651e-006
+5.8368000e+004    +7.4818689e-007    +1.0587203e-006
+5.8496000e+004    +7.5788762e-007    +1.0358888e-006
+5.8624000e+004    +7.9464246e-007    +1.0490629e-006
+5.8752000e+004    +7.7098485e-007    +1.0795997e-006
+5.8880000e+004    +7.7022679e-007    +1.1195344e-006
+5.9008000e+004    +7.5924606e-007    +1.2038454e-006
+5.9136000e+004    +7.6563413e-007    +1.2215660e-006
+5.9264000e+004    +7.6169079e-007    +1.2175609e-006
+5.9392000e+004    +7.5890352e-007    +1.1572989e-006
+5.9520000e+004    +7.5927358e-007    +1.0913675e-006
+5.9648000e+004    +7.5659142e-007    +1.1941615e-006
+5.9776000e+004    +7.8174560e-007    +1.2161714e-006
+5.9904000e+004    +7.6079567e-007    +1.1512651e-006
+6.0032000e+004    +7.2415787e-007    +1.0984060e-006
+6.0160000e+004    +7.3458756e-007    +1.0432383e-006
+6.0288000e+004    +7.1464711e-007    +1.1824843e-006
+6.0416000e+004    +7.2121958e-007    +1.1321999e-006
+6.0544000e+004    +7.3182792e-007    +1.1032515e-006
+6.0672000e+004    +7.3788482e-007    +1.0383485e-006
+6.0800000e+004    +7.4087228e-007    +1.0400394e-006
+6.0928000e+004    +7.2787009e-007    +1.0635016e-006
+6.1056000e+004    +7.2543827e-007    +1.2146742e-006
+6.1184000e+004    +7.3920336e-007    +1.2188115e-006
+6.1312000e+004    +7.2782052e-007    +1.1951099e-006
+6.1440000e+004    +7.2006441e-007    +1.2643594e-006
+6.1568000e+004    +7.1652806e-007    +1.2436999e-006
+6.1696000e+004    +7.0064897e-007    +1.1917463e-006
+6.1824000e+004    +7.2490644e-007    +1.2108193e-006
+6.1952000e+004    +7.2957033e-007    +1.2532968e-006
+6.2080000e+004    +7.0785467e-007    +1.2984016e-006
+6.2208000e+004    +6.8254116e-007    +1.3114856e-006
+6.2336000e+004    +7.0386500e-007    +1.3304385e-006
+6.2464000e+004    +7.0391599e-007    +1.2920264e-006
+6.2592000e+004    +7.0440927e-007    +1.2309745e-006
+6.2720000e+004    +6.9189730e-007    +1.0753715e-006
+6.2848000e+004    +6.9164059e-007    +1.1453444e-006
+6.2976000e+004    +7.0946066e-007    +1.3712494e-006
+6.3104000e+004    +7.0770551e-007    +1.3185213e-006
+6.3232000e+004    +6.9169300e-007    +1.2588629e-006
+6.3360000e+004    +6.7589212e-007    +1.2262195e-006
+6.3488000e+004    +6.8941080e-007    +1.1841356e-006
+6.3616000e+004    +6.7564429e-007    +1.2061130e-006
+6.3744000e+004    +6.6946365e-007    +1.2434555e-006
+6.3872000e+004    +6.7639991e-007    +1.2754664e-006
+6.4000000e+004    +6.7519045e-007    +1.2180757e-006
+6.4128000e+004    +6.8270833e-007    +1.2336183e-006
+6.4256000e+004    +6.7950913e-007    +1.1733871e-006
+6.4384000e+004    +6.5946091e-007    +1.3098594e-006
+6.4512000e+004    +6.4760019e-007    +1.2272633e-006
+6.4640000e+004    +6.6088813e-007    +1.2760743e-006
+6.4768000e+004    +6.5838515e-007    +1.3273308e-006
+6.4896000e+004    +6.4226106e-007    +1.2982590e-006
+6.5024000e+004    +6.3425824e-007    +1.2597133e-006
+6.5152000e+004    +6.4565558e-007    +1.2594948e-006
+6.5280000e+004    +6.6829153e-007    +1.3378389e-006
+6.5408000e+004    +6.5565689e-007    +1.2566176e-006
+6.5536000e+004    +6.5559567e-007    +1.2446999e-006
+6.5664000e+004    +6.4547481e-007    +1.3255088e-006
+6.5792000e+004    +6.4524238e-007    +1.3366217e-006
+6.5920000e+004    +6.4355424e-007    +1.2652648e-006
+6.6048000e+004    +6.4360233e-007    +1.2309664e-006
+6.6176000e+004    +6.3704852e-007    +1.3259732e-006
+6.6304000e+004    +6.3025419e-007    +1.3273395e-006
+6.6432000e+004    +6.3862143e-007    +1.3079983e-006
+6.6560000e+004    +6.4801554e-007    +1.3844957e-006
+6.6688000e+004    +6.4955560e-007    +1.3221672e-006
+6.6816000e+004    +6.3367213e-007    +1.2963147e-006
+6.6944000e+004    +6.2474658e-007    +1.2587939e-006
+6.7072000e+004    +6.3879395e-007    +1.1562105e-006
+6.7200000e+004    +6.3950273e-007    +1.2546461e-006
+6.7328000e+004    +6.3160775e-007    +1.4020449e-006
+6.7456000e+004    +6.2057768e-007    +1.3780109e-006
+6.7584000e+004    +6.2128123e-007    +1.4310409e-006
+6.7712000e+004    +6.1229821e-007    +1.4503197e-006
+6.7840000e+004    +6.2651401e-007    +1.2487119e-006
+6.7968000e+004    +6.2843270e-007    +1.2700053e-006
+6.8096000e+004    +6.0440851e-007    +1.3352459e-006
+6.8224000e+004    +6.0858576e-007    +1.3932365e-006
+6.8352000e+004    +6.1460372e-007    +1.3969188e-006
+6.8480000e+004    +6.1935918e-007    +1.4445603e-006
+6.8608000e+004    +6.2131943e-007    +1.3821309e-006
+6.8736000e+004    +6.1751501e-007    +1.4712274e-006
+6.8864000e+004    +6.0432757e-007    +1.4864054e-006
+6.8992000e+004    +6.2135490e-007    +1.4167128e-006
+6.9120000e+004    +6.1746209e-007    +1.4489270e-006
+6.9248000e+004    +6.0454727e-007    +1.3511526e-006
+6.9376000e+004    +6.0950856e-007    +1.3002648e-006
+6.9504000e+004    +5.9924389e-007    +1.4639377e-006
+6.9632000e+004    +5.8637778e-007    +1.3837298e-006
+6.9760000e+004    +5.8679643e-007    +1.3781955e-006
+6.9888000e+004    +5.8602058e-007    +1.4225470e-006
+7.0016000e+004    +6.0259759e-007    +1.4076903e-006
+7.0144000e+004    +1.0702112e-006    +1.6210305e-006
+7.0272000e+004    +1.4516196e-006    +1.7727547e-006
+7.0400000e+004    +7.6426846e-007    +1.5684280e-006
+7.0528000e+004    +5.9150813e-007    +1.4602791e-006
+7.0656000e+004    +6.6786828e-007    +1.4817028e-006
+7.0784000e+004    +8.8019254e-007    +1.5906210e-006
+7.0912000e+004    +7.0355821e-007    +1.4516132e-006
+7.1040000e+004    +5.9700778e-007    +1.4417019e-006
+7.1168000e+004    +5.7948660e-007    +1.3296325e-006
+7.1296000e+004    +5.8594145e-007    +1.3581104e-006
+7.1424000e+004    +5.7688572e-007    +1.3641285e-006
+7.1552000e+004    +5.8937530e-007    +1.4497974e-006
+7.1680000e+004    +6.0038656e-007    +1.5127731e-006
+7.1808000e+004    +5.9275447e-007    +1.4597181e-006
+7.1936000e+004    +5.8285576e-007    +1.3889096e-006
+7.2064000e+004    +5.7910819e-007    +1.4376694e-006
+7.2192000e+004    +5.8972290e-007    +1.4005554e-006
+7.2320000e+004    +5.9346428e-007    +1.4857234e-006
+7.2448000e+004    +5.7978639e-007    +1.3861612e-006
+7.2576000e+004    +5.6738162e-007    +1.5227400e-006
+7.2704000e+004    +5.7683951e-007    +1.5224057e-006
+7.2832000e+004    +5.7449586e-007    +1.4955694e-006
+7.2960000e+004    +5.6440979e-007    +1.4553667e-006
+7.3088000e+004    +5.6616750e-007    +1.4856009e-006
+7.3216000e+004    +5.7603131e-007    +1.4585869e-006
+7.3344000e+004    +5.6990899e-007    +1.5310940e-006
+7.3472000e+004    +5.8207110e-007    +1.5366061e-006
+7.3600000e+004    +5.7674765e-007    +1.4615190e-006
+7.3728000e+004    +5.6800741e-007    +1.4841695e-006
+7.3856000e+004    +5.6730624e-007    +1.4848965e-006
+7.3984000e+004    +5.5624599e-007    +1.4909034e-006
+7.4112000e+004    +5.5858146e-007    +1.5165066e-006
+7.4240000e+004    +5.5924914e-007    +1.4802037e-006
+7.4368000e+004    +5.6945737e-007    +1.4970645e-006
+7.4496000e+004    +5.6879497e-007    +1.5369064e-006
+7.4624000e+004    +5.5493814e-007    +1.5227066e-006
+7.4752000e+004    +5.6173843e-007    +1.5917531e-006
+7.4880000e+004    +5.5635110e-007    +1.6679306e-006
+7.5008000e+004    +5.6959055e-007    +1.6156891e-006
+7.5136000e+004    +5.5893793e-007    +1.5733679e-006
+7.5264000e+004    +5.5232010e-007    +1.5967224e-006
+7.5392000e+004    +5.5509048e-007    +1.6363160e-006
+7.5520000e+004    +5.6132410e-007    +1.6639596e-006
+7.5648000e+004    +5.4890501e-007    +1.6954286e-006
+7.5776000e+004    +5.4686933e-007    +1.6122549e-006
+7.5904000e+004    +5.5172853e-007    +1.5896118e-006
+7.6032000e+004    +5.3987077e-007    +1.6055739e-006
+7.6160000e+004    +5.3984587e-007    +1.6409218e-006
+7.6288000e+004    +5.4812870e-007    +1.6469305e-006
+7.6416000e+004    +5.5100872e-007    +1.6841077e-006
+7.6544000e+004    +5.5355554e-007    +1.5865726e-006
+7.6672000e+004    +5.5302581e-007    +1.5210858e-006
+7.6800000e+004    +5.4694681e-007    +6.6737935e-006
+7.6928000e+004    +5.3878415e-007    +1.1172946e-005
+7.7056000e+004    +5.3704184e-007    +4.8944235e-006
+7.7184000e+004    +5.4843935e-007    +1.6125257e-006
+7.7312000e+004    +5.3988322e-007    +1.7693518e-006
+7.7440000e+004    +5.3440260e-007    +1.6024654e-006
+7.7568000e+004    +5.9558249e-007    +1.5936049e-006
+7.7696000e+004    +8.1597329e-007    +1.7601326e-006
+7.7824000e+004    +6.3048674e-007    +1.6727319e-006
+7.7952000e+004    +5.2521301e-007    +1.5288849e-006
+7.8080000e+004    +5.3536866e-007    +1.5842732e-006
+7.8208000e+004    +5.3362163e-007    +1.6979734e-006
+7.8336000e+004    +5.6902235e-007    +1.6844035e-006
+7.8464000e+004    +5.4781765e-007    +1.5202093e-006
+7.8592000e+004    +5.3901016e-007    +1.5705856e-006
+7.8720000e+004    +5.3074501e-007    +1.6615570e-006
+7.8848000e+004    +5.1365828e-007    +1.6796149e-006
+7.8976000e+004    +5.2440976e-007    +1.6163918e-006
+7.9104000e+004    +5.2562319e-007    +1.6310532e-006
+7.9232000e+004    +5.1180950e-007    +1.6124550e-006
+7.9360000e+004    +5.2967914e-007    +1.5910105e-006
+7.9488000e+004    +5.6878253e-007    +1.6459110e-006
+7.9616000e+004    +5.3314898e-007    +1.6988853e-006
+7.9744000e+004    +5.1994584e-007    +1.7898207e-006
+7.9872000e+004    +4.9351814e-007    +1.8558883e-006
+8.0000000e+004    +5.1992760e-007    +1.6753106e-006
+8.0128000e+004    +5.1858609e-007    +1.6155046e-006
+8.0256000e+004    +5.2122965e-007    +1.6680424e-006
+8.0384000e+004    +5.0874320e-007    +1.7671754e-006
+8.0512000e+004    +5.1023960e-007    +1.8478183e-006
+8.0640000e+004    +5.1299207e-007    +1.7324029e-006
+8.0768000e+004    +5.0561533e-007    +1.6018515e-006
+8.0896000e+004    +5.0820336e-007    +1.7156451e-006
+8.1024000e+004    +5.3212091e-007    +1.7006414e-006
+8.1152000e+004    +5.1891186e-007    +1.6188836e-006
+8.1280000e+004    +5.1224237e-007    +1.6223231e-006
+8.1408000e+004    +5.1081975e-007    +1.7955662e-006
+8.1536000e+004    +5.0849803e-007    +1.6785345e-006
+8.1664000e+004    +5.1676386e-007    +1.6061082e-006
+8.1792000e+004    +4.9039448e-007    +1.7265031e-006
+8.1920000e+004    +5.2176955e-007    +1.6983798e-006
+8.2048000e+004    +4.9327002e-007    +1.7513230e-006
+8.2176000e+004    +5.0156353e-007    +1.7311270e-006
+8.2304000e+004    +5.2864493e-007    +1.6846958e-006
+8.2432000e+004    +4.9676095e-007    +1.7551287e-006
+8.2560000e+004    +5.1302590e-007    +1.7460392e-006
+8.2688000e+004    +4.9799456e-007    +1.8254891e-006
+8.2816000e+004    +5.0975302e-007    +1.9402023e-006
+8.2944000e+004    +4.8900887e-007    +1.8758975e-006
+8.3072000e+004    +4.6970422e-007    +1.8753950e-006
+8.3200000e+004    +4.8623986e-007    +1.7813396e-006
+8.3328000e+004    +5.0486864e-007    +1.8527610e-006
+8.3456000e+004    +5.0032764e-007    +1.6458622e-006
+8.3584000e+004    +4.9129932e-007    +1.4459916e-006
+8.3712000e+004    +4.8209131e-007    +1.6531609e-006
+8.3840000e+004    +4.9410261e-007    +1.7758503e-006
+8.3968000e+004    +5.0235053e-007    +1.7419338e-006
+8.4096000e+004    +4.9004944e-007    +1.6273666e-006
+8.4224000e+004    +4.5915687e-007    +1.5649912e-006
+8.4352000e+004    +4.5531289e-007    +1.6920739e-006
+8.4480000e+004    +4.5903033e-007    +1.6362460e-006
+8.4608000e+004    +4.5662054e-007    +1.7474565e-006
+8.4736000e+004    +4.6752831e-007    +1.8171502e-006
+8.4864000e+004    +4.7773739e-007    +1.7894807e-006
+8.4992000e+004    +4.6071426e-007    +1.7613351e-006
+8.5120000e+004    +4.4110863e-007    +1.7253623e-006
+8.5248000e+004    +4.3483860e-007    +1.7160821e-006
+8.5376000e+004    +4.2257619e-007    +1.7069232e-006
+8.5504000e+004    +4.4210407e-007    +1.7924481e-006
+8.5632000e+004    +4.3724719e-007    +1.8529238e-006
+8.5760000e+004    +4.3393956e-007    +1.8355221e-006
+8.5888000e+004    +4.2972644e-007    +1.9243735e-006
+8.6016000e+004    +4.1169798e-007    +1.8952107e-006
+8.6144000e+004    +4.1190549e-007    +1.6801664e-006
+8.6272000e+004    +4.1235347e-007    +1.6871541e-006
+8.6400000e+004    +4.1090092e-007    +1.8045448e-006
+8.6528000e+004    +4.1244903e-007    +1.8904806e-006
+8.6656000e+004    +4.1869401e-007    +1.8034178e-006
+8.6784000e+004    +4.1276886e-007    +1.7792501e-006
+8.6912000e+004    +4.1168261e-007    +1.7777777e-006
+8.7040000e+004    +4.1721361e-007    +1.7732239e-006
+8.7168000e+004    +4.0964593e-007    +1.8046221e-006
+8.7296000e+004    +3.9671647e-007    +1.8118390e-006
+8.7424000e+004    +4.0713357e-007    +1.8730697e-006
+8.7552000e+004    +4.0476371e-007    +1.8193582e-006
+8.7680000e+004    +3.8417781e-007    +1.7475927e-006
+8.7808000e+004    +4.0140287e-007    +1.7469328e-006
+8.7936000e+004    +3.8634397e-007    +1.6613709e-006
+8.8064000e+004    +3.8579631e-007    +1.6421258e-006
+8.8192000e+004    +4.0800887e-007    +1.6822153e-006
+8.8320000e+004    +3.8704920e-007    +1.7257507e-006
+8.8448000e+004    +3.7180143e-007    +1.7174224e-006
+8.8576000e+004    +3.8917730e-007    +1.6643835e-006
+8.8704000e+004    +3.7804645e-007    +1.6302780e-006
+8.8832000e+004    +3.5570952e-007    +1.7508615e-006
+8.8960000e+004    +4.2319886e-007    +1.6975969e-006
+8.9088000e+004    +4.2269176e-007    +1.6862133e-006
+8.9216000e+004    +3.9532028e-007    +1.6600508e-006
+8.9344000e+004    +4.7848749e-007    +1.8450004e-006
+8.9472000e+004    +4.9248371e-007    +1.7687030e-006
+8.9600000e+004    +4.2775920e-007    +1.8173198e-006
+8.9728000e+004    +4.8022906e-007    +1.7282517e-006
+8.9856000e+004    +4.8102748e-007    +1.7644920e-006
+8.9984000e+004    +4.0183590e-007    +1.7418822e-006
+9.0112000e+004    +3.7123894e-007    +1.7490651e-006
+9.0240000e+004    +4.1697731e-007    +1.7280696e-006
+9.0368000e+004    +4.7768646e-007    +1.6920739e-006
+9.0496000e+004    +4.9092563e-007    +1.7593443e-006
+9.0624000e+004    +4.3285462e-007    +1.8053138e-006
+9.0752000e+004    +3.9653662e-007    +1.7975111e-006
+9.0880000e+004    +4.0885553e-007    +1.7511287e-006
+9.1008000e+004    +3.9860308e-007    +1.6093155e-006
+9.1136000e+004    +4.0773929e-007    +1.5684280e-006
+9.1264000e+004    +4.2596042e-007    +1.7730583e-006
+9.1392000e+004    +4.4503153e-007    +1.8767400e-006
+9.1520000e+004    +4.1111932e-007    +1.7704031e-006
+9.1648000e+004    +4.0291565e-007    +1.6621153e-006
+9.1776000e+004    +4.2951700e-007    +1.7119889e-006
+9.1904000e+004    +4.1904306e-007    +1.7071050e-006
+9.2032000e+004    +4.4398561e-007    +1.6399042e-006
+9.2160000e+004    +4.1490759e-007    +1.5353446e-006
+9.2288000e+004    +4.0490551e-007    +1.6947903e-006
+9.2416000e+004    +4.2289508e-007    +1.8102959e-006
+9.2544000e+004    +3.8764546e-007    +1.6877469e-006
+9.2672000e+004    +4.0808729e-007    +1.7244854e-006
+9.2800000e+004    +3.9343107e-007    +1.8873324e-006
+9.2928000e+004    +4.2238139e-007    +1.8225171e-006
+9.3056000e+004    +4.0342957e-007    +1.7314806e-006
+9.3184000e+004    +4.2813932e-007    +1.7985712e-006
+9.3312000e+004    +4.0741170e-007    +1.8281769e-006
+9.3440000e+004    +3.7491816e-007    +1.7616948e-006
+9.3568000e+004    +4.0763052e-007    +1.9348904e-006
+9.3696000e+004    +4.0529960e-007    +1.8037763e-006
+9.3824000e+004    +4.2802088e-007    +1.7590816e-006
+9.3952000e+004    +3.7022863e-007    +1.7241125e-006
+9.4080000e+004    +3.6916472e-007    +1.8782820e-006
+9.4208000e+004    +4.0880616e-007    +1.8431356e-006
+9.4336000e+004    +4.2488705e-007    +1.7389356e-006
+9.4464000e+004    +3.9891347e-007    +1.7175959e-006
+9.4592000e+004    +4.0760054e-007    +1.6639358e-006
+9.4720000e+004    +4.1026169e-007    +1.6260556e-006
+9.4848000e+004    +3.9879393e-007    +1.6880749e-006
+9.4976000e+004    +3.4405946e-007    +1.6335390e-006
+9.5104000e+004    +3.1470202e-007    +1.6348058e-006
+9.5232000e+004    +3.2753113e-007    +1.8178686e-006
+9.5360000e+004    +4.0176928e-007    +1.7457517e-006
+9.5488000e+004    +4.1397024e-007    +1.7407178e-006
+9.5616000e+004    +4.1163830e-007    +1.8074400e-006
+9.5744000e+004    +4.1300413e-007    +1.8282852e-006
+9.5872000e+004    +3.8445924e-007    +1.6061310e-006
+9.6000000e+004    +3.5169865e-007    +1.7767727e-006
+9.6128000e+004    +3.0577812e-007    +1.9200954e-006
+9.6256000e+004    +2.9105939e-007    +1.8851433e-006
+9.6384000e+004    +2.8134318e-007    +1.7090686e-006
+9.6512000e+004    +2.9070361e-007    +1.7931548e-006
+9.6640000e+004    +2.9387397e-007    +1.7325189e-006
+9.6768000e+004    +3.0324583e-007    +1.7189127e-006
+9.6896000e+004    +2.9482703e-007    +1.8871044e-006
+9.7024000e+004    +3.2473704e-007    +1.7430702e-006
+9.7152000e+004    +3.1050479e-007    +1.6263109e-006
+9.7280000e+004    +2.6461535e-007    +1.6335821e-006
+9.7408000e+004    +2.6926568e-007    +1.5987047e-006
+9.7536000e+004    +2.7323230e-007    +1.5803087e-006
+9.7664000e+004    +2.7654772e-007    +1.6033596e-006
+9.7792000e+004    +2.8626172e-007    +1.6620460e-006
+9.7920000e+004    +3.4474766e-007    +1.6270968e-006
+9.8048000e+004    +3.3939017e-007    +1.6375993e-006
+9.8176000e+004    +2.9300696e-007    +1.6198136e-006
+9.8304000e+004    +3.1330333e-007    +1.6349296e-006
+9.8432000e+004    +3.1506124e-007    +1.6736320e-006
+9.8560000e+004    +3.0901887e-007    +1.6437348e-006
+9.8688000e+004    +2.9579132e-007    +1.6188997e-006
+9.8816000e+004    +3.2217824e-007    +1.7038617e-006
+9.8944000e+004    +3.0188943e-007    +1.7841680e-006
+9.9072000e+004    +2.9729227e-007    +1.7538110e-006
+9.9200000e+004    +2.9973799e-007    +1.7455139e-006
+9.9328000e+004    +2.9275421e-007    +1.6296821e-006
+9.9456000e+004    +2.9245768e-007    +1.6721718e-006
+9.9584000e+004    +2.7207676e-007    +1.7542828e-006
+9.9712000e+004    +2.7398062e-007    +1.8015378e-006
+9.9840000e+004    +2.6440858e-007    +1.6679691e-006
+9.9968000e+004    +2.5488703e-007    +1.6707587e-006
+1.0009600e+005    +2.4629125e-007    +1.7294116e-006
+1.0022400e+005    +2.3825986e-007    +1.7181259e-006
+1.0035200e+005    +2.4210095e-007    +1.7384965e-006
+1.0048000e+005    +2.5580437e-007    +1.7986364e-006
+1.0060800e+005    +2.3426844e-007    +1.7217365e-006
+1.0073600e+005    +2.4982612e-007    +1.6226206e-006
+1.0086400e+005    +2.3803604e-007    +1.6794766e-006
+1.0099200e+005    +2.1883437e-007    +1.7200341e-006
+1.0112000e+005    +2.2960683e-007    +1.6156395e-006
+1.0124800e+005    +2.3759397e-007    +1.6362119e-006
+1.0137600e+005    +2.3186864e-007    +1.5894234e-006
+1.0150400e+005    +2.4156327e-007    +1.7622965e-006
+1.0163200e+005    +2.3152825e-007    +1.6929583e-006
+1.0176000e+005    +2.2733589e-007    +1.6419094e-006
+1.0188800e+005    +2.4231423e-007    +1.5980467e-006
+1.0201600e+005    +2.3046759e-007    +1.5799651e-006
+1.0214400e+005    +2.0371003e-007    +1.6854062e-006
+1.0227200e+005    +2.1191508e-007    +1.5494104e-006
