# Comments from moku data file:% Moku:Phasemeter 
# 
# % Ch 1 - DC coupling, 50 Ohm impedance, 1 V range
# 
# % Ch 1 bandwidth = 1.0000000000e+04 (Hz)
# 
# % Acquisition rate: 1.2500000000e+05 Hz
# 
# % External 10 MHz clock
# 
# % Acquired 2020-05-15 T 02:54:32 -0700
# 
# % Time, Set frequency 1 (Hz), Frequency 1 (Hz), Phase 1 (cyc), I 1 (V), Q 1 (V)
# 
# #########################################################
# ASD calculated by mokuReadFreqNoise.py
# Frequency [Hz]         Freq ASD1 [Hz/rtHz]      Freq ASDlb1 [Hz/rtHz]    Freq ASDub1 [Hz/rtHz]    
# 
0.000000000000000000e+00 9.039736814289720712e+01 4.234731724440764822e+01 2.039825453236120154e+02
1.000000000000000056e-01 1.987457339255946636e+02 7.479249205549048440e+01 3.112794728849500530e+02
2.000000000000000111e-01 1.126306812196370259e+02 5.556891995596627254e+01 1.397807592005290189e+02
3.000000000000000444e-01 8.037741958850446622e+01 5.831887781823464678e+01 1.269339551105925352e+02
4.000000000000000222e-01 8.569201010310668210e+01 3.969652738134512049e+01 1.008302973582611344e+02
5.000000000000000000e-01 7.294101774378130187e+01 5.541649007514347858e+01 1.118677713959011584e+02
6.000000000000000888e-01 5.703328955726854588e+01 3.967804801457691610e+01 8.682078039872257591e+01
7.000000000000000666e-01 4.178086860889350618e+01 3.184906017204309592e+01 6.952918910295960586e+01
8.000000000000000444e-01 2.841468403242027918e+01 1.720406267325866168e+01 5.100340877945647833e+01
9.000000000000000222e-01 4.297487660948485910e+01 2.369741246379072308e+01 5.063424413018594095e+01
1.000000000000000000e+00 3.916113454697435259e+01 1.975606482211359705e+01 5.944846622966255012e+01
1.100000000000000089e+00 4.129857139623236861e+01 1.507064376859948851e+01 5.465070020576143150e+01
1.200000000000000178e+00 2.369978590916051076e+01 1.376540491573637404e+01 5.481972351503834773e+01
1.300000000000000044e+00 1.562099891207670233e+01 1.217111870870149737e+01 3.964854314187390116e+01
1.400000000000000133e+00 2.946995376966948754e+01 1.785171536663608904e+01 3.728268310892315185e+01
1.500000000000000000e+00 3.236984111595390345e+01 1.303846611160754954e+01 5.047790668037397666e+01
1.600000000000000089e+00 2.487448951390372542e+01 1.389895417195109850e+01 3.807809917974317671e+01
1.700000000000000178e+00 1.899116264589360981e+01 1.264482220151436920e+01 3.921344725047439539e+01
1.800000000000000044e+00 2.312023882757607396e+01 2.018040726171723875e+01 3.769169453601202946e+01
1.900000000000000133e+00 1.588478053806619172e+01 1.023593776116197951e+01 2.970798014798000963e+01
2.000000000000000000e+00 1.380044722050016048e+01 8.883090855118966900e+00 2.461477231086867334e+01
2.100000000000000089e+00 2.001838691938488068e+01 1.079459176026656664e+01 2.741766612653255919e+01
2.200000000000000178e+00 1.177945915430262680e+01 4.057818847744201207e+00 2.724500536392946159e+01
2.300000000000000266e+00 1.673168826033504786e+01 1.168594092687131081e+01 2.578395686491010252e+01
2.400000000000000355e+00 9.738395499436848013e+00 3.531065294613308314e+00 2.452272040418487009e+01
2.500000000000000000e+00 1.026188485650219739e+01 3.443483006159555160e+00 2.021088533090127726e+01
2.600000000000000089e+00 1.125462419752458132e+01 6.751758950529464620e+00 1.967802266482438256e+01
2.700000000000000178e+00 1.382714703810793111e+01 7.020756434992506456e+00 2.049079836748654060e+01
2.800000000000000266e+00 1.389242597751472452e+01 8.821814408334171631e+00 2.256312564305835267e+01
2.900000000000000355e+00 6.574500242251870574e+00 2.926664687392437347e+00 2.282134151067094407e+01
3.000000000000000000e+00 1.745067624292778419e+01 7.613426476305731327e+00 2.239399836730575544e+01
3.100000000000000089e+00 1.420147036079104907e+01 7.313509657711698253e+00 3.041562083550360995e+01
3.200000000000000178e+00 1.512393022809396470e+01 1.168898350358477423e+01 2.463305886231323072e+01
3.300000000000000266e+00 1.177282706665083722e+01 8.714475111720670242e+00 3.279205729120254631e+01
3.400000000000000355e+00 2.028806214484980686e+01 9.101691474179720132e+00 3.509387855263506140e+01
3.500000000000000000e+00 1.685640792573893521e+01 5.966447562336032462e+00 2.977672295014027881e+01
3.600000000000000089e+00 2.179487267052343924e+01 1.467207609432449722e+01 4.089431604933100317e+01
3.700000000000000178e+00 1.582954750345150963e+01 7.788451858521111326e+00 3.854315810903300843e+01
3.800000000000000266e+00 1.184223473918310710e+01 6.409941725645303734e+00 3.239946640290045110e+01
3.900000000000000355e+00 1.966941762272118055e+01 9.465281263042770732e+00 2.847002117502762886e+01
4.000000000000000000e+00 1.794456660692125638e+01 1.119847413405544856e+01 3.028733518317485363e+01
4.100000000000000533e+00 1.420186985408099645e+01 7.832623154925285824e+00 1.918308932208064732e+01
4.200000000000000178e+00 9.469408253200990444e+00 6.735044939207326387e+00 1.706939581538120265e+01
4.299999999999999822e+00 1.390161819116388386e+01 7.282747316084675404e+00 1.893163646257713495e+01
4.400000000000000355e+00 1.341534592063331210e+01 8.607098554791180689e+00 1.794846596471093036e+01
4.500000000000000000e+00 1.696465371169751180e+01 1.074208216382312031e+01 2.100490001435675680e+01
4.600000000000000533e+00 1.707091288790917716e+01 8.997308881065396946e+00 1.991989933969238535e+01
4.700000000000000178e+00 1.020048523959386699e+01 5.216768859152788984e+00 1.749903720060295598e+01
4.800000000000000711e+00 1.081430318136904489e+01 7.600079104691060294e+00 1.983439299892796726e+01
4.900000000000000355e+00 1.307356980201750751e+01 5.771617066300474441e+00 2.250745887810487034e+01
5.000000000000000000e+00 1.360624101518011031e+01 5.853739335323908222e+00 2.962152485001043800e+01
5.100000000000000533e+00 1.275894014537453458e+01 1.013673698275944624e+01 2.857431928990910563e+01
5.200000000000000178e+00 1.850680237853051224e+01 8.643263907023706949e+00 2.445320236497426336e+01
5.300000000000000711e+00 1.633190859611124068e+01 1.073886667695900599e+01 2.159748064704034221e+01
5.400000000000000355e+00 1.473255993849933532e+01 1.092441028642233469e+01 2.296075396293581505e+01
5.500000000000000000e+00 1.362925555490065577e+01 8.354243243545363740e+00 1.988941580946359977e+01
5.600000000000000533e+00 1.063133905241393862e+01 4.291286144521006207e+00 2.147170908878689488e+01
5.700000000000000178e+00 1.324350673805969691e+01 3.474885432908338956e+00 2.044358133936002986e+01
5.800000000000000711e+00 1.561010401799568292e+01 9.514611802485248404e+00 1.829067131011449021e+01
5.900000000000000355e+00 1.340491085587688325e+01 6.307638348221513702e+00 1.886600905600016276e+01
6.000000000000000000e+00 1.316285417451459594e+01 4.887907683813005555e+00 1.962330348013293957e+01
6.100000000000000533e+00 1.347437993607018925e+01 4.858770525070680968e+00 1.827417327556227988e+01
6.200000000000000178e+00 1.220463110612575441e+01 8.008711564717520659e+00 1.969023276900103525e+01
6.300000000000000711e+00 1.588198229162411401e+01 7.859352109227341288e+00 2.500545517234669290e+01
6.400000000000000355e+00 1.603681588744292696e+01 6.401598079407035513e+00 1.760619402881842177e+01
6.500000000000000000e+00 1.356741274805801822e+01 7.696806199636330170e+00 1.723779217387373208e+01
6.600000000000000533e+00 1.516952538450587262e+01 9.876506129976522885e+00 2.090601867355072230e+01
6.700000000000000178e+00 2.001117388198443336e+01 1.562528479873506981e+01 2.379313587433119181e+01
6.800000000000000711e+00 1.061091146264325857e+01 5.454775212738156576e+00 2.303753299842954760e+01
6.900000000000000355e+00 1.390014074498973429e+01 9.396305752407320355e+00 2.145458616252016171e+01
7.000000000000000000e+00 2.593177984389743429e+01 1.476036156148171585e+01 4.004148195863518112e+01
7.100000000000000533e+00 1.863992252548685613e+01 1.293521425264963831e+01 4.670114914878151069e+01
7.200000000000000178e+00 3.033602113801700639e+01 1.934861673552855521e+01 4.965742633669379558e+01
7.300000000000000711e+00 2.152618654260717079e+01 1.674156500850217810e+01 3.629096556588797284e+01
7.400000000000000355e+00 1.943890236552589101e+01 1.095350478537646843e+01 2.945608715623158957e+01
7.500000000000000000e+00 1.912898060697450120e+01 1.017623775833978073e+01 3.209705732168889369e+01
7.600000000000000533e+00 1.440280145902012165e+01 7.363661524040661988e+00 2.882238104511363019e+01
7.700000000000000178e+00 1.151133934847227458e+01 7.659409631751432634e+00 1.834206273177851543e+01
7.800000000000000711e+00 1.091426716810285491e+01 7.312960916954039270e+00 1.765987852910155453e+01
7.900000000000000355e+00 1.361626285632212685e+01 5.335462866892139999e+00 2.323851967507416560e+01
8.000000000000000000e+00 1.434337814123368560e+01 6.868716279908089639e+00 1.656382093142032730e+01
8.099999999999999645e+00 7.105546108055956545e+00 5.991106617415719704e+00 1.543959296560376870e+01
8.200000000000001066e+00 8.538301182582976878e+00 6.782292760987233216e+00 1.401638303869950697e+01
8.300000000000000711e+00 1.405006724005306395e+01 7.992400333486767039e+00 2.251532385307904605e+01
8.400000000000000355e+00 1.519428614579493519e+01 1.022110953773661812e+01 2.025949373391667763e+01
8.500000000000000000e+00 9.814000477454365878e+00 5.533027204965358159e+00 1.972521623111229516e+01
8.599999999999999645e+00 1.980197246918912413e+01 1.310741347369316223e+01 2.253260292171414392e+01
8.700000000000001066e+00 1.627031570840487262e+01 1.339890433972364114e+01 2.454645871814305025e+01
8.800000000000000711e+00 1.385291094955374014e+01 6.026091904631219798e+00 1.876063576627953466e+01
8.900000000000000355e+00 1.224705039331082901e+01 4.987924238044828762e+00 1.809421564916538472e+01
9.000000000000000000e+00 1.741379615341482534e+01 7.674859323383524945e+00 2.679601948828549851e+01
9.099999999999999645e+00 1.168966652296921183e+01 7.458767512630012142e+00 2.851045783071442230e+01
9.200000000000001066e+00 9.512805571512311431e+00 7.136737948862974967e+00 1.502978665763088983e+01
9.300000000000000711e+00 9.046799855328639950e+00 5.771918475249272262e+00 1.306387523440231568e+01
9.400000000000000355e+00 1.227600840372415547e+01 7.479744082819479445e+00 1.665292663801722384e+01
9.500000000000000000e+00 1.027527031052271411e+01 5.876377798987284962e+00 1.402817765239362835e+01
9.600000000000001421e+00 9.509431518854549736e+00 2.896836933332537445e+00 1.545953157874801853e+01
9.700000000000001066e+00 1.275896477280217312e+01 5.623035882262599650e+00 1.708760027292262862e+01
9.800000000000000711e+00 6.802174542499296095e+00 2.243359440001995608e+00 1.732073142329194937e+01
9.900000000000000355e+00 8.460296412952889256e+00 7.360857345702380705e+00 1.581396196203750115e+01
1.000000000000000000e+01 9.989582832428119730e+00 4.993983789866487832e+00 1.667093862697273821e+01
1.100000000000000000e+01 9.020513904927549120e+00 3.932088990018534957e+00 1.720029479106631953e+01
1.200000000000000000e+01 8.378136371056518428e+00 3.874236308552246211e+00 1.559599847725885979e+01
1.300000000000000000e+01 7.842879201402491063e+00 3.110283214209275560e+00 1.734132890323648724e+01
1.400000000000000000e+01 8.724172756792434313e+00 3.156657778963424033e+00 2.055760262292313456e+01
1.500000000000000000e+01 7.186396783976717551e+00 2.602481663660932920e+00 1.601205789133926771e+01
1.600000000000000000e+01 5.574093270404276268e+00 2.166274353818561149e+00 1.415014393241510149e+01
1.700000000000000000e+01 4.037477592465687160e+00 1.542184805981014817e+00 1.168133929902032975e+01
1.800000000000000000e+01 3.755659498838717081e+00 1.322172085046589229e+00 1.054049965148361778e+01
1.900000000000000000e+01 3.376218672737886450e+00 1.231669838074997081e+00 8.470003972421229932e+00
2.000000000000000000e+01 2.857863184937778467e+00 1.153789422461632519e+00 1.041081904689349535e+01
2.100000000000000000e+01 2.508885873138133160e+00 1.016054463606118174e+00 1.029863627241346613e+01
2.200000000000000000e+01 2.274823737690277348e+00 8.925414909344343561e-01 9.089910290964835937e+00
2.300000000000000000e+01 1.897957010263855882e+00 8.756459767652027271e-01 5.960894253385916386e+00
2.400000000000000000e+01 1.548496814503896424e+00 7.397904024860164629e-01 5.174900315298905262e+00
2.500000000000000000e+01 1.314405441042052258e+00 6.057240676282932279e-01 3.866461676719243012e+00
2.600000000000000000e+01 1.232012643701244858e+00 5.346953092193111878e-01 3.755344297281075772e+00
2.700000000000000000e+01 1.032600017076086285e+00 3.823591801118935152e-01 3.545296684940128618e+00
2.800000000000000000e+01 9.519673780112666295e-01 4.343556102847541678e-01 2.997749992120876339e+00
2.900000000000000000e+01 9.589644444658291800e-01 3.265301590541547783e-01 2.976488025568432949e+00
3.000000000000000000e+01 7.852056757188184966e-01 3.544134215654339282e-01 2.311360822711543861e+00
3.100000000000000000e+01 6.403336170642106584e-01 3.475088131821627568e-01 1.504043321764058971e+00
3.200000000000000000e+01 5.542196050487476766e-01 2.888448006851365712e-01 1.329441486270352302e+00
3.300000000000000000e+01 5.063706265186765920e-01 2.523325103509453382e-01 1.124188470821343877e+00
3.400000000000000000e+01 4.668858146354530891e-01 2.071862465263111241e-01 9.521032983053303589e-01
3.500000000000000000e+01 4.409389021128227171e-01 2.275460302153482772e-01 1.030045620026516895e+00
3.600000000000000000e+01 4.412303493413408662e-01 2.177620547226808145e-01 9.447191634584590769e-01
3.700000000000000000e+01 4.282770070741224178e-01 1.910161928705484680e-01 9.423909851747691580e-01
3.800000000000000000e+01 3.435299016465483413e-01 1.526878117425842507e-01 5.966249486967756255e-01
3.900000000000000000e+01 2.711065129745414692e-01 1.507016258056149416e-01 5.321443625243403863e-01
4.000000000000000000e+01 2.887169750850747674e-01 1.254319293379800304e-01 5.654846590772797388e-01
4.100000000000000000e+01 2.778178576015948309e-01 1.278112139700523786e-01 5.134751648701406657e-01
4.200000000000000000e+01 2.644951794647319998e-01 1.126303021591857773e-01 4.319519635762068543e-01
4.300000000000000000e+01 2.247890463585186238e-01 1.151243147148011264e-01 4.996663272346826279e-01
4.400000000000000000e+01 2.505777742118679985e-01 1.252927622238758920e-01 4.726026859263244284e-01
4.500000000000000000e+01 2.318977846618625605e-01 1.010084552972698169e-01 4.464484348187390261e-01
4.600000000000000000e+01 2.031709536585614151e-01 1.168730673919960855e-01 3.758724149441047824e-01
4.700000000000000000e+01 2.016451496503850749e-01 9.582075110495301418e-02 3.504331355782031032e-01
4.800000000000000000e+01 1.898837020391508645e-01 1.029269459732379544e-01 3.684190085225742539e-01
4.900000000000000000e+01 1.977209692134795360e-01 8.402588311627307016e-02 3.654986582146822482e-01
5.000000000000000000e+01 2.028043620760255628e-01 9.182491371641395006e-02 3.586696120619171646e-01
5.100000000000000000e+01 2.037180931357675806e-01 9.450161170467859251e-02 3.324567324048096628e-01
5.200000000000000000e+01 2.107271601916556325e-01 1.156456834678025458e-01 3.269270249011194118e-01
5.300000000000000000e+01 1.942019140655744103e-01 1.018049938837393420e-01 3.418841732818245771e-01
5.400000000000000000e+01 1.726945207670050886e-01 9.268144596845948047e-02 3.013475349518630608e-01
5.500000000000000000e+01 1.751780165750814466e-01 1.046505767989390351e-01 2.704329799930655920e-01
5.600000000000000000e+01 1.768485876902730070e-01 7.464776256273214505e-02 2.988054355356978831e-01
5.700000000000000000e+01 1.826430929513977175e-01 8.464137258639707617e-02 3.156321005635497889e-01
5.800000000000000000e+01 1.472567939967054096e-01 7.117511592635465678e-02 2.574873943355120987e-01
5.900000000000000000e+01 1.483266286400892475e-01 8.075607076271604234e-02 2.472554220556489046e-01
6.000000000000000000e+01 1.661383503685686935e-01 8.779042574901782525e-02 2.819146452686414062e-01
6.100000000000000000e+01 1.694613259612396394e-01 7.682331235825791416e-02 2.920015608445374333e-01
6.200000000000000000e+01 1.672443017169111812e-01 7.628312039874433903e-02 2.633075388888617141e-01
6.300000000000000000e+01 1.515124920582892887e-01 8.899961377035318921e-02 2.553253540751918571e-01
6.400000000000000000e+01 1.350701239416343680e-01 6.373668269505658457e-02 2.333222694452923296e-01
6.500000000000000000e+01 1.343759477344911857e-01 6.842806958088899771e-02 2.077978946544794814e-01
6.600000000000000000e+01 1.252859191519316018e-01 7.009863913448111106e-02 1.982089546526000778e-01
6.700000000000000000e+01 1.246967405280584168e-01 6.081051264856364436e-02 1.910391570507234682e-01
6.800000000000000000e+01 1.106169804231228460e-01 5.079196903477253139e-02 1.917696252469472395e-01
6.900000000000000000e+01 1.131690728946279645e-01 6.141731793049880900e-02 1.816199350929081080e-01
7.000000000000000000e+01 1.277507429103556524e-01 5.066337230316050183e-02 2.034154672019650167e-01
7.100000000000000000e+01 1.072135265279824667e-01 5.925180982016754055e-02 1.799710847969882010e-01
7.200000000000000000e+01 1.035604680246771797e-01 5.593608370917281525e-02 1.665375779770930931e-01
7.300000000000000000e+01 1.073207809012680508e-01 5.180273321494738986e-02 1.692812574398632197e-01
7.400000000000000000e+01 1.033901151118008371e-01 4.763318829433569462e-02 1.648815869166482539e-01
7.500000000000000000e+01 8.449113961642065740e-02 4.381880124976331170e-02 1.356094497739248061e-01
7.600000000000000000e+01 8.767092058863872051e-02 4.007387578442742765e-02 1.466308881324541458e-01
7.700000000000000000e+01 8.332547441661829202e-02 4.082575775302759585e-02 1.456296092095045180e-01
7.800000000000000000e+01 8.244237878648083551e-02 3.591255180434831107e-02 1.525323052759111342e-01
7.900000000000000000e+01 8.751330883346282452e-02 4.029526467689579367e-02 1.507068505354447752e-01
8.000000000000000000e+01 7.669913521564775127e-02 3.793345778520035294e-02 1.368924317649783673e-01
8.100000000000000000e+01 7.188124255730958534e-02 4.147380867857136666e-02 1.248474341061315135e-01
8.200000000000000000e+01 7.395114133262922773e-02 3.566234671720976829e-02 1.225458097608202179e-01
8.300000000000000000e+01 8.191445162244785638e-02 3.276817605250546828e-02 1.247084219523929144e-01
8.400000000000000000e+01 7.527418283839823476e-02 4.185561540878361686e-02 1.421421128652055887e-01
8.500000000000000000e+01 8.538347560409101367e-02 3.516286566575414080e-02 1.507236934673608364e-01
8.600000000000000000e+01 9.430146828909746759e-02 4.568701527758906034e-02 1.498367092091691388e-01
8.700000000000000000e+01 8.556988586276366437e-02 3.760924982243672027e-02 1.296307823475703613e-01
8.800000000000000000e+01 6.187643470366830517e-02 2.792356862214332922e-02 1.195261785808284793e-01
8.900000000000000000e+01 6.213362057573428715e-02 3.275222405131630876e-02 1.157335510419217339e-01
9.000000000000000000e+01 6.639885748144730426e-02 3.742843067667851048e-02 1.268256709538937710e-01
9.100000000000000000e+01 7.743649223939537418e-02 3.490208438178013517e-02 1.402924213311879387e-01
9.200000000000000000e+01 7.423367225769020306e-02 3.871214330579970248e-02 1.189788574185213221e-01
9.300000000000000000e+01 6.525718514025825867e-02 3.172537587153623218e-02 1.014079557693374628e-01
9.400000000000000000e+01 6.663486847175671690e-02 3.504023047990163092e-02 1.077613593203572417e-01
9.500000000000000000e+01 6.357115812313905712e-02 3.244632508741627369e-02 1.368135861607063797e-01
9.600000000000000000e+01 7.095297229087983715e-02 3.301378899545988344e-02 1.252051218180032510e-01
9.700000000000000000e+01 6.933770461498299509e-02 2.159734225804415403e-02 1.412317840034343075e-01
9.800000000000000000e+01 7.594197029304490532e-02 3.879727706419604932e-02 1.315273122499890923e-01
9.900000000000000000e+01 8.013943750094226770e-02 3.159293346787602624e-02 1.363067223302978359e-01
1.000000000000000000e+02 9.786490775902995098e-02 4.185930447735457943e-02 1.826918948902636064e-01
1.100000000000000000e+02 1.675764705078293670e-01 8.291427770073316050e-02 2.710877376472327072e-01
1.200000000000000000e+02 1.628105385555030094e-01 7.428952078729565700e-02 3.323194869031641518e-01
1.300000000000000000e+02 1.783582413732835159e-01 9.165773147359101980e-02 2.854949323236223302e-01
1.400000000000000000e+02 1.601293805195656839e-01 7.116262018359653663e-02 2.696315348739152240e-01
1.500000000000000000e+02 1.190138747769613203e-01 4.963816870950067683e-02 2.741189724287727003e-01
1.600000000000000000e+02 1.238926037027250071e-01 5.875749179735429567e-02 2.219825626098022031e-01
1.700000000000000000e+02 6.139307003556363634e-02 2.892724892927488189e-02 1.319394814005150074e-01
1.800000000000000000e+02 4.272337990994232865e-02 2.044388646625240613e-02 7.376579528960665322e-02
1.900000000000000000e+02 3.628488989718569452e-02 1.678615159955356567e-02 5.745374826106038058e-02
2.000000000000000000e+02 3.829447887233403125e-02 1.908159953617292667e-02 6.489696943366503323e-02
2.100000000000000000e+02 5.136847687748162528e-02 2.561959221910359644e-02 9.029991522980126972e-02
2.200000000000000000e+02 6.221689734264021499e-02 2.929364795348373546e-02 1.137615950788013197e-01
2.300000000000000000e+02 6.910513414538906052e-02 3.330621062969870566e-02 1.225633151622290973e-01
2.400000000000000000e+02 7.752121199745162783e-02 3.829475675327410206e-02 1.223268371533037246e-01
2.500000000000000000e+02 4.874170910487685832e-02 2.487262343943913434e-02 8.523108175176553891e-02
2.600000000000000000e+02 7.230607458955921885e-02 3.514279563635745729e-02 1.367342776335929710e-01
2.700000000000000000e+02 1.216008077218258682e-01 5.445690725286930767e-02 2.451834007684449424e-01
2.800000000000000000e+02 1.172292638839231294e-01 4.873579307956024675e-02 2.265882474669026481e-01
2.900000000000000000e+02 5.977391090863553441e-02 2.809603561718142586e-02 1.092411188267060906e-01
3.000000000000000000e+02 3.613492111406642338e-02 1.710420776707894872e-02 6.043475194153156288e-02
3.100000000000000000e+02 3.208398341843031465e-02 1.653006059931269242e-02 5.222701742664176416e-02
3.200000000000000000e+02 3.330006132447174000e-02 1.624206603977688956e-02 5.240717739463667674e-02
3.300000000000000000e+02 3.265373867600349783e-02 1.574563122845278745e-02 5.294701034152856506e-02
3.400000000000000000e+02 3.347472770390105129e-02 1.680811187671430243e-02 5.439379749370807510e-02
3.500000000000000000e+02 3.310614250099698508e-02 1.709782875305140143e-02 5.596820694427684373e-02
3.600000000000000000e+02 3.511469621630200488e-02 1.712459832065509058e-02 5.648194925984235254e-02
3.700000000000000000e+02 3.234019985686983206e-02 1.582238906143619214e-02 5.115285947818885848e-02
3.800000000000000000e+02 3.455047037912187258e-02 1.752751282383561635e-02 5.789651109570464332e-02
3.900000000000000000e+02 4.015595724980851322e-02 1.989468481613974535e-02 6.512333882172233190e-02
4.000000000000000000e+02 3.879959165728497084e-02 1.866222176341894579e-02 6.198426786795573074e-02
4.100000000000000000e+02 3.656694441232664905e-02 1.784752451757809846e-02 5.711826998708945807e-02
4.200000000000000000e+02 3.897648360386807287e-02 1.918985087865237443e-02 6.455963273184729678e-02
4.300000000000000000e+02 3.814791162514508810e-02 1.927008054329462997e-02 6.359452016497429971e-02
4.400000000000000000e+02 3.550500043456161769e-02 1.826866422249939434e-02 5.723676575602652111e-02
4.500000000000000000e+02 3.345239315706712013e-02 1.634140680350072011e-02 5.292404133242880476e-02
4.600000000000000000e+02 2.871517824241419728e-02 1.475795551408754132e-02 4.771913169390131632e-02
4.700000000000000000e+02 3.209958974219912636e-02 1.629193155459406420e-02 5.267419692653219770e-02
4.800000000000000000e+02 4.580372680844359279e-02 2.421699004814289319e-02 6.636456687961334033e-02
4.900000000000000000e+02 3.145198671308081090e-02 1.610366041718162139e-02 5.265639689784261390e-02
5.000000000000000000e+02 2.762532278933087920e-02 1.397593413558504381e-02 4.393428085006536449e-02
5.100000000000000000e+02 2.673221833838865594e-02 1.339455166840967069e-02 4.368765051847616626e-02
5.200000000000000000e+02 2.699460679645319938e-02 1.324147139339199898e-02 4.370585461933079729e-02
5.300000000000000000e+02 2.938994048465853187e-02 1.446136237039236279e-02 4.825668838957988122e-02
5.400000000000000000e+02 3.229566162991211881e-02 1.592708533639942275e-02 5.318663838999808380e-02
5.500000000000000000e+02 3.148462779769867215e-02 1.539419201689425608e-02 5.188452638200048012e-02
5.600000000000000000e+02 3.220289001850792920e-02 1.568922724465342949e-02 5.407180826565717580e-02
5.700000000000000000e+02 3.476619870335007773e-02 1.669898974645932233e-02 5.630695028607330538e-02
5.800000000000000000e+02 3.397721283465992420e-02 1.652875845869965221e-02 5.618326354382355975e-02
5.900000000000000000e+02 3.006838004948863413e-02 1.537516165537990663e-02 4.978796809833864467e-02
6.000000000000000000e+02 3.227618764808237034e-02 1.605980204708392159e-02 5.277045408870619653e-02
6.100000000000000000e+02 2.895372520438532077e-02 1.411817783264169603e-02 4.799872792320541981e-02
6.200000000000000000e+02 3.600195485674899387e-02 1.944015198112061804e-02 5.791008104100434095e-02
6.300000000000000000e+02 1.144141235329386719e-01 5.567669071754603044e-02 1.856881249623114072e-01
6.400000000000000000e+02 1.226034454599467666e-01 6.199119452484314757e-02 2.000187277323300372e-01
6.500000000000000000e+02 9.060340350661312547e-02 4.543688282946695134e-02 1.457690325813338628e-01
6.600000000000000000e+02 1.074470987416758228e-01 5.290532839214093924e-02 1.751443444839360375e-01
6.700000000000000000e+02 8.791453948153889197e-02 4.615123016643965514e-02 1.441001455238276330e-01
6.800000000000000000e+02 7.612395286273281048e-02 4.020079608072522903e-02 1.217909697190068807e-01
6.900000000000000000e+02 6.468205044408611992e-02 3.240002708008956483e-02 1.060050572873189184e-01
7.000000000000000000e+02 4.661151665450206233e-02 2.332307301449200454e-02 7.567972088420099608e-02
7.100000000000000000e+02 4.162355653396069416e-02 1.964281465743925037e-02 6.582340931734721734e-02
7.200000000000000000e+02 6.041162122560485292e-02 2.957391510526925435e-02 9.734376138072182993e-02
7.300000000000000000e+02 4.821151035396432222e-02 2.364334378335546105e-02 7.790244835992586603e-02
7.400000000000000000e+02 2.470388622605517240e-02 1.268846975893867489e-02 4.055179832391037770e-02
7.500000000000000000e+02 2.558712710270638277e-02 1.271911025786656192e-02 4.106253955208961914e-02
7.600000000000000000e+02 2.808953490757809188e-02 1.351476098786388337e-02 4.474618544004300286e-02
7.700000000000000000e+02 3.221810566369363860e-02 1.671487631030857401e-02 5.282056961102774006e-02
7.800000000000000000e+02 4.418295551217867739e-02 2.099376265422506216e-02 7.247223290048497579e-02
7.900000000000000000e+02 8.448092229612313986e-02 4.231741582356491477e-02 1.415951188191574839e-01
8.000000000000000000e+02 1.822982068011962664e-01 9.676941386480733542e-02 2.873642253396258006e-01
8.100000000000000000e+02 1.849900634408709332e-01 9.519121535967640935e-02 2.931263377258555569e-01
8.200000000000000000e+02 1.251134897830217252e-01 6.068833725499109266e-02 2.036465180567105515e-01
8.300000000000000000e+02 1.456218272309895700e-01 6.966052381017361073e-02 2.237903808260953420e-01
8.400000000000000000e+02 3.707976004495468492e-01 2.534043040616036913e-01 4.882128599076344111e-01
8.500000000000000000e+02 3.454671698012967140e-01 1.949375186694538020e-01 4.957365198782453519e-01
8.600000000000000000e+02 1.991766447820974839e-01 1.064462163919865090e-01 3.173980027486457134e-01
8.700000000000000000e+02 1.461183693967939290e-01 7.287164027125091204e-02 2.406135140742244050e-01
8.800000000000000000e+02 8.522033589400124232e-02 4.433032683215089309e-02 1.418795392952250933e-01
8.900000000000000000e+02 5.716248082219543142e-02 2.956367241892932443e-02 9.320611024409633516e-02
9.000000000000000000e+02 5.766323950105757545e-02 2.894563503753165915e-02 9.676157286847664185e-02
9.100000000000000000e+02 7.586903127934280233e-02 3.796674362874156300e-02 1.232828527436974353e-01
9.200000000000000000e+02 6.519164852714871838e-02 3.131414998650255965e-02 1.058186055123417763e-01
9.300000000000000000e+02 4.770659803981501523e-02 2.437336133847840466e-02 7.802242385458996177e-02
9.400000000000000000e+02 3.882767331193791999e-02 2.027801200701129930e-02 6.649363850053306713e-02
9.500000000000000000e+02 3.652243408471794739e-02 1.823826530909548535e-02 5.916827290834639208e-02
9.600000000000000000e+02 4.229860793415212566e-02 2.125794356096978588e-02 6.785060947515249297e-02
9.700000000000000000e+02 4.656897727166506989e-02 2.300042224313582004e-02 7.758776133044084644e-02
9.800000000000000000e+02 5.489453882930565853e-02 2.703410173648401749e-02 9.158406270704720631e-02
9.900000000000000000e+02 6.012286284717022894e-02 3.000348041461570539e-02 9.962608178331218423e-02
1.000000000000000000e+03 8.406961288934709786e-02 4.238476585652142803e-02 1.384301065990969359e-01
1.100000000000000000e+03 7.421882645767972908e-02 3.773592197342236221e-02 1.216565710861487876e-01
1.200000000000000000e+03 5.604066107256937962e-02 2.818498782816352549e-02 9.198807326678894170e-02
1.300000000000000000e+03 4.363613392947145869e-02 2.175892503095142386e-02 7.089056328315479494e-02
1.400000000000000000e+03 3.480065929636496497e-02 1.728363575836396743e-02 5.673756724580838323e-02
1.500000000000000000e+03 3.918493183583253436e-02 1.957156787198156833e-02 6.391814264709567983e-02
1.600000000000000000e+03 3.708592251333211326e-02 1.873082286316609529e-02 6.081101955761875066e-02
1.700000000000000000e+03 2.659945273092594736e-02 1.316480714922903250e-02 4.372122971228792343e-02
1.800000000000000000e+03 2.448636173654129139e-02 1.205142826704924154e-02 4.047727548445805706e-02
1.900000000000000000e+03 2.521146146957712816e-02 1.270707687373357105e-02 4.136216452069890748e-02
2.000000000000000000e+03 2.530338726145299477e-02 1.237352848429273261e-02 4.168151492143858799e-02
2.100000000000000000e+03 2.581880538904373149e-02 1.279173869492220006e-02 4.229054867876252261e-02
2.200000000000000000e+03 2.586166331595893958e-02 1.287505863747969749e-02 4.264819634950356431e-02
2.300000000000000000e+03 2.607185965784591247e-02 1.287439695277415273e-02 4.280895139428500529e-02
2.400000000000000000e+03 2.671154477789142861e-02 1.306459432882752479e-02 4.349132250546870054e-02
2.500000000000000000e+03 2.721709036176141877e-02 1.378432524781046144e-02 4.425945814105466947e-02
2.600000000000000000e+03 2.779089781760481562e-02 1.372628148383582720e-02 4.534960045597555972e-02
2.700000000000000000e+03 2.846658304205100520e-02 1.413148961321325503e-02 4.619125475015338489e-02
2.800000000000000000e+03 2.912202504085338942e-02 1.440042462166127822e-02 4.752621241360158871e-02
2.900000000000000000e+03 2.995884233777587613e-02 1.505636871093509431e-02 4.893731316018617300e-02
3.000000000000000000e+03 3.137407253419571829e-02 1.561556015763539661e-02 5.113431617258942796e-02
3.100000000000000000e+03 3.232788459423564797e-02 1.588517092778593542e-02 5.300518158063827895e-02
3.200000000000000000e+03 3.329747029591285934e-02 1.619046958080770648e-02 5.462356059816658727e-02
3.300000000000000000e+03 3.627389608724800041e-02 1.827505295098908605e-02 5.949532136071084693e-02
3.400000000000000000e+03 3.651975497647678287e-02 1.811454843791561117e-02 6.006415861573626697e-02
3.500000000000000000e+03 3.537894212190141607e-02 1.745357404277571300e-02 5.824547255201718149e-02
3.600000000000000000e+03 4.245124655642458500e-02 2.082096437678180104e-02 6.962399300781146882e-02
3.700000000000000000e+03 5.115506561881717762e-02 2.633028658134067834e-02 8.096601144130985417e-02
3.800000000000000000e+03 4.367021220532673470e-02 2.181156972124157628e-02 7.091942479605888028e-02
3.900000000000000000e+03 3.876450391816545910e-02 1.919863358014142415e-02 6.296950188255730219e-02
4.000000000000000000e+03 3.927632565052638358e-02 1.923444463934631879e-02 6.395984230566477413e-02
4.100000000000000000e+03 4.043983123374314537e-02 2.018762941395874089e-02 6.557843323082353237e-02
4.200000000000000000e+03 4.093311157983783866e-02 2.051195292034349235e-02 6.722488766398820870e-02
4.300000000000000000e+03 4.248596937372006027e-02 2.141783563534719118e-02 6.919072327855117777e-02
4.400000000000000000e+03 4.331551705008936798e-02 2.131359277709073824e-02 7.077228656518107230e-02
4.500000000000000000e+03 4.479272538302055129e-02 2.212580925633532772e-02 7.319698813965117012e-02
4.600000000000000000e+03 4.603724929230329499e-02 2.276750501421025141e-02 7.590285406174063221e-02
4.700000000000000000e+03 4.976865783840406232e-02 2.483938619850814197e-02 8.181704549102224167e-02
4.800000000000000000e+03 6.482310792927045706e-02 3.201045556933320574e-02 1.100898005863239493e-01
4.900000000000000000e+03 9.531348722450380673e-02 5.201994246318794590e-02 1.413028910941785399e-01
5.000000000000000000e+03 8.409176565358673916e-02 4.237251988819044912e-02 1.341645073680524103e-01
5.100000000000000000e+03 6.079002620438164056e-02 2.938831418436435583e-02 1.023780331647501374e-01
5.200000000000000000e+03 5.657568192393051115e-02 2.815510145868002634e-02 9.413881948495197993e-02
5.300000000000000000e+03 5.910143719874588752e-02 2.926847781644464214e-02 9.763497594185260864e-02
5.400000000000000000e+03 6.115276464082643887e-02 3.019889812328878723e-02 1.020622613145699270e-01
5.500000000000000000e+03 6.407764772985863333e-02 3.154966321555946474e-02 1.073986245947170098e-01
5.600000000000000000e+03 6.605999647686623677e-02 3.196470324998176848e-02 1.130516349529686743e-01
5.700000000000000000e+03 7.001738721364170193e-02 3.386190173359346356e-02 1.201008428703995851e-01
5.800000000000000000e+03 7.480221405375893362e-02 3.632711954605295779e-02 1.277354621536062884e-01
5.900000000000000000e+03 7.770711936150778709e-02 3.807989729373654347e-02 1.372350446999130447e-01
6.000000000000000000e+03 8.250332925684006335e-02 3.939860978045519463e-02 1.457810972731713173e-01
6.100000000000000000e+03 8.715399819114781621e-02 4.254977022981001888e-02 1.558361733231708735e-01
6.200000000000000000e+03 9.333418329652617973e-02 4.474739202562734441e-02 1.679519795837281504e-01
6.300000000000000000e+03 9.778684969425997797e-02 4.710104180800478435e-02 1.827501623810465770e-01
6.400000000000000000e+03 1.049650792305163449e-01 5.018031558643282208e-02 1.985391224508707697e-01
6.500000000000000000e+03 1.122380886967590113e-01 5.341570149089260033e-02 2.183388403208293416e-01
6.600000000000000000e+03 1.191380555170573757e-01 5.577827446090811991e-02 2.368739566907252514e-01
6.700000000000000000e+03 1.296963983404376408e-01 5.941018814886719901e-02 2.552470637092776329e-01
6.800000000000000000e+03 1.371828025173289778e-01 6.462345416043380197e-02 2.719445797690627775e-01
6.900000000000000000e+03 1.455093282984969427e-01 6.930449393692315885e-02 2.957139790051492301e-01
7.000000000000000000e+03 1.565104638755531463e-01 7.252037409109444999e-02 3.273055744615426810e-01
7.100000000000000000e+03 1.678743261118968433e-01 7.822182425245505222e-02 3.582458568482961292e-01
7.200000000000000000e+03 1.871220518018895940e-01 8.593555970591411353e-02 4.231194217895339338e-01
7.300000000000000000e+03 2.073893665220850890e-01 9.680762810160836729e-02 4.881688659743276815e-01
7.400000000000000000e+03 2.303307178102046715e-01 1.043986316429140609e-01 5.716686893045354045e-01
7.500000000000000000e+03 2.370771124662346407e-01 1.092277180731803521e-01 6.157442826712155037e-01
7.600000000000000000e+03 2.458252611228183560e-01 1.070371173998041353e-01 6.585936440500074207e-01
7.700000000000000000e+03 2.491097734881250192e-01 1.095763601060693176e-01 6.937393421043950292e-01
7.800000000000000000e+03 2.547300764347916746e-01 1.110365668161784752e-01 7.130333600841334274e-01
7.900000000000000000e+03 2.587430653883500131e-01 1.101289648285570799e-01 7.463813379433755779e-01
8.000000000000000000e+03 2.540753561556108320e-01 1.067336429226172223e-01 7.635624924133734837e-01
8.100000000000000000e+03 2.484202404260817953e-01 1.043082821943354943e-01 7.325430427448631487e-01
8.200000000000000000e+03 2.334873690292187387e-01 9.873684857554072825e-02 6.627742403051871678e-01
8.300000000000000000e+03 2.185259174690334372e-01 9.536971099999666523e-02 5.646603974438773044e-01
8.400000000000000000e+03 2.243554642627937079e-01 9.967707019444767280e-02 5.048077835466380225e-01
8.500000000000000000e+03 2.507782408902412552e-01 1.154989998684234076e-01 4.735701211755309892e-01
8.600000000000000000e+03 2.723691613922968324e-01 1.270842291956789105e-01 4.682449983410438277e-01
8.700000000000000000e+03 2.370958811310533154e-01 1.080112984941337395e-01 4.232689878178957921e-01
8.800000000000000000e+03 1.829453807419283151e-01 8.417711810844151488e-02 3.503307292996484246e-01
8.900000000000000000e+03 1.513500640951217779e-01 7.082292332744256902e-02 2.820086531169614386e-01
9.000000000000000000e+03 1.378085950049137420e-01 6.706410830818967939e-02 2.441793163568468650e-01
9.100000000000000000e+03 1.299253278078262575e-01 6.183737214772618701e-02 2.255535121915422936e-01
9.200000000000000000e+03 1.245613987758642655e-01 6.150913164697030533e-02 2.145043634342793104e-01
9.300000000000000000e+03 1.214902169893231632e-01 5.983681086461842269e-02 2.042347184645579850e-01
9.400000000000000000e+03 1.191289401214516430e-01 5.944393171178224966e-02 1.959712522099397447e-01
9.500000000000000000e+03 1.158775504884828750e-01 5.749965742494707321e-02 1.926582776194838698e-01
9.600000000000000000e+03 1.165334097958373449e-01 5.798945411601007932e-02 1.958306268716192011e-01
9.700000000000000000e+03 1.235142965379218832e-01 6.058992414341927285e-02 2.049969699636284837e-01
9.800000000000000000e+03 1.308813179470045829e-01 6.584226846358147422e-02 2.154890924227310933e-01
9.900000000000000000e+03 1.281618822486744191e-01 6.420658884300572966e-02 2.120002914588467735e-01
1.000000000000000000e+04 1.167463693680574066e-01 5.828340055449982710e-02 1.964725014385397817e-01
1.010000000000000000e+04 1.075218404152062518e-01 5.281058024780807547e-02 1.795869664464787019e-01
1.020000000000000000e+04 1.027844762896375080e-01 5.048090700737106057e-02 1.692135604951165995e-01
1.030000000000000000e+04 9.995157010869204495e-02 4.974767680200595232e-02 1.649386673485858101e-01
1.040000000000000000e+04 9.799014004708798964e-02 4.908855431083360144e-02 1.616618223840090296e-01
1.050000000000000000e+04 9.841547369162488568e-02 4.814707773362961185e-02 1.599541111072151078e-01
1.060000000000000000e+04 9.597418092501194820e-02 4.807368708380622274e-02 1.601684406365361246e-01
1.070000000000000000e+04 1.012118685260274958e-01 4.941144480145388124e-02 1.697430839315076101e-01
1.080000000000000000e+04 1.087960980259942423e-01 5.283786295704478303e-02 2.010794113703092967e-01
1.090000000000000000e+04 1.332929433782607809e-01 6.131269370187727302e-02 2.939139026369478325e-01
1.100000000000000000e+04 1.812063215074482259e-01 7.393901136370947813e-02 3.518930777076814120e-01
1.110000000000000000e+04 1.968887927564204054e-01 8.034232860690698752e-02 3.541282084667398133e-01
1.120000000000000000e+04 1.565945862123298560e-01 6.819770036177787154e-02 3.343688565263778778e-01
1.130000000000000000e+04 1.209935011596532661e-01 5.613337774287026349e-02 2.614383345337800146e-01
1.140000000000000000e+04 1.026369134017087320e-01 4.901980764855700529e-02 1.866324759889309015e-01
1.150000000000000000e+04 9.526955013423590857e-02 4.604711966666066164e-02 1.619647616330293638e-01
1.160000000000000000e+04 9.328417232629272748e-02 4.595014740900291855e-02 1.550399684307702253e-01
1.170000000000000000e+04 9.242857032599822997e-02 4.598783948907896046e-02 1.549214664601583080e-01
1.180000000000000000e+04 9.245529718021452958e-02 4.659769018996057222e-02 1.555523730367939506e-01
1.190000000000000000e+04 9.122125879913756119e-02 4.524384674763505532e-02 1.542291218801498665e-01
1.200000000000000000e+04 9.067326628388810983e-02 4.442444831455819032e-02 1.560405476863433449e-01
1.210000000000000000e+04 9.192739463531145183e-02 4.557897071899128655e-02 1.599805304322917676e-01
1.220000000000000000e+04 9.349042051158260036e-02 4.556380104020194000e-02 1.602491463563497920e-01
1.230000000000000000e+04 9.416944239853483611e-02 4.584829020704400682e-02 1.644772898229550362e-01
1.240000000000000000e+04 9.465256476318364975e-02 4.667770746407235577e-02 1.634436028894659387e-01
1.250000000000000000e+04 9.451254562858116270e-02 4.568399368010339634e-02 1.650842441663666060e-01
1.260000000000000000e+04 9.410841398805459834e-02 4.505682542031573534e-02 1.674974833305363231e-01
1.270000000000000000e+04 9.434256693552596496e-02 4.545309730461016828e-02 1.708476139137047878e-01
1.280000000000000000e+04 9.419360670525105117e-02 4.583618403944968167e-02 1.725639563483155892e-01
1.290000000000000000e+04 9.437588475036066960e-02 4.617896744731921771e-02 1.761727745653451915e-01
1.300000000000000000e+04 9.535561273664934501e-02 4.571920089908147744e-02 1.775379680223521384e-01
1.310000000000000000e+04 9.569418360198381213e-02 4.567746516632541914e-02 1.803352503930176487e-01
1.320000000000000000e+04 9.608086723024736320e-02 4.621173896213529725e-02 1.840002582748082316e-01
1.330000000000000000e+04 9.750208262046701491e-02 4.646442113415941849e-02 1.873102967574880318e-01
1.340000000000000000e+04 1.000123392237499548e-01 4.662593108267877595e-02 1.900678321255653835e-01
1.350000000000000000e+04 1.018569915779192064e-01 4.928415885014354042e-02 1.933744771403791696e-01
1.360000000000000000e+04 1.032530867116345369e-01 4.875032759180648184e-02 1.975044951285934158e-01
1.370000000000000000e+04 1.043637488620164366e-01 4.987663440691385980e-02 2.000021633817076483e-01
1.380000000000000000e+04 1.035116977595078730e-01 4.886573220782705618e-02 2.004812024810739557e-01
1.390000000000000000e+04 1.027783805686883628e-01 4.976595540241567778e-02 2.036749924211091745e-01
1.400000000000000000e+04 1.043611601927270510e-01 4.896277537088349757e-02 2.060823677540716548e-01
1.410000000000000000e+04 1.052911747332078013e-01 4.948931942831537312e-02 2.115990866920437474e-01
1.420000000000000000e+04 1.067487623279914227e-01 4.961114456952663704e-02 2.203650671726299637e-01
1.430000000000000000e+04 1.075586317461911523e-01 5.070839095399681112e-02 2.206593545181246285e-01
1.440000000000000000e+04 1.099907601280355751e-01 5.061437166365691936e-02 2.267636033389851258e-01
1.450000000000000000e+04 1.125686535840990238e-01 5.133453146783484994e-02 2.362431477550187009e-01
1.460000000000000000e+04 1.140094130618178742e-01 5.337568250419021804e-02 2.384996589110933707e-01
1.470000000000000000e+04 1.164249088073386479e-01 5.386741294652376555e-02 2.412029710660416049e-01
1.480000000000000000e+04 1.159899726733212705e-01 5.359550212283591825e-02 2.445847938529663312e-01
1.490000000000000000e+04 1.176029192946530522e-01 5.392816418009021423e-02 2.415069920064398246e-01
1.500000000000000000e+04 1.173816218288634416e-01 5.388756320085930779e-02 2.458773159332681146e-01
1.510000000000000000e+04 1.168583184802883812e-01 5.363655162958566591e-02 2.443002180793628353e-01
1.520000000000000000e+04 1.187247813182797374e-01 5.443640677069692957e-02 2.394999207164300037e-01
1.530000000000000000e+04 1.182948847762884531e-01 5.459907163829447879e-02 2.405152264761935832e-01
1.540000000000000000e+04 1.160869762063197613e-01 5.413167538114773553e-02 2.339133504134023600e-01
1.550000000000000000e+04 1.171362612682322751e-01 5.486572762254351976e-02 2.293492971452164020e-01
1.560000000000000000e+04 1.178144110594199767e-01 5.423036851047439988e-02 2.296241204648356016e-01
1.570000000000000000e+04 1.177184623542300440e-01 5.485654591303675692e-02 2.303003080198423869e-01
1.580000000000000000e+04 1.162299165440749821e-01 5.517528323600979362e-02 2.237360713797368894e-01
1.590000000000000000e+04 1.138404528644090669e-01 5.265470340198653149e-02 2.193915250361448688e-01
1.600000000000000000e+04 1.116331903372244777e-01 5.250725282595479493e-02 2.116169083068411838e-01
1.610000000000000000e+04 1.080741049962901240e-01 5.154410658507336401e-02 2.081200369206298584e-01
1.620000000000000000e+04 1.068755741065509218e-01 5.014501866066834596e-02 2.019872368122799244e-01
1.630000000000000000e+04 1.043845142942951970e-01 4.889789309146225921e-02 1.961415852351854894e-01
1.640000000000000000e+04 1.007490116994986945e-01 4.808506280800089322e-02 1.887172080407619745e-01
1.650000000000000000e+04 9.708700888427522491e-02 4.644574827160357494e-02 1.782362448220957685e-01
1.660000000000000000e+04 9.525673302574974577e-02 4.619163708036696375e-02 1.720828791093344523e-01
1.670000000000000000e+04 9.245148122632110277e-02 4.476203615614195858e-02 1.662256339439221742e-01
1.680000000000000000e+04 8.869225415965807657e-02 4.279210349910677474e-02 1.584208786990707052e-01
1.690000000000000000e+04 8.602945866172241607e-02 4.162669054800989532e-02 1.518516106063713955e-01
1.700000000000000000e+04 8.313116013851747088e-02 4.047396485485389717e-02 1.478546013830884798e-01
1.710000000000000000e+04 8.205262256380645158e-02 4.003674057970190575e-02 1.413499093588952427e-01
1.720000000000000000e+04 8.020905403686051649e-02 3.905787248639463333e-02 1.377584364275376838e-01
1.730000000000000000e+04 7.829351420845849507e-02 3.835042626400490123e-02 1.326672710035512459e-01
1.740000000000000000e+04 7.684522436342279550e-02 3.786811403320484298e-02 1.312408883829885575e-01
1.750000000000000000e+04 7.776920633290272666e-02 3.717490853032837106e-02 1.317022362974616945e-01
1.760000000000000000e+04 7.485503440821822396e-02 3.640163550212660581e-02 1.261038496907573303e-01
1.770000000000000000e+04 7.215869939737518113e-02 3.520140258916130971e-02 1.210415418041393826e-01
1.780000000000000000e+04 7.017633274087589634e-02 3.460849872201954974e-02 1.173154491933565968e-01
1.790000000000000000e+04 6.907657486005894243e-02 3.414752643705088603e-02 1.168476411781504271e-01
1.800000000000000000e+04 6.861360050881264161e-02 3.365603213134441690e-02 1.144185717575828543e-01
1.810000000000000000e+04 6.709955814067961044e-02 3.402083038164459977e-02 1.133945165150142681e-01
1.820000000000000000e+04 6.678342269821020694e-02 3.283591509545769060e-02 1.113558362202168306e-01
1.830000000000000000e+04 6.585155067356089631e-02 3.292440378522251687e-02 1.093787120689938275e-01
1.840000000000000000e+04 6.536781338018318732e-02 3.209744855416755971e-02 1.085751551260961817e-01
1.850000000000000000e+04 6.465298559525300970e-02 3.209684586838043585e-02 1.082639044877818646e-01
1.860000000000000000e+04 6.454099244086120013e-02 3.233947395687860465e-02 1.077679201150183869e-01
1.870000000000000000e+04 6.407860361226296042e-02 3.182823441508000895e-02 1.061285283447206684e-01
1.880000000000000000e+04 6.252726113432847954e-02 3.095667481362303006e-02 1.054063703511234767e-01
1.890000000000000000e+04 6.225456064143344154e-02 3.067758208650506885e-02 1.040033433889040460e-01
1.900000000000000000e+04 6.142885348280152646e-02 3.064618344533872815e-02 1.040083044008422719e-01
1.910000000000000000e+04 6.212135819307523094e-02 3.064153615556805543e-02 1.042724256979761510e-01
1.920000000000000000e+04 6.397352414322587943e-02 3.202089415293747632e-02 1.065904163554790146e-01
1.930000000000000000e+04 6.302749968440245210e-02 3.094025434405206498e-02 1.052159553699637956e-01
1.940000000000000000e+04 6.021256591351254600e-02 2.969781487330746053e-02 9.997071988823684474e-02
1.950000000000000000e+04 5.970632172864382553e-02 2.948082160599339169e-02 1.001771217195658870e-01
1.960000000000000000e+04 5.918372653363128399e-02 2.918765486557915040e-02 9.905431148924949414e-02
1.970000000000000000e+04 5.839168008244592645e-02 2.929765387799715404e-02 9.765713144070581331e-02
1.980000000000000000e+04 5.733006654128281615e-02 2.832402263948037222e-02 9.708033446348114659e-02
1.990000000000000000e+04 5.803502322303428357e-02 2.857366780663270212e-02 9.533177808162085487e-02
2.000000000000000000e+04 5.680612403352702788e-02 2.804390026629417429e-02 9.509948198862046287e-02
2.010000000000000000e+04 5.610266882172745828e-02 2.786085096341868808e-02 9.380750095494039265e-02
2.020000000000000000e+04 5.552585297557205424e-02 2.801707047532221023e-02 9.224077272428089780e-02
2.030000000000000000e+04 5.514871711124910703e-02 2.739799692989345128e-02 9.170634023586561601e-02
2.040000000000000000e+04 2.462121291525610212e-01 1.983374391681583526e-01 2.953118596654383254e-01
2.050000000000000000e+04 5.492635018384882661e-01 5.029581358184043172e-01 5.953946181563175566e-01
2.060000000000000000e+04 3.122835608586023715e-01 2.635164235764795859e-01 3.614513617545857538e-01
2.070000000000000000e+04 5.454279621635068492e-02 2.711785407455347477e-02 9.045820113598010415e-02
2.080000000000000000e+04 5.358259126903305164e-02 2.614274880972445800e-02 8.881748196912915561e-02
2.090000000000000000e+04 5.292034143796880974e-02 2.603229367950429113e-02 8.852227804678532153e-02
2.100000000000000000e+04 5.335123775897670367e-02 2.603775543442524154e-02 8.893815585555400749e-02
2.110000000000000000e+04 5.346786780759876095e-02 2.648480050781024803e-02 8.872286559955473717e-02
2.120000000000000000e+04 5.382244954672957965e-02 2.670502691390621089e-02 8.982421891793651580e-02
2.130000000000000000e+04 5.592195867219829086e-02 2.780269724723542432e-02 9.287649113507288889e-02
2.140000000000000000e+04 6.344239293106022914e-02 3.124206287184425751e-02 1.054016334142773986e-01
2.150000000000000000e+04 6.156448679714637828e-02 3.077077083223937748e-02 1.029664452949262399e-01
2.160000000000000000e+04 5.093151708703706759e-02 2.554455136400490128e-02 8.567929655472664163e-02
2.170000000000000000e+04 4.907947358452474651e-02 2.402359149639915481e-02 8.195608575710898458e-02
2.180000000000000000e+04 4.929827253240829515e-02 2.439385725751501074e-02 8.211175090048174197e-02
2.190000000000000000e+04 4.945580736700500718e-02 2.454257085651895959e-02 8.279183225036719496e-02
2.200000000000000000e+04 5.014465944003703574e-02 2.462782666726529707e-02 8.282009082525360055e-02
2.210000000000000000e+04 4.956058814099640469e-02 2.447072122777979933e-02 8.318403660542297851e-02
2.220000000000000000e+04 4.976179336482400295e-02 2.457020949684986591e-02 8.452359754586670493e-02
2.230000000000000000e+04 4.990732121794037857e-02 2.443002922335957630e-02 8.449923548899358761e-02
2.240000000000000000e+04 4.965629188424878354e-02 2.440138371155782873e-02 8.456717696855985122e-02
2.250000000000000000e+04 5.009497610331342665e-02 2.431404591842385374e-02 8.449118066569819008e-02
2.260000000000000000e+04 5.016986576771589185e-02 2.432622989992349466e-02 8.571292287319193237e-02
2.270000000000000000e+04 5.050715549507513863e-02 2.448935146243504460e-02 8.517932783658070661e-02
2.280000000000000000e+04 5.033698523816411419e-02 2.484600432158834415e-02 8.499944849700008520e-02
2.290000000000000000e+04 5.076403526722329806e-02 2.527716545791463751e-02 8.462278933112851731e-02
2.300000000000000000e+04 5.086069697970088677e-02 2.481453533126757455e-02 8.682856808185616948e-02
2.310000000000000000e+04 4.983350662176110057e-02 2.456731432476040589e-02 8.581264088666666623e-02
2.320000000000000000e+04 5.054380965453690588e-02 2.456686735971421245e-02 8.690136633528490473e-02
2.330000000000000000e+04 5.016438642275381637e-02 2.475618969333547026e-02 8.674479559801794026e-02
2.340000000000000000e+04 5.015624154341875168e-02 2.463134610767502702e-02 8.748099616590027106e-02
2.350000000000000000e+04 4.979155222883607790e-02 2.452659321894594402e-02 8.781835910217335173e-02
2.360000000000000000e+04 5.001211270460097918e-02 2.455258223855123420e-02 8.737662244014812729e-02
2.370000000000000000e+04 5.014281663094139613e-02 2.433405782984195825e-02 8.731855889421785699e-02
2.380000000000000000e+04 5.130442799055166814e-02 2.485514323989257424e-02 8.826792816058234847e-02
2.390000000000000000e+04 5.020976922437840606e-02 2.435198704784619431e-02 8.734601219281451501e-02
2.400000000000000000e+04 5.022156304257970744e-02 2.423888583981115633e-02 8.817330270973375295e-02
2.410000000000000000e+04 5.036248006156777979e-02 2.397014101518454496e-02 8.727668488558910920e-02
2.420000000000000000e+04 4.996800598333404203e-02 2.400766560370945490e-02 8.749850264887035212e-02
2.430000000000000000e+04 4.909446105733623889e-02 2.375223832477104530e-02 8.564464231259720506e-02
2.440000000000000000e+04 4.837824542769313119e-02 2.325610031066245240e-02 8.502573202711330436e-02
2.450000000000000000e+04 4.837437361407158354e-02 2.327964132049767029e-02 8.398817691542773134e-02
2.460000000000000000e+04 4.785645631797985633e-02 2.334754556720121041e-02 8.422293139986249122e-02
2.470000000000000000e+04 4.721594164092765555e-02 2.266807357775067061e-02 8.262757677208966423e-02
2.480000000000000000e+04 4.674770838315241150e-02 2.320878834831178669e-02 8.166037734072514875e-02
2.490000000000000000e+04 4.692837566875997929e-02 2.231637938935299506e-02 8.116205792519261275e-02
2.500000000000000000e+04 4.619437553917771916e-02 2.239202292700079311e-02 8.044801855811431479e-02
2.510000000000000000e+04 4.564073737884970922e-02 2.198125323368950446e-02 8.009002065623142819e-02
2.520000000000000000e+04 4.484463018706121712e-02 2.180737259698003333e-02 7.848118234731117637e-02
2.530000000000000000e+04 4.428763575455448714e-02 2.158885129374189804e-02 7.663644509661048099e-02
2.540000000000000000e+04 4.402869262907472409e-02 2.130817740243956884e-02 7.625692137704355444e-02
2.550000000000000000e+04 4.389817797176862046e-02 2.136863645583495647e-02 7.615246622146033817e-02
2.560000000000000000e+04 4.353897248599056941e-02 2.131643603426192426e-02 7.407537496067286009e-02
2.570000000000000000e+04 4.334275100416244697e-02 2.078053146901394713e-02 7.338840614972333420e-02
2.580000000000000000e+04 4.255483154984535804e-02 2.105350316284831588e-02 7.246124928772899876e-02
2.590000000000000000e+04 4.220073544939297039e-02 2.048442911387428345e-02 7.208039805690272250e-02
2.600000000000000000e+04 4.164902712336859131e-02 2.047816841821932521e-02 7.146181650482773262e-02
2.610000000000000000e+04 4.150942112364176817e-02 2.063180960422781804e-02 7.046687905820538111e-02
2.620000000000000000e+04 4.121734128609078063e-02 2.032551563643265544e-02 6.936015930517387684e-02
2.630000000000000000e+04 4.047961464309054319e-02 1.990864443171520837e-02 6.888285589546346011e-02
2.640000000000000000e+04 4.068649677103051976e-02 1.987795298439649916e-02 6.787189061887761998e-02
2.650000000000000000e+04 4.032908155279580492e-02 1.967217723909000029e-02 6.836776811861232372e-02
2.660000000000000000e+04 4.007012966967978679e-02 1.948473098747666513e-02 6.705419481297270057e-02
2.670000000000000000e+04 3.990485521728966839e-02 1.960224444502240565e-02 6.682860862049258555e-02
2.680000000000000000e+04 4.007268140994368899e-02 1.959557310562485416e-02 6.756774176376731389e-02
2.690000000000000000e+04 3.953440433261466713e-02 1.947056986840787346e-02 6.539848472806975010e-02
2.700000000000000000e+04 3.865091460842270260e-02 1.889096606082792118e-02 6.504255643357763350e-02
2.710000000000000000e+04 3.889211566626648436e-02 1.925065343990322100e-02 6.512546587127111819e-02
2.720000000000000000e+04 3.873594739291273681e-02 1.895874361864950328e-02 6.522724699038243146e-02
2.730000000000000000e+04 3.865328084499240757e-02 1.902590909160594215e-02 6.488031772651627060e-02
2.740000000000000000e+04 3.834390862623549695e-02 1.879346343663131080e-02 6.379320252184028650e-02
2.750000000000000000e+04 3.747005793758702297e-02 1.883154668053373462e-02 6.326432579620291929e-02
2.760000000000000000e+04 3.761718437671421333e-02 1.826858201884127425e-02 6.303683097709415761e-02
2.770000000000000000e+04 3.823531014451089782e-02 1.854788661102215949e-02 6.339268729162073068e-02
2.780000000000000000e+04 3.840764856956688927e-02 1.844276935205453952e-02 6.434816241251581359e-02
2.790000000000000000e+04 3.811758007730316478e-01 3.462175328671269203e-01 4.158888024358300406e-01
2.800000000000000000e+04 7.010172887483608894e-01 6.686207622566526787e-01 7.333458776192471884e-01
2.810000000000000000e+04 3.232777490613077398e-01 2.888616699160850287e-01 3.583597942381659407e-01
2.820000000000000000e+04 3.756487577896067132e-02 1.865434674989123118e-02 6.297471808949442473e-02
2.830000000000000000e+04 3.672476700082424883e-02 1.837595437373662488e-02 6.181067877015333084e-02
2.840000000000000000e+04 3.631019850390367759e-02 1.767432746309253663e-02 6.108094821800326424e-02
2.850000000000000000e+04 3.571955332206127459e-02 1.767462515018071098e-02 6.093078419635498955e-02
2.860000000000000000e+04 3.566081702566353123e-02 1.762210526855267564e-02 6.052074591099650819e-02
2.870000000000000000e+04 3.582443533291181786e-02 1.781500579136472209e-02 6.082039980642877514e-02
2.880000000000000000e+04 3.780185186444028761e-02 1.824337229479859254e-02 6.355754417958872637e-02
2.890000000000000000e+04 3.680692727905363754e-02 1.806247845028543034e-02 6.238561801531362222e-02
2.900000000000000000e+04 3.528221829971013579e-02 1.712894620889101119e-02 5.990046719296665545e-02
2.910000000000000000e+04 3.473682047891099578e-02 1.730519206866583740e-02 5.886757992261962280e-02
2.920000000000000000e+04 3.417429594946495841e-02 1.669029359848917676e-02 5.992098244473167273e-02
2.930000000000000000e+04 3.479344668594178819e-02 1.709423134568267832e-02 6.002848227353216326e-02
2.940000000000000000e+04 3.467188439759531782e-02 1.673265037563237412e-02 5.954128795961410869e-02
2.950000000000000000e+04 3.430862953213565519e-02 1.667490068481131127e-02 5.961712995647746455e-02
2.960000000000000000e+04 3.418363477772859427e-02 1.665330953353608492e-02 5.924154748072311266e-02
2.970000000000000000e+04 3.434309039078140002e-02 1.639785044904603153e-02 5.867083762879323622e-02
2.980000000000000000e+04 3.476462350157300679e-02 1.704791143321677041e-02 5.953024982638183138e-02
2.990000000000000000e+04 3.720090479728517530e-02 1.834494773959965963e-02 6.292295561689736916e-02
3.000000000000000000e+04 3.465193863133769758e-02 1.721521569564060314e-02 5.999636874801173719e-02
3.010000000000000000e+04 3.434420866726271143e-02 1.682006170150989952e-02 5.904043455545262414e-02
3.020000000000000000e+04 3.459574519444443691e-02 1.669301638584826109e-02 6.045527922815052690e-02
3.030000000000000000e+04 3.357235874871033338e-02 1.629305265109732767e-02 5.880031822708164935e-02
3.040000000000000000e+04 3.781120615908186572e-02 1.843241719057010092e-02 6.455064731702864211e-02
3.050000000000000000e+04 4.415288363013369910e-02 2.201013232682255336e-02 7.365344280660715559e-02
3.060000000000000000e+04 3.813565046324626090e-02 1.869876643565292554e-02 6.441181065086662438e-02
3.070000000000000000e+04 4.400694463641689758e-02 2.178035974987201431e-02 7.348575434709883614e-02
3.080000000000000000e+04 3.650010262233124858e-02 1.770734179976934247e-02 6.183059152355936672e-02
3.090000000000000000e+04 4.193651098415404621e-02 2.133908145149712721e-02 6.861618448425782502e-02
3.100000000000000000e+04 6.765416309996886979e-02 4.129436878807905137e-02 9.589873384650167421e-02
3.110000000000000000e+04 4.794400742309218311e-02 2.504514132183434383e-02 7.551776292170041260e-02
3.120000000000000000e+04 3.202917874162506534e-02 1.540931555147469906e-02 5.491195474680261868e-02
3.130000000000000000e+04 3.167571553080850838e-02 1.535105442779573746e-02 5.465108742600581493e-02
3.140000000000000000e+04 3.216411603123833785e-02 1.573759043519511180e-02 5.515999428684180417e-02
3.150000000000000000e+04 3.150787859038175348e-02 1.571819867412957775e-02 5.453112433027310774e-02
3.160000000000000000e+04 3.088374235325624939e-02 1.514408651491809359e-02 5.271726376429530098e-02
3.170000000000000000e+04 3.035895188598507557e-02 1.496036210476844007e-02 5.233052274240450330e-02
3.180000000000000000e+04 3.002956865648270454e-02 1.462333053724620621e-02 5.208814013999912146e-02
3.190000000000000000e+04 3.005584011495434499e-02 1.438140143634917927e-02 5.188653590953294648e-02
3.200000000000000000e+04 2.983224631149182862e-02 1.440076976563083554e-02 5.144489008171827804e-02
3.210000000000000000e+04 3.010904199849927937e-02 1.453314127107906660e-02 5.064946467038254629e-02
3.220000000000000000e+04 2.928382934347628641e-02 1.461655082596977594e-02 5.047632983011994534e-02
3.230000000000000000e+04 2.931000735220820261e-02 1.422955385800496117e-02 4.976856471765753881e-02
3.240000000000000000e+04 2.922728959029328999e-02 1.449110025047558106e-02 4.919927403226616314e-02
3.250000000000000000e+04 2.893378944367110822e-02 1.417531549157658929e-02 4.935629580387521781e-02
3.260000000000000000e+04 2.880273053750373458e-02 1.407771104293385582e-02 4.924164630213459515e-02
3.270000000000000000e+04 2.834569856180389064e-02 1.399364209134873471e-02 4.850977788721329287e-02
3.280000000000000000e+04 2.829625223462309963e-02 1.383647240147376292e-02 4.751388058174509099e-02
3.290000000000000000e+04 2.792245866808873780e-02 1.367412892915872806e-02 4.716942370689421876e-02
3.300000000000000000e+04 2.992257585159635233e-02 1.456495793986678153e-02 4.984838987689442502e-02
3.310000000000000000e+04 4.155205127693038097e-02 2.251804845674059904e-02 6.371933154884708295e-02
3.320000000000000000e+04 3.408814066431816586e-02 1.724523622106450410e-02 5.519485722456982102e-02
3.330000000000000000e+04 2.711334553305823694e-02 1.333457355945753299e-02 4.545362700355191216e-02
3.340000000000000000e+04 2.650088777889650360e-02 1.294073442716791970e-02 4.444803743509356808e-02
3.350000000000000000e+04 2.618187001031171274e-02 1.296756023802901441e-02 4.443770026237466725e-02
3.360000000000000000e+04 2.626409577530661871e-02 1.275609698044020621e-02 4.439772394917248372e-02
3.370000000000000000e+04 2.570117947172955580e-02 1.274576643839651913e-02 4.357937294289092323e-02
3.380000000000000000e+04 2.579478065059111896e-02 1.276965721336992959e-02 4.285338205168783693e-02
3.390000000000000000e+04 2.556674869063850844e-02 1.259449238584757491e-02 4.245659407754075881e-02
3.400000000000000000e+04 2.534781792627666119e-02 1.251104667994294706e-02 4.241623280411382230e-02
3.410000000000000000e+04 2.520291415167521046e-02 1.229908029237076691e-02 4.240527255726578293e-02
3.420000000000000000e+04 2.511774197187411836e-02 1.235419038893663043e-02 4.183022498053447918e-02
3.430000000000000000e+04 2.463470153687070258e-02 1.217070885508351671e-02 4.129469885569584525e-02
3.440000000000000000e+04 2.469908996303028098e-02 1.229174292076095319e-02 4.131725068392889944e-02
3.450000000000000000e+04 2.446899232949590816e-02 1.213292355567368100e-02 4.112257503363698358e-02
3.460000000000000000e+04 2.442590667490987175e-02 1.202512339477929126e-02 4.072642969677343905e-02
3.470000000000000000e+04 2.403414835111059022e-02 1.216229752642283141e-02 4.040123706673317411e-02
3.480000000000000000e+04 2.367881773682403712e-02 1.185104713296624215e-02 3.988392321494507037e-02
3.490000000000000000e+04 2.358913150726734201e-02 1.145623329571574846e-02 3.926154438442171213e-02
3.500000000000000000e+04 2.344518230800867256e-02 1.177324738325274955e-02 3.914491552298729471e-02
3.510000000000000000e+04 2.325252171243369359e-02 1.146412218840857540e-02 3.884379855087813360e-02
3.520000000000000000e+04 2.321326966811697312e-02 1.161965397201346339e-02 3.875239837519302982e-02
3.530000000000000000e+04 2.302355469059631440e-02 1.131768817489093269e-02 3.860609409314372936e-02
3.540000000000000000e+04 2.333187602919131048e-02 1.154879577945275640e-02 3.888787718990565495e-02
3.550000000000000000e+04 2.395906428688928877e-02 1.200075983521513810e-02 3.945022936785307771e-02
3.560000000000000000e+04 2.272224399524613858e-02 1.118902916163765082e-02 3.761593845797648467e-02
3.570000000000000000e+04 2.239997085305588803e-02 1.140689878012421908e-02 3.733579637163889769e-02
3.580000000000000000e+04 2.246586214399566572e-02 1.109251240599842640e-02 3.727254855636973063e-02
3.590000000000000000e+04 2.213395544726676906e-02 1.095220815506037053e-02 3.676074499347685431e-02
3.600000000000000000e+04 2.198019133723096152e-02 1.077865143186370299e-02 3.688575264262089481e-02
3.610000000000000000e+04 2.186147450854810173e-02 1.077713856524880470e-02 3.608206912376455550e-02
3.620000000000000000e+04 2.169405521340409676e-02 1.068453092775536496e-02 3.612938488730392528e-02
3.630000000000000000e+04 2.172225225314985270e-02 1.083260330126329524e-02 3.581298949137105142e-02
3.640000000000000000e+04 2.147143987917754168e-02 1.064962497772840508e-02 3.578235519116403085e-02
3.650000000000000000e+04 2.134075753326502428e-02 1.065767504220321675e-02 3.494752821590250969e-02
3.660000000000000000e+04 2.153589445519047199e-02 1.056104938983118066e-02 3.557904658116818608e-02
3.670000000000000000e+04 2.118780770891100229e-02 1.067376086163490841e-02 3.532699456654135595e-02
3.680000000000000000e+04 2.134225602740240368e-02 1.045320739967940671e-02 3.508144721556978596e-02
3.690000000000000000e+04 2.109519486024302032e-02 1.054107815128892470e-02 3.471143715925588402e-02
3.700000000000000000e+04 2.550435830679601001e-02 1.268744443016476056e-02 4.192546548762807190e-02
3.710000000000000000e+04 3.327050094005033765e-02 1.666425036029854645e-02 5.440001045669955182e-02
3.720000000000000000e+04 2.646174613609155943e-02 1.330820662935987622e-02 4.363439750750507801e-02
3.730000000000000000e+04 3.384794209279982924e-02 1.704197334813239290e-02 5.515983971203348296e-02
3.740000000000000000e+04 2.560513329581572128e-02 1.268926809722179840e-02 4.207467762492884261e-02
3.750000000000000000e+04 2.054363613578067543e-02 1.018245109511642550e-02 3.426881183697045447e-02
3.760000000000000000e+04 3.717905061180009491e-02 2.182538934447244075e-02 5.375441744041797865e-02
3.770000000000000000e+04 4.144184406208548110e-02 2.548451754280817855e-02 5.814765146792219563e-02
3.780000000000000000e+04 2.156052069072583385e-02 1.052123882740887278e-02 3.532262649722860137e-02
3.790000000000000000e+04 1.973425111102277557e-02 9.738442948601310281e-03 3.280902597703597157e-02
3.800000000000000000e+04 1.967503816792428445e-02 9.742089422984110195e-03 3.280382690387004946e-02
3.810000000000000000e+04 1.970981083177430690e-02 9.800676550095730605e-03 3.209037810090659831e-02
3.820000000000000000e+04 2.150154251675250733e-02 1.070135214350524493e-02 3.560850244888882909e-02
3.830000000000000000e+04 2.361243997595956559e-02 1.177782063092057060e-02 3.873895258227233462e-02
3.840000000000000000e+04 2.178577647144548310e-02 1.096600497592089066e-02 3.550857922685133478e-02
3.850000000000000000e+04 2.029511071897283428e-02 1.018542127565389040e-02 3.308212791009623038e-02
3.860000000000000000e+04 1.906778995904378007e-02 9.430658727511130948e-03 3.163901292562029677e-02
3.870000000000000000e+04 1.864738518932648054e-02 9.299811817430779157e-03 3.043465108234275768e-02
3.880000000000000000e+04 1.836618463868312096e-02 9.224522351839417600e-03 3.038153744037306800e-02
3.890000000000000000e+04 1.849826529169528930e-02 9.182042035488221371e-03 3.062000805379371665e-02
3.900000000000000000e+04 1.869816646060708590e-02 9.359078676557830434e-03 3.112058585541518235e-02
3.910000000000000000e+04 2.039905409722996693e-02 1.024572718840098540e-02 3.352966323394895171e-02
3.920000000000000000e+04 4.057111629163126509e-02 2.500530906034286252e-02 5.651709355139639818e-02
3.930000000000000000e+04 3.794290737459802415e-02 2.252146351060331855e-02 5.423475936152094556e-02
3.940000000000000000e+04 1.936339175422355924e-02 9.693479766860501820e-03 3.192059715868395681e-02
3.950000000000000000e+04 1.818704597899811759e-02 9.062375115902772740e-03 2.956261635151243364e-02
3.960000000000000000e+04 1.781747635543296307e-02 8.998781188800517722e-03 2.934336982623170914e-02
3.970000000000000000e+04 1.774977516331286906e-02 8.833095358518778042e-03 2.922261308117312870e-02
3.980000000000000000e+04 1.788930349940914127e-02 8.902322624162824563e-03 2.935558388144705183e-02
3.990000000000000000e+04 1.772767054089519762e-02 8.626923257121556568e-03 2.941317500757861456e-02
4.000000000000000000e+04 1.757611003989583559e-02 8.812672680908923556e-03 2.907413028573697239e-02
4.010000000000000000e+04 1.733378559917565440e-02 8.654115017800083007e-03 2.888900876977980314e-02
4.020000000000000000e+04 1.783967815038840776e-02 8.897189887386041177e-03 2.901035731242427099e-02
4.030000000000000000e+04 1.749759693186443699e-02 8.733114214753066179e-03 2.899252089861135279e-02
4.040000000000000000e+04 1.739690075119164001e-02 8.592163758421133071e-03 2.863062301610240848e-02
4.050000000000000000e+04 1.722919427142412946e-02 8.655555804208644663e-03 2.820616492757140048e-02
4.060000000000000000e+04 1.716962538002397842e-02 8.571972306295428876e-03 2.810977525785209041e-02
4.070000000000000000e+04 1.740055008298221212e-02 8.585409566153999125e-03 2.821843363636581184e-02
4.080000000000000000e+04 1.710221204982812632e-02 8.655217969953372600e-03 2.779606741490752569e-02
4.090000000000000000e+04 2.206039110874653125e-02 1.130365677976595366e-02 3.485828032213469929e-02
4.100000000000000000e+04 4.303991140165778356e-02 2.947708581992939184e-02 5.716237633047804162e-02
4.110000000000000000e+04 2.956095737683799018e-02 1.712241580084530521e-02 4.317619994837688935e-02
4.120000000000000000e+04 1.657572123028778002e-02 8.234164278789221289e-03 2.706500891140191725e-02
4.130000000000000000e+04 1.630964230522238129e-02 8.167382494950017544e-03 2.686111956066575615e-02
4.140000000000000000e+04 1.649392547255438754e-02 8.252930214079242516e-03 2.668059873363673798e-02
4.150000000000000000e+04 1.632006871100996279e-02 8.082164949821332017e-03 2.679247093191572740e-02
4.160000000000000000e+04 1.627340135453749989e-02 8.093062107926110582e-03 2.678428063218509306e-02
4.170000000000000000e+04 1.626219525739231592e-02 8.230730094720599757e-03 2.675649787597113999e-02
4.180000000000000000e+04 1.633951401948829235e-02 8.064524583401030608e-03 2.667327970419257344e-02
4.190000000000000000e+04 1.609648931164621433e-02 7.955824025931651153e-03 2.642506770330198262e-02
4.200000000000000000e+04 1.589708381826507311e-02 7.974391598905245654e-03 2.629616392563431312e-02
4.210000000000000000e+04 1.594388012790817419e-02 8.082853942128435248e-03 2.602112861429899809e-02
4.220000000000000000e+04 1.580335740997911020e-02 7.978137749465319395e-03 2.581745764416396027e-02
4.230000000000000000e+04 1.581077253234820096e-02 7.856381847434370028e-03 2.588072972162605914e-02
4.240000000000000000e+04 1.570180135649371089e-02 7.845113081400118329e-03 2.554616285483220922e-02
4.250000000000000000e+04 1.562571957444563314e-02 7.745269275311822757e-03 2.556023553859989444e-02
4.260000000000000000e+04 1.568944641116849781e-02 7.982382170380639824e-03 2.577516077589229321e-02
4.270000000000000000e+04 1.588450374641272103e-02 7.892443389149475519e-03 2.583709571504189464e-02
4.280000000000000000e+04 1.577562168181527794e-02 7.911496130852999076e-03 2.565705647913299817e-02
4.290000000000000000e+04 1.551886326362577478e-02 7.842457256830172307e-03 2.554842760724291423e-02
4.300000000000000000e+04 1.537817298185627408e-02 7.667947567918828762e-03 2.529729045852004837e-02
4.310000000000000000e+04 1.548474099757009975e-02 7.576490946959521175e-03 2.522783349306479891e-02
4.320000000000000000e+04 1.548567537731005729e-02 7.765791645992808911e-03 2.523937316265879513e-02
4.330000000000000000e+04 1.529467803080876778e-02 7.693815078179178958e-03 2.527791760384807615e-02
4.340000000000000000e+04 1.525321982303293883e-02 7.543294740933900039e-03 2.492699813419959817e-02
4.350000000000000000e+04 1.508183386009198136e-02 7.686618841857098018e-03 2.476142745160092584e-02
4.360000000000000000e+04 1.497162760307362006e-02 7.384096953599334628e-03 2.449963255648923699e-02
4.370000000000000000e+04 1.504016767838120897e-02 7.364187404672498105e-03 2.452427166626230254e-02
4.380000000000000000e+04 1.498115213783823667e-02 7.498393885811819627e-03 2.464857073330060933e-02
4.390000000000000000e+04 1.536590547702804121e-02 7.801583781317183650e-03 2.521045338793503204e-02
4.400000000000000000e+04 1.545998767909485989e-02 7.697017684465280035e-03 2.513365370219431544e-02
4.410000000000000000e+04 1.545442379524850605e-02 7.540353064439399636e-03 2.507632885666541064e-02
4.420000000000000000e+04 1.967655714987909948e-02 9.762845417449152532e-03 3.219430818096868929e-02
4.430000000000000000e+04 2.045276874201079273e-02 1.007537508865876535e-02 3.382633234830690477e-02
4.440000000000000000e+04 1.533009368625985920e-02 7.726760167515886631e-03 2.514909827219609026e-02
4.450000000000000000e+04 1.459238349372900777e-02 7.388667184150269490e-03 2.402598781998527971e-02
4.460000000000000000e+04 1.484986265770591590e-02 7.386874557879822070e-03 2.411836060381944424e-02
4.470000000000000000e+04 1.469925565740231622e-02 7.247266708698928139e-03 2.418278049962112666e-02
4.480000000000000000e+04 1.463606757374631001e-02 7.332548644042868879e-03 2.402354630087604956e-02
4.490000000000000000e+04 1.457510527429528926e-02 7.284774287180955168e-03 2.405677783253992383e-02
4.500000000000000000e+04 1.467829579977132474e-02 7.470304173923403117e-03 2.391419075571096092e-02
4.510000000000000000e+04 1.466175305634213021e-02 7.406593849542380398e-03 2.403241610470090855e-02
4.520000000000000000e+04 1.460626524398476317e-02 7.383645470736606257e-03 2.344046687674974233e-02
4.530000000000000000e+04 2.102700413322489137e-02 1.036970146742255926e-02 3.442424501270059667e-02
4.540000000000000000e+04 4.486911986922532958e-02 2.249984255834862681e-02 7.250057573077510475e-02
4.550000000000000000e+04 4.644829773267005607e-02 2.358026837422371944e-02 7.499169075886434610e-02
4.560000000000000000e+04 2.303707911156954724e-02 1.177879457941492618e-02 3.764667184595390376e-02
4.570000000000000000e+04 1.445421040345145659e-02 7.160970041848778792e-03 2.356024185938450713e-02
4.580000000000000000e+04 1.421737531166466194e-02 7.160469923640546026e-03 2.309368694938361208e-02
4.590000000000000000e+04 1.405621806601768144e-02 7.032069282809795714e-03 2.305788117787735403e-02
4.600000000000000000e+04 1.435457183469161964e-02 7.115477399432447447e-03 2.354523802401414095e-02
4.610000000000000000e+04 1.457979151092130866e-02 7.282958621874198804e-03 2.385143690945207284e-02
4.620000000000000000e+04 1.434596036884072494e-02 7.090387359986329019e-03 2.326307211255350046e-02
4.630000000000000000e+04 1.480908181728462537e-02 7.311662137523246285e-03 2.455381874486935526e-02
4.640000000000000000e+04 2.189376570388348181e-02 1.059605035280944754e-02 3.803271832117480211e-02
4.650000000000000000e+04 3.887324787321442404e-02 1.973185901621870783e-02 5.607004003586980173e-02
4.660000000000000000e+04 2.529635014124913955e-02 1.309228228836488428e-02 3.927069791719670772e-02
4.670000000000000000e+04 1.437105855756345106e-02 7.233733707571547364e-03 2.339539343493447082e-02
4.680000000000000000e+04 1.410331379434653053e-02 7.026656267349485480e-03 2.298492786030001400e-02
4.690000000000000000e+04 1.443046167932564815e-02 7.244679165034390196e-03 2.377747381138703778e-02
4.700000000000000000e+04 3.327439439207956901e-02 1.656968585784757489e-02 5.372326576642946078e-02
4.710000000000000000e+04 1.030160234673651726e-01 5.081917322622007960e-02 1.664804335208230623e-01
4.720000000000000000e+04 9.923552047199443726e-02 4.970410365166198080e-02 1.620949941034956765e-01
4.730000000000000000e+04 1.119532343137914498e-01 5.537564623769235250e-02 1.836393026442234566e-01
4.740000000000000000e+04 5.638961184194919013e-02 2.784588979769747619e-02 9.301897248674344254e-02
4.750000000000000000e+04 1.428773332133509953e-02 7.071350518564014330e-03 2.284560113496943504e-02
4.760000000000000000e+04 1.382895160731269571e-02 6.988986014904594035e-03 2.261686584573202596e-02
4.770000000000000000e+04 1.372002628026436528e-02 6.915619930759250508e-03 2.249914905173354407e-02
4.780000000000000000e+04 1.374165998278500424e-02 6.886685069519947987e-03 2.232968349621093293e-02
4.790000000000000000e+04 1.370572949207329687e-02 6.842654765930554321e-03 2.239872347605752906e-02
4.800000000000000000e+04 1.601822215172651193e-02 8.166533824078902465e-03 2.583117830234098536e-02
4.810000000000000000e+04 1.952973093243666469e-02 1.027715016285176558e-02 2.997584902120183775e-02
4.820000000000000000e+04 1.467937450856989477e-02 7.320252753175558562e-03 2.397787036196816907e-02
4.830000000000000000e+04 1.395259633059147374e-02 7.028776106732272794e-03 2.255390067383958308e-02
4.840000000000000000e+04 3.128293248621268757e-02 2.030782372144629422e-02 4.265255229652842317e-02
4.850000000000000000e+04 6.146662903351692714e-02 4.991170669360812939e-02 7.287457681574023571e-02
4.860000000000000000e+04 3.350086697877553699e-02 2.250112914946596210e-02 4.512782042688541495e-02
4.870000000000000000e+04 1.383375097653267993e-02 7.056950995734875831e-03 2.262250086604059018e-02
4.880000000000000000e+04 1.381560039484902754e-02 6.941064224445983762e-03 2.253624639116031184e-02
4.890000000000000000e+04 1.567833948091209781e-02 7.750526583209980946e-03 2.557321412834978255e-02
4.900000000000000000e+04 2.187604112645020679e-02 1.094602906547388101e-02 3.553428872739733402e-02
4.910000000000000000e+04 1.839162148942847033e-02 9.320763092542450404e-03 3.002766804663873149e-02
4.920000000000000000e+04 2.757752326470300219e-02 1.367317879257416019e-02 4.459050856213125913e-02
4.930000000000000000e+04 2.509028029678927324e-02 1.257248014222817588e-02 4.101168789574642648e-02
4.940000000000000000e+04 1.419891703754917744e-02 7.149611467770169981e-03 2.327083422028150897e-02
4.950000000000000000e+04 1.486605162866071368e-02 7.479131864380960878e-03 2.405786158841279401e-02
4.960000000000000000e+04 3.663728190391866285e-02 2.377061016579313721e-02 4.997761008368711150e-02
4.970000000000000000e+04 5.256887407868137546e-02 4.093084371054104414e-02 6.445668449222424767e-02
4.980000000000000000e+04 2.266586160775920650e-02 1.217252889210445992e-02 3.390119362116307544e-02
4.990000000000000000e+04 1.385383940149226972e-02 6.934011764083983058e-03 2.243063196297709685e-02
5.000000000000000000e+04 1.363830768509842820e-02 6.821517377352344716e-03 2.247586964326125231e-02
5.010000000000000000e+04 1.362016434394486275e-02 6.856683776961260655e-03 2.224566415715522466e-02
5.020000000000000000e+04 1.353446225697590814e-02 6.726315359963114943e-03 2.212983892203155764e-02
5.030000000000000000e+04 1.371308875337283809e-02 6.723195171865896033e-03 2.229231425384981674e-02
5.040000000000000000e+04 1.366755037587951901e-02 6.917386673604468406e-03 2.232785587778143496e-02
5.050000000000000000e+04 1.373413732930037733e-02 6.824645252032732201e-03 2.224987711655555464e-02
5.060000000000000000e+04 1.361364526605716475e-02 6.862175335074690088e-03 2.208312281101190017e-02
5.070000000000000000e+04 1.369152477188054218e-02 6.606706265212205012e-03 2.203171518410921778e-02
5.080000000000000000e+04 1.348097992073049069e-02 6.841439345514875765e-03 2.200984646428577260e-02
5.090000000000000000e+04 1.353250680691000206e-02 6.771662727760259515e-03 2.217936585853210602e-02
5.100000000000000000e+04 1.363645388601797924e-02 6.607338617876257897e-03 2.237259961203623068e-02
5.110000000000000000e+04 1.363970624029960457e-02 6.807441768117209607e-03 2.223624720425769821e-02
5.120000000000000000e+04 1.359355873845773457e-02 6.811358717992942874e-03 2.233210338152599034e-02
5.130000000000000000e+04 1.350909474510636650e-02 6.556287514660289265e-03 2.204307690771744807e-02
5.140000000000000000e+04 1.341079838541000754e-02 6.712654571791425162e-03 2.203590481918499266e-02
5.150000000000000000e+04 1.360957389572988417e-02 6.726616960923722903e-03 2.224757050067853112e-02
5.160000000000000000e+04 1.346744256465819828e-02 6.809898427673797411e-03 2.200966851796475401e-02
5.170000000000000000e+04 1.340084308953217937e-02 6.678255858153296816e-03 2.196434220914646532e-02
5.180000000000000000e+04 1.351059580443460598e-02 6.743761844957740954e-03 2.185986904431384478e-02
5.190000000000000000e+04 1.357435797481489244e-02 6.729340298571613935e-03 2.200538032085687379e-02
5.200000000000000000e+04 1.354738980475058731e-02 6.712493259352556724e-03 2.195309398933972117e-02
5.210000000000000000e+04 1.347243488696423137e-02 6.930561958628086647e-03 2.173321954865096647e-02
5.220000000000000000e+04 1.354450435826676929e-02 6.731596700251215801e-03 2.174331203414203717e-02
5.230000000000000000e+04 1.371844506107108667e-02 6.807075362981796635e-03 2.213651833695811158e-02
5.240000000000000000e+04 1.462159394298105826e-02 7.267180666525646128e-03 2.375666504460403894e-02
5.250000000000000000e+04 1.527238589889461443e-02 7.546270349416596239e-03 2.512605375607105535e-02
5.260000000000000000e+04 1.391028402988100758e-02 6.897298384139952977e-03 2.279545156017594512e-02
5.270000000000000000e+04 1.367084596312100921e-02 6.882541306054215657e-03 2.238926302514280403e-02
5.280000000000000000e+04 1.380207183703523362e-02 6.826044274397090848e-03 2.238206537291946921e-02
5.290000000000000000e+04 1.396368437697966501e-02 7.024827873493185749e-03 2.273198983524314307e-02
5.300000000000000000e+04 1.419715494615402321e-02 7.158056157888348543e-03 2.303944139459010443e-02
5.310000000000000000e+04 1.432324682669353089e-02 7.196255303520899746e-03 2.320933557470970104e-02
5.320000000000000000e+04 1.436511881821514111e-02 7.115961320064035679e-03 2.357552545369559147e-02
5.330000000000000000e+04 1.460077350850104080e-02 7.248703803336946014e-03 2.351941755497028927e-02
5.340000000000000000e+04 1.443164448487397819e-02 7.167563399111526005e-03 2.356585598336681867e-02
5.350000000000000000e+04 1.423365302896781835e-02 7.128690875669419814e-03 2.328880675828833013e-02
5.360000000000000000e+04 1.427030185862132421e-02 7.178524129189479790e-03 2.347416328477597292e-02
5.370000000000000000e+04 1.458453268113589149e-02 7.312056367055022599e-03 2.372136646639503091e-02
5.380000000000000000e+04 1.478700852824437612e-02 7.314827138740446523e-03 2.391319418578012959e-02
5.390000000000000000e+04 1.491646880330159235e-02 7.308882128672350605e-03 2.409797630692880194e-02
5.400000000000000000e+04 1.494214284185413529e-02 7.359575084509596514e-03 2.422145277532480531e-02
5.410000000000000000e+04 1.540981772229388889e-02 7.815057314988348158e-03 2.508147135039103318e-02
5.420000000000000000e+04 1.876596791718831286e-02 9.454322786548036150e-03 2.984478534182369303e-02
5.430000000000000000e+04 1.678825603433585154e-02 8.252403906606654502e-03 2.720429471609869115e-02
5.440000000000000000e+04 1.511965931591787056e-02 7.705788239579879247e-03 2.461378953737369465e-02
5.450000000000000000e+04 1.507590756340121234e-02 7.445522611316630554e-03 2.475975791915003763e-02
5.460000000000000000e+04 1.650194193875740081e-02 8.380852102221121591e-03 2.649664091772087338e-02
5.470000000000000000e+04 2.891158148066284503e-02 1.643501301694066941e-02 4.182717102519436375e-02
5.480000000000000000e+04 2.788223596697507467e-02 1.619966545751430273e-02 4.047125373849742164e-02
5.490000000000000000e+04 1.676176015816907908e-02 8.364380995733703208e-03 2.741166887469685329e-02
5.500000000000000000e+04 2.724741034659557831e-02 1.342865342776302859e-02 4.417845216435657696e-02
5.510000000000000000e+04 1.656643706123586690e-01 8.320372063207319424e-02 2.661566716683410605e-01
5.520000000000000000e+04 2.082018646670334705e-01 1.044064396481213242e-01 3.350349868699196709e-01
5.530000000000000000e+04 6.300523194515394998e-02 3.141519583759296019e-02 1.034836348128909955e-01
5.540000000000000000e+04 2.056272668916116209e-02 1.023692028211973908e-02 3.373536071748692300e-02
5.550000000000000000e+04 1.995803470815571412e-01 9.806002945545409799e-02 3.069785155156423695e-01
5.560000000000000000e+04 4.385151324550337626e-01 2.234876544250608832e-01 6.855371087061931101e-01
5.570000000000000000e+04 3.648022128652868012e-01 1.816428554407559792e-01 5.866885601619095114e-01
5.580000000000000000e+04 9.792745579116966803e-02 4.804533643035852064e-02 1.583822673247599622e-01
5.590000000000000000e+04 2.620695526339335557e-01 2.366209385145402189e-01 2.849980035998762040e-01
5.600000000000000000e+04 4.432345458145993677e-01 4.281443795290961751e-01 4.579521717933312530e-01
5.610000000000000000e+04 1.865156891448289944e-01 1.657160818851380613e-01 2.107247422404232018e-01
5.620000000000000000e+04 1.922015864764929638e-02 9.650276145966337274e-03 3.148963941841263769e-02
5.630000000000000000e+04 1.841382161788900768e-02 9.226520832514505457e-03 3.061700937045242973e-02
5.640000000000000000e+04 1.836044216047613004e-02 9.045779199863469844e-03 3.043249831895112473e-02
5.650000000000000000e+04 2.338858934690561317e-02 1.192356596629869613e-02 3.684512230521011511e-02
5.660000000000000000e+04 2.950179336051669127e-02 1.629523887719247152e-02 4.400970558373969860e-02
5.670000000000000000e+04 2.203109494755251668e-02 1.109012083795719687e-02 3.506000798287079584e-02
5.680000000000000000e+04 1.909937334533265418e-02 9.478225206479656134e-03 3.129708303994307300e-02
5.690000000000000000e+04 2.564555148050753561e-02 1.271264481720724496e-02 4.224258859598017252e-02
5.700000000000000000e+04 2.607778914995570810e-02 1.324767915407205204e-02 4.277278835064259738e-02
5.710000000000000000e+04 2.109372484865462347e-02 1.033415281403258015e-02 3.507695362362313329e-02
5.720000000000000000e+04 2.157074974966812289e-02 1.055764414556808160e-02 3.660210380703669136e-02
5.730000000000000000e+04 2.250970269205855578e-02 1.087408903201450561e-02 3.908147427698312193e-02
5.740000000000000000e+04 2.382683884709614619e-02 1.150222365920191767e-02 4.164082746908214644e-02
5.750000000000000000e+04 2.489594878796698094e-02 1.218927656960060515e-02 4.408323680040964615e-02
5.760000000000000000e+04 2.621266507025183518e-02 1.255203654750481831e-02 4.725490564753710016e-02
5.770000000000000000e+04 2.783305193528225197e-02 1.353568202603480132e-02 4.979287767700611017e-02
5.780000000000000000e+04 2.976060846520119790e-02 1.402775200116094211e-02 5.270039098831760804e-02
5.790000000000000000e+04 3.076669041683333453e-02 1.463648047232539787e-02 5.566619347734790696e-02
5.800000000000000000e+04 3.231247175214527895e-02 1.514861134759719861e-02 5.933796248174824650e-02
5.810000000000000000e+04 3.391836765650730473e-02 1.576673851817122010e-02 6.315355954921150761e-02
5.820000000000000000e+04 3.584143377364625710e-02 1.666064914395006674e-02 6.712954217269488655e-02
5.830000000000000000e+04 3.746352421521682158e-02 1.711122740894223046e-02 7.170215556638999399e-02
5.840000000000000000e+04 4.007815204135040804e-02 1.815862411676801361e-02 7.485667874095157381e-02
5.850000000000000000e+04 4.167689315237127490e-02 1.915597983290516851e-02 7.830220262641356122e-02
5.860000000000000000e+04 4.374196508882195744e-02 1.985117348661954301e-02 8.189637108032102319e-02
5.870000000000000000e+04 4.530999819298415360e-02 2.104702278839964275e-02 8.423201044454686759e-02
5.880000000000000000e+04 4.613491929860633750e-02 2.107433622506125689e-02 8.490661655488690451e-02
5.890000000000000000e+04 4.757985065040056666e-02 2.155188681395841382e-02 8.618301532489962280e-02
5.900000000000000000e+04 4.865392616242232571e-02 2.287549864776040887e-02 8.890257877046432722e-02
5.910000000000000000e+04 5.099590093507837263e-02 2.362712002080170209e-02 9.199121549425831601e-02
5.920000000000000000e+04 5.217442909101679266e-02 2.405432175205736087e-02 9.318421999817316781e-02
5.930000000000000000e+04 5.430852198252130586e-02 2.519465402996593981e-02 9.570116034087075563e-02
5.940000000000000000e+04 5.785699786827459834e-02 2.716034118897963853e-02 1.006054080512937959e-01
5.950000000000000000e+04 6.061418901504538742e-02 2.879821606618540239e-02 1.037553730179935629e-01
5.960000000000000000e+04 6.111017827696415411e-02 2.917754675391596303e-02 1.047755021718757423e-01
5.970000000000000000e+04 6.094810829421980214e-02 2.900890969905179848e-02 1.044367834061282335e-01
5.980000000000000000e+04 6.154330336245242977e-02 2.979772792716650978e-02 1.025321237770277644e-01
5.990000000000000000e+04 6.217136916336862135e-02 2.978196492771229345e-02 1.035182512913708081e-01
6.000000000000000000e+04 6.229777440315035358e-02 3.048488096963669625e-02 1.032587599959042535e-01
6.010000000000000000e+04 6.229402465571846903e-02 3.114934826482735480e-02 1.029388743326247607e-01
6.020000000000000000e+04 6.360454634894625869e-02 3.150016518678092070e-02 1.055344539811074733e-01
6.030000000000000000e+04 6.672003146881977376e-02 3.346941906585479409e-02 1.093256365910526412e-01
6.040000000000000000e+04 7.076108438336840833e-02 3.456182747921190263e-02 1.152223338450224926e-01
6.050000000000000000e+04 7.286512280546621201e-02 3.590909337338799023e-02 1.195634669066160949e-01
6.060000000000000000e+04 7.607650900755488776e-02 3.765666661509398105e-02 1.230466331541810177e-01
6.070000000000000000e+04 7.843873934030676232e-02 3.898958683897379984e-02 1.299235252439219779e-01
6.080000000000000000e+04 8.142234721331557956e-02 4.062952776184736853e-02 1.345555074763937209e-01
6.090000000000000000e+04 8.433970619764837029e-02 4.181059695749460292e-02 1.369987280735117385e-01
6.100000000000000000e+04 8.488612148490733145e-02 4.215005353924122788e-02 1.400444120853954200e-01
6.110000000000000000e+04 8.425639344731453151e-02 4.059233537185324980e-02 1.443323603011647804e-01
6.120000000000000000e+04 8.689621098819029499e-02 4.239309483068229301e-02 1.457553076031753991e-01
6.130000000000000000e+04 8.905659040533962789e-02 4.371442451649387023e-02 1.449211996919760603e-01
6.140000000000000000e+04 8.969265102492304798e-02 4.430078214474260367e-02 1.455836193880261920e-01
6.150000000000000000e+04 8.917951331731557851e-02 4.448606426091419180e-02 1.472410631807359038e-01
6.160000000000000000e+04 8.671494898762578674e-02 4.272097245326704484e-02 1.459824902515769462e-01
6.170000000000000000e+04 8.821728371815142078e-02 4.390489350457368184e-02 1.428283246500658410e-01
6.180000000000000000e+04 8.864919361010759058e-02 4.519341916369368217e-02 1.425783711655224384e-01
6.190000000000000000e+04 8.676305529321430565e-02 4.302234123148607203e-02 1.411911373946183323e-01
6.200000000000000000e+04 8.174643395931918688e-02 4.010618423637808683e-02 1.381578465273932133e-01
6.210000000000000000e+04 8.008044210293696619e-02 3.877607423099695139e-02 1.353592232143761009e-01
6.220000000000000000e+04 8.119031229980108733e-02 3.996936457556374972e-02 1.346085104905310748e-01
6.230000000000000000e+04 7.989683988237268608e-02 4.077015076671968580e-02 1.322149451182993152e-01
6.240000000000000000e+04 7.893837284987825775e-02 3.847524299108408263e-02 1.321181529057815218e-01
6.250000000000000000e+04 4.559077753570121849e-02 1.353424957865049377e-02 9.722190772982433615e-02
