# North DC Val: 0.83508729 VoltsSouth DC Val: 0.5719140300000001 Volts
# SR785 Measurement - Timestamp: May 03 2020 - 00:22:55
# Parameter File: /home/controls/Git/cit_ctnlab/ctn_scripts/TransRINSpecLong.yml
#---------- Measurement Setup ------------
# Start Frequency (Hz): 0.000000
# Frequency Span (Hz): 800.000000
# Frequency Resolution: 800
# Number of Averages: 100
# Averaging Mode: RMS
# Window function: Hanning
#---------- Measurement Parameters ----------
# Measurement Group:  "FFT" "FFT"
# Measurements:  "FFT 1" "FFT 2"
# View:  "Log Magnitude" "Log Magnitude"
# Unit:  "Vrms/rtHz" "Vrms/rtHz"
#---------- Input Parameters ----------
# Input Source: Analog
# Input Mode: Single ended, Single ended
# Input Grounding: Float, Float
# Input Coupling: AC, AC
# Input Range: -36.0dBVpk, -36.0dBVpk
# Auto Range: Off, Off
# Auto Range Mode: Tracking, Tracking
# Anti-Aliasing Filter: On, On
#---------- Source Parameters ----------
# Source Type: Sine
# Source Amplitude: 500.0mVpk
# Source On: 0

#---------- Measurement Data ----------
# [Freq(Hz) Display 0(Vrms/rtHz) Display 1(Vrms/rtHz) ]
+0.0000000e+000    +1.8115386e-003    +3.7896365e-004
+1.0000000e+000    +1.3278562e-003    +3.0778733e-004
+2.0000000e+000    +6.1637600e-004    +1.7727411e-004
+3.0000000e+000    +3.8249278e-004    +1.0544488e-004
+4.0000000e+000    +1.9705734e-004    +6.5510350e-005
+5.0000000e+000    +1.1713450e-004    +4.3390144e-005
+6.0000000e+000    +9.1784030e-005    +3.3738834e-005
+7.0000000e+000    +8.2625345e-005    +2.3439785e-005
+8.0000000e+000    +6.9883805e-005    +1.6394488e-005
+9.0000000e+000    +5.2591065e-005    +1.1890121e-005
+1.0000000e+001    +5.0911367e-005    +9.9546260e-006
+1.1000000e+001    +4.3662643e-005    +8.4078138e-006
+1.2000000e+001    +3.6152862e-005    +7.4647769e-006
+1.3000000e+001    +3.3853754e-005    +5.9328640e-006
+1.4000000e+001    +2.9231162e-005    +4.7659473e-006
+1.5000000e+001    +2.4031728e-005    +3.9797292e-006
+1.6000000e+001    +2.3933588e-005    +3.4437539e-006
+1.7000000e+001    +1.9881276e-005    +3.4618790e-006
+1.8000000e+001    +1.7942280e-005    +2.8931024e-006
+1.9000000e+001    +1.7093313e-005    +2.2061188e-006
+2.0000000e+001    +1.5008613e-005    +2.0362527e-006
+2.1000000e+001    +1.4180917e-005    +1.8560269e-006
+2.2000000e+001    +1.2124477e-005    +1.6128587e-006
+2.3000000e+001    +1.2309515e-005    +1.4070398e-006
+2.4000000e+001    +1.1512247e-005    +1.2896453e-006
+2.5000000e+001    +1.2490149e-005    +1.2433914e-006
+2.6000000e+001    +1.1919334e-005    +1.0576153e-006
+2.7000000e+001    +1.0530570e-005    +9.0716128e-007
+2.8000000e+001    +1.0279736e-005    +8.2695050e-007
+2.9000000e+001    +8.6157615e-006    +8.0122538e-007
+3.0000000e+001    +8.0778127e-006    +7.8041808e-007
+3.1000000e+001    +8.0858435e-006    +7.2813543e-007
+3.2000000e+001    +7.6679089e-006    +6.4588033e-007
+3.3000000e+001    +7.1974191e-006    +5.2453993e-007
+3.4000000e+001    +6.4826531e-006    +5.0974739e-007
+3.5000000e+001    +6.0721950e-006    +4.7898317e-007
+3.6000000e+001    +6.1771707e-006    +4.5080017e-007
+3.7000000e+001    +5.6856770e-006    +4.2417201e-007
+3.8000000e+001    +5.8004998e-006    +4.0932761e-007
+3.9000000e+001    +5.9844306e-006    +4.0384572e-007
+4.0000000e+001    +5.3732965e-006    +3.7320757e-007
+4.1000000e+001    +4.5529937e-006    +3.6014512e-007
+4.2000000e+001    +4.5226070e-006    +3.1313928e-007
+4.3000000e+001    +4.3923587e-006    +2.5104120e-007
+4.4000000e+001    +3.6511240e-006    +2.7819803e-007
+4.5000000e+001    +3.2830415e-006    +2.7683268e-007
+4.6000000e+001    +3.2443411e-006    +2.1365115e-007
+4.7000000e+001    +3.4922944e-006    +1.9312695e-007
+4.8000000e+001    +3.5610733e-006    +2.0217523e-007
+4.9000000e+001    +3.0046353e-006    +1.8183957e-007
+5.0000000e+001    +2.5556967e-006    +1.7722857e-007
+5.1000000e+001    +2.5431900e-006    +1.7956076e-007
+5.2000000e+001    +2.4085509e-006    +1.6785383e-007
+5.3000000e+001    +2.2025947e-006    +1.5782661e-007
+5.4000000e+001    +2.1451992e-006    +1.5209721e-007
+5.5000000e+001    +2.1377880e-006    +1.3818411e-007
+5.6000000e+001    +2.0232890e-006    +1.3622829e-007
+5.7000000e+001    +1.8910038e-006    +1.3876551e-007
+5.8000000e+001    +1.8096838e-006    +1.1944593e-007
+5.9000000e+001    +1.5415523e-006    +1.3034551e-007
+6.0000000e+001    +1.3482525e-006    +1.4387591e-007
+6.1000000e+001    +1.4983488e-006    +1.0269064e-007
+6.2000000e+001    +1.5661360e-006    +1.0486184e-007
+6.3000000e+001    +1.3372588e-006    +1.0101458e-007
+6.4000000e+001    +1.3986008e-006    +9.4444530e-008
+6.5000000e+001    +1.5020796e-006    +9.6951837e-008
+6.6000000e+001    +1.4698001e-006    +8.5809162e-008
+6.7000000e+001    +1.3672924e-006    +7.7056512e-008
+6.8000000e+001    +1.4937478e-006    +7.9497582e-008
+6.9000000e+001    +1.5491348e-006    +8.2010395e-008
+7.0000000e+001    +1.4769697e-006    +7.9727556e-008
+7.1000000e+001    +1.3869148e-006    +7.2385419e-008
+7.2000000e+001    +1.4406828e-006    +6.8016220e-008
+7.3000000e+001    +1.4267798e-006    +6.5009857e-008
+7.4000000e+001    +1.3089451e-006    +6.4361011e-008
+7.5000000e+001    +1.1799657e-006    +6.7749617e-008
+7.6000000e+001    +1.2108300e-006    +6.7467397e-008
+7.7000000e+001    +1.2269696e-006    +6.2515831e-008
+7.8000000e+001    +1.0379165e-006    +6.2951557e-008
+7.9000000e+001    +1.0897953e-006    +5.4638079e-008
+8.0000000e+001    +1.0976610e-006    +5.1320448e-008
+8.1000000e+001    +1.1257010e-006    +5.4453981e-008
+8.2000000e+001    +1.0754034e-006    +5.5513681e-008
+8.3000000e+001    +9.9097736e-007    +5.5713350e-008
+8.4000000e+001    +9.1649594e-007    +5.0720999e-008
+8.5000000e+001    +8.0419289e-007    +4.9375824e-008
+8.6000000e+001    +7.3961900e-007    +5.0286541e-008
+8.7000000e+001    +7.5737603e-007    +5.1054670e-008
+8.8000000e+001    +7.1875399e-007    +5.1173085e-008
+8.9000000e+001    +7.0867821e-007    +4.7970211e-008
+9.0000000e+001    +7.1784308e-007    +4.4139494e-008
+9.1000000e+001    +6.6419437e-007    +4.0934065e-008
+9.2000000e+001    +6.2231283e-007    +4.4427480e-008
+9.3000000e+001    +6.3519769e-007    +4.7755801e-008
+9.4000000e+001    +6.3233563e-007    +4.5866610e-008
+9.5000000e+001    +5.9806797e-007    +4.5456162e-008
+9.6000000e+001    +6.0538684e-007    +4.9081677e-008
+9.7000000e+001    +6.1345901e-007    +4.6300688e-008
+9.8000000e+001    +5.2921405e-007    +3.9701494e-008
+9.9000000e+001    +5.0787258e-007    +4.1584070e-008
+1.0000000e+002    +4.6558020e-007    +4.5331760e-008
+1.0100000e+002    +4.4890550e-007    +4.7999610e-008
+1.0200000e+002    +4.1832456e-007    +4.2206430e-008
+1.0300000e+002    +4.3429228e-007    +4.1452694e-008
+1.0400000e+002    +4.0012813e-007    +4.1258172e-008
+1.0500000e+002    +4.0995505e-007    +3.9860701e-008
+1.0600000e+002    +3.5343908e-007    +4.2228958e-008
+1.0700000e+002    +3.6854672e-007    +4.1628795e-008
+1.0800000e+002    +3.7082665e-007    +3.9392727e-008
+1.0900000e+002    +3.6570054e-007    +4.0984748e-008
+1.1000000e+002    +3.4585167e-007    +4.1175042e-008
+1.1100000e+002    +3.4186638e-007    +3.8545082e-008
+1.1200000e+002    +3.2250668e-007    +4.3286885e-008
+1.1300000e+002    +2.9609740e-007    +4.3122661e-008
+1.1400000e+002    +2.9137914e-007    +4.1661714e-008
+1.1500000e+002    +3.1188139e-007    +3.7552912e-008
+1.1600000e+002    +3.2940468e-007    +3.7137632e-008
+1.1700000e+002    +3.0744215e-007    +4.0510074e-008
+1.1800000e+002    +2.7572608e-007    +4.4799460e-008
+1.1900000e+002    +6.8025935e-007    +4.3672472e-008
+1.2000000e+002    +1.4293073e-006    +4.1882366e-008
+1.2100000e+002    +7.9509101e-007    +4.0612456e-008
+1.2200000e+002    +2.5133215e-007    +4.1094015e-008
+1.2300000e+002    +2.7107069e-007    +3.9207574e-008
+1.2400000e+002    +2.6823469e-007    +3.9230653e-008
+1.2500000e+002    +2.5483052e-007    +4.0510518e-008
+1.2600000e+002    +2.3580596e-007    +3.7097163e-008
+1.2700000e+002    +2.2774685e-007    +3.7977795e-008
+1.2800000e+002    +2.1050930e-007    +3.9126125e-008
+1.2900000e+002    +2.1823237e-007    +3.7503220e-008
+1.3000000e+002    +2.1700781e-007    +3.9001101e-008
+1.3100000e+002    +2.0775096e-007    +3.6184154e-008
+1.3200000e+002    +2.0975692e-007    +3.4832606e-008
+1.3300000e+002    +2.1022289e-007    +3.6323669e-008
+1.3400000e+002    +2.2607861e-007    +3.7378825e-008
+1.3500000e+002    +2.5141384e-007    +3.7387363e-008
+1.3600000e+002    +2.6989616e-007    +3.6761357e-008
+1.3700000e+002    +2.6617869e-007    +3.7405755e-008
+1.3800000e+002    +3.1752376e-007    +3.7566519e-008
+1.3900000e+002    +4.0268523e-007    +3.7363190e-008
+1.4000000e+002    +4.9889212e-007    +3.9756195e-008
+1.4100000e+002    +6.5914026e-007    +3.8530697e-008
+1.4200000e+002    +9.9453723e-007    +3.8283375e-008
+1.4300000e+002    +1.5222269e-006    +3.8992578e-008
+1.4400000e+002    +1.8269208e-006    +3.9005467e-008
+1.4500000e+002    +1.5041360e-006    +3.6273256e-008
+1.4600000e+002    +1.0588411e-006    +3.6220243e-008
+1.4700000e+002    +6.7601383e-007    +3.3515974e-008
+1.4800000e+002    +5.2112318e-007    +3.2145355e-008
+1.4900000e+002    +3.8424909e-007    +3.3717242e-008
+1.5000000e+002    +2.9582085e-007    +3.2984765e-008
+1.5100000e+002    +2.4611688e-007    +3.5044359e-008
+1.5200000e+002    +2.0237067e-007    +3.5824620e-008
+1.5300000e+002    +1.7966745e-007    +3.5301209e-008
+1.5400000e+002    +1.9721611e-007    +3.6006092e-008
+1.5500000e+002    +1.9502727e-007    +3.8529510e-008
+1.5600000e+002    +2.1101400e-007    +3.8647041e-008
+1.5700000e+002    +2.0602957e-007    +3.3627920e-008
+1.5800000e+002    +1.7956923e-007    +3.3241005e-008
+1.5900000e+002    +1.7483066e-007    +3.7199133e-008
+1.6000000e+002    +1.5578115e-007    +3.6750382e-008
+1.6100000e+002    +1.4654847e-007    +3.6621163e-008
+1.6200000e+002    +1.3900187e-007    +3.4985732e-008
+1.6300000e+002    +1.3261581e-007    +3.7199417e-008
+1.6400000e+002    +1.2486707e-007    +3.9740485e-008
+1.6500000e+002    +1.1940685e-007    +3.5262314e-008
+1.6600000e+002    +1.1191092e-007    +3.5657408e-008
+1.6700000e+002    +1.0535172e-007    +3.6763051e-008
+1.6800000e+002    +1.0771180e-007    +3.5494253e-008
+1.6900000e+002    +1.0451173e-007    +3.3379397e-008
+1.7000000e+002    +9.4243987e-008    +3.3186524e-008
+1.7100000e+002    +8.2851273e-008    +3.5121513e-008
+1.7200000e+002    +9.3252254e-008    +3.4485971e-008
+1.7300000e+002    +8.7203063e-008    +3.3683943e-008
+1.7400000e+002    +7.9379568e-008    +3.3532061e-008
+1.7500000e+002    +8.2112841e-008    +3.5578569e-008
+1.7600000e+002    +7.8930775e-008    +3.5207769e-008
+1.7700000e+002    +8.5449173e-008    +3.5555217e-008
+1.7800000e+002    +7.8976285e-008    +3.7197335e-008
+1.7900000e+002    +2.3453404e-007    +5.7223204e-008
+1.8000000e+002    +4.7716333e-007    +1.0228330e-007
+1.8100000e+002    +2.6292926e-007    +6.0632409e-008
+1.8200000e+002    +8.2539032e-008    +3.4841865e-008
+1.8300000e+002    +7.9880373e-008    +3.4809364e-008
+1.8400000e+002    +7.5603012e-008    +3.4234418e-008
+1.8500000e+002    +7.8515370e-008    +3.4820371e-008
+1.8600000e+002    +8.7283716e-008    +3.3099770e-008
+1.8700000e+002    +8.0438362e-008    +3.3915512e-008
+1.8800000e+002    +7.9413049e-008    +3.6369443e-008
+1.8900000e+002    +7.7078177e-008    +3.3999175e-008
+1.9000000e+002    +8.1121563e-008    +3.1629998e-008
+1.9100000e+002    +8.7627285e-008    +3.2696740e-008
+1.9200000e+002    +8.5333383e-008    +3.2448721e-008
+1.9300000e+002    +7.7131169e-008    +3.2696882e-008
+1.9400000e+002    +7.8078486e-008    +3.3018463e-008
+1.9500000e+002    +7.1212419e-008    +3.4934832e-008
+1.9600000e+002    +7.2403857e-008    +3.5209624e-008
+1.9700000e+002    +8.1699433e-008    +3.5135862e-008
+1.9800000e+002    +7.6836351e-008    +3.7094679e-008
+1.9900000e+002    +7.1789586e-008    +3.7073871e-008
+2.0000000e+002    +7.1444781e-008    +3.7700936e-008
+2.0100000e+002    +7.0610660e-008    +3.6215155e-008
+2.0200000e+002    +7.6320688e-008    +3.5550766e-008
+2.0300000e+002    +7.2194211e-008    +3.3949863e-008
+2.0400000e+002    +7.4509956e-008    +3.5048476e-008
+2.0500000e+002    +7.4375585e-008    +3.5172956e-008
+2.0600000e+002    +6.8413023e-008    +3.4957239e-008
+2.0700000e+002    +6.7958823e-008    +3.5317026e-008
+2.0800000e+002    +6.9110847e-008    +3.3577450e-008
+2.0900000e+002    +7.0021670e-008    +3.6092775e-008
+2.1000000e+002    +7.4288749e-008    +3.5529226e-008
+2.1100000e+002    +8.3512042e-008    +3.5494601e-008
+2.1200000e+002    +8.0583249e-008    +3.5832802e-008
+2.1300000e+002    +8.2884483e-008    +3.5585209e-008
+2.1400000e+002    +8.9355510e-008    +3.6000912e-008
+2.1500000e+002    +9.8162317e-008    +3.6917243e-008
+2.1600000e+002    +1.0168915e-007    +3.6060847e-008
+2.1700000e+002    +1.3566691e-007    +3.3632354e-008
+2.1800000e+002    +1.1447875e-007    +3.3784946e-008
+2.1900000e+002    +8.7939370e-008    +3.6813706e-008
+2.2000000e+002    +9.7432903e-008    +3.6905330e-008
+2.2100000e+002    +1.1428886e-007    +3.6604000e-008
+2.2200000e+002    +1.0543099e-007    +3.5087133e-008
+2.2300000e+002    +9.5960786e-008    +3.4396201e-008
+2.2400000e+002    +8.7126210e-008    +3.6760632e-008
+2.2500000e+002    +7.6210576e-008    +3.5287840e-008
+2.2600000e+002    +7.1434194e-008    +3.4692874e-008
+2.2700000e+002    +7.2723978e-008    +3.8140392e-008
+2.2800000e+002    +7.2709128e-008    +3.7219721e-008
+2.2900000e+002    +6.9911898e-008    +3.8554141e-008
+2.3000000e+002    +7.1493119e-008    +3.6404600e-008
+2.3100000e+002    +7.5750329e-008    +3.5134782e-008
+2.3200000e+002    +7.4426644e-008    +3.5159015e-008
+2.3300000e+002    +7.2449268e-008    +3.6013919e-008
+2.3400000e+002    +7.7959932e-008    +3.7466055e-008
+2.3500000e+002    +7.7069963e-008    +3.6877989e-008
+2.3600000e+002    +8.2826539e-008    +3.7507213e-008
+2.3700000e+002    +8.3508652e-008    +3.7713519e-008
+2.3800000e+002    +7.9329475e-008    +4.0733521e-008
+2.3900000e+002    +1.5600862e-007    +3.9381657e-008
+2.4000000e+002    +2.9824105e-007    +3.8839996e-008
+2.4100000e+002    +1.7408841e-007    +3.6346130e-008
+2.4200000e+002    +8.3396223e-008    +3.8130551e-008
+2.4300000e+002    +9.3597627e-008    +3.9060239e-008
+2.4400000e+002    +9.0019611e-008    +3.6537184e-008
+2.4500000e+002    +8.3812047e-008    +3.5576772e-008
+2.4600000e+002    +8.6899504e-008    +3.6371841e-008
+2.4700000e+002    +8.9713730e-008    +3.3781497e-008
+2.4800000e+002    +9.9890265e-008    +3.6246622e-008
+2.4900000e+002    +1.0877069e-007    +3.7121449e-008
+2.5000000e+002    +1.2940325e-007    +3.8281481e-008
+2.5100000e+002    +1.4085082e-007    +3.9354166e-008
+2.5200000e+002    +1.4593367e-007    +3.9686896e-008
+2.5300000e+002    +1.5463054e-007    +3.9024400e-008
+2.5400000e+002    +1.6517929e-007    +3.9829551e-008
+2.5500000e+002    +1.9971920e-007    +4.2382194e-008
+2.5600000e+002    +2.4749130e-007    +4.2846050e-008
+2.5700000e+002    +3.0528969e-007    +4.1361950e-008
+2.5800000e+002    +3.1419449e-007    +3.9703281e-008
+2.5900000e+002    +3.5930267e-007    +3.9125823e-008
+2.6000000e+002    +4.5634488e-007    +3.7971375e-008
+2.6100000e+002    +5.4812512e-007    +3.9307658e-008
+2.6200000e+002    +6.3851064e-007    +4.3809489e-008
+2.6300000e+002    +6.7014611e-007    +4.4442945e-008
+2.6400000e+002    +8.3155936e-007    +4.1234305e-008
+2.6500000e+002    +1.0263158e-006    +4.2247137e-008
+2.6600000e+002    +1.0143068e-006    +4.0425697e-008
+2.6700000e+002    +1.1617446e-006    +3.9352699e-008
+2.6800000e+002    +1.3776328e-006    +3.7687361e-008
+2.6900000e+002    +1.6273951e-006    +3.9317239e-008
+2.7000000e+002    +2.0172445e-006    +4.3120291e-008
+2.7100000e+002    +3.0222870e-006    +4.6444317e-008
+2.7200000e+002    +4.4778803e-006    +4.1854278e-008
+2.7300000e+002    +4.6281730e-006    +4.2900513e-008
+2.7400000e+002    +3.4925167e-006    +4.0275683e-008
+2.7500000e+002    +2.9505954e-006    +3.9047375e-008
+2.7600000e+002    +2.6676091e-006    +4.1329670e-008
+2.7700000e+002    +2.3418049e-006    +3.9875232e-008
+2.7800000e+002    +1.9334952e-006    +4.0568736e-008
+2.7900000e+002    +1.5897793e-006    +4.2043901e-008
+2.8000000e+002    +1.3745641e-006    +4.3115275e-008
+2.8100000e+002    +1.3478617e-006    +4.2213614e-008
+2.8200000e+002    +1.4447887e-006    +4.0758980e-008
+2.8300000e+002    +1.1528766e-006    +4.4991705e-008
+2.8400000e+002    +9.6909480e-007    +4.4119002e-008
+2.8500000e+002    +7.9861167e-007    +4.3144396e-008
+2.8600000e+002    +6.7077843e-007    +4.2808811e-008
+2.8700000e+002    +5.2924833e-007    +4.3614346e-008
+2.8800000e+002    +4.7329175e-007    +4.1192177e-008
+2.8900000e+002    +4.4331148e-007    +4.0474283e-008
+2.9000000e+002    +4.0785793e-007    +4.5144308e-008
+2.9100000e+002    +3.1326309e-007    +4.4674891e-008
+2.9200000e+002    +2.5595889e-007    +4.7382315e-008
+2.9300000e+002    +2.6580983e-007    +4.7171568e-008
+2.9400000e+002    +2.2887993e-007    +4.2679140e-008
+2.9500000e+002    +2.0731028e-007    +4.5789271e-008
+2.9600000e+002    +2.1639633e-007    +4.8938272e-008
+2.9700000e+002    +2.1799983e-007    +4.7280405e-008
+2.9800000e+002    +2.0253606e-007    +4.5784496e-008
+2.9900000e+002    +1.9520937e-007    +4.9232909e-008
+3.0000000e+002    +2.0485032e-007    +5.2336979e-008
+3.0100000e+002    +1.5747106e-007    +4.5155808e-008
+3.0200000e+002    +1.4275507e-007    +4.6612033e-008
+3.0300000e+002    +1.3114352e-007    +4.9870096e-008
+3.0400000e+002    +1.1873774e-007    +4.7852218e-008
+3.0500000e+002    +1.2280964e-007    +4.3259899e-008
+3.0600000e+002    +1.2210390e-007    +4.3988596e-008
+3.0700000e+002    +1.1509201e-007    +4.5719144e-008
+3.0800000e+002    +1.0663745e-007    +4.4287702e-008
+3.0900000e+002    +1.0165700e-007    +4.6189996e-008
+3.1000000e+002    +1.0012722e-007    +4.5118195e-008
+3.1100000e+002    +9.6414489e-008    +4.5796714e-008
+3.1200000e+002    +8.7348333e-008    +4.6840590e-008
+3.1300000e+002    +9.2625811e-008    +4.8343765e-008
+3.1400000e+002    +1.0043011e-007    +4.7734673e-008
+3.1500000e+002    +1.0152549e-007    +4.9814059e-008
+3.1600000e+002    +9.4581715e-008    +5.0289191e-008
+3.1700000e+002    +9.6866081e-008    +4.8937842e-008
+3.1800000e+002    +9.5554014e-008    +5.1864532e-008
+3.1900000e+002    +9.6916501e-008    +4.9496702e-008
+3.2000000e+002    +8.8076973e-008    +4.7384603e-008
+3.2100000e+002    +8.5641624e-008    +4.7553939e-008
+3.2200000e+002    +8.6184393e-008    +4.6659139e-008
+3.2300000e+002    +8.4884846e-008    +4.9838842e-008
+3.2400000e+002    +8.4584897e-008    +5.1628973e-008
+3.2500000e+002    +8.3767986e-008    +5.0099775e-008
+3.2600000e+002    +8.5431914e-008    +5.3241603e-008
+3.2700000e+002    +8.0909587e-008    +5.2010630e-008
+3.2800000e+002    +7.8976456e-008    +4.7910678e-008
+3.2900000e+002    +9.4014140e-008    +4.5453369e-008
+3.3000000e+002    +9.6454620e-008    +5.1909538e-008
+3.3100000e+002    +8.9876011e-008    +5.0727515e-008
+3.3200000e+002    +8.2427910e-008    +4.8411703e-008
+3.3300000e+002    +8.8668656e-008    +5.2793091e-008
+3.3400000e+002    +9.8119102e-008    +5.0339686e-008
+3.3500000e+002    +1.0964877e-007    +5.3856766e-008
+3.3600000e+002    +9.6106930e-008    +5.0504273e-008
+3.3700000e+002    +9.6710821e-008    +5.2083031e-008
+3.3800000e+002    +1.0278867e-007    +5.2294531e-008
+3.3900000e+002    +1.0353317e-007    +5.2904849e-008
+3.4000000e+002    +1.0150476e-007    +5.4635500e-008
+3.4100000e+002    +1.1634015e-007    +5.3242950e-008
+3.4200000e+002    +1.4436661e-007    +5.4399958e-008
+3.4300000e+002    +1.3888150e-007    +5.2442299e-008
+3.4400000e+002    +1.4913962e-007    +5.0872032e-008
+3.4500000e+002    +1.6609333e-007    +5.2185150e-008
+3.4600000e+002    +1.9317743e-007    +4.9589719e-008
+3.4700000e+002    +1.7930445e-007    +5.2534681e-008
+3.4800000e+002    +1.7993929e-007    +5.8655615e-008
+3.4900000e+002    +2.2843656e-007    +5.8715731e-008
+3.5000000e+002    +2.3462006e-007    +5.8721600e-008
+3.5100000e+002    +2.0916013e-007    +5.6586114e-008
+3.5200000e+002    +2.1411472e-007    +5.6511048e-008
+3.5300000e+002    +2.3207494e-007    +5.2628323e-008
+3.5400000e+002    +1.9889661e-007    +5.3215889e-008
+3.5500000e+002    +1.6794655e-007    +5.3248442e-008
+3.5600000e+002    +1.8594372e-007    +5.0063647e-008
+3.5700000e+002    +1.8553749e-007    +5.4403600e-008
+3.5800000e+002    +1.7201663e-007    +5.5248687e-008
+3.5900000e+002    +1.6750771e-007    +5.7130169e-008
+3.6000000e+002    +1.8389231e-007    +6.1407427e-008
+3.6100000e+002    +1.5709426e-007    +5.7989777e-008
+3.6200000e+002    +1.2813702e-007    +5.3769558e-008
+3.6300000e+002    +1.0471963e-007    +5.9577214e-008
+3.6400000e+002    +8.8294343e-008    +6.3323050e-008
+3.6500000e+002    +9.1411017e-008    +6.2911546e-008
+3.6600000e+002    +8.8981125e-008    +5.9894660e-008
+3.6700000e+002    +9.0200864e-008    +5.5382667e-008
+3.6800000e+002    +8.1710560e-008    +5.6902298e-008
+3.6900000e+002    +7.8284501e-008    +5.7847522e-008
+3.7000000e+002    +7.7381998e-008    +5.7987357e-008
+3.7100000e+002    +8.2210263e-008    +5.7329736e-008
+3.7200000e+002    +8.0062129e-008    +5.5096518e-008
+3.7300000e+002    +8.4956447e-008    +5.6550526e-008
+3.7400000e+002    +9.0282107e-008    +6.0098671e-008
+3.7500000e+002    +8.4989104e-008    +6.1976870e-008
+3.7600000e+002    +8.6106262e-008    +6.1048375e-008
+3.7700000e+002    +9.5207064e-008    +6.3572166e-008
+3.7800000e+002    +9.8158544e-008    +5.6415825e-008
+3.7900000e+002    +1.0006469e-007    +5.5495459e-008
+3.8000000e+002    +9.4376944e-008    +6.1684212e-008
+3.8100000e+002    +9.3588689e-008    +6.0000566e-008
+3.8200000e+002    +9.1206196e-008    +5.7901090e-008
+3.8300000e+002    +9.3248872e-008    +6.1498241e-008
+3.8400000e+002    +9.6754150e-008    +6.2395138e-008
+3.8500000e+002    +8.9700336e-008    +6.1213754e-008
+3.8600000e+002    +8.3964856e-008    +5.8924655e-008
+3.8700000e+002    +1.0896577e-007    +5.9974745e-008
+3.8800000e+002    +1.2013537e-007    +6.1556811e-008
+3.8900000e+002    +9.9026053e-008    +6.3706878e-008
+3.9000000e+002    +1.1342043e-007    +6.2890344e-008
+3.9100000e+002    +1.1192051e-007    +6.6604926e-008
+3.9200000e+002    +1.1021969e-007    +6.7432808e-008
+3.9300000e+002    +9.9700927e-008    +6.2791202e-008
+3.9400000e+002    +9.3821825e-008    +6.0023559e-008
+3.9500000e+002    +8.5127319e-008    +6.5941968e-008
+3.9600000e+002    +7.9346457e-008    +6.9629529e-008
+3.9700000e+002    +7.5303610e-008    +6.7891996e-008
+3.9800000e+002    +7.0067429e-008    +6.4854511e-008
+3.9900000e+002    +6.9745447e-008    +5.9925512e-008
+4.0000000e+002    +8.0058086e-008    +6.0853097e-008
+4.0100000e+002    +8.1279182e-008    +6.0489448e-008
+4.0200000e+002    +7.9225892e-008    +6.6824313e-008
+4.0300000e+002    +8.5924938e-008    +6.7091690e-008
+4.0400000e+002    +8.8428614e-008    +6.6323828e-008
+4.0500000e+002    +8.7144770e-008    +6.1562218e-008
+4.0600000e+002    +8.5070234e-008    +6.5614948e-008
+4.0700000e+002    +8.4088938e-008    +7.3738349e-008
+4.0800000e+002    +8.6083197e-008    +7.1084699e-008
+4.0900000e+002    +8.4719481e-008    +7.0250920e-008
+4.1000000e+002    +9.0056382e-008    +6.9692021e-008
+4.1100000e+002    +8.1166014e-008    +7.1993156e-008
+4.1200000e+002    +8.0567496e-008    +7.2462313e-008
+4.1300000e+002    +8.5511303e-008    +6.8244752e-008
+4.1400000e+002    +8.4451358e-008    +6.6466853e-008
+4.1500000e+002    +7.7364582e-008    +7.1377038e-008
+4.1600000e+002    +7.2543195e-008    +6.9357597e-008
+4.1700000e+002    +6.9307355e-008    +6.4605480e-008
+4.1800000e+002    +6.6210688e-008    +6.5248194e-008
+4.1900000e+002    +8.3923290e-008    +7.1752154e-008
+4.2000000e+002    +1.0956333e-007    +7.8705689e-008
+4.2100000e+002    +8.6104940e-008    +7.3715768e-008
+4.2200000e+002    +6.9325466e-008    +7.4200791e-008
+4.2300000e+002    +6.9248557e-008    +7.2112059e-008
+4.2400000e+002    +6.6390200e-008    +7.0829785e-008
+4.2500000e+002    +7.0225013e-008    +6.9613705e-008
+4.2600000e+002    +7.1906342e-008    +7.2531321e-008
+4.2700000e+002    +7.4638670e-008    +7.0899027e-008
+4.2800000e+002    +7.7403833e-008    +7.4353700e-008
+4.2900000e+002    +7.9499678e-008    +8.1317303e-008
+4.3000000e+002    +7.0250920e-008    +8.2020840e-008
+4.3100000e+002    +6.8334948e-008    +7.8148126e-008
+4.3200000e+002    +6.3950765e-008    +7.0548744e-008
+4.3300000e+002    +6.1837191e-008    +7.1948435e-008
+4.3400000e+002    +8.1462424e-008    +7.4531314e-008
+4.3500000e+002    +8.6956675e-008    +7.3883982e-008
+4.3600000e+002    +8.0438802e-008    +7.0260796e-008
+4.3700000e+002    +8.4075275e-008    +7.1707582e-008
+4.3800000e+002    +8.9821555e-008    +7.5866190e-008
+4.3900000e+002    +1.0197628e-007    +8.0313399e-008
+4.4000000e+002    +1.0575492e-007    +8.4855394e-008
+4.4100000e+002    +1.3871249e-007    +7.5941280e-008
+4.4200000e+002    +1.7223113e-007    +7.2885136e-008
+4.4300000e+002    +1.7906049e-007    +8.1642227e-008
+4.4400000e+002    +1.6956147e-007    +8.1031118e-008
+4.4500000e+002    +1.5509848e-007    +7.7866176e-008
+4.4600000e+002    +1.6033455e-007    +7.7574846e-008
+4.4700000e+002    +1.5168996e-007    +7.4557747e-008
+4.4800000e+002    +1.4131413e-007    +6.8956673e-008
+4.4900000e+002    +1.2247098e-007    +7.6415269e-008
+4.5000000e+002    +9.7259111e-008    +7.5287737e-008
+4.5100000e+002    +8.6932999e-008    +7.3776576e-008
+4.5200000e+002    +8.2820264e-008    +7.6975084e-008
+4.5300000e+002    +8.0159232e-008    +7.6430290e-008
+4.5400000e+002    +8.1965297e-008    +7.7701856e-008
+4.5500000e+002    +7.8221014e-008    +8.5177902e-008
+4.5600000e+002    +7.5709501e-008    +8.2938740e-008
+4.5700000e+002    +7.3596404e-008    +8.7649219e-008
+4.5800000e+002    +6.7397949e-008    +8.7035382e-008
+4.5900000e+002    +6.7024544e-008    +7.4115867e-008
+4.6000000e+002    +7.1845733e-008    +6.7127942e-008
+4.6100000e+002    +6.8972959e-008    +7.6892555e-008
+4.6200000e+002    +6.6794968e-008    +8.1129130e-008
+4.6300000e+002    +6.4208201e-008    +7.0956425e-008
+4.6400000e+002    +6.0733619e-008    +7.7200475e-008
+4.6500000e+002    +6.0952999e-008    +8.0536630e-008
+4.6600000e+002    +5.9071247e-008    +8.4942833e-008
+4.6700000e+002    +6.2685324e-008    +8.5789097e-008
+4.6800000e+002    +6.4085157e-008    +8.5534495e-008
+4.6900000e+002    +6.6860935e-008    +8.9467818e-008
+4.7000000e+002    +7.1743727e-008    +8.6894545e-008
+4.7100000e+002    +7.2436542e-008    +7.9078497e-008
+4.7200000e+002    +7.4766703e-008    +8.0596251e-008
+4.7300000e+002    +7.5536384e-008    +7.8762220e-008
+4.7400000e+002    +8.1546901e-008    +8.0203606e-008
+4.7500000e+002    +1.0192523e-007    +8.5889376e-008
+4.7600000e+002    +1.0921239e-007    +8.5857792e-008
+4.7700000e+002    +1.0992228e-007    +8.1581739e-008
+4.7800000e+002    +1.1150507e-007    +8.1188567e-008
+4.7900000e+002    +1.4177476e-007    +8.8257124e-008
+4.8000000e+002    +2.4693594e-007    +9.8386209e-008
+4.8100000e+002    +1.8333267e-007    +8.9460350e-008
+4.8200000e+002    +1.2035375e-007    +7.8685211e-008
+4.8300000e+002    +1.2340749e-007    +8.4316646e-008
+4.8400000e+002    +1.3344149e-007    +8.2665913e-008
+4.8500000e+002    +1.6123930e-007    +7.9329645e-008
+4.8600000e+002    +1.7157299e-007    +8.6313463e-008
+4.8700000e+002    +1.7877821e-007    +8.3128093e-008
+4.8800000e+002    +1.9647673e-007    +7.6485023e-008
+4.8900000e+002    +2.0388278e-007    +8.6719268e-008
+4.9000000e+002    +2.1198257e-007    +9.1832412e-008
+4.9100000e+002    +2.2812075e-007    +9.0367394e-008
+4.9200000e+002    +2.4001244e-007    +8.3974719e-008
+4.9300000e+002    +2.4904585e-007    +8.2427633e-008
+4.9400000e+002    +2.3344141e-007    +8.3750237e-008
+4.9500000e+002    +2.1142981e-007    +8.5269320e-008
+4.9600000e+002    +1.9330813e-007    +8.4824748e-008
+4.9700000e+002    +2.0474262e-007    +9.2543367e-008
+4.9800000e+002    +2.0958633e-007    +8.9168807e-008
+4.9900000e+002    +2.0546662e-007    +8.4301377e-008
+5.0000000e+002    +1.7861183e-007    +8.6036330e-008
+5.0100000e+002    +1.7335388e-007    +8.9145608e-008
+5.0200000e+002    +1.5830177e-007    +9.2246843e-008
+5.0300000e+002    +1.7430204e-007    +8.8800668e-008
+5.0400000e+002    +2.0025760e-007    +8.8299089e-008
+5.0500000e+002    +2.2124328e-007    +8.3596902e-008
+5.0600000e+002    +2.7481153e-007    +9.3593925e-008
+5.0700000e+002    +3.4644609e-007    +9.7668533e-008
+5.0800000e+002    +4.3342911e-007    +9.1872451e-008
+5.0900000e+002    +4.5808784e-007    +8.9337952e-008
+5.1000000e+002    +4.7279471e-007    +8.2050114e-008
+5.1100000e+002    +5.0980952e-007    +9.0829452e-008
+5.1200000e+002    +4.5515844e-007    +8.1335429e-008
+5.1300000e+002    +3.3420361e-007    +8.4777078e-008
+5.1400000e+002    +2.5068340e-007    +9.0325337e-008
+5.1500000e+002    +2.1240520e-007    +9.5952679e-008
+5.1600000e+002    +2.1039838e-007    +8.7091777e-008
+5.1700000e+002    +1.9669517e-007    +9.3251124e-008
+5.1800000e+002    +1.7590314e-007    +9.4102539e-008
+5.1900000e+002    +1.5745776e-007    +9.6476647e-008
+5.2000000e+002    +1.5945815e-007    +9.2812819e-008
+5.2100000e+002    +1.6235420e-007    +9.7372798e-008
+5.2200000e+002    +1.4795488e-007    +9.2099491e-008
+5.2300000e+002    +1.4676972e-007    +9.5250662e-008
+5.2400000e+002    +1.1667645e-007    +9.4061633e-008
+5.2500000e+002    +1.2082005e-007    +1.0081137e-007
+5.2600000e+002    +1.8494563e-007    +9.7615150e-008
+5.2700000e+002    +2.8922099e-007    +9.0836032e-008
+5.2800000e+002    +4.2730528e-007    +8.9698069e-008
+5.2900000e+002    +6.1336806e-007    +9.4401607e-008
+5.3000000e+002    +8.3118056e-007    +9.2757098e-008
+5.3100000e+002    +9.4230950e-007    +9.0471836e-008
+5.3200000e+002    +1.0751212e-006    +8.9943931e-008
+5.3300000e+002    +1.2086928e-006    +9.2697945e-008
+5.3400000e+002    +1.2353844e-006    +9.8205433e-008
+5.3500000e+002    +1.1659731e-006    +1.0034525e-007
+5.3600000e+002    +1.0251028e-006    +1.0300457e-007
+5.3700000e+002    +9.7263171e-007    +9.7297566e-008
+5.3800000e+002    +9.2991939e-007    +9.3346188e-008
+5.3900000e+002    +1.0957597e-006    +1.0495699e-007
+5.4000000e+002    +1.1013224e-006    +9.2168385e-008
+5.4100000e+002    +1.0496609e-006    +9.3887053e-008
+5.4200000e+002    +1.2005494e-006    +9.6489252e-008
+5.4300000e+002    +1.4827069e-006    +8.7138169e-008
+5.4400000e+002    +1.6461767e-006    +9.6843323e-008
+5.4500000e+002    +1.9225024e-006    +9.5892226e-008
+5.4600000e+002    +2.5532652e-006    +1.0361413e-007
+5.4700000e+002    +2.8755326e-006    +9.9592064e-008
+5.4800000e+002    +2.5748973e-006    +9.7653199e-008
+5.4900000e+002    +2.3388191e-006    +1.0241995e-007
+5.5000000e+002    +1.7525425e-006    +1.0111555e-007
+5.5100000e+002    +1.4252377e-006    +1.0102378e-007
+5.5200000e+002    +1.3550643e-006    +9.9990665e-008
+5.5300000e+002    +1.1485657e-006    +9.8111350e-008
+5.5400000e+002    +7.2954066e-007    +9.6768495e-008
+5.5500000e+002    +6.0757026e-007    +1.0470434e-007
+5.5600000e+002    +6.0211812e-007    +1.1241794e-007
+5.5700000e+002    +5.4643539e-007    +1.0568481e-007
+5.5800000e+002    +5.7253624e-007    +9.9701253e-008
+5.5900000e+002    +5.4920162e-007    +9.5140599e-008
+5.6000000e+002    +5.0865606e-007    +1.0552017e-007
+5.6100000e+002    +4.4823520e-007    +1.0365385e-007
+5.6200000e+002    +3.7704618e-007    +1.0270587e-007
+5.6300000e+002    +3.5407919e-007    +9.9657477e-008
+5.6400000e+002    +3.9269051e-007    +9.5524328e-008
+5.6500000e+002    +3.4922255e-007    +1.0794728e-007
+5.6600000e+002    +3.2418203e-007    +1.0840979e-007
+5.6700000e+002    +3.2023399e-007    +9.8201880e-008
+5.6800000e+002    +3.3503025e-007    +9.4330531e-008
+5.6900000e+002    +3.8226250e-007    +1.0704439e-007
+5.7000000e+002    +3.9421070e-007    +1.0882265e-007
+5.7100000e+002    +4.5071454e-007    +1.1300812e-007
+5.7200000e+002    +4.9353110e-007    +1.0415558e-007
+5.7300000e+002    +5.4284686e-007    +1.0409819e-007
+5.7400000e+002    +6.5076847e-007    +1.0064747e-007
+5.7500000e+002    +6.8989465e-007    +1.0265277e-007
+5.7600000e+002    +7.5626008e-007    +1.0976152e-007
+5.7700000e+002    +7.7435453e-007    +1.0870133e-007
+5.7800000e+002    +8.2666094e-007    +1.0751778e-007
+5.7900000e+002    +7.4606555e-007    +1.0491033e-007
+5.8000000e+002    +5.8460353e-007    +1.0511268e-007
+5.8100000e+002    +4.6139664e-007    +1.1494792e-007
+5.8200000e+002    +4.1157864e-007    +1.1777485e-007
+5.8300000e+002    +3.7262902e-007    +1.1411670e-007
+5.8400000e+002    +3.1209754e-007    +1.1007916e-007
+5.8500000e+002    +3.0765318e-007    +1.1346690e-007
+5.8600000e+002    +2.9426690e-007    +1.1338993e-007
+5.8700000e+002    +2.9333401e-007    +1.2044971e-007
+5.8800000e+002    +2.7607203e-007    +1.2157602e-007
+5.8900000e+002    +2.4043709e-007    +1.1347188e-007
+5.9000000e+002    +2.0063725e-007    +1.0800513e-007
+5.9100000e+002    +1.7293716e-007    +1.0459036e-007
+5.9200000e+002    +1.7236393e-007    +1.0598507e-007
+5.9300000e+002    +1.7891330e-007    +1.0574447e-007
+5.9400000e+002    +1.7703428e-007    +1.1112704e-007
+5.9500000e+002    +1.7150217e-007    +1.1627285e-007
+5.9600000e+002    +1.5838992e-007    +1.1589113e-007
+5.9700000e+002    +1.5425630e-007    +1.1548403e-007
+5.9800000e+002    +1.4763472e-007    +1.1046078e-007
+5.9900000e+002    +1.4565481e-007    +1.1062609e-007
+6.0000000e+002    +1.5699287e-007    +1.1287047e-007
+6.0100000e+002    +1.8507929e-007    +1.1188119e-007
+6.0200000e+002    +2.3432709e-007    +1.0914802e-007
+6.0300000e+002    +3.2467324e-007    +1.1315748e-007
+6.0400000e+002    +3.3271752e-007    +1.2172241e-007
+6.0500000e+002    +2.8180074e-007    +1.1232269e-007
+6.0600000e+002    +2.1068433e-007    +1.1095051e-007
+6.0700000e+002    +1.5852440e-007    +1.1010914e-007
+6.0800000e+002    +1.1101972e-007    +1.2033829e-007
+6.0900000e+002    +8.7700435e-008    +1.1937918e-007
+6.1000000e+002    +8.2400312e-008    +1.0997817e-007
+6.1100000e+002    +7.0888291e-008    +1.1636979e-007
+6.1200000e+002    +6.1760041e-008    +1.0735677e-007
+6.1300000e+002    +7.2619294e-008    +1.0560338e-007
+6.1400000e+002    +6.7536767e-008    +1.1656659e-007
+6.1500000e+002    +5.5821054e-008    +1.1013357e-007
+6.1600000e+002    +5.5777129e-008    +1.0980901e-007
+6.1700000e+002    +5.0177505e-008    +1.2225630e-007
+6.1800000e+002    +5.3976585e-008    +1.1909248e-007
+6.1900000e+002    +5.1348348e-008    +1.2095956e-007
+6.2000000e+002    +5.2053363e-008    +1.2937241e-007
+6.2100000e+002    +5.5045607e-008    +1.1233021e-007
+6.2200000e+002    +5.6612091e-008    +1.1605679e-007
+6.2300000e+002    +5.7330993e-008    +1.2033973e-007
+6.2400000e+002    +5.8260753e-008    +1.2259247e-007
+6.2500000e+002    +5.4332268e-008    +1.2420692e-007
+6.2600000e+002    +5.1920310e-008    +1.2077523e-007
+6.2700000e+002    +5.3632530e-008    +1.1524881e-007
+6.2800000e+002    +5.3958569e-008    +1.1377441e-007
+6.2900000e+002    +5.1244772e-008    +1.1654983e-007
+6.3000000e+002    +5.5720019e-008    +1.1749935e-007
+6.3100000e+002    +5.5778415e-008    +1.1264305e-007
+6.3200000e+002    +5.5204545e-008    +1.1596941e-007
+6.3300000e+002    +6.1009779e-008    +1.1954393e-007
+6.3400000e+002    +7.0214220e-008    +1.2732781e-007
+6.3500000e+002    +7.5178207e-008    +1.3246519e-007
+6.3600000e+002    +8.5137600e-008    +1.2307596e-007
+6.3700000e+002    +8.3319165e-008    +1.1665263e-007
+6.3800000e+002    +8.1209251e-008    +1.2077695e-007
+6.3900000e+002    +7.7305231e-008    +1.2115586e-007
+6.4000000e+002    +8.4096513e-008    +1.1761951e-007
+6.4100000e+002    +8.5700229e-008    +1.1984461e-007
+6.4200000e+002    +8.2648938e-008    +1.2160953e-007
+6.4300000e+002    +9.2092314e-008    +1.2898067e-007
+6.4400000e+002    +1.1333044e-007    +1.2972188e-007
+6.4500000e+002    +1.5809611e-007    +1.3050132e-007
+6.4600000e+002    +1.5548262e-007    +1.2857615e-007
+6.4700000e+002    +1.6210518e-007    +1.2156387e-007
+6.4800000e+002    +1.6716119e-007    +1.3321005e-007
+6.4900000e+002    +1.8600518e-007    +1.3434278e-007
+6.5000000e+002    +1.9760105e-007    +1.2510695e-007
+6.5100000e+002    +2.2769635e-007    +1.2663780e-007
+6.5200000e+002    +2.4715024e-007    +1.2377224e-007
+6.5300000e+002    +1.9053884e-007    +1.3490521e-007
+6.5400000e+002    +1.6595479e-007    +1.3093590e-007
+6.5500000e+002    +1.3677578e-007    +1.2881566e-007
+6.5600000e+002    +1.1407148e-007    +1.3243029e-007
+6.5700000e+002    +9.9751404e-008    +1.2553144e-007
+6.5800000e+002    +9.3040043e-008    +1.3084910e-007
+6.5900000e+002    +8.2428905e-008    +1.3393704e-007
+6.6000000e+002    +7.6898885e-008    +1.2879755e-007
+6.6100000e+002    +7.7759978e-008    +1.2995939e-007
+6.6200000e+002    +7.0614846e-008    +1.3428217e-007
+6.6300000e+002    +7.5238979e-008    +1.3418078e-007
+6.6400000e+002    +8.1201847e-008    +1.2492056e-007
+6.6500000e+002    +8.0809443e-008    +1.2384075e-007
+6.6600000e+002    +8.8893536e-008    +1.2356300e-007
+6.6700000e+002    +9.3975849e-008    +1.2754832e-007
+6.6800000e+002    +1.0105718e-007    +1.2825130e-007
+6.6900000e+002    +1.1121652e-007    +1.2006061e-007
+6.7000000e+002    +1.1033109e-007    +1.2301152e-007
+6.7100000e+002    +1.1776618e-007    +1.3374438e-007
+6.7200000e+002    +1.1480161e-007    +1.3752117e-007
+6.7300000e+002    +1.0667235e-007    +1.2407934e-007
+6.7400000e+002    +9.9663275e-008    +1.2527630e-007
+6.7500000e+002    +1.0027475e-007    +1.3693206e-007
+6.7600000e+002    +8.8902617e-008    +1.3969985e-007
+6.7700000e+002    +8.3663288e-008    +1.3653182e-007
+6.7800000e+002    +8.5285521e-008    +1.3598232e-007
+6.7900000e+002    +9.6701797e-008    +1.3167534e-007
+6.8000000e+002    +9.7911084e-008    +1.3202668e-007
+6.8100000e+002    +9.8957578e-008    +1.2863772e-007
+6.8200000e+002    +1.0384591e-007    +1.2868985e-007
+6.8300000e+002    +1.1010818e-007    +1.2948851e-007
+6.8400000e+002    +1.2779952e-007    +1.2800511e-007
+6.8500000e+002    +1.5204964e-007    +1.2603773e-007
+6.8600000e+002    +1.8295825e-007    +1.3563475e-007
+6.8700000e+002    +2.0605830e-007    +1.3182564e-007
+6.8800000e+002    +2.1408204e-007    +1.3740345e-007
+6.8900000e+002    +2.3441741e-007    +1.3801444e-007
+6.9000000e+002    +2.4688606e-007    +1.3862663e-007
+6.9100000e+002    +2.2718343e-007    +1.3552102e-007
+6.9200000e+002    +2.3559970e-007    +1.3420126e-007
+6.9300000e+002    +2.2863277e-007    +1.3343914e-007
+6.9400000e+002    +2.0312086e-007    +1.3744977e-007
+6.9500000e+002    +2.0663104e-007    +1.4126914e-007
+6.9600000e+002    +2.1669020e-007    +1.3282259e-007
+6.9700000e+002    +2.0321433e-007    +1.2947586e-007
+6.9800000e+002    +1.9093758e-007    +1.2954710e-007
+6.9900000e+002    +2.0682783e-007    +1.2724534e-007
+7.0000000e+002    +2.1683871e-007    +1.2708269e-007
+7.0100000e+002    +2.0889414e-007    +1.3741476e-007
+7.0200000e+002    +2.7701662e-007    +1.4293340e-007
+7.0300000e+002    +2.8790708e-007    +1.5454636e-007
+7.0400000e+002    +2.2139638e-007    +1.5146429e-007
+7.0500000e+002    +2.2408823e-007    +1.4256587e-007
+7.0600000e+002    +2.0648794e-007    +1.3607627e-007
+7.0700000e+002    +2.0416009e-007    +1.2937056e-007
+7.0800000e+002    +2.0487191e-007    +1.4016216e-007
+7.0900000e+002    +1.8999528e-007    +1.4827395e-007
+7.1000000e+002    +1.9306378e-007    +1.4356505e-007
+7.1100000e+002    +2.1023604e-007    +1.4010845e-007
+7.1200000e+002    +2.2957860e-007    +1.3660934e-007
+7.1300000e+002    +2.4478209e-007    +1.4352753e-007
+7.1400000e+002    +2.2842953e-007    +1.3965615e-007
+7.1500000e+002    +2.0757470e-007    +1.3652013e-007
+7.1600000e+002    +1.6818201e-007    +1.3200538e-007
+7.1700000e+002    +1.4766974e-007    +1.2532432e-007
+7.1800000e+002    +1.4877753e-007    +1.4309215e-007
+7.1900000e+002    +1.4903306e-007    +1.4772017e-007
+7.2000000e+002    +1.5245134e-007    +1.3750970e-007
+7.2100000e+002    +1.2846016e-007    +1.3249196e-007
+7.2200000e+002    +1.2039854e-007    +1.3319338e-007
+7.2300000e+002    +1.1240226e-007    +1.2503665e-007
+7.2400000e+002    +9.3750153e-008    +1.4166257e-007
+7.2500000e+002    +8.9032632e-008    +1.3966672e-007
+7.2600000e+002    +8.3130928e-008    +1.4020802e-007
+7.2700000e+002    +7.8967524e-008    +1.5045457e-007
+7.2800000e+002    +8.1731912e-008    +1.4503388e-007
+7.2900000e+002    +8.2277900e-008    +1.4388981e-007
+7.3000000e+002    +8.2226784e-008    +1.4086365e-007
+7.3100000e+002    +8.3602593e-008    +1.4045655e-007
+7.3200000e+002    +7.9251905e-008    +1.4729778e-007
+7.3300000e+002    +7.5456143e-008    +1.4796397e-007
+7.3400000e+002    +7.6046575e-008    +1.5613098e-007
+7.3500000e+002    +6.8833373e-008    +1.4960014e-007
+7.3600000e+002    +7.2078734e-008    +1.5646819e-007
+7.3700000e+002    +7.1967790e-008    +1.5109107e-007
+7.3800000e+002    +7.3375325e-008    +1.4175967e-007
+7.3900000e+002    +6.3389272e-008    +1.3886275e-007
+7.4000000e+002    +6.0813420e-008    +1.3485308e-007
+7.4100000e+002    +6.0433358e-008    +1.3894983e-007
+7.4200000e+002    +6.2343851e-008    +1.4319147e-007
+7.4300000e+002    +5.9270175e-008    +1.3545987e-007
+7.4400000e+002    +6.0842808e-008    +1.4963875e-007
+7.4500000e+002    +6.1164442e-008    +1.5251109e-007
+7.4600000e+002    +6.4521764e-008    +1.5041030e-007
+7.4700000e+002    +6.5793273e-008    +1.5121771e-007
+7.4800000e+002    +6.8311543e-008    +1.4925396e-007
+7.4900000e+002    +6.7047509e-008    +1.4248464e-007
+7.5000000e+002    +6.4012795e-008    +1.3989479e-007
+7.5100000e+002    +6.5748146e-008    +1.4453917e-007
+7.5200000e+002    +6.2671006e-008    +1.4560460e-007
+7.5300000e+002    +5.4027989e-008    +1.4849438e-007
+7.5400000e+002    +5.8820003e-008    +1.5439389e-007
+7.5500000e+002    +5.6917294e-008    +1.5086083e-007
+7.5600000e+002    +5.4066504e-008    +1.3995901e-007
+7.5700000e+002    +5.9052635e-008    +1.5354964e-007
+7.5800000e+002    +5.8751457e-008    +1.5767071e-007
+7.5900000e+002    +5.7583399e-008    +1.4469589e-007
+7.6000000e+002    +5.6689217e-008    +1.4103264e-007
+7.6100000e+002    +5.4386820e-008    +1.4743321e-007
+7.6200000e+002    +5.5782518e-008    +1.4809009e-007
+7.6300000e+002    +5.6379353e-008    +1.5052015e-007
+7.6400000e+002    +6.1182043e-008    +1.5454467e-007
+7.6500000e+002    +6.2902359e-008    +1.5468913e-007
+7.6600000e+002    +6.1436893e-008    +1.4075960e-007
+7.6700000e+002    +6.0784849e-008    +1.4740731e-007
+7.6800000e+002    +5.4828821e-008    +1.4591652e-007
+7.6900000e+002    +5.3406882e-008    +1.4353179e-007
+7.7000000e+002    +5.5012435e-008    +1.4104751e-007
+7.7100000e+002    +5.1051753e-008    +1.3663619e-007
+7.7200000e+002    +4.6481865e-008    +1.5110616e-007
+7.7300000e+002    +4.6595506e-008    +1.5042350e-007
+7.7400000e+002    +4.8084111e-008    +1.5371393e-007
+7.7500000e+002    +4.8519034e-008    +1.5973713e-007
+7.7600000e+002    +5.1039201e-008    +1.5409142e-007
+7.7700000e+002    +4.8443660e-008    +1.5333482e-007
+7.7800000e+002    +5.0975579e-008    +1.5878447e-007
+7.7900000e+002    +5.3911727e-008    +1.6566896e-007
+7.8000000e+002    +5.4372727e-008    +1.6512217e-007
+7.8100000e+002    +4.9564900e-008    +1.6914888e-007
+7.8200000e+002    +5.3304422e-008    +1.7451308e-007
+7.8300000e+002    +5.5181758e-008    +1.4860251e-007
+7.8400000e+002    +5.6090578e-008    +1.5180458e-007
+7.8500000e+002    +5.7360776e-008    +1.5808466e-007
+7.8600000e+002    +5.5383335e-008    +1.5906193e-007
+7.8700000e+002    +5.0360473e-008    +1.6764662e-007
+7.8800000e+002    +5.2301132e-008    +1.6358041e-007
+7.8900000e+002    +5.6309879e-008    +1.6156217e-007
+7.9000000e+002    +5.5060596e-008    +1.5259853e-007
+7.9100000e+002    +5.5373548e-008    +1.6041484e-007
+7.9200000e+002    +5.4269012e-008    +1.6344397e-007
+7.9300000e+002    +5.4213565e-008    +1.6128799e-007
+7.9400000e+002    +5.5246502e-008    +1.5967171e-007
+7.9500000e+002    +5.1945513e-008    +1.7317925e-007
+7.9600000e+002    +5.3582205e-008    +1.6339372e-007
+7.9700000e+002    +5.0302390e-008    +1.5808362e-007
+7.9800000e+002    +5.3840449e-008    +1.6630993e-007
+7.9900000e+002    +5.9543080e-008    +1.7244514e-007
#
#
# North DC Val: 0.8345879100000001 VoltsSouth DC Val: 0.5729127900000001 Volts
# SR785 Measurement - Timestamp: May 03 2020 - 00:22:06
# Parameter File: /home/controls/Git/cit_ctnlab/ctn_scripts/TransRINSpecShort.yml
#---------- Measurement Setup ------------
# Start Frequency (Hz): 0.000000
# Frequency Span (Hz): 102400.000000
# Frequency Resolution: 800
# Number of Averages: 100
# Averaging Mode: RMS
# Window function: Hanning
#---------- Measurement Parameters ----------
# Measurement Group:  "FFT" "FFT"
# Measurements:  "FFT 1" "FFT 2"
# View:  "Log Magnitude" "Log Magnitude"
# Unit:  "Vrms/rtHz" "Vrms/rtHz"
#---------- Input Parameters ----------
# Input Source: Analog
# Input Mode: Single ended, Single ended
# Input Grounding: Float, Float
# Input Coupling: AC, AC
# Input Range: -36.0dBVpk, -36.0dBVpk
# Auto Range: Off, Off
# Auto Range Mode: Tracking, Tracking
# Anti-Aliasing Filter: On, On
#---------- Source Parameters ----------
# Source Type: Sine
# Source Amplitude: 500.0mVpk
# Source On: 0

#---------- Measurement Data ----------
# [Freq(Hz) Display 0(Vrms/rtHz) Display 1(Vrms/rtHz) ]
+8.9600000e+002    +2.1339608e-007    +2.1072690e-007
+1.0240000e+003    +1.3233931e-007    +2.5281867e-007
+1.1520000e+003    +9.2179214e-008    +2.7581996e-007
+1.2800000e+003    +6.8825670e-008    +2.6045623e-007
+1.4080000e+003    +7.2354510e-008    +2.7107160e-007
+1.5360000e+003    +8.3404835e-008    +3.2371358e-007
+1.6640000e+003    +8.8653955e-008    +3.2744663e-007
+1.7920000e+003    +9.1277023e-008    +3.5585600e-007
+1.9200000e+003    +1.1101034e-007    +3.7689264e-007
+2.0480000e+003    +1.2660180e-007    +3.6637894e-007
+2.1760000e+003    +1.2933805e-007    +3.7002138e-007
+2.3040000e+003    +1.4552964e-007    +4.0059760e-007
+2.4320000e+003    +1.5613234e-007    +4.3019568e-007
+2.5600000e+003    +1.6133704e-007    +4.4395833e-007
+2.6880000e+003    +1.7148108e-007    +4.6043712e-007
+2.8160000e+003    +1.9790023e-007    +4.6411438e-007
+2.9440000e+003    +2.0208158e-007    +4.3750077e-007
+3.0720000e+003    +2.1128918e-007    +4.7816923e-007
+3.2000000e+003    +2.1836011e-007    +5.0063869e-007
+3.3280000e+003    +2.2652711e-007    +5.6508321e-007
+3.4560000e+003    +2.3186456e-007    +5.6468809e-007
+3.5840000e+003    +2.5857338e-007    +5.2445984e-007
+3.7120000e+003    +2.8493591e-007    +5.6018757e-007
+3.8400000e+003    +2.7316509e-007    +6.0068390e-007
+3.9680000e+003    +2.7561379e-007    +5.9540400e-007
+4.0960000e+003    +3.1120240e-007    +6.2020166e-007
+4.2240000e+003    +3.2466110e-007    +6.3471526e-007
+4.3520000e+003    +3.2343399e-007    +6.4088744e-007
+4.4800000e+003    +3.5051556e-007    +6.9303093e-007
+4.6080000e+003    +3.5281835e-007    +6.9395378e-007
+4.7360000e+003    +4.0289794e-007    +6.7616600e-007
+4.8640000e+003    +4.2225849e-007    +7.3567395e-007
+4.9920000e+003    +3.8433981e-007    +7.6012350e-007
+5.1200000e+003    +4.0133898e-007    +8.9669123e-007
+5.2480000e+003    +4.3050517e-007    +9.8597081e-007
+5.3760000e+003    +4.2022717e-007    +9.9796534e-007
+5.5040000e+003    +4.1983378e-007    +1.0294453e-006
+5.6320000e+003    +4.3611473e-007    +1.0432611e-006
+5.7600000e+003    +4.8568177e-007    +1.2234169e-006
+5.8880000e+003    +5.0881471e-007    +1.4297390e-006
+6.0160000e+003    +4.9296301e-007    +1.6087290e-006
+6.1440000e+003    +4.9783711e-007    +1.7979927e-006
+6.2720000e+003    +5.3005147e-007    +1.8040674e-006
+6.4000000e+003    +5.4040629e-007    +2.0462373e-006
+6.5280000e+003    +5.5685405e-007    +2.3603131e-006
+6.6560000e+003    +6.1873595e-007    +3.0099845e-006
+6.7840000e+003    +6.1236676e-007    +3.3897418e-006
+6.9120000e+003    +5.7979719e-007    +3.5152532e-006
+7.0400000e+003    +6.2193641e-007    +3.9567508e-006
+7.1680000e+003    +6.1164980e-007    +4.4964841e-006
+7.2960000e+003    +6.1545188e-007    +4.5270431e-006
+7.4240000e+003    +6.0921417e-007    +4.8372117e-006
+7.5520000e+003    +7.0104448e-007    +7.1532695e-006
+7.6800000e+003    +6.7038013e-007    +2.1838698e-005
+7.8080000e+003    +7.0729612e-007    +4.1593339e-005
+7.9360000e+003    +7.8160059e-007    +4.5420144e-005
+8.0640000e+003    +7.2353953e-007    +3.6630856e-005
+8.1920000e+003    +6.5888844e-007    +2.0435116e-005
+8.3200000e+003    +7.3811412e-007    +6.9552357e-006
+8.4480000e+003    +8.0288186e-007    +6.6299508e-006
+8.5760000e+003    +7.9601693e-007    +5.5793912e-006
+8.7040000e+003    +7.3662369e-007    +4.9781802e-006
+8.8320000e+003    +8.0315868e-007    +4.6234036e-006
+8.9600000e+003    +7.8628727e-007    +4.8289812e-006
+9.0880000e+003    +7.9883176e-007    +4.1465805e-006
+9.2160000e+003    +8.4480854e-007    +3.5464141e-006
+9.3440000e+003    +8.2350022e-007    +3.6994177e-006
+9.4720000e+003    +8.3035690e-007    +3.2942999e-006
+9.6000000e+003    +8.3093511e-007    +2.9945970e-006
+9.7280000e+003    +9.1522588e-007    +2.7801025e-006
+9.8560000e+003    +8.9468995e-007    +2.4306805e-006
+9.9840000e+003    +9.0502039e-007    +2.3890086e-006
+1.0112000e+004    +9.6252450e-007    +2.2310182e-006
+1.0240000e+004    +9.4769968e-007    +2.1624646e-006
+1.0368000e+004    +9.0431320e-007    +2.0543594e-006
+1.0496000e+004    +8.7363583e-007    +2.0131667e-006
+1.0624000e+004    +9.3158616e-007    +1.7847441e-006
+1.0752000e+004    +8.8239392e-007    +1.6802956e-006
+1.0880000e+004    +9.0041851e-007    +1.7349973e-006
+1.1008000e+004    +9.3952741e-007    +1.7209276e-006
+1.1136000e+004    +9.0740735e-007    +1.8037842e-006
+1.1264000e+004    +9.4146151e-007    +1.8303560e-006
+1.1392000e+004    +9.4525655e-007    +1.8335763e-006
+1.1520000e+004    +9.5484904e-007    +1.7532122e-006
+1.1648000e+004    +9.7093630e-007    +1.7018481e-006
+1.1776000e+004    +9.1392951e-007    +1.5689344e-006
+1.1904000e+004    +9.0349243e-007    +1.6178388e-006
+1.2032000e+004    +9.6079179e-007    +1.7767552e-006
+1.2160000e+004    +1.0278585e-006    +1.8347866e-006
+1.2288000e+004    +1.0375735e-006    +1.7298122e-006
+1.2416000e+004    +9.8343446e-007    +1.7181183e-006
+1.2544000e+004    +9.5884855e-007    +1.7474891e-006
+1.2672000e+004    +8.9892097e-007    +1.9201354e-006
+1.2800000e+004    +8.9295685e-007    +1.8967575e-006
+1.2928000e+004    +9.3120673e-007    +1.8438299e-006
+1.3056000e+004    +1.0355261e-006    +2.0728228e-006
+1.3184000e+004    +1.0497358e-006    +2.3550556e-006
+1.3312000e+004    +9.9962676e-007    +2.2590641e-006
+1.3440000e+004    +9.9644899e-007    +2.1546814e-006
+1.3568000e+004    +1.0355238e-006    +2.3392736e-006
+1.3696000e+004    +1.0582356e-006    +2.7664155e-006
+1.3824000e+004    +1.0264387e-006    +3.0206616e-006
+1.3952000e+004    +1.0365146e-006    +3.2346311e-006
+1.4080000e+004    +9.5667701e-007    +3.1551265e-006
+1.4208000e+004    +1.0152360e-006    +3.3045085e-006
+1.4336000e+004    +9.7766815e-007    +3.8242033e-006
+1.4464000e+004    +1.0503884e-006    +4.4337085e-006
+1.4592000e+004    +9.8834767e-007    +4.8379129e-006
+1.4720000e+004    +9.9883027e-007    +5.0288695e-006
+1.4848000e+004    +9.8632700e-007    +5.6150657e-006
+1.4976000e+004    +9.8775001e-007    +5.7812663e-006
+1.5104000e+004    +9.1662275e-007    +5.7628431e-006
+1.5232000e+004    +8.9838028e-007    +6.3110106e-006
+1.5360000e+004    +9.4326703e-007    +9.0818285e-006
+1.5488000e+004    +9.6813130e-007    +1.3457471e-005
+1.5616000e+004    +9.7017221e-007    +1.7860399e-005
+1.5744000e+004    +8.9879268e-007    +2.0901229e-005
+1.5872000e+004    +8.6372523e-007    +1.9273930e-005
+1.6000000e+004    +9.0298067e-007    +1.5451311e-005
+1.6128000e+004    +9.0215917e-007    +1.5010904e-005
+1.6256000e+004    +8.7443999e-007    +1.2533188e-005
+1.6384000e+004    +9.2685428e-007    +7.3305187e-006
+1.6512000e+004    +8.9242951e-007    +6.3034345e-006
+1.6640000e+004    +8.3877961e-007    +4.7914518e-006
+1.6768000e+004    +8.6807955e-007    +4.1363764e-006
+1.6896000e+004    +8.9614497e-007    +3.8772037e-006
+1.7024000e+004    +8.9794543e-007    +3.5928492e-006
+1.7152000e+004    +9.3007560e-007    +3.3669892e-006
+1.7280000e+004    +9.2455116e-007    +2.9921321e-006
+1.7408000e+004    +8.9735994e-007    +2.8262805e-006
+1.7536000e+004    +9.1888995e-007    +2.6028385e-006
+1.7664000e+004    +8.5716977e-007    +2.2036954e-006
+1.7792000e+004    +8.4965313e-007    +1.9648364e-006
+1.7920000e+004    +8.6511471e-007    +1.8010571e-006
+1.8048000e+004    +8.6151658e-007    +1.7365525e-006
+1.8176000e+004    +8.3867650e-007    +1.5872939e-006
+1.8304000e+004    +8.5721211e-007    +1.5366584e-006
+1.8432000e+004    +8.0292943e-007    +1.4744098e-006
+1.8560000e+004    +8.0208713e-007    +1.3806931e-006
+1.8688000e+004    +7.7812075e-007    +1.4665117e-006
+1.8816000e+004    +8.3189542e-007    +1.4889796e-006
+1.8944000e+004    +8.2888488e-007    +1.4704328e-006
+1.9072000e+004    +7.9972779e-007    +1.4551798e-006
+1.9200000e+004    +8.0135737e-007    +1.4500713e-006
+1.9328000e+004    +8.1475127e-007    +1.3896127e-006
+1.9456000e+004    +7.4987940e-007    +1.5621499e-006
+1.9584000e+004    +7.4230616e-007    +1.4993708e-006
+1.9712000e+004    +7.5937692e-007    +1.4608307e-006
+1.9840000e+004    +7.8381089e-007    +1.5109870e-006
+1.9968000e+004    +7.8203237e-007    +1.5026768e-006
+2.0096000e+004    +7.3467629e-007    +1.4236283e-006
+2.0224000e+004    +7.2789885e-007    +1.4576071e-006
+2.0352000e+004    +7.1862769e-007    +1.4243568e-006
+2.0480000e+004    +7.3644736e-007    +1.6352941e-006
+2.0608000e+004    +7.2671463e-007    +1.6358167e-006
+2.0736000e+004    +6.7879995e-007    +1.5744565e-006
+2.0864000e+004    +7.1698446e-007    +1.6241589e-006
+2.0992000e+004    +7.2659094e-007    +1.6082450e-006
+2.1120000e+004    +7.3830785e-007    +1.5993543e-006
+2.1248000e+004    +7.2281540e-007    +1.5333349e-006
+2.1376000e+004    +7.4593123e-007    +1.9024576e-006
+2.1504000e+004    +7.0827917e-007    +2.1101237e-006
+2.1632000e+004    +7.5359191e-007    +1.5960055e-006
+2.1760000e+004    +7.1028217e-007    +1.4920547e-006
+2.1888000e+004    +6.7789580e-007    +1.4492643e-006
+2.2016000e+004    +7.2004701e-007    +1.4163443e-006
+2.2144000e+004    +7.0800780e-007    +1.4673814e-006
+2.2272000e+004    +7.3838976e-007    +1.5359094e-006
+2.2400000e+004    +7.0998584e-007    +1.6655388e-006
+2.2528000e+004    +7.0409379e-007    +1.6621957e-006
+2.2656000e+004    +6.8648160e-007    +1.6066884e-006
+2.2784000e+004    +7.0015602e-007    +1.5978272e-006
+2.2912000e+004    +6.9108643e-007    +1.4374091e-006
+2.3040000e+004    +6.2837961e-007    +1.6174783e-006
+2.3168000e+004    +6.3457031e-007    +1.6895694e-006
+2.3296000e+004    +6.6583431e-007    +2.0287434e-006
+2.3424000e+004    +6.7060171e-007    +2.1590554e-006
+2.3552000e+004    +6.5522653e-007    +2.3587536e-006
+2.3680000e+004    +6.8717691e-007    +2.7745739e-006
+2.3808000e+004    +7.5622188e-007    +2.7409644e-006
+2.3936000e+004    +7.2721184e-007    +2.2839492e-006
+2.4064000e+004    +6.6102024e-007    +2.3141160e-006
+2.4192000e+004    +7.0084900e-007    +2.4270244e-006
+2.4320000e+004    +6.7596557e-007    +2.5297084e-006
+2.4448000e+004    +6.3267527e-007    +2.0039881e-006
+2.4576000e+004    +6.4101766e-007    +1.9772281e-006
+2.4704000e+004    +6.3396584e-007    +1.8781542e-006
+2.4832000e+004    +5.9589581e-007    +1.8116718e-006
+2.4960000e+004    +6.5209952e-007    +1.8123284e-006
+2.5088000e+004    +6.8940324e-007    +2.0144669e-006
+2.5216000e+004    +6.3183529e-007    +1.8179245e-006
+2.5344000e+004    +5.7912149e-007    +1.6866577e-006
+2.5472000e+004    +5.5024577e-007    +1.9028253e-006
+2.5600000e+004    +5.4487532e-007    +1.8064023e-006
+2.5728000e+004    +5.8584493e-007    +1.7385404e-006
+2.5856000e+004    +6.1149200e-007    +1.8666949e-006
+2.5984000e+004    +6.3397556e-007    +1.8782655e-006
+2.6112000e+004    +5.7338929e-007    +1.7065859e-006
+2.6240000e+004    +5.4476163e-007    +1.7006564e-006
+2.6368000e+004    +5.7564500e-007    +1.7003819e-006
+2.6496000e+004    +5.8557549e-007    +1.7697618e-006
+2.6624000e+004    +6.0890926e-007    +1.6820343e-006
+2.6752000e+004    +6.1944490e-007    +1.6196535e-006
+2.6880000e+004    +6.2882611e-007    +1.6720580e-006
+2.7008000e+004    +5.4974458e-007    +1.6321048e-006
+2.7136000e+004    +5.4693237e-007    +1.4909280e-006
+2.7264000e+004    +5.7687305e-007    +1.4653995e-006
+2.7392000e+004    +5.8034425e-007    +1.6088879e-006
+2.7520000e+004    +5.7684838e-007    +1.6156821e-006
+2.7648000e+004    +5.8069418e-007    +1.5770310e-006
+2.7776000e+004    +5.1824912e-007    +1.4415247e-006
+2.7904000e+004    +5.2790483e-007    +1.4981102e-006
+2.8032000e+004    +5.1576507e-007    +1.4906383e-006
+2.8160000e+004    +5.1906346e-007    +1.4631823e-006
+2.8288000e+004    +5.1814612e-007    +1.5397422e-006
+2.8416000e+004    +5.6802611e-007    +1.4691660e-006
+2.8544000e+004    +5.2043760e-007    +1.4391414e-006
+2.8672000e+004    +5.0687095e-007    +1.4923364e-006
+2.8800000e+004    +5.6212838e-007    +1.5741817e-006
+2.8928000e+004    +5.2816051e-007    +1.6135247e-006
+2.9056000e+004    +5.4558291e-007    +1.6962367e-006
+2.9184000e+004    +5.2689552e-007    +1.7091229e-006
+2.9312000e+004    +5.3574735e-007    +1.7239894e-006
+2.9440000e+004    +5.1310474e-007    +1.7222810e-006
+2.9568000e+004    +5.2589564e-007    +1.8333569e-006
+2.9696000e+004    +5.0618354e-007    +2.0545151e-006
+2.9824000e+004    +5.2575592e-007    +2.2202271e-006
+2.9952000e+004    +5.1890731e-007    +2.4121791e-006
+3.0080000e+004    +5.4788381e-007    +2.4087228e-006
+3.0208000e+004    +5.4893275e-007    +2.6173450e-006
+3.0336000e+004    +5.2821792e-007    +2.9952118e-006
+3.0464000e+004    +4.8932901e-007    +3.3054446e-006
+3.0592000e+004    +5.0218898e-007    +3.2855655e-006
+3.0720000e+004    +5.4420866e-007    +3.4199891e-006
+3.0848000e+004    +5.6240185e-007    +3.8146045e-006
+3.0976000e+004    +5.3391403e-007    +3.9677961e-006
+3.1104000e+004    +5.2924543e-007    +5.0792219e-006
+3.1232000e+004    +4.9223451e-007    +5.5210121e-006
+3.1360000e+004    +5.2320087e-007    +5.3767785e-006
+3.1488000e+004    +5.3125285e-007    +5.8868009e-006
+3.1616000e+004    +5.1856557e-007    +6.2961922e-006
+3.1744000e+004    +5.4888631e-007    +6.2748882e-006
+3.1872000e+004    +5.1221201e-007    +5.6762274e-006
+3.2000000e+004    +5.0331062e-007    +5.0205172e-006
+3.2128000e+004    +5.0825747e-007    +5.5207211e-006
+3.2256000e+004    +5.0413416e-007    +5.2070454e-006
+3.2384000e+004    +4.8402239e-007    +5.3213025e-006
+3.2512000e+004    +4.6099206e-007    +4.8376951e-006
+3.2640000e+004    +4.8686167e-007    +4.1262747e-006
+3.2768000e+004    +4.9143745e-007    +4.3483715e-006
+3.2896000e+004    +5.4983872e-007    +3.8126993e-006
+3.3024000e+004    +5.3458513e-007    +3.6673673e-006
+3.3152000e+004    +4.9197945e-007    +3.1903130e-006
+3.3280000e+004    +5.2110431e-007    +3.0663307e-006
+3.3408000e+004    +5.0244762e-007    +3.1324003e-006
+3.3536000e+004    +5.1810918e-007    +3.2781390e-006
+3.3664000e+004    +5.1061284e-007    +2.9338166e-006
+3.3792000e+004    +5.0206825e-007    +2.7417259e-006
+3.3920000e+004    +4.9034924e-007    +2.8062282e-006
+3.4048000e+004    +4.8694938e-007    +2.6307277e-006
+3.4176000e+004    +4.7585434e-007    +2.3480302e-006
+3.4304000e+004    +4.8541148e-007    +2.3744219e-006
+3.4432000e+004    +4.7279158e-007    +2.2707420e-006
+3.4560000e+004    +5.0816317e-007    +2.2155054e-006
+3.4688000e+004    +4.8615175e-007    +2.2803911e-006
+3.4816000e+004    +4.5700472e-007    +2.1450555e-006
+3.4944000e+004    +4.9538619e-007    +1.8504596e-006
+3.5072000e+004    +5.0211895e-007    +1.9985498e-006
+3.5200000e+004    +5.1790727e-007    +1.9858521e-006
+3.5328000e+004    +5.1297349e-007    +2.0445148e-006
+3.5456000e+004    +5.0338855e-007    +2.0368386e-006
+3.5584000e+004    +5.1421125e-007    +1.8206410e-006
+3.5712000e+004    +5.0608855e-007    +1.9741651e-006
+3.5840000e+004    +4.8262041e-007    +2.0007496e-006
+3.5968000e+004    +4.6822336e-007    +1.8557640e-006
+3.6096000e+004    +4.7642521e-007    +2.0561963e-006
+3.6224000e+004    +4.5562194e-007    +1.9671481e-006
+3.6352000e+004    +4.6588087e-007    +1.8566241e-006
+3.6480000e+004    +5.1634413e-007    +2.1520784e-006
+3.6608000e+004    +4.7139054e-007    +1.9955437e-006
+3.6736000e+004    +4.5700273e-007    +2.0925754e-006
+3.6864000e+004    +4.7884544e-007    +2.3460616e-006
+3.6992000e+004    +4.7476519e-007    +2.3785499e-006
+3.7120000e+004    +4.6573919e-007    +2.4681372e-006
+3.7248000e+004    +4.7225254e-007    +2.3422369e-006
+3.7376000e+004    +4.7296865e-007    +2.2884726e-006
+3.7504000e+004    +4.4387986e-007    +2.3603286e-006
+3.7632000e+004    +4.5626021e-007    +2.5671852e-006
+3.7760000e+004    +4.7760676e-007    +2.5633096e-006
+3.7888000e+004    +4.6801108e-007    +2.5889326e-006
+3.8016000e+004    +4.7046188e-007    +2.6463861e-006
+3.8144000e+004    +5.0227169e-007    +2.8827528e-006
+3.8272000e+004    +5.2626126e-007    +3.2812468e-006
+3.8400000e+004    +4.7841189e-007    +3.3137005e-006
+3.8528000e+004    +4.4983901e-007    +3.2402047e-006
+3.8656000e+004    +4.5072198e-007    +3.1183242e-006
+3.8784000e+004    +4.6527359e-007    +3.3590393e-006
+3.8912000e+004    +4.5626271e-007    +3.6379588e-006
+3.9040000e+004    +4.6060399e-007    +3.8175795e-006
+3.9168000e+004    +4.8470633e-007    +3.7208363e-006
+3.9296000e+004    +4.4341758e-007    +3.5949722e-006
+3.9424000e+004    +4.5081205e-007    +3.7359089e-006
+3.9552000e+004    +4.5403192e-007    +4.0237364e-006
+3.9680000e+004    +4.3076381e-007    +3.8358980e-006
+3.9808000e+004    +4.1992553e-007    +3.3871004e-006
+3.9936000e+004    +4.3013191e-007    +3.1277402e-006
+4.0064000e+004    +4.2797672e-007    +3.0745666e-006
+4.0192000e+004    +4.4591192e-007    +2.9702637e-006
+4.0320000e+004    +4.6213532e-007    +2.9639762e-006
+4.0448000e+004    +4.3908352e-007    +2.8139693e-006
+4.0576000e+004    +4.2410636e-007    +2.5222562e-006
+4.0704000e+004    +4.1692238e-007    +2.4220064e-006
+4.0832000e+004    +4.4318591e-007    +2.5883187e-006
+4.0960000e+004    +4.3525463e-007    +2.3744271e-006
+4.1088000e+004    +4.5452620e-007    +1.9123697e-006
+4.1216000e+004    +4.4658415e-007    +1.9111942e-006
+4.1344000e+004    +4.6567530e-007    +2.1049218e-006
+4.1472000e+004    +4.7287932e-007    +1.9754616e-006
+4.1600000e+004    +4.4183764e-007    +1.9546287e-006
+4.1728000e+004    +4.3486676e-007    +1.7105122e-006
+4.1856000e+004    +4.0879942e-007    +1.5623129e-006
+4.1984000e+004    +4.3706291e-007    +1.6347321e-006
+4.2112000e+004    +4.2552850e-007    +1.6797753e-006
+4.2240000e+004    +4.0689807e-007    +1.5772786e-006
+4.2368000e+004    +4.1512814e-007    +1.5216671e-006
+4.2496000e+004    +4.2196791e-007    +1.4784105e-006
+4.2624000e+004    +4.1211314e-007    +1.4167704e-006
+4.2752000e+004    +4.3641506e-007    +1.4124588e-006
+4.2880000e+004    +4.1729470e-007    +1.4055344e-006
+4.3008000e+004    +4.3779147e-007    +1.3862480e-006
+4.3136000e+004    +4.2902209e-007    +1.5772249e-006
+4.3264000e+004    +4.1868526e-007    +1.3768600e-006
+4.3392000e+004    +4.3320597e-007    +1.3101629e-006
+4.3520000e+004    +4.4603630e-007    +1.4013461e-006
+4.3648000e+004    +4.4770547e-007    +1.4681131e-006
+4.3776000e+004    +4.4278562e-007    +1.4407524e-006
+4.3904000e+004    +4.0774108e-007    +1.4606687e-006
+4.4032000e+004    +4.1404658e-007    +1.4370997e-006
+4.4160000e+004    +4.3878711e-007    +1.3961154e-006
+4.4288000e+004    +4.3508453e-007    +1.3098609e-006
+4.4416000e+004    +4.1424167e-007    +1.4120990e-006
+4.4544000e+004    +4.2976558e-007    +1.4950605e-006
+4.4672000e+004    +4.0727261e-007    +1.4577577e-006
+4.4800000e+004    +3.9547700e-007    +1.4907005e-006
+4.4928000e+004    +4.1639353e-007    +1.3765033e-006
+4.5056000e+004    +4.0467350e-007    +1.3576512e-006
+4.5184000e+004    +3.8395177e-007    +1.3120055e-006
+4.5312000e+004    +3.8077712e-007    +1.3585413e-006
+4.5440000e+004    +4.0409012e-007    +1.3819291e-006
+4.5568000e+004    +4.3130046e-007    +1.4323912e-006
+4.5696000e+004    +4.4624889e-007    +1.4009585e-006
+4.5824000e+004    +4.5148622e-007    +1.3577361e-006
+4.5952000e+004    +4.3111442e-007    +1.3311428e-006
+4.6080000e+004    +4.4277493e-007    +1.3287219e-006
+4.6208000e+004    +4.4764207e-007    +1.4843505e-006
+4.6336000e+004    +4.4350767e-007    +1.4572215e-006
+4.6464000e+004    +4.2759956e-007    +1.3775148e-006
+4.6592000e+004    +3.9722991e-007    +1.3004446e-006
+4.6720000e+004    +3.9541189e-007    +1.2287235e-006
+4.6848000e+004    +3.9999767e-007    +1.3149518e-006
+4.6976000e+004    +3.9568505e-007    +1.2746460e-006
+4.7104000e+004    +4.1457108e-007    +1.3144928e-006
+4.7232000e+004    +4.1859471e-007    +1.3398292e-006
+4.7360000e+004    +3.7671515e-007    +1.4184202e-006
+4.7488000e+004    +4.3136345e-007    +1.5173443e-006
+4.7616000e+004    +4.8225701e-007    +1.5958163e-006
+4.7744000e+004    +4.6058327e-007    +1.4760327e-006
+4.7872000e+004    +4.4104760e-007    +1.4083195e-006
+4.8000000e+004    +4.3378807e-007    +1.4435345e-006
+4.8128000e+004    +4.1231863e-007    +1.5309981e-006
+4.8256000e+004    +4.0862037e-007    +1.6641861e-006
+4.8384000e+004    +3.9130592e-007    +1.4833404e-006
+4.8512000e+004    +4.2632632e-007    +1.4783942e-006
+4.8640000e+004    +4.3001387e-007    +1.5082256e-006
+4.8768000e+004    +4.0336533e-007    +1.4671655e-006
+4.8896000e+004    +4.1689032e-007    +1.5279218e-006
+4.9024000e+004    +4.7190528e-007    +1.5859091e-006
+4.9152000e+004    +4.7652827e-007    +1.5667482e-006
+4.9280000e+004    +4.4360701e-007    +1.5912847e-006
+4.9408000e+004    +4.3551708e-007    +1.5923368e-006
+4.9536000e+004    +4.2700466e-007    +1.3310786e-006
+4.9664000e+004    +4.3777658e-007    +1.4590354e-006
+4.9792000e+004    +4.2183683e-007    +1.4414344e-006
+4.9920000e+004    +4.0697134e-007    +1.3274765e-006
+5.0048000e+004    +4.2368330e-007    +1.5276432e-006
+5.0176000e+004    +3.9876414e-007    +1.7264500e-006
+5.0304000e+004    +4.1341698e-007    +1.6902522e-006
+5.0432000e+004    +4.1629298e-007    +1.5691636e-006
+5.0560000e+004    +4.1764628e-007    +1.5149855e-006
+5.0688000e+004    +3.8764802e-007    +1.6260966e-006
+5.0816000e+004    +3.9436870e-007    +1.4697146e-006
+5.0944000e+004    +4.0546649e-007    +1.4247479e-006
+5.1072000e+004    +4.0171150e-007    +1.5255297e-006
+5.1200000e+004    +3.9238924e-007    +1.5894163e-006
+5.1328000e+004    +4.0905849e-007    +1.5231982e-006
+5.1456000e+004    +4.0513231e-007    +1.4025113e-006
+5.1584000e+004    +3.8675822e-007    +1.5916727e-006
+5.1712000e+004    +3.7361386e-007    +1.5340353e-006
+5.1840000e+004    +4.0594313e-007    +1.3748705e-006
+5.1968000e+004    +4.0096592e-007    +1.4487409e-006
+5.2096000e+004    +3.8769099e-007    +1.4701616e-006
+5.2224000e+004    +3.9788904e-007    +1.4184047e-006
+5.2352000e+004    +3.9514671e-007    +1.4361297e-006
+5.2480000e+004    +3.7940288e-007    +1.5081429e-006
+5.2608000e+004    +3.8223143e-007    +1.4487218e-006
+5.2736000e+004    +3.7685166e-007    +1.4326287e-006
+5.2864000e+004    +3.5133934e-007    +1.4153478e-006
+5.2992000e+004    +3.7877021e-007    +1.4664296e-006
+5.3120000e+004    +3.8928926e-007    +1.4455853e-006
+5.3248000e+004    +3.7308178e-007    +1.5196786e-006
+5.3376000e+004    +3.7803443e-007    +1.6067166e-006
+5.3504000e+004    +3.7541821e-007    +1.6723205e-006
+5.3632000e+004    +3.9210974e-007    +1.6963020e-006
+5.3760000e+004    +4.0380493e-007    +1.6845829e-006
+5.3888000e+004    +3.7798918e-007    +1.5799512e-006
+5.4016000e+004    +3.4759370e-007    +1.7123010e-006
+5.4144000e+004    +3.6505347e-007    +1.7562004e-006
+5.4272000e+004    +3.6282734e-007    +1.7822787e-006
+5.4400000e+004    +3.4834636e-007    +1.7219010e-006
+5.4528000e+004    +3.3958810e-007    +1.7842209e-006
+5.4656000e+004    +3.5922181e-007    +1.8220489e-006
+5.4784000e+004    +3.6239658e-007    +1.8777293e-006
+5.4912000e+004    +3.6533694e-007    +2.0155001e-006
+5.5040000e+004    +5.4800472e-007    +2.0665509e-006
+5.5168000e+004    +9.1058911e-007    +2.0716238e-006
+5.5296000e+004    +5.5239286e-007    +2.1171577e-006
+5.5424000e+004    +4.1055864e-007    +1.9275201e-006
+5.5552000e+004    +7.2743228e-007    +1.8332904e-006
+5.5680000e+004    +6.3634178e-007    +2.0467451e-006
+5.5808000e+004    +3.8853517e-007    +1.8592903e-006
+5.5936000e+004    +3.6184829e-007    +1.9546931e-006
+5.6064000e+004    +3.5783225e-007    +2.0072780e-006
+5.6192000e+004    +3.7850580e-007    +1.9973959e-006
+5.6320000e+004    +3.4981429e-007    +1.8770656e-006
+5.6448000e+004    +3.3120892e-007    +1.9050830e-006
+5.6576000e+004    +3.6357147e-007    +1.9959994e-006
+5.6704000e+004    +3.9377119e-007    +1.8511872e-006
+5.6832000e+004    +3.6289947e-007    +1.8448727e-006
+5.6960000e+004    +3.4296417e-007    +1.8588228e-006
+5.7088000e+004    +3.3438346e-007    +1.9163256e-006
+5.7216000e+004    +3.5033281e-007    +1.9313163e-006
+5.7344000e+004    +3.6982641e-007    +1.9006767e-006
+5.7472000e+004    +3.8241279e-007    +1.7703097e-006
+5.7600000e+004    +3.5757304e-007    +1.8474450e-006
+5.7728000e+004    +3.4900981e-007    +1.8711498e-006
+5.7856000e+004    +3.3963880e-007    +1.8621300e-006
+5.7984000e+004    +3.6338628e-007    +1.7729416e-006
+5.8112000e+004    +3.6680279e-007    +1.6990028e-006
+5.8240000e+004    +3.7246417e-007    +1.7907209e-006
+5.8368000e+004    +3.6124808e-007    +1.8574498e-006
+5.8496000e+004    +3.3982903e-007    +1.7694741e-006
+5.8624000e+004    +3.7867332e-007    +1.6598503e-006
+5.8752000e+004    +3.8665036e-007    +1.7433573e-006
+5.8880000e+004    +3.7913136e-007    +1.7318418e-006
+5.9008000e+004    +3.5675029e-007    +1.7214794e-006
+5.9136000e+004    +3.3416362e-007    +1.5888807e-006
+5.9264000e+004    +3.4479498e-007    +1.6203205e-006
+5.9392000e+004    +3.5238514e-007    +1.6312019e-006
+5.9520000e+004    +3.5940408e-007    +1.6182083e-006
+5.9648000e+004    +3.5851650e-007    +1.6818127e-006
+5.9776000e+004    +3.3315544e-007    +1.6678683e-006
+5.9904000e+004    +3.5406441e-007    +1.6938100e-006
+6.0032000e+004    +3.4589269e-007    +1.7749536e-006
+6.0160000e+004    +3.5939618e-007    +1.7302035e-006
+6.0288000e+004    +3.6063699e-007    +1.6143663e-006
+6.0416000e+004    +3.5139374e-007    +1.6870670e-006
+6.0544000e+004    +3.5744662e-007    +1.7592902e-006
+6.0672000e+004    +3.3416728e-007    +1.8816094e-006
+6.0800000e+004    +3.3076338e-007    +1.8652526e-006
+6.0928000e+004    +3.3836437e-007    +1.6866113e-006
+6.1056000e+004    +3.4361699e-007    +1.7377427e-006
+6.1184000e+004    +3.4802139e-007    +1.7336587e-006
+6.1312000e+004    +3.6004391e-007    +1.7364763e-006
+6.1440000e+004    +3.5066606e-007    +1.7975150e-006
+6.1568000e+004    +3.4701409e-007    +1.7184032e-006
+6.1696000e+004    +3.6302060e-007    +1.6062122e-006
+6.1824000e+004    +3.7545533e-007    +1.7794845e-006
+6.1952000e+004    +3.5216195e-007    +1.7905735e-006
+6.2080000e+004    +3.6528201e-007    +1.8891008e-006
+6.2208000e+004    +3.4135627e-007    +1.9578720e-006
+6.2336000e+004    +3.3051035e-007    +1.8472483e-006
+6.2464000e+004    +3.1846784e-007    +1.7328632e-006
+6.2592000e+004    +3.2088721e-007    +1.8601438e-006
+6.2720000e+004    +3.5023857e-007    +2.0052846e-006
+6.2848000e+004    +3.3986373e-007    +1.9870017e-006
+6.2976000e+004    +3.3496588e-007    +1.7999976e-006
+6.3104000e+004    +3.6108389e-007    +1.6997100e-006
+6.3232000e+004    +3.4328667e-007    +1.7564896e-006
+6.3360000e+004    +3.4306399e-007    +1.8362376e-006
+6.3488000e+004    +3.4575905e-007    +1.7754818e-006
+6.3616000e+004    +3.3702437e-007    +1.6192286e-006
+6.3744000e+004    +3.2988098e-007    +1.5472633e-006
+6.3872000e+004    +3.3512370e-007    +1.6868873e-006
+6.4000000e+004    +3.3384970e-007    +1.8350183e-006
+6.4128000e+004    +3.3928174e-007    +1.8190347e-006
+6.4256000e+004    +3.4278986e-007    +1.7094645e-006
+6.4384000e+004    +3.5053250e-007    +1.6584258e-006
+6.4512000e+004    +3.4623429e-007    +1.5350209e-006
+6.4640000e+004    +3.6032588e-007    +1.6209486e-006
+6.4768000e+004    +3.5536405e-007    +1.6995494e-006
+6.4896000e+004    +3.4733884e-007    +1.6532662e-006
+6.5024000e+004    +3.5571694e-007    +1.7259611e-006
+6.5152000e+004    +3.4576206e-007    +1.7776606e-006
+6.5280000e+004    +3.4247574e-007    +1.6392129e-006
+6.5408000e+004    +3.4845345e-007    +1.6823409e-006
+6.5536000e+004    +3.4933529e-007    +1.7833181e-006
+6.5664000e+004    +3.4031743e-007    +1.7514960e-006
+6.5792000e+004    +3.4049197e-007    +1.5893675e-006
+6.5920000e+004    +3.4430167e-007    +1.6486149e-006
+6.6048000e+004    +3.4917537e-007    +1.7502964e-006
+6.6176000e+004    +3.3517264e-007    +1.7623526e-006
+6.6304000e+004    +3.1951612e-007    +1.7575990e-006
+6.6432000e+004    +3.3716873e-007    +1.6626337e-006
+6.6560000e+004    +3.3588660e-007    +1.6030444e-006
+6.6688000e+004    +3.1815506e-007    +1.5297850e-006
+6.6816000e+004    +3.1605214e-007    +1.5203962e-006
+6.6944000e+004    +3.2537017e-007    +1.6509334e-006
+6.7072000e+004    +3.5181182e-007    +1.4951623e-006
+6.7200000e+004    +3.4168664e-007    +1.5501081e-006
+6.7328000e+004    +3.1299663e-007    +1.6038050e-006
+6.7456000e+004    +3.3850631e-007    +1.6417598e-006
+6.7584000e+004    +3.1854267e-007    +1.7193713e-006
+6.7712000e+004    +3.3840672e-007    +1.6836159e-006
+6.7840000e+004    +3.4157335e-007    +1.7048966e-006
+6.7968000e+004    +3.4045908e-007    +1.8215928e-006
+6.8096000e+004    +3.3506484e-007    +1.7763085e-006
+6.8224000e+004    +3.3762328e-007    +1.4957501e-006
+6.8352000e+004    +3.3331423e-007    +1.4792029e-006
+6.8480000e+004    +3.2677323e-007    +1.5947513e-006
+6.8608000e+004    +3.3569231e-007    +1.6015737e-006
+6.8736000e+004    +3.2261400e-007    +1.5631244e-006
+6.8864000e+004    +3.2434295e-007    +1.6069055e-006
+6.8992000e+004    +3.4083720e-007    +1.7086576e-006
+6.9120000e+004    +3.5030203e-007    +1.6870947e-006
+6.9248000e+004    +3.4476849e-007    +1.5833463e-006
+6.9376000e+004    +3.3053502e-007    +1.6031413e-006
+6.9504000e+004    +3.3530588e-007    +1.6459995e-006
+6.9632000e+004    +3.2993060e-007    +1.6137815e-006
+6.9760000e+004    +3.3338634e-007    +1.5886469e-006
+6.9888000e+004    +3.2191872e-007    +1.5462495e-006
+7.0016000e+004    +3.3086181e-007    +1.5855383e-006
+7.0144000e+004    +5.6631177e-007    +1.7145416e-006
+7.0272000e+004    +8.7807962e-007    +1.9212152e-006
+7.0400000e+004    +4.9057002e-007    +1.6758626e-006
+7.0528000e+004    +3.1483196e-007    +1.6359011e-006
+7.0656000e+004    +3.6485230e-007    +1.7502331e-006
+7.0784000e+004    +4.5873207e-007    +1.8531211e-006
+7.0912000e+004    +3.7348630e-007    +1.8156305e-006
+7.1040000e+004    +3.2310035e-007    +1.6385453e-006
+7.1168000e+004    +3.3748873e-007    +1.7249872e-006
+7.1296000e+004    +3.4374153e-007    +1.7509500e-006
+7.1424000e+004    +3.3536588e-007    +1.7069943e-006
+7.1552000e+004    +3.3071510e-007    +1.7759926e-006
+7.1680000e+004    +3.8018223e-007    +1.7100239e-006
+7.1808000e+004    +3.9436438e-007    +1.6746689e-006
+7.1936000e+004    +3.5305433e-007    +1.7041779e-006
+7.2064000e+004    +3.5158322e-007    +1.8024657e-006
+7.2192000e+004    +3.7562603e-007    +1.7545333e-006
+7.2320000e+004    +3.9513412e-007    +1.6823317e-006
+7.2448000e+004    +3.4500212e-007    +1.7690604e-006
+7.2576000e+004    +3.0417152e-007    +1.7752186e-006
+7.2704000e+004    +3.2133886e-007    +1.7175166e-006
+7.2832000e+004    +3.4084096e-007    +1.7963214e-006
+7.2960000e+004    +3.3436217e-007    +1.8791814e-006
+7.3088000e+004    +3.5357996e-007    +1.7284282e-006
+7.3216000e+004    +3.4083794e-007    +1.7327662e-006
+7.3344000e+004    +3.4736439e-007    +1.8600253e-006
+7.3472000e+004    +3.4229004e-007    +1.8582045e-006
+7.3600000e+004    +3.4848520e-007    +1.9127499e-006
+7.3728000e+004    +3.4240730e-007    +1.8262569e-006
+7.3856000e+004    +3.4064567e-007    +1.7025565e-006
+7.3984000e+004    +3.3184958e-007    +1.6935886e-006
+7.4112000e+004    +3.2257432e-007    +1.9549013e-006
+7.4240000e+004    +3.3823360e-007    +2.0329444e-006
+7.4368000e+004    +3.5272345e-007    +2.0027298e-006
+7.4496000e+004    +3.6485110e-007    +1.8410544e-006
+7.4624000e+004    +3.4474843e-007    +1.8678143e-006
+7.4752000e+004    +3.4232951e-007    +1.8287591e-006
+7.4880000e+004    +3.3969661e-007    +1.7761856e-006
+7.5008000e+004    +3.2843104e-007    +1.7829069e-006
+7.5136000e+004    +3.3246553e-007    +1.8513214e-006
+7.5264000e+004    +3.3559795e-007    +1.8608424e-006
+7.5392000e+004    +3.3894068e-007    +1.9020316e-006
+7.5520000e+004    +3.5478706e-007    +1.9389843e-006
+7.5648000e+004    +3.3675215e-007    +1.9479187e-006
+7.5776000e+004    +3.5878270e-007    +1.8658159e-006
+7.5904000e+004    +3.4877803e-007    +1.7365639e-006
+7.6032000e+004    +3.4145225e-007    +1.7463325e-006
+7.6160000e+004    +3.3304792e-007    +1.7790176e-006
+7.6288000e+004    +3.3759250e-007    +2.8843515e-006
+7.6416000e+004    +3.5456858e-007    +1.0108736e-005
+7.6544000e+004    +3.3525140e-007    +9.7907750e-006
+7.6672000e+004    +3.2352349e-007    +2.6362879e-006
+7.6800000e+004    +3.4315741e-007    +1.9475872e-006
+7.6928000e+004    +3.4944767e-007    +1.9167253e-006
+7.7056000e+004    +3.3380277e-007    +1.9711890e-006
+7.7184000e+004    +3.3483829e-007    +1.9744100e-006
+7.7312000e+004    +3.2990053e-007    +1.9542424e-006
+7.7440000e+004    +3.5087248e-007    +1.8310394e-006
+7.7568000e+004    +1.0251862e-006    +1.6433955e-006
+7.7696000e+004    +2.1224271e-006    +1.7660038e-006
+7.7824000e+004    +1.1732557e-006    +1.7309255e-006
+7.7952000e+004    +3.4656097e-007    +1.8283916e-006
+7.8080000e+004    +3.5935869e-007    +1.8491314e-006
+7.8208000e+004    +3.6225296e-007    +1.8802216e-006
+7.8336000e+004    +3.7998151e-007    +1.9564516e-006
+7.8464000e+004    +3.6240374e-007    +1.8915831e-006
+7.8592000e+004    +3.4660474e-007    +1.8416953e-006
+7.8720000e+004    +3.3997236e-007    +1.6687860e-006
+7.8848000e+004    +3.4108467e-007    +1.9203401e-006
+7.8976000e+004    +3.3514209e-007    +2.1434757e-006
+7.9104000e+004    +3.3823881e-007    +2.0411280e-006
+7.9232000e+004    +3.4785407e-007    +1.9267900e-006
+7.9360000e+004    +4.0514030e-007    +1.9886363e-006
+7.9488000e+004    +5.9215472e-007    +2.0442972e-006
+7.9616000e+004    +4.5375731e-007    +1.9487466e-006
+7.9744000e+004    +3.7488439e-007    +1.9719466e-006
+7.9872000e+004    +3.5172724e-007    +1.9131826e-006
+8.0000000e+004    +3.4732054e-007    +1.6980274e-006
+8.0128000e+004    +3.6725615e-007    +1.8046181e-006
+8.0256000e+004    +3.6878353e-007    +1.8802318e-006
+8.0384000e+004    +3.7192228e-007    +1.9935399e-006
+8.0512000e+004    +3.3981561e-007    +2.1556634e-006
+8.0640000e+004    +3.2713220e-007    +2.1120475e-006
+8.0768000e+004    +4.0889549e-007    +2.0092250e-006
+8.0896000e+004    +4.1055910e-007    +1.9756915e-006
+8.1024000e+004    +3.6492924e-007    +2.0019165e-006
+8.1152000e+004    +3.6093527e-007    +1.9421909e-006
+8.1280000e+004    +3.6085046e-007    +1.9950398e-006
+8.1408000e+004    +3.6061084e-007    +1.9259398e-006
+8.1536000e+004    +3.5915122e-007    +1.8659756e-006
+8.1664000e+004    +3.5986923e-007    +2.0058812e-006
+8.1792000e+004    +3.4161459e-007    +1.8912259e-006
+8.1920000e+004    +3.6299309e-007    +2.0924742e-006
+8.2048000e+004    +3.7118593e-007    +2.0273874e-006
+8.2176000e+004    +3.8480258e-007    +1.8936549e-006
+8.2304000e+004    +3.6827370e-007    +1.8717169e-006
+8.2432000e+004    +3.7705405e-007    +1.9467961e-006
+8.2560000e+004    +3.6536863e-007    +1.8713758e-006
+8.2688000e+004    +3.7071797e-007    +1.9567158e-006
+8.2816000e+004    +3.4920643e-007    +1.8241227e-006
+8.2944000e+004    +3.4626356e-007    +1.9089020e-006
+8.3072000e+004    +3.7003358e-007    +1.9926711e-006
+8.3200000e+004    +3.5779766e-007    +1.8981491e-006
+8.3328000e+004    +3.4071562e-007    +1.9628676e-006
+8.3456000e+004    +3.6954717e-007    +1.9810416e-006
+8.3584000e+004    +3.5894661e-007    +1.8686245e-006
+8.3712000e+004    +3.5248846e-007    +1.8789978e-006
+8.3840000e+004    +3.6278990e-007    +1.9002198e-006
+8.3968000e+004    +3.5305510e-007    +2.0053308e-006
+8.4096000e+004    +3.4994414e-007    +1.8739645e-006
+8.4224000e+004    +3.3301865e-007    +1.6921053e-006
+8.4352000e+004    +3.5973412e-007    +1.7813807e-006
+8.4480000e+004    +3.6411956e-007    +1.9424533e-006
+8.4608000e+004    +3.5494290e-007    +1.9667530e-006
+8.4736000e+004    +3.4637952e-007    +1.9125860e-006
+8.4864000e+004    +3.3040803e-007    +1.9519521e-006
+8.4992000e+004    +3.3799381e-007    +1.9772931e-006
+8.5120000e+004    +3.5925851e-007    +1.9371905e-006
+8.5248000e+004    +3.6420553e-007    +1.9206625e-006
+8.5376000e+004    +3.6351759e-007    +2.0413543e-006
+8.5504000e+004    +3.7033351e-007    +2.1237604e-006
+8.5632000e+004    +3.6147463e-007    +2.1821606e-006
+8.5760000e+004    +3.5306945e-007    +2.0220475e-006
+8.5888000e+004    +3.6290623e-007    +1.9447239e-006
+8.6016000e+004    +3.6063815e-007    +1.9581428e-006
+8.6144000e+004    +3.4678936e-007    +1.8078746e-006
+8.6272000e+004    +3.2706362e-007    +1.8550836e-006
+8.6400000e+004    +3.2091469e-007    +1.9735669e-006
+8.6528000e+004    +3.2838670e-007    +1.9524236e-006
+8.6656000e+004    +3.8479118e-007    +1.8672750e-006
+8.6784000e+004    +4.2632024e-007    +1.8393390e-006
+8.6912000e+004    +3.7047829e-007    +2.0044063e-006
+8.7040000e+004    +3.4109664e-007    +1.9620252e-006
+8.7168000e+004    +3.3451309e-007    +1.9036695e-006
+8.7296000e+004    +3.3737982e-007    +1.8915042e-006
+8.7424000e+004    +3.2869656e-007    +1.8791029e-006
+8.7552000e+004    +3.1953542e-007    +1.8195980e-006
+8.7680000e+004    +3.3224549e-007    +1.8985243e-006
+8.7808000e+004    +5.9310145e-007    +2.0982948e-006
+8.7936000e+004    +7.8110730e-007    +2.0416255e-006
+8.8064000e+004    +4.0823338e-007    +1.8768163e-006
+8.8192000e+004    +3.4204510e-007    +2.0115669e-006
+8.8320000e+004    +3.5810226e-007    +2.1291232e-006
+8.8448000e+004    +3.4361247e-007    +2.1496978e-006
+8.8576000e+004    +3.5041589e-007    +2.1395726e-006
+8.8704000e+004    +3.4729615e-007    +2.0197356e-006
+8.8832000e+004    +3.4334923e-007    +1.9228169e-006
+8.8960000e+004    +3.3116419e-007    +2.0331206e-006
+8.9088000e+004    +3.3288487e-007    +2.0419798e-006
+8.9216000e+004    +3.4380795e-007    +2.0040300e-006
+8.9344000e+004    +3.5426078e-007    +1.9726526e-006
+8.9472000e+004    +3.4883627e-007    +1.9613424e-006
+8.9600000e+004    +3.2897094e-007    +2.1651610e-006
+8.9728000e+004    +3.2890449e-007    +2.0345074e-006
+8.9856000e+004    +3.2651499e-007    +2.1251599e-006
+8.9984000e+004    +3.5088405e-007    +2.0629509e-006
+9.0112000e+004    +3.3022235e-007    +1.9440984e-006
+9.0240000e+004    +3.3219590e-007    +1.9670358e-006
+9.0368000e+004    +3.2759263e-007    +1.9757133e-006
+9.0496000e+004    +3.1804782e-007    +2.0456444e-006
+9.0624000e+004    +3.2031872e-007    +1.8797778e-006
+9.0752000e+004    +3.1764685e-007    +1.7506732e-006
+9.0880000e+004    +3.1257972e-007    +1.8927943e-006
+9.1008000e+004    +3.3532797e-007    +1.8413981e-006
+9.1136000e+004    +3.2069596e-007    +1.8990100e-006
+9.1264000e+004    +3.1038275e-007    +1.8133494e-006
+9.1392000e+004    +3.0618025e-007    +2.0320674e-006
+9.1520000e+004    +2.9500254e-007    +2.1110391e-006
+9.1648000e+004    +3.1162844e-007    +2.0326700e-006
+9.1776000e+004    +3.0644495e-007    +2.0945636e-006
+9.1904000e+004    +3.1878304e-007    +2.0637369e-006
+9.2032000e+004    +3.2788986e-007    +2.0230559e-006
+9.2160000e+004    +3.2399734e-007    +1.8264956e-006
+9.2288000e+004    +3.3581910e-007    +1.8334998e-006
+9.2416000e+004    +3.4141249e-007    +2.0073992e-006
+9.2544000e+004    +3.2778260e-007    +1.8862303e-006
+9.2672000e+004    +2.9541741e-007    +1.9324616e-006
+9.2800000e+004    +2.8599280e-007    +2.0230468e-006
+9.2928000e+004    +2.8631956e-007    +1.9977140e-006
+9.3056000e+004    +3.0185959e-007    +2.0523416e-006
+9.3184000e+004    +3.1680256e-007    +1.9311890e-006
+9.3312000e+004    +3.1712517e-007    +1.9393058e-006
+9.3440000e+004    +3.0099051e-007    +1.9535580e-006
+9.3568000e+004    +2.9086357e-007    +1.9685763e-006
+9.3696000e+004    +2.8914764e-007    +1.8726008e-006
+9.3824000e+004    +2.8590551e-007    +1.9242425e-006
+9.3952000e+004    +2.7402635e-007    +1.9649292e-006
+9.4080000e+004    +2.8708732e-007    +1.9396380e-006
+9.4208000e+004    +3.0916004e-007    +1.8535627e-006
+9.4336000e+004    +4.0220536e-007    +1.8994333e-006
+9.4464000e+004    +8.6326258e-007    +1.7604167e-006
+9.4592000e+004    +7.4085193e-007    +1.9028316e-006
+9.4720000e+004    +3.3128674e-007    +1.9532813e-006
+9.4848000e+004    +4.1295155e-007    +1.9154020e-006
+9.4976000e+004    +3.2930416e-007    +1.8811363e-006
+9.5104000e+004    +2.9135612e-007    +1.8637786e-006
+9.5232000e+004    +2.8608292e-007    +1.9887061e-006
+9.5360000e+004    +2.6824117e-007    +1.9440279e-006
+9.5488000e+004    +2.5745243e-007    +1.9908516e-006
+9.5616000e+004    +2.8655668e-007    +1.8972157e-006
+9.5744000e+004    +2.8670334e-007    +2.0025673e-006
+9.5872000e+004    +3.0724610e-007    +1.8398480e-006
+9.6000000e+004    +3.1184305e-007    +1.8777521e-006
+9.6128000e+004    +2.9922668e-007    +1.9931613e-006
+9.6256000e+004    +2.9828658e-007    +1.9374054e-006
+9.6384000e+004    +3.1702527e-007    +2.0084267e-006
+9.6512000e+004    +3.0303181e-007    +1.9910265e-006
+9.6640000e+004    +3.1267959e-007    +1.8428927e-006
+9.6768000e+004    +3.0048596e-007    +1.9520294e-006
+9.6896000e+004    +2.8820250e-007    +1.8912674e-006
+9.7024000e+004    +2.7918671e-007    +1.8441558e-006
+9.7152000e+004    +2.8127400e-007    +1.9082754e-006
+9.7280000e+004    +2.8961597e-007    +1.9659715e-006
+9.7408000e+004    +2.8740681e-007    +1.9156291e-006
+9.7536000e+004    +2.9460730e-007    +1.7724627e-006
+9.7664000e+004    +3.2921051e-007    +2.0235689e-006
+9.7792000e+004    +3.5673227e-007    +1.9422484e-006
+9.7920000e+004    +4.2657214e-007    +1.8282993e-006
+9.8048000e+004    +5.0311229e-007    +1.8978761e-006
+9.8176000e+004    +5.8483528e-007    +1.8293233e-006
+9.8304000e+004    +6.9390649e-007    +1.8481998e-006
+9.8432000e+004    +8.8995392e-007    +1.8473842e-006
+9.8560000e+004    +1.0655061e-006    +1.9075089e-006
+9.8688000e+004    +1.2636613e-006    +1.9648428e-006
+9.8816000e+004    +1.4547772e-006    +1.8875893e-006
+9.8944000e+004    +1.5229156e-006    +1.6884957e-006
+9.9072000e+004    +1.4305523e-006    +1.7886440e-006
+9.9200000e+004    +1.1752760e-006    +1.7406204e-006
+9.9328000e+004    +9.1888995e-007    +1.8369293e-006
+9.9456000e+004    +9.9944896e-007    +1.9501999e-006
+9.9584000e+004    +1.3199857e-006    +1.9476747e-006
+9.9712000e+004    +1.3847512e-006    +1.8524356e-006
+9.9840000e+004    +1.1129677e-006    +1.8077654e-006
+9.9968000e+004    +1.0349021e-006    +1.8295121e-006
+1.0009600e+005    +1.3596366e-006    +2.0159559e-006
+1.0022400e+005    +1.4424603e-006    +1.8873552e-006
+1.0035200e+005    +1.3170426e-006    +1.6926629e-006
+1.0048000e+005    +1.4139747e-006    +1.6376317e-006
+1.0060800e+005    +1.4808473e-006    +1.7871481e-006
+1.0073600e+005    +1.3245589e-006    +1.8759242e-006
+1.0086400e+005    +1.4573368e-006    +1.8713367e-006
+1.0099200e+005    +1.4166521e-006    +1.8720478e-006
+1.0112000e+005    +1.4011276e-006    +1.8189727e-006
+1.0124800e+005    +1.4287880e-006    +1.7657304e-006
+1.0137600e+005    +1.3425314e-006    +1.8080055e-006
+1.0150400e+005    +1.3597605e-006    +1.8377887e-006
+1.0163200e+005    +1.3828732e-006    +1.8053930e-006
+1.0176000e+005    +1.3554676e-006    +1.7914053e-006
+1.0188800e+005    +1.3875393e-006    +1.6713716e-006
+1.0201600e+005    +1.3656000e-006    +1.6888517e-006
+1.0214400e+005    +1.2770050e-006    +1.7193204e-006
+1.0227200e+005    +1.4267343e-006    +1.7112579e-006
