# North DC Val: 0.68077887 VoltsSouth DC Val: 0.5833997700000001 Volts
# SR785 Measurement - Timestamp: Jun 18 2020 - 12:52:32
# Parameter File: /home/controls/Git/cit_ctnlab/ctn_scripts/TransRINSpecLong.yml
#---------- Measurement Setup ------------
# Start Frequency (Hz): 0.000000
# Frequency Span (Hz): 800.000000
# Frequency Resolution: 800
# Number of Averages: 100
# Averaging Mode: RMS
# Window function: Hanning
#---------- Measurement Parameters ----------
# Measurement Group:  "FFT" "FFT"
# Measurements:  "FFT 1" "FFT 2"
# View:  "Log Magnitude" "Log Magnitude"
# Unit:  "Vrms/rtHz" "Vrms/rtHz"
#---------- Input Parameters ----------
# Input Source: Analog
# Input Mode: Single ended, Single ended
# Input Grounding: Float, Float
# Input Coupling: AC, AC
# Input Range: 36.0dBVpk, -36.0dBVpk
# Auto Range: Off, Off
# Auto Range Mode: Tracking, Tracking
# Anti-Aliasing Filter: On, On
#---------- Source Parameters ----------
# Source Type: Sine
# Source Amplitude: 500.0mVpk
# Source On: 0

#---------- Measurement Data ----------
# [Freq(Hz) Display 0(Vrms/rtHz) Display 1(Vrms/rtHz) ]
+0.0000000e+000    +6.0769502e-004    +2.2216671e-004
+1.0000000e+000    +4.5824854e-004    +1.3119544e-004
+2.0000000e+000    +4.0333546e-004    +3.6301622e-005
+3.0000000e+000    +3.5138137e-004    +1.9925397e-005
+4.0000000e+000    +1.2960160e-004    +8.9828363e-006
+5.0000000e+000    +4.4865716e-005    +4.2236838e-006
+6.0000000e+000    +2.6579641e-005    +3.1853008e-006
+7.0000000e+000    +2.8907527e-005    +2.4015269e-006
+8.0000000e+000    +1.7705857e-005    +1.8630830e-006
+9.0000000e+000    +1.3253881e-005    +1.6551278e-006
+1.0000000e+001    +1.2943436e-005    +1.5109339e-006
+1.1000000e+001    +1.1871949e-005    +1.1620776e-006
+1.2000000e+001    +1.0625504e-005    +8.4675588e-007
+1.3000000e+001    +1.1092407e-005    +7.5393456e-007
+1.4000000e+001    +1.2252034e-005    +6.9958816e-007
+1.5000000e+001    +8.4419098e-006    +6.0620761e-007
+1.6000000e+001    +5.9267245e-006    +6.2965449e-007
+1.7000000e+001    +5.4034635e-006    +5.4624462e-007
+1.8000000e+001    +4.4036437e-006    +4.4306233e-007
+1.9000000e+001    +4.2136048e-006    +4.5216535e-007
+2.0000000e+001    +5.1880934e-006    +4.3847024e-007
+2.1000000e+001    +4.9108576e-006    +3.7961246e-007
+2.2000000e+001    +3.6421072e-006    +3.7648113e-007
+2.3000000e+001    +3.6407000e-006    +3.6415634e-007
+2.4000000e+001    +2.7213412e-006    +3.4616016e-007
+2.5000000e+001    +2.0535206e-006    +3.1356899e-007
+2.6000000e+001    +1.6862817e-006    +2.9803317e-007
+2.7000000e+001    +1.6766944e-006    +2.5890719e-007
+2.8000000e+001    +1.7376797e-006    +2.4412665e-007
+2.9000000e+001    +1.7266017e-006    +2.3737026e-007
+3.0000000e+001    +1.6797605e-006    +2.3048530e-007
+3.1000000e+001    +1.1553019e-006    +2.3572727e-007
+3.2000000e+001    +9.0360652e-007    +2.3541430e-007
+3.3000000e+001    +9.4450547e-007    +2.0411593e-007
+3.4000000e+001    +1.3544812e-006    +2.1026190e-007
+3.5000000e+001    +8.7649994e-007    +2.0825659e-007
+3.6000000e+001    +6.3565324e-007    +1.8793692e-007
+3.7000000e+001    +6.1809499e-007    +1.7649745e-007
+3.8000000e+001    +5.2967738e-007    +1.6123930e-007
+3.9000000e+001    +5.1950587e-007    +1.7033473e-007
+4.0000000e+001    +4.3777081e-007    +1.7412033e-007
+4.1000000e+001    +3.9863326e-007    +1.6682493e-007
+4.2000000e+001    +4.1149190e-007    +1.5754301e-007
+4.3000000e+001    +4.9813349e-007    +1.5049108e-007
+4.4000000e+001    +4.5221103e-007    +1.4062707e-007
+4.5000000e+001    +3.4031481e-007    +1.2846608e-007
+4.6000000e+001    +3.6872279e-007    +1.3603055e-007
+4.7000000e+001    +4.0826924e-007    +1.3747889e-007
+4.8000000e+001    +4.0923189e-007    +1.2514130e-007
+4.9000000e+001    +4.0083299e-007    +1.1161544e-007
+5.0000000e+001    +3.9113453e-007    +1.1232910e-007
+5.1000000e+001    +3.5985857e-007    +1.1329921e-007
+5.2000000e+001    +3.2987447e-007    +1.0758072e-007
+5.3000000e+001    +4.0749626e-007    +1.1506270e-007
+5.4000000e+001    +4.7656960e-007    +1.0992131e-007
+5.5000000e+001    +4.3780349e-007    +1.0661813e-007
+5.6000000e+001    +3.7556086e-007    +1.0936598e-007
+5.7000000e+001    +4.0650599e-007    +1.0616012e-007
+5.8000000e+001    +5.0171775e-007    +9.7032455e-008
+5.9000000e+001    +5.6178590e-007    +1.0686085e-007
+6.0000000e+001    +7.8609736e-007    +1.1653920e-007
+6.1000000e+001    +6.1965306e-007    +9.4686662e-008
+6.2000000e+001    +5.4074218e-007    +8.5320920e-008
+6.3000000e+001    +5.4386220e-007    +8.6071388e-008
+6.4000000e+001    +5.2341750e-007    +8.7242903e-008
+6.5000000e+001    +5.3159300e-007    +8.4251589e-008
+6.6000000e+001    +5.5557280e-007    +8.2812988e-008
+6.7000000e+001    +5.3547211e-007    +7.9589803e-008
+6.8000000e+001    +5.7683314e-007    +8.0058435e-008
+6.9000000e+001    +5.1498364e-007    +7.8484341e-008
+7.0000000e+001    +4.1561796e-007    +7.9433363e-008
+7.1000000e+001    +3.9081388e-007    +7.3783134e-008
+7.2000000e+001    +3.4406889e-007    +7.8613361e-008
+7.3000000e+001    +3.1784779e-007    +7.8321385e-008
+7.4000000e+001    +3.0133407e-007    +7.2253449e-008
+7.5000000e+001    +2.7937497e-007    +6.8117266e-008
+7.6000000e+001    +2.5749455e-007    +6.9905525e-008
+7.7000000e+001    +2.5337388e-007    +7.0871089e-008
+7.8000000e+001    +2.5965363e-007    +6.7450948e-008
+7.9000000e+001    +2.2607391e-007    +6.7730205e-008
+8.0000000e+001    +2.3013710e-007    +6.9379837e-008
+8.1000000e+001    +2.1549654e-007    +6.6573193e-008
+8.2000000e+001    +1.9173883e-007    +6.4843974e-008
+8.3000000e+001    +1.7641646e-007    +6.5475980e-008
+8.4000000e+001    +1.8218329e-007    +6.4608315e-008
+8.5000000e+001    +1.7171924e-007    +6.1314182e-008
+8.6000000e+001    +1.5816974e-007    +5.7692183e-008
+8.7000000e+001    +1.6231374e-007    +5.8493033e-008
+8.8000000e+001    +1.6433648e-007    +5.6764456e-008
+8.9000000e+001    +1.4800639e-007    +5.3052247e-008
+9.0000000e+001    +1.5369839e-007    +5.6436829e-008
+9.1000000e+001    +1.4173227e-007    +6.0037991e-008
+9.2000000e+001    +1.4037283e-007    +5.6106039e-008
+9.3000000e+001    +1.4752048e-007    +5.7694212e-008
+9.4000000e+001    +1.5125423e-007    +5.6130379e-008
+9.5000000e+001    +1.3227336e-007    +5.5076377e-008
+9.6000000e+001    +1.2967405e-007    +5.4456791e-008
+9.7000000e+001    +1.2289435e-007    +5.2313194e-008
+9.8000000e+001    +1.3435931e-007    +5.0942120e-008
+9.9000000e+001    +1.4899871e-007    +5.2514093e-008
+1.0000000e+002    +1.5905196e-007    +5.4176791e-008
+1.0100000e+002    +1.3871981e-007    +5.2116953e-008
+1.0200000e+002    +1.2952066e-007    +5.4619544e-008
+1.0300000e+002    +1.3250025e-007    +5.7266259e-008
+1.0400000e+002    +1.2185640e-007    +5.4011856e-008
+1.0500000e+002    +1.1380489e-007    +5.3632590e-008
+1.0600000e+002    +1.2699300e-007    +5.2848360e-008
+1.0700000e+002    +1.2689753e-007    +5.6355649e-008
+1.0800000e+002    +1.1547009e-007    +5.7370475e-008
+1.0900000e+002    +1.2203863e-007    +5.2830899e-008
+1.1000000e+002    +1.1902320e-007    +5.1101104e-008
+1.1100000e+002    +1.1200103e-007    +5.3766072e-008
+1.1200000e+002    +1.1347450e-007    +5.4504223e-008
+1.1300000e+002    +1.1430932e-007    +5.2335544e-008
+1.1400000e+002    +1.1641107e-007    +5.0247799e-008
+1.1500000e+002    +1.1341570e-007    +5.2890737e-008
+1.1600000e+002    +1.2513539e-007    +5.1991961e-008
+1.1700000e+002    +1.2956531e-007    +5.1619903e-008
+1.1800000e+002    +1.3440697e-007    +5.0104891e-008
+1.1900000e+002    +4.9619405e-007    +5.2218795e-008
+1.2000000e+002    +1.0075594e-006    +5.2211799e-008
+1.2100000e+002    +5.2911878e-007    +4.7323510e-008
+1.2200000e+002    +1.4583148e-007    +5.0400132e-008
+1.2300000e+002    +1.5151186e-007    +4.9155616e-008
+1.2400000e+002    +1.6357448e-007    +4.5633286e-008
+1.2500000e+002    +1.7507577e-007    +4.9570232e-008
+1.2600000e+002    +1.9349754e-007    +5.0655494e-008
+1.2700000e+002    +1.9058341e-007    +4.7341128e-008
+1.2800000e+002    +1.7514152e-007    +4.6655146e-008
+1.2900000e+002    +1.9138591e-007    +4.5026347e-008
+1.3000000e+002    +1.8177229e-007    +4.5973447e-008
+1.3100000e+002    +1.7877977e-007    +4.4742045e-008
+1.3200000e+002    +1.6207244e-007    +4.4921908e-008
+1.3300000e+002    +1.4865653e-007    +4.3395481e-008
+1.3400000e+002    +1.4256429e-007    +4.9922580e-008
+1.3500000e+002    +1.2286709e-007    +5.0780677e-008
+1.3600000e+002    +1.2912393e-007    +4.5163148e-008
+1.3700000e+002    +1.3499766e-007    +4.4646843e-008
+1.3800000e+002    +1.3136602e-007    +4.5923148e-008
+1.3900000e+002    +1.3517609e-007    +4.8073289e-008
+1.4000000e+002    +1.3061556e-007    +4.5996622e-008
+1.4100000e+002    +1.6898997e-007    +4.9388728e-008
+1.4200000e+002    +2.4507926e-007    +4.9776443e-008
+1.4300000e+002    +3.8231161e-007    +4.6013845e-008
+1.4400000e+002    +5.2257394e-007    +4.6298346e-008
+1.4500000e+002    +6.9049486e-007    +4.8138205e-008
+1.4600000e+002    +6.0536559e-007    +4.4206523e-008
+1.4700000e+002    +4.0430223e-007    +4.6942322e-008
+1.4800000e+002    +2.8209203e-007    +5.0093998e-008
+1.4900000e+002    +1.9637234e-007    +4.8155279e-008
+1.5000000e+002    +1.7477578e-007    +4.9568328e-008
+1.5100000e+002    +2.2660274e-007    +4.7524654e-008
+1.5200000e+002    +1.7028331e-007    +4.5930864e-008
+1.5300000e+002    +1.1265629e-007    +4.3085699e-008
+1.5400000e+002    +1.1982975e-007    +4.2778503e-008
+1.5500000e+002    +1.3600666e-007    +4.5405084e-008
+1.5600000e+002    +1.0395542e-007    +4.5200551e-008
+1.5700000e+002    +9.2610051e-008    +4.5711612e-008
+1.5800000e+002    +1.0133361e-007    +4.4982862e-008
+1.5900000e+002    +8.7475399e-008    +4.7671875e-008
+1.6000000e+002    +9.0968278e-008    +4.9304749e-008
+1.6100000e+002    +9.4728250e-008    +4.8884623e-008
+1.6200000e+002    +8.4830802e-008    +4.9762729e-008
+1.6300000e+002    +8.4160988e-008    +4.9294194e-008
+1.6400000e+002    +8.7047709e-008    +4.8645610e-008
+1.6500000e+002    +8.5667864e-008    +4.7920675e-008
+1.6600000e+002    +7.7719605e-008    +4.7956465e-008
+1.6700000e+002    +8.1567947e-008    +4.7091255e-008
+1.6800000e+002    +8.3021106e-008    +4.2626688e-008
+1.6900000e+002    +8.5619533e-008    +4.3796696e-008
+1.7000000e+002    +8.4025352e-008    +4.3689496e-008
+1.7100000e+002    +8.5306027e-008    +4.6270703e-008
+1.7200000e+002    +8.3198401e-008    +4.6973103e-008
+1.7300000e+002    +8.2666723e-008    +4.5563695e-008
+1.7400000e+002    +7.9429356e-008    +4.6570698e-008
+1.7500000e+002    +7.6442959e-008    +4.5781430e-008
+1.7600000e+002    +7.6464453e-008    +5.3066053e-008
+1.7700000e+002    +7.8582730e-008    +5.2559432e-008
+1.7800000e+002    +7.6802607e-008    +4.8548554e-008
+1.7900000e+002    +2.6577132e-007    +6.4790243e-008
+1.8000000e+002    +5.2737067e-007    +1.0668652e-007
+1.8100000e+002    +2.8420385e-007    +6.8607022e-008
+1.8200000e+002    +7.9978925e-008    +4.9764367e-008
+1.8300000e+002    +7.6397733e-008    +5.0749964e-008
+1.8400000e+002    +7.7684199e-008    +4.9656844e-008
+1.8500000e+002    +7.9160245e-008    +5.3871432e-008
+1.8600000e+002    +8.0302556e-008    +5.2478416e-008
+1.8700000e+002    +8.8063821e-008    +5.1109577e-008
+1.8800000e+002    +8.8933461e-008    +5.3503783e-008
+1.8900000e+002    +8.4848594e-008    +5.2679372e-008
+1.9000000e+002    +8.1478440e-008    +5.1006875e-008
+1.9100000e+002    +8.1739273e-008    +5.0113805e-008
+1.9200000e+002    +8.1379909e-008    +5.1873755e-008
+1.9300000e+002    +7.7458417e-008    +4.8686594e-008
+1.9400000e+002    +6.8932451e-008    +5.2270938e-008
+1.9500000e+002    +7.5643861e-008    +4.6037595e-008
+1.9600000e+002    +7.4674084e-008    +5.1520363e-008
+1.9700000e+002    +6.8596549e-008    +5.3963014e-008
+1.9800000e+002    +7.6115995e-008    +5.2842907e-008
+1.9900000e+002    +8.6508528e-008    +4.8887468e-008
+2.0000000e+002    +8.2951857e-008    +4.8894659e-008
+2.0100000e+002    +7.8327837e-008    +5.3532517e-008
+2.0200000e+002    +6.9885111e-008    +5.3160001e-008
+2.0300000e+002    +6.6541844e-008    +5.1716345e-008
+2.0400000e+002    +6.3277525e-008    +5.5705033e-008
+2.0500000e+002    +6.6750616e-008    +5.7511304e-008
+2.0600000e+002    +7.1413886e-008    +5.9699666e-008
+2.0700000e+002    +7.5134061e-008    +5.5509474e-008
+2.0800000e+002    +7.2937731e-008    +5.4505961e-008
+2.0900000e+002    +7.7728565e-008    +5.3590796e-008
+2.1000000e+002    +7.1563491e-008    +5.6964058e-008
+2.1100000e+002    +7.5654491e-008    +5.3581385e-008
+2.1200000e+002    +7.2160688e-008    +5.0426756e-008
+2.1300000e+002    +7.0883310e-008    +5.7713851e-008
+2.1400000e+002    +7.3398937e-008    +5.6291952e-008
+2.1500000e+002    +7.0536970e-008    +4.9905754e-008
+2.1600000e+002    +7.9572594e-008    +5.0168691e-008
+2.1700000e+002    +1.1830427e-007    +4.5762384e-008
+2.1800000e+002    +9.9319507e-008    +5.2904383e-008
+2.1900000e+002    +7.4012426e-008    +5.3602449e-008
+2.2000000e+002    +7.2805392e-008    +5.1639063e-008
+2.2100000e+002    +7.1689946e-008    +5.7207625e-008
+2.2200000e+002    +7.0562919e-008    +5.7389627e-008
+2.2300000e+002    +7.5529911e-008    +5.8931835e-008
+2.2400000e+002    +7.2268762e-008    +5.7407650e-008
+2.2500000e+002    +6.6881270e-008    +5.7027140e-008
+2.2600000e+002    +6.9393316e-008    +5.6778607e-008
+2.2700000e+002    +7.1715142e-008    +5.0084157e-008
+2.2800000e+002    +7.1713330e-008    +5.5918711e-008
+2.2900000e+002    +6.8002485e-008    +5.8748427e-008
+2.3000000e+002    +6.6665066e-008    +6.2969391e-008
+2.3100000e+002    +6.6030864e-008    +5.8523806e-008
+2.3200000e+002    +6.5224349e-008    +5.8393383e-008
+2.3300000e+002    +6.4183176e-008    +5.7663687e-008
+2.3400000e+002    +6.6905216e-008    +5.4800172e-008
+2.3500000e+002    +6.2099545e-008    +5.8674487e-008
+2.3600000e+002    +5.9487796e-008    +5.8269965e-008
+2.3700000e+002    +6.2933587e-008    +6.3031507e-008
+2.3800000e+002    +6.5962965e-008    +6.3301435e-008
+2.3900000e+002    +1.8572662e-007    +6.2037870e-008
+2.4000000e+002    +3.6413195e-007    +6.6424107e-008
+2.4100000e+002    +1.9268577e-007    +6.5142828e-008
+2.4200000e+002    +6.7852724e-008    +6.1295871e-008
+2.4300000e+002    +7.0760606e-008    +6.7303439e-008
+2.4400000e+002    +6.9398730e-008    +7.0355441e-008
+2.4500000e+002    +7.1482916e-008    +6.8866413e-008
+2.4600000e+002    +6.7443324e-008    +6.1720456e-008
+2.4700000e+002    +6.7869188e-008    +5.7427762e-008
+2.4800000e+002    +7.7570078e-008    +6.4271255e-008
+2.4900000e+002    +9.1139832e-008    +7.0943727e-008
+2.5000000e+002    +9.2019036e-008    +6.6912783e-008
+2.5100000e+002    +7.5052682e-008    +6.0733882e-008
+2.5200000e+002    +7.6250245e-008    +6.1616724e-008
+2.5300000e+002    +8.7565539e-008    +6.2124030e-008
+2.5400000e+002    +9.0221462e-008    +6.7639917e-008
+2.5500000e+002    +9.5534709e-008    +6.9174462e-008
+2.5600000e+002    +1.0400497e-007    +6.3627333e-008
+2.5700000e+002    +1.0936166e-007    +6.6800688e-008
+2.5800000e+002    +1.2752031e-007    +6.8056636e-008
+2.5900000e+002    +1.3536027e-007    +6.9091648e-008
+2.6000000e+002    +1.5212311e-007    +6.7093680e-008
+2.6100000e+002    +1.6961995e-007    +6.7322361e-008
+2.6200000e+002    +1.6299076e-007    +7.1906342e-008
+2.6300000e+002    +1.7053328e-007    +6.5120020e-008
+2.6400000e+002    +2.1623269e-007    +6.4575978e-008
+2.6500000e+002    +2.4699236e-007    +6.9613940e-008
+2.6600000e+002    +2.6148922e-007    +6.7359991e-008
+2.6700000e+002    +3.0498313e-007    +6.9247946e-008
+2.6800000e+002    +3.5853776e-007    +7.2242500e-008
+2.6900000e+002    +3.7845388e-007    +6.7379005e-008
+2.7000000e+002    +4.4060039e-007    +6.5484606e-008
+2.7100000e+002    +6.1481296e-007    +7.0890003e-008
+2.7200000e+002    +7.9020259e-007    +7.2790847e-008
+2.7300000e+002    +1.0758238e-006    +7.4021528e-008
+2.7400000e+002    +1.4208206e-006    +7.2764877e-008
+2.7500000e+002    +1.6352510e-006    +7.2056181e-008
+2.7600000e+002    +1.7721009e-006    +6.8286802e-008
+2.7700000e+002    +1.3238958e-006    +6.5851815e-008
+2.7800000e+002    +8.4463045e-007    +7.0615620e-008
+2.7900000e+002    +7.1789037e-007    +7.1882504e-008
+2.8000000e+002    +6.9726997e-007    +7.6387920e-008
+2.8100000e+002    +6.4023055e-007    +7.4782385e-008
+2.8200000e+002    +5.7031770e-007    +7.6545760e-008
+2.8300000e+002    +4.5665564e-007    +7.4760386e-008
+2.8400000e+002    +3.6171917e-007    +7.1549344e-008
+2.8500000e+002    +3.2116779e-007    +7.1982804e-008
+2.8600000e+002    +2.7355347e-007    +7.2492867e-008
+2.8700000e+002    +2.4273947e-007    +7.6528785e-008
+2.8800000e+002    +2.1044158e-007    +7.8589714e-008
+2.8900000e+002    +2.0061059e-007    +7.6230656e-008
+2.9000000e+002    +1.8637152e-007    +7.8177649e-008
+2.9100000e+002    +1.6483000e-007    +7.7784740e-008
+2.9200000e+002    +1.4650294e-007    +8.0762526e-008
+2.9300000e+002    +1.5582357e-007    +7.5735443e-008
+2.9400000e+002    +1.3066476e-007    +7.8116820e-008
+2.9500000e+002    +1.2972588e-007    +7.9146595e-008
+2.9600000e+002    +1.2827046e-007    +7.8542271e-008
+2.9700000e+002    +1.1287159e-007    +8.5758771e-008
+2.9800000e+002    +1.0335349e-007    +8.9446992e-008
+2.9900000e+002    +1.4195700e-007    +9.0311453e-008
+3.0000000e+002    +2.2533789e-007    +8.8037716e-008
+3.0100000e+002    +1.4273392e-007    +8.2481954e-008
+3.0200000e+002    +9.5438153e-008    +8.1207645e-008
+3.0300000e+002    +8.2519186e-008    +8.6475005e-008
+3.0400000e+002    +7.5712414e-008    +8.4890061e-008
+3.0500000e+002    +7.0237114e-008    +7.9176495e-008
+3.0600000e+002    +7.2960553e-008    +8.4191115e-008
+3.0700000e+002    +7.5526181e-008    +8.3528732e-008
+3.0800000e+002    +6.8591582e-008    +8.5625452e-008
+3.0900000e+002    +7.1674052e-008    +8.6540638e-008
+3.1000000e+002    +7.7710730e-008    +8.5182954e-008
+3.1100000e+002    +7.8656015e-008    +8.2004270e-008
+3.1200000e+002    +7.4240724e-008    +9.1115218e-008
+3.1300000e+002    +7.6635487e-008    +9.3300081e-008
+3.1400000e+002    +7.1537954e-008    +8.9060300e-008
+3.1500000e+002    +6.7119103e-008    +8.8861334e-008
+3.1600000e+002    +6.7279800e-008    +8.9542503e-008
+3.1700000e+002    +6.6851094e-008    +9.1943093e-008
+3.1800000e+002    +7.1656189e-008    +9.3851597e-008
+3.1900000e+002    +6.7061350e-008    +8.6113737e-008
+3.2000000e+002    +6.4748356e-008    +9.2730318e-008
+3.2100000e+002    +6.5041704e-008    +8.8761382e-008
+3.2200000e+002    +6.2620451e-008    +8.6651788e-008
+3.2300000e+002    +6.8465930e-008    +8.8644803e-008
+3.2400000e+002    +6.1518641e-008    +8.6508436e-008
+3.2500000e+002    +6.5332713e-008    +9.6326140e-008
+3.2600000e+002    +6.8850760e-008    +9.8127835e-008
+3.2700000e+002    +6.8308545e-008    +9.6148412e-008
+3.2800000e+002    +6.4849672e-008    +1.0398225e-007
+3.2900000e+002    +6.1286116e-008    +1.0191069e-007
+3.3000000e+002    +7.0019830e-008    +9.7506636e-008
+3.3100000e+002    +7.3578299e-008    +9.5753975e-008
+3.3200000e+002    +7.0192634e-008    +9.8021225e-008
+3.3300000e+002    +6.5288546e-008    +9.6380411e-008
+3.3400000e+002    +6.6528990e-008    +9.2433190e-008
+3.3500000e+002    +6.3482396e-008    +1.0337573e-007
+3.3600000e+002    +6.9092259e-008    +9.7726677e-008
+3.3700000e+002    +7.1902790e-008    +9.3122921e-008
+3.3800000e+002    +7.5923772e-008    +1.0435120e-007
+3.3900000e+002    +7.9395001e-008    +1.1264577e-007
+3.4000000e+002    +8.0721478e-008    +1.0036464e-007
+3.4100000e+002    +8.5971934e-008    +9.9480481e-008
+3.4200000e+002    +8.3368668e-008    +1.0400965e-007
+3.4300000e+002    +8.0884185e-008    +1.0171707e-007
+3.4400000e+002    +8.4811433e-008    +1.0404609e-007
+3.4500000e+002    +1.0169518e-007    +1.0833340e-007
+3.4600000e+002    +1.2107981e-007    +1.0914358e-007
+3.4700000e+002    +1.3084320e-007    +1.0719140e-007
+3.4800000e+002    +1.4680259e-007    +1.1118917e-007
+3.4900000e+002    +1.7946576e-007    +1.1806836e-007
+3.5000000e+002    +1.4283927e-007    +1.0623731e-007
+3.5100000e+002    +1.3294748e-007    +9.6424337e-008
+3.5200000e+002    +1.4304062e-007    +1.0000911e-007
+3.5300000e+002    +1.3523429e-007    +1.1594751e-007
+3.5400000e+002    +1.2044931e-007    +1.1815071e-007
+3.5500000e+002    +1.2160847e-007    +1.1482241e-007
+3.5600000e+002    +1.0900347e-007    +1.1522831e-007
+3.5700000e+002    +9.6049966e-008    +1.1288336e-007
+3.5800000e+002    +8.9608591e-008    +1.0066007e-007
+3.5900000e+002    +1.0895464e-007    +1.2026788e-007
+3.6000000e+002    +1.5964262e-007    +1.2038547e-007
+3.6100000e+002    +1.0219753e-007    +1.2141474e-007
+3.6200000e+002    +7.7829931e-008    +1.2591228e-007
+3.6300000e+002    +8.0037694e-008    +1.1358618e-007
+3.6400000e+002    +7.1139823e-008    +1.1667645e-007
+3.6500000e+002    +6.8017791e-008    +1.1617166e-007
+3.6600000e+002    +6.9295403e-008    +1.1834624e-007
+3.6700000e+002    +6.1931367e-008    +1.0657834e-007
+3.6800000e+002    +6.6828420e-008    +1.0456189e-007
+3.6900000e+002    +7.3328856e-008    +1.2022352e-007
+3.7000000e+002    +7.0763711e-008    +1.2020055e-007
+3.7100000e+002    +7.0646642e-008    +1.1002503e-007
+3.7200000e+002    +7.1292455e-008    +1.2007287e-007
+3.7300000e+002    +7.2326550e-008    +1.3288356e-007
+3.7400000e+002    +7.1480642e-008    +1.2275787e-007
+3.7500000e+002    +7.0504761e-008    +1.2440154e-007
+3.7600000e+002    +6.3333623e-008    +1.2078438e-007
+3.7700000e+002    +6.3139211e-008    +1.2609351e-007
+3.7800000e+002    +6.4804119e-008    +1.3583116e-007
+3.7900000e+002    +7.0318137e-008    +1.3659690e-007
+3.8000000e+002    +6.5500572e-008    +1.3235528e-007
+3.8100000e+002    +6.1488386e-008    +1.3139964e-007
+3.8200000e+002    +6.0347624e-008    +1.1880307e-007
+3.8300000e+002    +6.1419833e-008    +1.2791828e-007
+3.8400000e+002    +5.9742611e-008    +1.1989371e-007
+3.8500000e+002    +5.5847721e-008    +1.1468545e-007
+3.8600000e+002    +5.9983833e-008    +1.2575920e-007
+3.8700000e+002    +5.7831265e-008    +1.1164227e-007
+3.8800000e+002    +5.6503357e-008    +1.1015933e-007
+3.8900000e+002    +6.0697218e-008    +1.2114097e-007
+3.9000000e+002    +6.0398996e-008    +1.2457102e-007
+3.9100000e+002    +6.0618696e-008    +1.2445591e-007
+3.9200000e+002    +6.4200655e-008    +1.3047438e-007
+3.9300000e+002    +6.3899741e-008    +1.3765487e-007
+3.9400000e+002    +6.1879234e-008    +1.3401558e-007
+3.9500000e+002    +6.3595479e-008    +1.4167051e-007
+3.9600000e+002    +6.1899279e-008    +1.4366123e-007
+3.9700000e+002    +5.6871070e-008    +1.3839683e-007
+3.9800000e+002    +5.7152754e-008    +1.2910607e-007
+3.9900000e+002    +6.3089665e-008    +1.4457790e-007
+4.0000000e+002    +6.6051747e-008    +1.5145829e-007
+4.0100000e+002    +6.2499495e-008    +1.4763148e-007
+4.0200000e+002    +6.3090980e-008    +1.4637705e-007
+4.0300000e+002    +6.7989944e-008    +1.4944681e-007
+4.0400000e+002    +6.7258377e-008    +1.4374406e-007
+4.0500000e+002    +6.3682123e-008    +1.4191711e-007
+4.0600000e+002    +6.1595955e-008    +1.4295522e-007
+4.0700000e+002    +5.7927988e-008    +1.3829704e-007
+4.0800000e+002    +5.8903243e-008    +1.4179795e-007
+4.0900000e+002    +5.7359074e-008    +1.4406513e-007
+4.1000000e+002    +5.4463964e-008    +1.4103512e-007
+4.1100000e+002    +5.7395049e-008    +1.4719835e-007
+4.1200000e+002    +5.7735146e-008    +1.4880186e-007
+4.1300000e+002    +5.7228544e-008    +1.5538501e-007
+4.1400000e+002    +5.5907783e-008    +1.4816736e-007
+4.1500000e+002    +5.7743389e-008    +1.4889518e-007
+4.1600000e+002    +5.5360296e-008    +1.4824839e-007
+4.1700000e+002    +5.6024231e-008    +1.5536027e-007
+4.1800000e+002    +5.4355539e-008    +1.4733013e-007
+4.1900000e+002    +8.9580460e-008    +1.4470096e-007
+4.2000000e+002    +1.5450649e-007    +1.5076677e-007
+4.2100000e+002    +9.0480377e-008    +1.5750531e-007
+4.2200000e+002    +5.9760524e-008    +1.6918101e-007
+4.2300000e+002    +6.6312758e-008    +1.6151570e-007
+4.2400000e+002    +6.4356911e-008    +1.5736374e-007
+4.2500000e+002    +6.4320744e-008    +1.6273094e-007
+4.2600000e+002    +6.2490159e-008    +1.6168178e-007
+4.2700000e+002    +6.5797536e-008    +1.5844923e-007
+4.2800000e+002    +6.5796527e-008    +1.5052132e-007
+4.2900000e+002    +6.5203722e-008    +1.4861965e-007
+4.3000000e+002    +6.4731225e-008    +1.5885196e-007
+4.3100000e+002    +6.5592253e-008    +1.5292409e-007
+4.3200000e+002    +6.5517973e-008    +1.6306880e-007
+4.3300000e+002    +6.7264430e-008    +1.6754798e-007
+4.3400000e+002    +1.5201408e-007    +1.6344863e-007
+4.3500000e+002    +1.4639055e-007    +1.5182727e-007
+4.3600000e+002    +7.1813709e-008    +1.5932935e-007
+4.3700000e+002    +8.4001002e-008    +1.5480093e-007
+4.3800000e+002    +8.9505249e-008    +1.4422528e-007
+4.3900000e+002    +8.4631807e-008    +1.4952427e-007
+4.4000000e+002    +8.6820542e-008    +1.6484827e-007
+4.4100000e+002    +8.2966153e-008    +1.7911280e-007
+4.4200000e+002    +7.7800543e-008    +1.8292832e-007
+4.4300000e+002    +8.3746372e-008    +1.6494712e-007
+4.4400000e+002    +8.5497035e-008    +1.7003576e-007
+4.4500000e+002    +7.0262651e-008    +1.8259601e-007
+4.4600000e+002    +6.6645377e-008    +1.8776139e-007
+4.4700000e+002    +6.6164979e-008    +1.7914387e-007
+4.4800000e+002    +6.2112029e-008    +1.8501591e-007
+4.4900000e+002    +6.3025830e-008    +1.7812771e-007
+4.5000000e+002    +6.9224605e-008    +1.7828835e-007
+4.5100000e+002    +7.3234077e-008    +1.7666768e-007
+4.5200000e+002    +6.1073514e-008    +1.8190227e-007
+4.5300000e+002    +5.6291150e-008    +1.9274862e-007
+4.5400000e+002    +6.2342345e-008    +1.9067048e-007
+4.5500000e+002    +6.3189219e-008    +1.8607709e-007
+4.5600000e+002    +6.2359391e-008    +1.7419548e-007
+4.5700000e+002    +6.4767626e-008    +1.7216023e-007
+4.5800000e+002    +6.0959891e-008    +1.8359998e-007
+4.5900000e+002    +5.4281109e-008    +1.8197638e-007
+4.6000000e+002    +5.9182256e-008    +1.7683982e-007
+4.6100000e+002    +6.3840623e-008    +1.8512644e-007
+4.6200000e+002    +6.4361785e-008    +1.7836724e-007
+4.6300000e+002    +6.1875767e-008    +1.7857829e-007
+4.6400000e+002    +6.1507833e-008    +1.7006489e-007
+4.6500000e+002    +6.4515952e-008    +1.7736522e-007
+4.6600000e+002    +6.4000076e-008    +1.7920210e-007
+4.6700000e+002    +6.0864522e-008    +1.7520827e-007
+4.6800000e+002    +6.0951393e-008    +1.9134283e-007
+4.6900000e+002    +6.2960197e-008    +1.8499397e-007
+4.7000000e+002    +6.2814919e-008    +1.7880726e-007
+4.7100000e+002    +5.9028000e-008    +1.8227652e-007
+4.7200000e+002    +5.8579413e-008    +1.9599797e-007
+4.7300000e+002    +5.4379655e-008    +1.8637213e-007
+4.7400000e+002    +5.7554388e-008    +1.6796720e-007
+4.7500000e+002    +5.9964734e-008    +1.7686622e-007
+4.7600000e+002    +6.0727615e-008    +1.9422016e-007
+4.7700000e+002    +6.0795529e-008    +1.9317149e-007
+4.7800000e+002    +6.6409882e-008    +1.7430263e-007
+4.7900000e+002    +1.8456102e-007    +1.8344623e-007
+4.8000000e+002    +3.6813302e-007    +1.8987224e-007
+4.8100000e+002    +2.0402788e-007    +1.9032683e-007
+4.8200000e+002    +6.8200258e-008    +2.0607844e-007
+4.8300000e+002    +6.5668203e-008    +1.9357829e-007
+4.8400000e+002    +7.4347987e-008    +1.9853334e-007
+4.8500000e+002    +7.1020416e-008    +1.9274121e-007
+4.8600000e+002    +7.5955036e-008    +1.9118974e-007
+4.8700000e+002    +8.4543579e-008    +1.9339220e-007
+4.8800000e+002    +7.8979753e-008    +1.8528831e-007
+4.8900000e+002    +8.2159190e-008    +1.9729170e-007
+4.9000000e+002    +8.2735191e-008    +1.8257778e-007
+4.9100000e+002    +8.8716277e-008    +1.9926973e-007
+4.9200000e+002    +9.0239098e-008    +2.0163588e-007
+4.9300000e+002    +8.3363084e-008    +1.9667507e-007
+4.9400000e+002    +8.6022354e-008    +2.0904396e-007
+4.9500000e+002    +8.4903114e-008    +2.2441989e-007
+4.9600000e+002    +8.2901508e-008    +2.1256804e-007
+4.9700000e+002    +8.4292950e-008    +2.1002933e-007
+4.9800000e+002    +8.6619828e-008    +2.1079053e-007
+4.9900000e+002    +9.3646456e-008    +2.1898244e-007
+5.0000000e+002    +1.0018144e-007    +2.1330496e-007
+5.0100000e+002    +1.0143958e-007    +2.0579128e-007
+5.0200000e+002    +1.0298692e-007    +2.0152500e-007
+5.0300000e+002    +9.7257406e-008    +2.1285764e-007
+5.0400000e+002    +1.0333658e-007    +2.1947540e-007
+5.0500000e+002    +1.1118917e-007    +2.1664167e-007
+5.0600000e+002    +1.2079286e-007    +2.0617779e-007
+5.0700000e+002    +1.2349763e-007    +2.1574725e-007
+5.0800000e+002    +1.3075015e-007    +2.2689551e-007
+5.0900000e+002    +1.2542742e-007    +2.2669381e-007
+5.1000000e+002    +1.3020319e-007    +2.2237060e-007
+5.1100000e+002    +1.1884521e-007    +2.0784633e-007
+5.1200000e+002    +1.1784560e-007    +2.1517737e-007
+5.1300000e+002    +1.0434685e-007    +2.0581049e-007
+5.1400000e+002    +8.5752184e-008    +2.1643815e-007
+5.1500000e+002    +8.2080390e-008    +2.1337570e-007
+5.1600000e+002    +7.3636571e-008    +2.1910172e-007
+5.1700000e+002    +7.5815727e-008    +2.2372734e-007
+5.1800000e+002    +6.9169147e-008    +2.1501795e-007
+5.1900000e+002    +5.9205590e-008    +2.1780077e-007
+5.2000000e+002    +6.2882613e-008    +2.2692615e-007
+5.2100000e+002    +6.5175449e-008    +2.2134824e-007
+5.2200000e+002    +6.2539307e-008    +2.3953515e-007
+5.2300000e+002    +6.6152118e-008    +2.3333301e-007
+5.2400000e+002    +6.3242659e-008    +2.2282103e-007
+5.2500000e+002    +7.3968074e-008    +2.4075780e-007
+5.2600000e+002    +8.9600427e-008    +2.4397016e-007
+5.2700000e+002    +1.1183783e-007    +2.2716672e-007
+5.2800000e+002    +1.3537974e-007    +2.4095533e-007
+5.2900000e+002    +1.7489191e-007    +2.3023239e-007
+5.3000000e+002    +2.0814504e-007    +2.4360321e-007
+5.3100000e+002    +2.3421391e-007    +2.5496934e-007
+5.3200000e+002    +2.4222911e-007    +2.4328057e-007
+5.3300000e+002    +2.5645821e-007    +2.4409744e-007
+5.3400000e+002    +2.7052926e-007    +2.4242092e-007
+5.3500000e+002    +2.5344289e-007    +2.3492862e-007
+5.3600000e+002    +2.4812388e-007    +2.2799155e-007
+5.3700000e+002    +2.4691778e-007    +2.3337785e-007
+5.3800000e+002    +2.3969801e-007    +2.4694029e-007
+5.3900000e+002    +2.9263595e-007    +2.4569434e-007
+5.4000000e+002    +4.1574438e-007    +2.3756189e-007
+5.4100000e+002    +3.1961576e-007    +2.1301170e-007
+5.4200000e+002    +2.5329351e-007    +2.5699379e-007
+5.4300000e+002    +2.5070378e-007    +2.4760411e-007
+5.4400000e+002    +2.7821423e-007    +2.1466458e-007
+5.4500000e+002    +4.0485173e-007    +2.3032239e-007
+5.4600000e+002    +6.0101576e-007    +2.3434484e-007
+5.4700000e+002    +7.6585695e-007    +2.5389855e-007
+5.4800000e+002    +8.4191396e-007    +2.4541612e-007
+5.4900000e+002    +9.2867356e-007    +2.4331183e-007
+5.5000000e+002    +1.0140795e-006    +2.6780006e-007
+5.5100000e+002    +9.3105547e-007    +2.8231636e-007
+5.5200000e+002    +1.0153497e-006    +2.6320191e-007
+5.5300000e+002    +1.2572496e-006    +2.5804388e-007
+5.5400000e+002    +6.3088629e-007    +2.8335202e-007
+5.5500000e+002    +3.2290919e-007    +2.7388677e-007
+5.5600000e+002    +2.7951242e-007    +2.5375977e-007
+5.5700000e+002    +2.3995185e-007    +2.5555818e-007
+5.5800000e+002    +2.0854810e-007    +2.4656478e-007
+5.5900000e+002    +1.8826756e-007    +2.6011472e-007
+5.6000000e+002    +1.6276900e-007    +2.7336191e-007
+5.6100000e+002    +1.4861997e-007    +2.8020563e-007
+5.6200000e+002    +1.3921967e-007    +2.7728686e-007
+5.6300000e+002    +1.3173087e-007    +2.9627691e-007
+5.6400000e+002    +1.1720378e-007    +2.7070902e-007
+5.6500000e+002    +1.0687270e-007    +2.6721673e-007
+5.6600000e+002    +1.1649596e-007    +2.7414762e-007
+5.6700000e+002    +1.2193242e-007    +2.6176670e-007
+5.6800000e+002    +1.2350982e-007    +2.6132705e-007
+5.6900000e+002    +1.4045423e-007    +2.4857982e-007
+5.7000000e+002    +1.4240833e-007    +2.5845219e-007
+5.7100000e+002    +1.4453123e-007    +2.6310744e-007
+5.7200000e+002    +1.4598415e-007    +2.9121443e-007
+5.7300000e+002    +1.6258717e-007    +2.9010801e-007
+5.7400000e+002    +1.8591045e-007    +2.7699747e-007
+5.7500000e+002    +2.3299023e-007    +2.8310231e-007
+5.7600000e+002    +2.7598230e-007    +2.9234241e-007
+5.7700000e+002    +2.7246239e-007    +2.9025711e-007
+5.7800000e+002    +2.5553572e-007    +2.8564446e-007
+5.7900000e+002    +2.2797778e-007    +2.9960211e-007
+5.8000000e+002    +1.8676954e-007    +2.8144049e-007
+5.8100000e+002    +1.8131145e-007    +2.8335884e-007
+5.8200000e+002    +1.5838209e-007    +2.7176864e-007
+5.8300000e+002    +1.2683178e-007    +2.6756641e-007
+5.8400000e+002    +1.1122604e-007    +2.8145533e-007
+5.8500000e+002    +1.1769379e-007    +2.9549170e-007
+5.8600000e+002    +1.0296940e-007    +3.0675699e-007
+5.8700000e+002    +8.5732133e-008    +2.8530405e-007
+5.8800000e+002    +8.2866102e-008    +2.6724697e-007
+5.8900000e+002    +7.1696718e-008    +2.8865756e-007
+5.9000000e+002    +6.7596559e-008    +2.7503611e-007
+5.9100000e+002    +6.9100679e-008    +2.7634829e-007
+5.9200000e+002    +6.7194897e-008    +2.8084290e-007
+5.9300000e+002    +6.8950392e-008    +2.7852536e-007
+5.9400000e+002    +6.8913835e-008    +2.8109062e-007
+5.9500000e+002    +6.9090056e-008    +2.4943199e-007
+5.9600000e+002    +6.9998997e-008    +2.5545270e-007
+5.9700000e+002    +7.5711746e-008    +2.8861351e-007
+5.9800000e+002    +7.5149650e-008    +3.0918719e-007
+5.9900000e+002    +1.9662951e-007    +3.0383171e-007
+6.0000000e+002    +3.7414094e-007    +2.8528339e-007
+6.0100000e+002    +2.1544922e-007    +2.9619105e-007
+6.0200000e+002    +1.2766601e-007    +2.9231128e-007
+6.0300000e+002    +2.1673684e-007    +2.9139514e-007
+6.0400000e+002    +2.8040230e-007    +3.1000232e-007
+6.0500000e+002    +2.7931699e-007    +2.9480728e-007
+6.0600000e+002    +2.0431617e-007    +2.7677370e-007
+6.0700000e+002    +1.0880402e-007    +2.7842111e-007
+6.0800000e+002    +7.5622935e-008    +2.8762335e-007
+6.0900000e+002    +7.3180942e-008    +2.8793838e-007
+6.1000000e+002    +6.5174525e-008    +2.8131879e-007
+6.1100000e+002    +6.6757430e-008    +2.9733863e-007
+6.1200000e+002    +7.0146022e-008    +3.0400258e-007
+6.1300000e+002    +6.6202183e-008    +3.0903888e-007
+6.1400000e+002    +6.4256014e-008    +3.2805767e-007
+6.1500000e+002    +6.8189252e-008    +3.0520621e-007
+6.1600000e+002    +6.3146217e-008    +3.0871433e-007
+6.1700000e+002    +6.3771829e-008    +2.8955333e-007
+6.1800000e+002    +6.8702072e-008    +3.1036743e-007
+6.1900000e+002    +7.0364244e-008    +2.9915932e-007
+6.2000000e+002    +6.7303290e-008    +2.8752484e-007
+6.2100000e+002    +6.3262313e-008    +3.0518075e-007
+6.2200000e+002    +6.5032488e-008    +3.0804696e-007
+6.2300000e+002    +7.0677288e-008    +3.2243940e-007
+6.2400000e+002    +7.3013766e-008    +3.3230495e-007
+6.2500000e+002    +7.0179148e-008    +3.1836365e-007
+6.2600000e+002    +6.3335499e-008    +3.2516340e-007
+6.2700000e+002    +6.5338810e-008    +2.9904999e-007
+6.2800000e+002    +6.8858547e-008    +3.1751819e-007
+6.2900000e+002    +7.1794872e-008    +3.2661720e-007
+6.3000000e+002    +7.4915441e-008    +3.2134523e-007
+6.3100000e+002    +7.0522333e-008    +3.1388453e-007
+6.3200000e+002    +7.2002564e-008    +2.8933883e-007
+6.3300000e+002    +7.6134050e-008    +3.1710880e-007
+6.3400000e+002    +7.2914425e-008    +3.2570259e-007
+6.3500000e+002    +6.9743997e-008    +3.3265613e-007
+6.3600000e+002    +7.1020807e-008    +3.0923098e-007
+6.3700000e+002    +6.7244940e-008    +2.9632247e-007
+6.3800000e+002    +5.9627865e-008    +3.5010015e-007
+6.3900000e+002    +6.5967093e-008    +3.4104983e-007
+6.4000000e+002    +6.9483512e-008    +3.3257251e-007
+6.4100000e+002    +7.3215986e-008    +3.4610542e-007
+6.4200000e+002    +7.4404582e-008    +3.3740943e-007
+6.4300000e+002    +9.2709953e-008    +3.3063520e-007
+6.4400000e+002    +1.2526584e-007    +3.3177488e-007
+6.4500000e+002    +1.6374716e-007    +3.2812036e-007
+6.4600000e+002    +1.9399276e-007    +3.2404003e-007
+6.4700000e+002    +1.4977748e-007    +3.5577474e-007
+6.4800000e+002    +1.1366104e-007    +3.4865170e-007
+6.4900000e+002    +1.0010040e-007    +3.5871497e-007
+6.5000000e+002    +9.8482182e-008    +3.5610145e-007
+6.5100000e+002    +1.0842027e-007    +3.2238668e-007
+6.5200000e+002    +1.1194238e-007    +3.2624087e-007
+6.5300000e+002    +8.4391573e-008    +3.3394136e-007
+6.5400000e+002    +7.3070467e-008    +3.4870567e-007
+6.5500000e+002    +8.4015483e-008    +3.3454614e-007
+6.5600000e+002    +8.1031118e-008    +3.1448752e-007
+6.5700000e+002    +7.2002962e-008    +3.6046833e-007
+6.5800000e+002    +6.4235415e-008    +3.8421365e-007
+6.5900000e+002    +2.0270913e-007    +3.6658616e-007
+6.6000000e+002    +4.0410120e-007    +3.8228390e-007
+6.6100000e+002    +2.2310132e-007    +3.4488585e-007
+6.6200000e+002    +7.0696146e-008    +3.4082299e-007
+6.6300000e+002    +7.1682862e-008    +3.6241846e-007
+6.6400000e+002    +6.6742992e-008    +3.6258521e-007
+6.6500000e+002    +6.5314929e-008    +3.7251652e-007
+6.6600000e+002    +6.7159128e-008    +3.5931649e-007
+6.6700000e+002    +7.4596151e-008    +3.4763187e-007
+6.6800000e+002    +7.8324568e-008    +3.3066172e-007
+6.6900000e+002    +7.4805051e-008    +3.4875046e-007
+6.7000000e+002    +7.7139468e-008    +3.6357784e-007
+6.7100000e+002    +8.0113480e-008    +3.6209389e-007
+6.7200000e+002    +7.4077221e-008    +3.6951712e-007
+6.7300000e+002    +7.0034361e-008    +3.7397831e-007
+6.7400000e+002    +7.7348695e-008    +3.5608033e-007
+6.7500000e+002    +7.6619081e-008    +3.3969550e-007
+6.7600000e+002    +7.5137272e-008    +3.6031639e-007
+6.7700000e+002    +7.7513548e-008    +3.5782125e-007
+6.7800000e+002    +8.1697642e-008    +3.4751318e-007
+6.7900000e+002    +7.9020261e-008    +3.5694973e-007
+6.8000000e+002    +7.6406039e-008    +3.8894191e-007
+6.8100000e+002    +8.2244121e-008    +3.9170527e-007
+6.8200000e+002    +8.5028489e-008    +3.5896082e-007
+6.8300000e+002    +8.2836266e-008    +3.6805056e-007
+6.8400000e+002    +8.2988748e-008    +3.6313463e-007
+6.8500000e+002    +9.1144337e-008    +3.9740135e-007
+6.8600000e+002    +1.0391559e-007    +3.6131868e-007
+6.8700000e+002    +1.1028592e-007    +3.2614560e-007
+6.8800000e+002    +1.1837041e-007    +3.5811286e-007
+6.8900000e+002    +1.1552893e-007    +3.8143531e-007
+6.9000000e+002    +1.0807572e-007    +3.7076560e-007
+6.9100000e+002    +1.2510503e-007    +3.4058471e-007
+6.9200000e+002    +1.3617925e-007    +3.6041649e-007
+6.9300000e+002    +1.3627063e-007    +3.7436283e-007
+6.9400000e+002    +1.4871057e-007    +3.8328122e-007
+6.9500000e+002    +1.5540583e-007    +3.9455841e-007
+6.9600000e+002    +1.2123438e-007    +3.7225772e-007
+6.9700000e+002    +1.3656060e-007    +3.8117534e-007
+6.9800000e+002    +1.2737884e-007    +3.6645739e-007
+6.9900000e+002    +1.1699498e-007    +3.7850913e-007
+7.0000000e+002    +1.1442182e-007    +3.8875748e-007
+7.0100000e+002    +1.1605921e-007    +4.0956948e-007
+7.0200000e+002    +1.2480828e-007    +3.9097310e-007
+7.0300000e+002    +1.0835910e-007    +3.7271698e-007
+7.0400000e+002    +1.1381789e-007    +3.8124566e-007
+7.0500000e+002    +1.1172737e-007    +3.9893888e-007
+7.0600000e+002    +1.0220371e-007    +3.8821150e-007
+7.0700000e+002    +9.5019402e-008    +3.9824130e-007
+7.0800000e+002    +9.5493810e-008    +4.0432178e-007
+7.0900000e+002    +1.0508406e-007    +3.9668947e-007
+7.1000000e+002    +1.0230553e-007    +3.7085232e-007
+7.1100000e+002    +1.0611922e-007    +3.8401839e-007
+7.1200000e+002    +1.0710387e-007    +3.9337232e-007
+7.1300000e+002    +1.1385763e-007    +3.6341501e-007
+7.1400000e+002    +1.0993966e-007    +4.0969044e-007
+7.1500000e+002    +1.1121358e-007    +4.1864803e-007
+7.1600000e+002    +1.1329995e-007    +3.9912860e-007
+7.1700000e+002    +1.0175236e-007    +4.1069615e-007
+7.1800000e+002    +1.0193262e-007    +4.4484295e-007
+7.1900000e+002    +1.9997285e-007    +4.4099579e-007
+7.2000000e+002    +3.8856504e-007    +4.1971720e-007
+7.2100000e+002    +2.2847368e-007    +4.1311026e-007
+7.2200000e+002    +8.4801471e-008    +3.7528386e-007
+7.2300000e+002    +8.2202597e-008    +3.7623897e-007
+7.2400000e+002    +9.4847103e-008    +3.7542029e-007
+7.2500000e+002    +9.5925394e-008    +3.8076834e-007
+7.2600000e+002    +8.2941838e-008    +3.6738518e-007
+7.2700000e+002    +7.5702602e-008    +3.9953329e-007
+7.2800000e+002    +7.7485126e-008    +4.1562251e-007
+7.2900000e+002    +8.0461682e-008    +4.0724132e-007
+7.3000000e+002    +8.1131361e-008    +4.0196343e-007
+7.3100000e+002    +7.4563808e-008    +4.1654718e-007
+7.3200000e+002    +7.6832130e-008    +4.2650518e-007
+7.3300000e+002    +7.6050249e-008    +4.2006158e-007
+7.3400000e+002    +7.7483080e-008    +4.0173222e-007
+7.3500000e+002    +8.0758973e-008    +4.0940850e-007
+7.3600000e+002    +7.9232244e-008    +4.2048424e-007
+7.3700000e+002    +8.2723020e-008    +4.3367663e-007
+7.3800000e+002    +9.1646875e-008    +4.4225797e-007
+7.3900000e+002    +9.0791957e-008    +4.3327495e-007
+7.4000000e+002    +8.5233381e-008    +4.4021886e-007
+7.4100000e+002    +8.1036546e-008    +4.2460442e-007
+7.4200000e+002    +8.4240121e-008    +4.1193852e-007
+7.4300000e+002    +8.1334889e-008    +4.3710943e-007
+7.4400000e+002    +7.6477214e-008    +4.6496257e-007
+7.4500000e+002    +7.8215088e-008    +4.2502654e-007
+7.4600000e+002    +8.5873346e-008    +3.9683846e-007
+7.4700000e+002    +8.9083478e-008    +4.1481150e-007
+7.4800000e+002    +9.4310757e-008    +4.4428700e-007
+7.4900000e+002    +1.0237858e-007    +4.0225791e-007
+7.5000000e+002    +1.1630005e-007    +4.0051535e-007
+7.5100000e+002    +1.1949341e-007    +4.2591788e-007
+7.5200000e+002    +9.7114203e-008    +4.2487071e-007
+7.5300000e+002    +9.1426571e-008    +3.9216528e-007
+7.5400000e+002    +8.4942556e-008    +3.7988599e-007
+7.5500000e+002    +8.9612925e-008    +4.4892275e-007
+7.5600000e+002    +9.8877642e-008    +4.4244300e-007
+7.5700000e+002    +9.7067726e-008    +4.1382344e-007
+7.5800000e+002    +8.5189590e-008    +4.1331396e-007
+7.5900000e+002    +8.8581274e-008    +4.2008833e-007
+7.6000000e+002    +8.7944969e-008    +4.4318250e-007
+7.6100000e+002    +7.9021646e-008    +4.3448924e-007
+7.6200000e+002    +8.0707920e-008    +4.2651453e-007
+7.6300000e+002    +8.0171645e-008    +4.3091421e-007
+7.6400000e+002    +8.1364995e-008    +4.2836973e-007
+7.6500000e+002    +8.1913207e-008    +4.1762289e-007
+7.6600000e+002    +7.4373055e-008    +4.1929667e-007
+7.6700000e+002    +6.9468101e-008    +4.1892162e-007
+7.6800000e+002    +7.1921498e-008    +4.6483649e-007
+7.6900000e+002    +8.0851336e-008    +4.5155215e-007
+7.7000000e+002    +8.4804725e-008    +4.5580356e-007
+7.7100000e+002    +8.3894911e-008    +4.4741063e-007
+7.7200000e+002    +8.2380588e-008    +4.0888023e-007
+7.7300000e+002    +7.8761701e-008    +4.1561020e-007
+7.7400000e+002    +7.8543479e-008    +4.5736212e-007
+7.7500000e+002    +8.2244846e-008    +4.6484263e-007
+7.7600000e+002    +8.0743639e-008    +4.2849345e-007
+7.7700000e+002    +8.0174551e-008    +4.4980737e-007
+7.7800000e+002    +8.4519542e-008    +4.6536658e-007
+7.7900000e+002    +2.3580441e-007    +4.8043739e-007
+7.8000000e+002    +4.8578573e-007    +4.6379651e-007
+7.8100000e+002    +2.7183995e-007    +4.6760789e-007
+7.8200000e+002    +8.5990060e-008    +4.7743060e-007
+7.8300000e+002    +8.8924089e-008    +5.1509278e-007
+7.8400000e+002    +9.0436082e-008    +4.9472197e-007
+7.8500000e+002    +8.6627431e-008    +4.8811842e-007
+7.8600000e+002    +8.4612388e-008    +4.4751380e-007
+7.8700000e+002    +8.4785363e-008    +4.1445003e-007
+7.8800000e+002    +8.4728967e-008    +4.5690638e-007
+7.8900000e+002    +8.0218221e-008    +4.6921917e-007
+7.9000000e+002    +8.1081225e-008    +4.7730532e-007
+7.9100000e+002    +8.0869000e-008    +4.7871714e-007
+7.9200000e+002    +8.9048761e-008    +4.7104285e-007
+7.9300000e+002    +8.6890729e-008    +4.6902861e-007
+7.9400000e+002    +8.1954227e-008    +4.8966757e-007
+7.9500000e+002    +9.1739700e-008    +4.5725318e-007
+7.9600000e+002    +9.3095629e-008    +4.7609262e-007
+7.9700000e+002    +8.5127880e-008    +4.9306749e-007
+7.9800000e+002    +9.2393215e-008    +4.6831795e-007
+7.9900000e+002    +9.4415704e-008    +4.8809915e-007
#
#
# North DC Val: 0.68427453 VoltsSouth DC Val: 0.58290039 Volts
# SR785 Measurement - Timestamp: Jun 18 2020 - 12:51:43
# Parameter File: /home/controls/Git/cit_ctnlab/ctn_scripts/TransRINSpecShort.yml
#---------- Measurement Setup ------------
# Start Frequency (Hz): 0.000000
# Frequency Span (Hz): 102400.000000
# Frequency Resolution: 800
# Number of Averages: 100
# Averaging Mode: RMS
# Window function: Hanning
#---------- Measurement Parameters ----------
# Measurement Group:  "FFT" "FFT"
# Measurements:  "FFT 1" "FFT 2"
# View:  "Log Magnitude" "Log Magnitude"
# Unit:  "Vrms/rtHz" "Vrms/rtHz"
#---------- Input Parameters ----------
# Input Source: Analog
# Input Mode: Single ended, Single ended
# Input Grounding: Float, Float
# Input Coupling: AC, AC
# Input Range: -36.0dBVpk, -36.0dBVpk
# Auto Range: Off, Off
# Auto Range Mode: Tracking, Tracking
# Anti-Aliasing Filter: On, On
#---------- Source Parameters ----------
# Source Type: Sine
# Source Amplitude: 500.0mVpk
# Source On: 0

#---------- Measurement Data ----------
# [Freq(Hz) Display 0(Vrms/rtHz) Display 1(Vrms/rtHz) ]
+8.9600000e+002    +1.7085057e-007    +6.1833185e-007
+1.0240000e+003    +1.7946812e-007    +6.9199530e-007
+1.1520000e+003    +1.8566404e-007    +7.3798367e-007
+1.2800000e+003    +2.2050943e-007    +7.3496591e-007
+1.4080000e+003    +2.5919161e-007    +8.1751926e-007
+1.5360000e+003    +3.4919492e-007    +9.1231038e-007
+1.6640000e+003    +4.0234801e-007    +8.9748710e-007
+1.7920000e+003    +4.8817844e-007    +8.2643766e-007
+1.9200000e+003    +5.6305180e-007    +7.9108287e-007
+2.0480000e+003    +6.2627879e-007    +7.5795253e-007
+2.1760000e+003    +6.6550689e-007    +8.3480143e-007
+2.3040000e+003    +7.1269443e-007    +8.4515460e-007
+2.4320000e+003    +7.7995207e-007    +8.5742016e-007
+2.5600000e+003    +9.4284871e-007    +8.6931760e-007
+2.6880000e+003    +9.5687346e-007    +8.4783778e-007
+2.8160000e+003    +1.0530015e-006    +6.9682454e-007
+2.9440000e+003    +1.2159297e-006    +6.7342540e-007
+3.0720000e+003    +1.1605857e-006    +8.1463855e-007
+3.2000000e+003    +1.1816408e-006    +7.7944270e-007
+3.3280000e+003    +1.2747286e-006    +8.2684153e-007
+3.4560000e+003    +1.3538122e-006    +8.4060508e-007
+3.5840000e+003    +1.3902568e-006    +8.0332802e-007
+3.7120000e+003    +1.5790858e-006    +7.8414661e-007
+3.8400000e+003    +1.7419223e-006    +8.6394340e-007
+3.9680000e+003    +1.7694119e-006    +8.3989750e-007
+4.0960000e+003    +1.7570510e-006    +8.3609569e-007
+4.2240000e+003    +1.8745900e-006    +8.1334622e-007
+4.3520000e+003    +2.0484133e-006    +8.5941639e-007
+4.4800000e+003    +2.0426166e-006    +8.6700322e-007
+4.6080000e+003    +2.0997077e-006    +8.9414294e-007
+4.7360000e+003    +2.4461472e-006    +9.1075111e-007
+4.8640000e+003    +2.4499504e-006    +8.8040230e-007
+4.9920000e+003    +2.4227193e-006    +7.9676801e-007
+5.1200000e+003    +2.4280132e-006    +8.2422025e-007
+5.2480000e+003    +2.4626286e-006    +8.2224892e-007
+5.3760000e+003    +2.5695399e-006    +8.5161537e-007
+5.5040000e+003    +2.7501890e-006    +8.3723017e-007
+5.6320000e+003    +2.8190905e-006    +7.8935801e-007
+5.7600000e+003    +3.2053756e-006    +9.0506609e-007
+5.8880000e+003    +3.1842624e-006    +9.3536397e-007
+6.0160000e+003    +3.1101863e-006    +8.6454406e-007
+6.1440000e+003    +3.2639384e-006    +8.5062106e-007
+6.2720000e+003    +3.6305489e-006    +8.8836947e-007
+6.4000000e+003    +3.8181956e-006    +8.9329808e-007
+6.5280000e+003    +3.6839988e-006    +8.0868381e-007
+6.6560000e+003    +3.7723792e-006    +8.4689719e-007
+6.7840000e+003    +4.0873119e-006    +8.6234178e-007
+6.9120000e+003    +4.2660490e-006    +8.4468053e-007
+7.0400000e+003    +4.3999175e-006    +7.9611220e-007
+7.1680000e+003    +4.2135816e-006    +7.1341316e-007
+7.2960000e+003    +3.9623847e-006    +6.6873855e-007
+7.4240000e+003    +4.1038061e-006    +7.0372977e-007
+7.5520000e+003    +4.4787953e-006    +7.6638014e-007
+7.6800000e+003    +4.9690225e-006    +8.3271880e-007
+7.8080000e+003    +4.8308320e-006    +8.2464481e-007
+7.9360000e+003    +5.0282956e-006    +7.2086573e-007
+8.0640000e+003    +4.6597297e-006    +6.2898289e-007
+8.1920000e+003    +4.5598226e-006    +6.4579308e-007
+8.3200000e+003    +5.1188031e-006    +6.9673121e-007
+8.4480000e+003    +5.5401583e-006    +6.9428830e-007
+8.5760000e+003    +5.5465243e-006    +5.9602013e-007
+8.7040000e+003    +5.8165069e-006    +5.6045889e-007
+8.8320000e+003    +6.0117545e-006    +6.0985599e-007
+8.9600000e+003    +5.8569508e-006    +6.2407611e-007
+9.0880000e+003    +5.8496889e-006    +5.6810848e-007
+9.2160000e+003    +5.8316559e-006    +5.1426662e-007
+9.3440000e+003    +6.0121506e-006    +5.0511596e-007
+9.4720000e+003    +5.8128044e-006    +5.3359992e-007
+9.6000000e+003    +5.7486623e-006    +5.2383200e-007
+9.7280000e+003    +6.1355868e-006    +5.1075244e-007
+9.8560000e+003    +6.2877712e-006    +5.1641501e-007
+9.9840000e+003    +5.9596910e-006    +5.1531055e-007
+1.0112000e+004    +6.4574915e-006    +5.2993795e-007
+1.0240000e+004    +6.1080691e-006    +4.6387800e-007
+1.0368000e+004    +6.6184739e-006    +4.5177481e-007
+1.0496000e+004    +6.9665243e-006    +4.3663314e-007
+1.0624000e+004    +6.6888174e-006    +4.3347765e-007
+1.0752000e+004    +7.0008145e-006    +3.9602972e-007
+1.0880000e+004    +7.2881612e-006    +4.2824698e-007
+1.1008000e+004    +7.1988256e-006    +4.1794351e-007
+1.1136000e+004    +6.7217848e-006    +3.9004996e-007
+1.1264000e+004    +7.1673812e-006    +4.0545848e-007
+1.1392000e+004    +8.0347008e-006    +4.1737854e-007
+1.1520000e+004    +8.0397394e-006    +4.1586856e-007
+1.1648000e+004    +8.0389273e-006    +3.9958110e-007
+1.1776000e+004    +7.5504213e-006    +4.0129623e-007
+1.1904000e+004    +7.5051939e-006    +3.8278540e-007
+1.2032000e+004    +7.6151523e-006    +3.8599418e-007
+1.2160000e+004    +7.9005949e-006    +3.6969649e-007
+1.2288000e+004    +7.6373244e-006    +3.5166158e-007
+1.2416000e+004    +6.9509683e-006    +3.5209933e-007
+1.2544000e+004    +7.4254663e-006    +3.5687881e-007
+1.2672000e+004    +7.6723636e-006    +3.3510713e-007
+1.2800000e+004    +7.5041971e-006    +3.3393181e-007
+1.2928000e+004    +7.6121341e-006    +3.4554992e-007
+1.3056000e+004    +7.8313305e-006    +3.5385028e-007
+1.3184000e+004    +7.7262121e-006    +3.0420824e-007
+1.3312000e+004    +7.4662275e-006    +3.0322619e-007
+1.3440000e+004    +6.9831653e-006    +3.1946806e-007
+1.3568000e+004    +7.4188329e-006    +3.3352435e-007
+1.3696000e+004    +7.2158396e-006    +3.3984358e-007
+1.3824000e+004    +7.4884269e-006    +3.3280884e-007
+1.3952000e+004    +7.5166981e-006    +3.2020620e-007
+1.4080000e+004    +7.2175985e-006    +3.1380492e-007
+1.4208000e+004    +6.9567482e-006    +2.9869295e-007
+1.4336000e+004    +7.3700794e-006    +2.6843918e-007
+1.4464000e+004    +7.2133680e-006    +2.9896822e-007
+1.4592000e+004    +7.2100502e-006    +3.1302963e-007
+1.4720000e+004    +7.6217434e-006    +3.1265111e-007
+1.4848000e+004    +7.1451532e-006    +2.7718824e-007
+1.4976000e+004    +7.2456264e-006    +2.8477359e-007
+1.5104000e+004    +7.4994114e-006    +3.1525050e-007
+1.5232000e+004    +7.1998215e-006    +3.1076127e-007
+1.5360000e+004    +7.0432261e-006    +3.0617554e-007
+1.5488000e+004    +6.8195013e-006    +3.1528961e-007
+1.5616000e+004    +7.1835161e-006    +2.8218062e-007
+1.5744000e+004    +6.9020907e-006    +3.2228581e-007
+1.5872000e+004    +6.6555731e-006    +3.0505882e-007
+1.6000000e+004    +7.4051773e-006    +2.9100252e-007
+1.6128000e+004    +7.4167397e-006    +3.1059923e-007
+1.6256000e+004    +6.1752312e-006    +2.8809208e-007
+1.6384000e+004    +6.2326808e-006    +2.6834692e-007
+1.6512000e+004    +6.1972519e-006    +2.8746740e-007
+1.6640000e+004    +5.8649625e-006    +2.8360785e-007
+1.6768000e+004    +6.0678162e-006    +2.8332462e-007
+1.6896000e+004    +5.9461872e-006    +2.6783945e-007
+1.7024000e+004    +6.4268575e-006    +2.7070755e-007
+1.7152000e+004    +6.2456484e-006    +2.7080119e-007
+1.7280000e+004    +6.4163305e-006    +2.7883809e-007
+1.7408000e+004    +6.2173708e-006    +2.8359042e-007
+1.7536000e+004    +6.0787252e-006    +2.7458532e-007
+1.7664000e+004    +6.0658444e-006    +2.5966673e-007
+1.7792000e+004    +5.9819936e-006    +2.5990548e-007
+1.7920000e+004    +6.1749261e-006    +2.7126364e-007
+1.8048000e+004    +6.1291635e-006    +2.7952194e-007
+1.8176000e+004    +5.8070250e-006    +2.8757978e-007
+1.8304000e+004    +5.4991360e-006    +2.8304885e-007
+1.8432000e+004    +5.4816542e-006    +2.7883561e-007
+1.8560000e+004    +5.8516671e-006    +2.7001619e-007
+1.8688000e+004    +5.7572652e-006    +2.5231287e-007
+1.8816000e+004    +5.8541737e-006    +2.6705601e-007
+1.8944000e+004    +5.2783530e-006    +2.6621316e-007
+1.9072000e+004    +5.6224317e-006    +2.6556478e-007
+1.9200000e+004    +6.0294306e-006    +2.6191043e-007
+1.9328000e+004    +5.6099570e-006    +2.6924440e-007
+1.9456000e+004    +5.5668165e-006    +2.7814917e-007
+1.9584000e+004    +5.3147396e-006    +2.9567246e-007
+1.9712000e+004    +5.1407915e-006    +2.7143463e-007
+1.9840000e+004    +5.3955669e-006    +2.4949253e-007
+1.9968000e+004    +5.5314604e-006    +2.6932719e-007
+2.0096000e+004    +5.5891519e-006    +2.7972857e-007
+2.0224000e+004    +5.1451057e-006    +2.5139784e-007
+2.0352000e+004    +5.1404645e-006    +2.6941325e-007
+2.0480000e+004    +5.2981754e-006    +2.8085461e-007
+2.0608000e+004    +5.2524010e-006    +2.8588292e-007
+2.0736000e+004    +4.9144282e-006    +2.7774146e-007
+2.0864000e+004    +5.0802819e-006    +2.8206509e-007
+2.0992000e+004    +5.2526898e-006    +2.9926446e-007
+2.1120000e+004    +5.6932981e-006    +3.0606463e-007
+2.1248000e+004    +5.4666643e-006    +2.9195365e-007
+2.1376000e+004    +5.1917973e-006    +2.9691324e-007
+2.1504000e+004    +5.6829749e-006    +2.8149984e-007
+2.1632000e+004    +5.5997971e-006    +2.5585297e-007
+2.1760000e+004    +5.2442069e-006    +2.5780460e-007
+2.1888000e+004    +5.0637700e-006    +2.6527542e-007
+2.2016000e+004    +4.7452390e-006    +2.6405579e-007
+2.2144000e+004    +5.0952749e-006    +2.6432730e-007
+2.2272000e+004    +4.9052533e-006    +2.6360621e-007
+2.2400000e+004    +5.2590258e-006    +2.7151245e-007
+2.2528000e+004    +5.3244817e-006    +2.7329739e-007
+2.2656000e+004    +4.6737277e-006    +2.5901267e-007
+2.2784000e+004    +4.4427529e-006    +2.7475753e-007
+2.2912000e+004    +4.7817557e-006    +2.8959150e-007
+2.3040000e+004    +4.5007218e-006    +2.8432589e-007
+2.3168000e+004    +4.6231398e-006    +2.9238157e-007
+2.3296000e+004    +4.6655246e-006    +2.9023383e-007
+2.3424000e+004    +4.6491969e-006    +2.9081917e-007
+2.3552000e+004    +4.0382929e-006    +3.0433020e-007
+2.3680000e+004    +4.0895611e-006    +3.0386607e-007
+2.3808000e+004    +4.8172569e-006    +2.8500099e-007
+2.3936000e+004    +5.0698950e-006    +2.7917596e-007
+2.4064000e+004    +4.8407237e-006    +2.7750553e-007
+2.4192000e+004    +4.5298029e-006    +3.1418242e-007
+2.4320000e+004    +4.1922071e-006    +3.0652131e-007
+2.4448000e+004    +4.0233213e-006    +3.0066022e-007
+2.4576000e+004    +4.0897362e-006    +3.1428664e-007
+2.4704000e+004    +4.1531234e-006    +3.0124775e-007
+2.4832000e+004    +4.2673892e-006    +3.1119831e-007
+2.4960000e+004    +4.4765975e-006    +3.1450099e-007
+2.5088000e+004    +4.2542201e-006    +3.0191859e-007
+2.5216000e+004    +4.1342155e-006    +3.2319826e-007
+2.5344000e+004    +3.9592710e-006    +3.2283509e-007
+2.5472000e+004    +4.2363399e-006    +3.3136314e-007
+2.5600000e+004    +3.8947351e-006    +3.0723024e-007
+2.5728000e+004    +3.8745184e-006    +3.2524338e-007
+2.5856000e+004    +4.2663114e-006    +3.2294855e-007
+2.5984000e+004    +4.4021594e-006    +3.2269477e-007
+2.6112000e+004    +4.1048515e-006    +3.3457627e-007
+2.6240000e+004    +3.8152912e-006    +3.6138573e-007
+2.6368000e+004    +3.8253497e-006    +3.3972049e-007
+2.6496000e+004    +3.9437045e-006    +3.4015417e-007
+2.6624000e+004    +3.9263705e-006    +3.5021088e-007
+2.6752000e+004    +3.9573242e-006    +4.2217553e-007
+2.6880000e+004    +3.8580565e-006    +3.4064752e-007
+2.7008000e+004    +4.1066460e-006    +3.3789584e-007
+2.7136000e+004    +3.7558561e-006    +3.2512699e-007
+2.7264000e+004    +3.8297921e-006    +3.5648523e-007
+2.7392000e+004    +3.4351440e-006    +3.5132777e-007
+2.7520000e+004    +3.7446068e-006    +3.5780081e-007
+2.7648000e+004    +3.9658103e-006    +3.4149573e-007
+2.7776000e+004    +3.8788430e-006    +3.5917529e-007
+2.7904000e+004    +3.7546108e-006    +3.6672427e-007
+2.8032000e+004    +3.6423032e-006    +3.6327899e-007
+2.8160000e+004    +3.6086353e-006    +3.4524314e-007
+2.8288000e+004    +3.5941198e-006    +3.4401148e-007
+2.8416000e+004    +3.6269073e-006    +3.6228278e-007
+2.8544000e+004    +3.6557972e-006    +3.5765822e-007
+2.8672000e+004    +3.7946952e-006    +3.5042819e-007
+2.8800000e+004    +3.6472175e-006    +3.6187370e-007
+2.8928000e+004    +3.6271342e-006    +4.0178517e-007
+2.9056000e+004    +3.5226290e-006    +3.9946923e-007
+2.9184000e+004    +3.5854446e-006    +3.8378909e-007
+2.9312000e+004    +3.7585457e-006    +4.0248764e-007
+2.9440000e+004    +3.4812344e-006    +3.9560729e-007
+2.9568000e+004    +3.4236220e-006    +4.0656536e-007
+2.9696000e+004    +3.4499683e-006    +4.2974295e-007
+2.9824000e+004    +3.1570773e-006    +4.2749440e-007
+2.9952000e+004    +3.0167241e-006    +4.3632835e-007
+3.0080000e+004    +3.2323483e-006    +4.3310942e-007
+3.0208000e+004    +3.1930149e-006    +4.0234758e-007
+3.0336000e+004    +3.1836926e-006    +4.0734417e-007
+3.0464000e+004    +3.3418819e-006    +4.2906922e-007
+3.0592000e+004    +3.2200107e-006    +4.1612981e-007
+3.0720000e+004    +3.1964839e-006    +4.3280519e-007
+3.0848000e+004    +3.2609260e-006    +4.1189554e-007
+3.0976000e+004    +3.5246524e-006    +4.1774715e-007
+3.1104000e+004    +3.2244332e-006    +4.2010768e-007
+3.1232000e+004    +3.1875365e-006    +4.3305474e-007
+3.1360000e+004    +3.2476912e-006    +4.5925316e-007
+3.1488000e+004    +3.2712610e-006    +4.7212242e-007
+3.1616000e+004    +3.1969121e-006    +4.4876259e-007
+3.1744000e+004    +3.2192684e-006    +4.3209107e-007
+3.1872000e+004    +2.9593261e-006    +4.8938381e-007
+3.2000000e+004    +3.1573131e-006    +4.9276662e-007
+3.2128000e+004    +3.4159173e-006    +4.4931082e-007
+3.2256000e+004    +3.2976329e-006    +4.5206261e-007
+3.2384000e+004    +3.2054213e-006    +4.8909800e-007
+3.2512000e+004    +2.8912129e-006    +4.6485232e-007
+3.2640000e+004    +3.0089634e-006    +5.0325093e-007
+3.2768000e+004    +2.8786126e-006    +4.6998588e-007
+3.2896000e+004    +2.9807541e-006    +4.7539999e-007
+3.3024000e+004    +2.9057755e-006    +4.9452922e-007
+3.3152000e+004    +2.8613729e-006    +4.9545531e-007
+3.3280000e+004    +2.9781500e-006    +4.7367593e-007
+3.3408000e+004    +2.9783071e-006    +4.7135069e-007
+3.3536000e+004    +2.9915309e-006    +4.7540522e-007
+3.3664000e+004    +3.1831437e-006    +4.9337996e-007
+3.3792000e+004    +3.1019674e-006    +5.0024528e-007
+3.3920000e+004    +2.9142075e-006    +4.8259017e-007
+3.4048000e+004    +2.6993794e-006    +4.9552222e-007
+3.4176000e+004    +2.9621219e-006    +5.1070367e-007
+3.4304000e+004    +2.9542196e-006    +5.0727516e-007
+3.4432000e+004    +2.7113767e-006    +4.9998170e-007
+3.4560000e+004    +2.7764540e-006    +5.0348086e-007
+3.4688000e+004    +2.9266903e-006    +4.8071598e-007
+3.4816000e+004    +3.0148135e-006    +4.9948187e-007
+3.4944000e+004    +2.8704949e-006    +5.1610385e-007
+3.5072000e+004    +2.8103384e-006    +4.9346988e-007
+3.5200000e+004    +2.8249992e-006    +5.2063422e-007
+3.5328000e+004    +2.8419606e-006    +5.7960114e-007
+3.5456000e+004    +2.8284846e-006    +5.2408973e-007
+3.5584000e+004    +2.8328668e-006    +5.4910453e-007
+3.5712000e+004    +2.6461564e-006    +5.7176857e-007
+3.5840000e+004    +2.6819378e-006    +5.0610686e-007
+3.5968000e+004    +2.6127339e-006    +4.9155454e-007
+3.6096000e+004    +2.5993859e-006    +5.4388016e-007
+3.6224000e+004    +2.7714441e-006    +5.9064695e-007
+3.6352000e+004    +2.7250815e-006    +5.7686293e-007
+3.6480000e+004    +2.3946336e-006    +5.6762087e-007
+3.6608000e+004    +2.4343849e-006    +5.7683064e-007
+3.6736000e+004    +2.3824809e-006    +5.5489488e-007
+3.6864000e+004    +2.5727384e-006    +5.8560249e-007
+3.6992000e+004    +2.7848837e-006    +6.2566505e-007
+3.7120000e+004    +2.6042935e-006    +5.8617826e-007
+3.7248000e+004    +2.5408820e-006    +5.5337080e-007
+3.7376000e+004    +2.4513711e-006    +5.5016784e-007
+3.7504000e+004    +2.3300838e-006    +5.4983332e-007
+3.7632000e+004    +2.5887791e-006    +6.1879166e-007
+3.7760000e+004    +2.5448073e-006    +6.1437572e-007
+3.7888000e+004    +2.4676492e-006    +6.2028340e-007
+3.8016000e+004    +2.4733129e-006    +6.0150819e-007
+3.8144000e+004    +2.4180208e-006    +6.1058296e-007
+3.8272000e+004    +2.4216847e-006    +6.1859259e-007
+3.8400000e+004    +2.5174945e-006    +6.6483716e-007
+3.8528000e+004    +2.6406885e-006    +6.0307548e-007
+3.8656000e+004    +2.5239849e-006    +6.0202558e-007
+3.8784000e+004    +2.5049851e-006    +6.0339340e-007
+3.8912000e+004    +2.1677349e-006    +6.1553567e-007
+3.9040000e+004    +2.3183859e-006    +6.5677870e-007
+3.9168000e+004    +2.3496086e-006    +6.6919614e-007
+3.9296000e+004    +2.1892090e-006    +6.4897108e-007
+3.9424000e+004    +2.2395934e-006    +6.2398152e-007
+3.9552000e+004    +2.6155926e-006    +6.4838565e-007
+3.9680000e+004    +2.3828864e-006    +6.2822920e-007
+3.9808000e+004    +2.2738357e-006    +6.2202997e-007
+3.9936000e+004    +2.2350048e-006    +6.3570070e-007
+4.0064000e+004    +2.3344705e-006    +6.7290733e-007
+4.0192000e+004    +2.2602253e-006    +6.2049384e-007
+4.0320000e+004    +2.2503773e-006    +5.9946439e-007
+4.0448000e+004    +2.1525582e-006    +6.2186405e-007
+4.0576000e+004    +2.3822245e-006    +6.3783449e-007
+4.0704000e+004    +2.3986333e-006    +6.3556320e-007
+4.0832000e+004    +2.2812476e-006    +6.2996219e-007
+4.0960000e+004    +2.2981289e-006    +6.7181327e-007
+4.1088000e+004    +2.0923731e-006    +6.6457295e-007
+4.1216000e+004    +2.2102404e-006    +6.6049427e-007
+4.1344000e+004    +2.3212056e-006    +6.7247743e-007
+4.1472000e+004    +2.4254048e-006    +6.9629914e-007
+4.1600000e+004    +2.1745050e-006    +6.9972180e-007
+4.1728000e+004    +2.0515645e-006    +6.8212466e-007
+4.1856000e+004    +2.1041872e-006    +7.4597955e-007
+4.1984000e+004    +1.9564579e-006    +7.0038743e-007
+4.2112000e+004    +2.0497228e-006    +6.7208993e-007
+4.2240000e+004    +2.1890767e-006    +6.1408707e-007
+4.2368000e+004    +2.2428810e-006    +6.4579308e-007
+4.2496000e+004    +2.0938417e-006    +7.5178372e-007
+4.2624000e+004    +2.0905497e-006    +7.2714801e-007
+4.2752000e+004    +2.1915466e-006    +7.3288209e-007
+4.2880000e+004    +2.1775438e-006    +7.8770177e-007
+4.3008000e+004    +2.1294109e-006    +7.5941614e-007
+4.3136000e+004    +2.0393024e-006    +6.9854121e-007
+4.3264000e+004    +2.0459138e-006    +6.9225518e-007
+4.3392000e+004    +2.1116164e-006    +6.6195423e-007
+4.3520000e+004    +2.1465894e-006    +6.8872913e-007
+4.3648000e+004    +2.0045229e-006    +7.4348395e-007
+4.3776000e+004    +2.0729206e-006    +7.7052454e-007
+4.3904000e+004    +2.0784016e-006    +7.4608766e-007
+4.4032000e+004    +2.1142262e-006    +6.8173080e-007
+4.4160000e+004    +2.1093269e-006    +7.6836852e-007
+4.4288000e+004    +2.2182924e-006    +7.6288768e-007
+4.4416000e+004    +2.3449979e-006    +7.0746933e-007
+4.4544000e+004    +2.1939975e-006    +7.4486155e-007
+4.4672000e+004    +1.9633483e-006    +7.6456809e-007
+4.4800000e+004    +2.0766749e-006    +7.9924672e-007
+4.4928000e+004    +2.0526413e-006    +8.0443840e-007
+4.5056000e+004    +2.0675473e-006    +8.3921447e-007
+4.5184000e+004    +2.1811763e-006    +7.7218107e-007
+4.5312000e+004    +2.1414598e-006    +7.7367895e-007
+4.5440000e+004    +1.9655311e-006    +8.1562126e-007
+4.5568000e+004    +1.9163970e-006    +8.3535889e-007
+4.5696000e+004    +1.9018603e-006    +8.2881667e-007
+4.5824000e+004    +1.9823754e-006    +8.4344146e-007
+4.5952000e+004    +2.1780029e-006    +7.8822262e-007
+4.6080000e+004    +2.0818343e-006    +7.7348955e-007
+4.6208000e+004    +1.9466763e-006    +8.3364182e-007
+4.6336000e+004    +1.9757090e-006    +8.2124649e-007
+4.6464000e+004    +2.1113335e-006    +7.7430354e-007
+4.6592000e+004    +1.8927964e-006    +7.5085899e-007
+4.6720000e+004    +2.0176012e-006    +7.8089806e-007
+4.6848000e+004    +2.0136508e-006    +8.2480324e-007
+4.6976000e+004    +2.0771652e-006    +8.5063692e-007
+4.7104000e+004    +2.0375701e-006    +8.8773470e-007
+4.7232000e+004    +1.9446300e-006    +8.8733128e-007
+4.7360000e+004    +1.9367119e-006    +8.2358611e-007
+4.7488000e+004    +1.9498957e-006    +8.2425919e-007
+4.7616000e+004    +1.9722543e-006    +8.5673133e-007
+4.7744000e+004    +1.9613381e-006    +8.3982559e-007
+4.7872000e+004    +1.9466272e-006    +8.1905023e-007
+4.8000000e+004    +1.9027334e-006    +8.5133399e-007
+4.8128000e+004    +1.7735802e-006    +8.7606122e-007
+4.8256000e+004    +1.9040792e-006    +8.3734238e-007
+4.8384000e+004    +1.8983471e-006    +8.3594057e-007
+4.8512000e+004    +1.9143424e-006    +9.0275370e-007
+4.8640000e+004    +1.7663237e-006    +9.1592051e-007
+4.8768000e+004    +1.7764568e-006    +9.0653998e-007
+4.8896000e+004    +1.7397797e-006    +8.6720314e-007
+4.9024000e+004    +1.8461594e-006    +8.6526768e-007
+4.9152000e+004    +1.8161130e-006    +8.2126184e-007
+4.9280000e+004    +1.8131325e-006    +8.6005451e-007
+4.9408000e+004    +1.7489441e-006    +8.8276505e-007
+4.9536000e+004    +1.7230602e-006    +8.8172084e-007
+4.9664000e+004    +1.8798087e-006    +9.1728521e-007
+4.9792000e+004    +1.8157382e-006    +9.1342292e-007
+4.9920000e+004    +1.7904870e-006    +9.2919782e-007
+5.0048000e+004    +1.8295543e-006    +9.0688246e-007
+5.0176000e+004    +1.7166701e-006    +1.0456464e-006
+5.0304000e+004    +1.6376353e-006    +1.0280335e-006
+5.0432000e+004    +1.7279253e-006    +8.9560200e-007
+5.0560000e+004    +1.6697647e-006    +8.9081618e-007
+5.0688000e+004    +1.7001038e-006    +9.1468542e-007
+5.0816000e+004    +1.7442495e-006    +9.1461010e-007
+5.0944000e+004    +1.6135334e-006    +9.8641590e-007
+5.1072000e+004    +1.6753088e-006    +9.3253993e-007
+5.1200000e+004    +1.6100790e-006    +9.6656368e-007
+5.1328000e+004    +1.6621829e-006    +9.4135606e-007
+5.1456000e+004    +1.7120980e-006    +9.3418060e-007
+5.1584000e+004    +1.7533027e-006    +9.1578278e-007
+5.1712000e+004    +1.6374951e-006    +9.5716030e-007
+5.1840000e+004    +1.6474315e-006    +9.3415292e-007
+5.1968000e+004    +1.5819162e-006    +8.7658844e-007
+5.2096000e+004    +1.5475946e-006    +9.3091541e-007
+5.2224000e+004    +1.4817614e-006    +9.0680379e-007
+5.2352000e+004    +1.4492580e-006    +9.3661572e-007
+5.2480000e+004    +1.4397515e-006    +9.5326828e-007
+5.2608000e+004    +1.5833376e-006    +9.6705082e-007
+5.2736000e+004    +1.6553587e-006    +9.2198951e-007
+5.2864000e+004    +1.5005647e-006    +8.8512439e-007
+5.2992000e+004    +1.3971766e-006    +9.9376336e-007
+5.3120000e+004    +1.4816036e-006    +9.7197301e-007
+5.3248000e+004    +1.5827779e-006    +1.0023788e-006
+5.3376000e+004    +1.5350395e-006    +9.9518286e-007
+5.3504000e+004    +1.4720030e-006    +1.0046507e-006
+5.3632000e+004    +1.5193032e-006    +1.0000099e-006
+5.3760000e+004    +1.5342678e-006    +9.4328357e-007
+5.3888000e+004    +1.3586637e-006    +1.0278043e-006
+5.4016000e+004    +1.3279765e-006    +1.0473780e-006
+5.4144000e+004    +1.3873946e-006    +1.1244596e-006
+5.4272000e+004    +1.4186398e-006    +1.0565059e-006
+5.4400000e+004    +1.4228970e-006    +9.5866221e-007
+5.4528000e+004    +1.4803093e-006    +9.9081842e-007
+5.4656000e+004    +1.4226142e-006    +9.5207480e-007
+5.4784000e+004    +1.4428231e-006    +9.9157705e-007
+5.4912000e+004    +1.4736993e-006    +1.0792737e-006
+5.5040000e+004    +1.4536612e-006    +1.0832746e-006
+5.5168000e+004    +1.8602439e-006    +1.1087343e-006
+5.5296000e+004    +1.6213545e-006    +1.1451395e-006
+5.5424000e+004    +1.4479060e-006    +1.0245842e-006
+5.5552000e+004    +1.9890206e-006    +1.0789490e-006
+5.5680000e+004    +1.8501793e-006    +1.2635753e-006
+5.5808000e+004    +1.4600915e-006    +1.0833257e-006
+5.5936000e+004    +1.4164282e-006    +1.0630650e-006
+5.6064000e+004    +1.3816348e-006    +1.0909398e-006
+5.6192000e+004    +1.3437362e-006    +1.0008633e-006
+5.6320000e+004    +1.3608897e-006    +1.0614672e-006
+5.6448000e+004    +1.4303859e-006    +1.1106483e-006
+5.6576000e+004    +1.3717010e-006    +1.0651926e-006
+5.6704000e+004    +1.3589381e-006    +1.0243266e-006
+5.6832000e+004    +1.3397615e-006    +1.0012657e-006
+5.6960000e+004    +1.2929020e-006    +9.9178169e-007
+5.7088000e+004    +1.2827933e-006    +1.0045139e-006
+5.7216000e+004    +1.3752571e-006    +1.0408436e-006
+5.7344000e+004    +1.2674603e-006    +1.0288634e-006
+5.7472000e+004    +1.1962100e-006    +1.0576049e-006
+5.7600000e+004    +1.1872665e-006    +1.1185798e-006
+5.7728000e+004    +1.2784584e-006    +1.1368001e-006
+5.7856000e+004    +1.3428572e-006    +1.1235920e-006
+5.7984000e+004    +1.2879303e-006    +1.1243485e-006
+5.8112000e+004    +1.2274547e-006    +1.1115279e-006
+5.8240000e+004    +1.2866145e-006    +1.1270961e-006
+5.8368000e+004    +1.2284281e-006    +1.1208714e-006
+5.8496000e+004    +1.2656052e-006    +1.1500586e-006
+5.8624000e+004    +1.2552262e-006    +1.1813152e-006
+5.8752000e+004    +1.1721137e-006    +1.1942625e-006
+5.8880000e+004    +1.1667825e-006    +1.1045860e-006
+5.9008000e+004    +1.2526173e-006    +1.1759370e-006
+5.9136000e+004    +1.2566479e-006    +1.1454664e-006
+5.9264000e+004    +1.2409596e-006    +1.1456966e-006
+5.9392000e+004    +1.2002805e-006    +1.2015964e-006
+5.9520000e+004    +1.2726700e-006    +1.2865989e-006
+5.9648000e+004    +1.3229528e-006    +1.1405307e-006
+5.9776000e+004    +1.3036898e-006    +1.0762668e-006
+5.9904000e+004    +1.2128817e-006    +1.1104922e-006
+6.0032000e+004    +1.1699190e-006    +1.2003345e-006
+6.0160000e+004    +1.2417405e-006    +1.1736513e-006
+6.0288000e+004    +1.1783538e-006    +1.1397896e-006
+6.0416000e+004    +1.1436066e-006    +1.1300452e-006
+6.0544000e+004    +1.2553240e-006    +1.1949262e-006
+6.0672000e+004    +1.2301152e-006    +1.2666547e-006
+6.0800000e+004    +1.1870189e-006    +1.2896637e-006
+6.0928000e+004    +1.2464299e-006    +1.2295156e-006
+6.1056000e+004    +1.1717379e-006    +1.2449882e-006
+6.1184000e+004    +1.1584368e-006    +1.1667389e-006
+6.1312000e+004    +1.1839315e-006    +1.1626213e-006
+6.1440000e+004    +1.1588744e-006    +1.1866241e-006
+6.1568000e+004    +1.0917174e-006    +1.0646022e-006
+6.1696000e+004    +1.2071663e-006    +1.1072501e-006
+6.1824000e+004    +1.1493543e-006    +1.1143384e-006
+6.1952000e+004    +1.1672771e-006    +1.1827557e-006
+6.2080000e+004    +1.1726414e-006    +1.2478964e-006
+6.2208000e+004    +1.1329771e-006    +1.2804321e-006
+6.2336000e+004    +1.1039616e-006    +1.2884650e-006
+6.2464000e+004    +1.1368238e-006    +1.2875075e-006
+6.2592000e+004    +1.1449408e-006    +1.2956887e-006
+6.2720000e+004    +1.2122626e-006    +1.2964742e-006
+6.2848000e+004    +1.1648407e-006    +1.2375987e-006
+6.2976000e+004    +1.0934305e-006    +1.1949340e-006
+6.3104000e+004    +1.1565203e-006    +1.1652808e-006
+6.3232000e+004    +1.1950311e-006    +1.2329209e-006
+6.3360000e+004    +1.1488331e-006    +1.2274170e-006
+6.3488000e+004    +1.0794799e-006    +1.2977760e-006
+6.3616000e+004    +1.0415101e-006    +1.2782043e-006
+6.3744000e+004    +1.0120064e-006    +1.3782712e-006
+6.3872000e+004    +1.0139115e-006    +1.3078418e-006
+6.4000000e+004    +1.0914155e-006    +1.3854857e-006
+6.4128000e+004    +1.0643193e-006    +1.4590370e-006
+6.4256000e+004    +1.0751413e-006    +1.3539221e-006
+6.4384000e+004    +1.0334975e-006    +1.3463339e-006
+6.4512000e+004    +1.0332082e-006    +1.3606596e-006
+6.4640000e+004    +1.0833626e-006    +1.2994769e-006
+6.4768000e+004    +1.0808438e-006    +1.3719360e-006
+6.4896000e+004    +9.9876775e-007    +1.2702285e-006
+6.5024000e+004    +1.0219921e-006    +1.4033446e-006
+6.5152000e+004    +1.1167979e-006    +1.4651115e-006
+6.5280000e+004    +1.0642633e-006    +1.4393089e-006
+6.5408000e+004    +1.0337845e-006    +1.3805536e-006
+6.5536000e+004    +1.0229184e-006    +1.3012644e-006
+6.5664000e+004    +1.0395747e-006    +1.2291324e-006
+6.5792000e+004    +1.0335644e-006    +1.3061083e-006
+6.5920000e+004    +1.1031971e-006    +1.3585831e-006
+6.6048000e+004    +1.0884130e-006    +1.4242880e-006
+6.6176000e+004    +1.0621119e-006    +1.4850938e-006
+6.6304000e+004    +1.0579569e-006    +1.5260222e-006
+6.6432000e+004    +1.0530142e-006    +1.4021388e-006
+6.6560000e+004    +1.0337631e-006    +1.2974995e-006
+6.6688000e+004    +1.0633954e-006    +1.4701196e-006
+6.6816000e+004    +1.0397163e-006    +1.5600366e-006
+6.6944000e+004    +1.0169005e-006    +1.4024882e-006
+6.7072000e+004    +1.0332762e-006    +1.4106733e-006
+6.7200000e+004    +9.9568013e-007    +1.3885344e-006
+6.7328000e+004    +1.0070351e-006    +1.3215939e-006
+6.7456000e+004    +9.9437898e-007    +1.3740722e-006
+6.7584000e+004    +9.1972873e-007    +1.3353309e-006
+6.7712000e+004    +9.4873559e-007    +1.4335949e-006
+6.7840000e+004    +9.4102330e-007    +1.4064915e-006
+6.7968000e+004    +9.7345117e-007    +1.4425901e-006
+6.8096000e+004    +9.0054209e-007    +1.5906210e-006
+6.8224000e+004    +9.3321489e-007    +1.5297582e-006
+6.8352000e+004    +9.1661468e-007    +1.3929474e-006
+6.8480000e+004    +9.6738427e-007    +1.3764987e-006
+6.8608000e+004    +9.0365512e-007    +1.4761964e-006
+6.8736000e+004    +8.7598426e-007    +1.4920907e-006
+6.8864000e+004    +9.3481162e-007    +1.5474265e-006
+6.8992000e+004    +9.5211766e-007    +1.4945747e-006
+6.9120000e+004    +8.7995005e-007    +1.4450426e-006
+6.9248000e+004    +8.4519172e-007    +1.4559181e-006
+6.9376000e+004    +9.1360749e-007    +1.5292912e-006
+6.9504000e+004    +9.4339339e-007    +1.6409903e-006
+6.9632000e+004    +1.0100238e-006    +1.5395276e-006
+6.9760000e+004    +1.0091769e-006    +1.4683596e-006
+6.9888000e+004    +9.1744437e-007    +1.4518779e-006
+7.0016000e+004    +9.0839723e-007    +1.6034546e-006
+7.0144000e+004    +1.0731528e-006    +1.7900270e-006
+7.0272000e+004    +1.2186456e-006    +1.9740676e-006
+7.0400000e+004    +9.7597353e-007    +1.5413441e-006
+7.0528000e+004    +8.4616755e-007    +1.5464057e-006
+7.0656000e+004    +9.6081078e-007    +1.5330604e-006
+7.0784000e+004    +1.0315656e-006    +1.6944907e-006
+7.0912000e+004    +8.8031726e-007    +1.5875293e-006
+7.1040000e+004    +9.0112565e-007    +1.4088159e-006
+7.1168000e+004    +9.4734912e-007    +1.5236883e-006
+7.1296000e+004    +9.1508122e-007    +1.5018983e-006
+7.1424000e+004    +9.8747341e-007    +1.5098477e-006
+7.1552000e+004    +9.7580642e-007    +1.5916884e-006
+7.1680000e+004    +8.8440652e-007    +1.5843392e-006
+7.1808000e+004    +8.0616962e-007    +1.6485443e-006
+7.1936000e+004    +8.8987480e-007    +1.6989244e-006
+7.2064000e+004    +8.7226522e-007    +1.6687530e-006
+7.2192000e+004    +8.8520022e-007    +1.5456129e-006
+7.2320000e+004    +8.0441720e-007    +1.5557159e-006
+7.2448000e+004    +8.3969093e-007    +1.5477628e-006
+7.2576000e+004    +8.9293229e-007    +1.6178939e-006
+7.2704000e+004    +8.8404926e-007    +1.5507209e-006
+7.2832000e+004    +8.4529472e-007    +1.5390307e-006
+7.2960000e+004    +8.3207539e-007    +1.5347850e-006
+7.3088000e+004    +8.5009077e-007    +1.5882127e-006
+7.3216000e+004    +9.1198888e-007    +1.4889993e-006
+7.3344000e+004    +8.4658109e-007    +1.5503140e-006
+7.3472000e+004    +8.4968673e-007    +1.6030726e-006
+7.3600000e+004    +8.1571261e-007    +1.5542818e-006
+7.3728000e+004    +8.2837084e-007    +1.5656477e-006
+7.3856000e+004    +9.0904877e-007    +1.5875066e-006
+7.3984000e+004    +8.6446335e-007    +1.6171143e-006
+7.4112000e+004    +8.5041000e-007    +1.4833892e-006
+7.4240000e+004    +9.0909964e-007    +1.5844871e-006
+7.4368000e+004    +8.4464068e-007    +1.6143380e-006
+7.4496000e+004    +8.5692795e-007    +1.6125027e-006
+7.4624000e+004    +8.5351189e-007    +1.5292308e-006
+7.4752000e+004    +8.4168101e-007    +1.6311392e-006
+7.4880000e+004    +8.0541935e-007    +1.7699463e-006
+7.5008000e+004    +8.4884095e-007    +1.7781604e-006
+7.5136000e+004    +8.4129942e-007    +1.7112372e-006
+7.5264000e+004    +8.1276863e-007    +1.6990140e-006
+7.5392000e+004    +7.8864070e-007    +1.6346316e-006
+7.5520000e+004    +8.1493647e-007    +1.6845829e-006
+7.5648000e+004    +8.4260842e-007    +1.6554131e-006
+7.5776000e+004    +7.8822950e-007    +1.7898915e-006
+7.5904000e+004    +7.5497991e-007    +1.7600862e-006
+7.6032000e+004    +8.1788198e-007    +1.7976098e-006
+7.6160000e+004    +7.9576876e-007    +1.7435277e-006
+7.6288000e+004    +8.2118697e-007    +1.6538471e-006
+7.6416000e+004    +8.4879900e-007    +1.7558862e-006
+7.6544000e+004    +8.1576184e-007    +1.6568570e-006
+7.6672000e+004    +7.8260786e-007    +1.5635502e-006
+7.6800000e+004    +7.9277663e-007    +5.7342831e-006
+7.6928000e+004    +8.1640434e-007    +1.1455796e-005
+7.7056000e+004    +7.8868317e-007    +6.0358821e-006
+7.7184000e+004    +7.9614102e-007    +1.6985720e-006
+7.7312000e+004    +8.1663291e-007    +1.6837600e-006
+7.7440000e+004    +7.7535674e-007    +1.6933674e-006
+7.7568000e+004    +9.6329200e-007    +1.8287209e-006
+7.7696000e+004    +1.3241764e-006    +1.6633531e-006
+7.7824000e+004    +9.8233363e-007    +1.8261546e-006
+7.7952000e+004    +8.2259652e-007    +1.8808430e-006
+7.8080000e+004    +7.3010801e-007    +1.6868483e-006
+7.8208000e+004    +7.0404661e-007    +1.7520962e-006
+7.8336000e+004    +7.3240506e-007    +1.6708211e-006
+7.8464000e+004    +7.5636802e-007    +1.7936785e-006
+7.8592000e+004    +7.8275650e-007    +1.7947522e-006
+7.8720000e+004    +7.7133035e-007    +1.6854192e-006
+7.8848000e+004    +8.0657952e-007    +1.7240084e-006
+7.8976000e+004    +7.4523700e-007    +1.8397874e-006
+7.9104000e+004    +8.0332450e-007    +1.7697150e-006
+7.9232000e+004    +8.1910235e-007    +1.8976094e-006
+7.9360000e+004    +8.2880297e-007    +1.8752529e-006
+7.9488000e+004    +1.0334475e-006    +1.7376206e-006
+7.9616000e+004    +9.0889006e-007    +1.7993771e-006
+7.9744000e+004    +7.3484165e-007    +1.7541075e-006
+7.9872000e+004    +7.5948867e-007    +1.9313268e-006
+8.0000000e+004    +7.7508690e-007    +1.9557278e-006
+8.0128000e+004    +6.9258590e-007    +1.9047379e-006
+8.0256000e+004    +7.2632452e-007    +1.8637520e-006
+8.0384000e+004    +6.9607518e-007    +1.7844169e-006
+8.0512000e+004    +6.9970719e-007    +1.8370160e-006
+8.0640000e+004    +7.8856709e-007    +1.8701085e-006
+8.0768000e+004    +7.9537654e-007    +2.0002731e-006
+8.0896000e+004    +8.0354505e-007    +1.9361548e-006
+8.1024000e+004    +7.6741327e-007    +1.8628784e-006
+8.1152000e+004    +7.3190910e-007    +1.9258341e-006
+8.1280000e+004    +7.6504591e-007    +1.8979115e-006
+8.1408000e+004    +7.5874851e-007    +1.7392697e-006
+8.1536000e+004    +7.5670528e-007    +1.7286768e-006
+8.1664000e+004    +7.4376237e-007    +1.8294720e-006
+8.1792000e+004    +7.5943279e-007    +1.7891448e-006
+8.1920000e+004    +6.9317701e-007    +1.6822393e-006
+8.2048000e+004    +6.9640538e-007    +1.8196619e-006
+8.2176000e+004    +7.4859281e-007    +1.8328637e-006
+8.2304000e+004    +7.5404881e-007    +1.8302294e-006
+8.2432000e+004    +7.2599283e-007    +1.6941559e-006
+8.2560000e+004    +7.0147331e-007    +1.8338903e-006
+8.2688000e+004    +6.7039264e-007    +1.8756359e-006
+8.2816000e+004    +6.8651929e-007    +1.9481431e-006
+8.2944000e+004    +6.7033966e-007    +1.9988811e-006
+8.3072000e+004    +7.1636833e-007    +1.8568768e-006
+8.3200000e+004    +7.2322979e-007    +1.7405534e-006
+8.3328000e+004    +6.7472655e-007    +1.7524964e-006
+8.3456000e+004    +6.6050660e-007    +1.8546091e-006
+8.3584000e+004    +6.7295827e-007    +1.8307680e-006
+8.3712000e+004    +7.0373824e-007    +1.8173358e-006
+8.3840000e+004    +6.9367343e-007    +1.9298493e-006
+8.3968000e+004    +7.0401649e-007    +1.8519536e-006
+8.4096000e+004    +6.8126616e-007    +1.7417980e-006
+8.4224000e+004    +6.7285634e-007    +1.8124298e-006
+8.4352000e+004    +6.8444280e-007    +1.8099898e-006
+8.4480000e+004    +6.1861704e-007    +1.8096262e-006
+8.4608000e+004    +6.4212850e-007    +1.7964811e-006
+8.4736000e+004    +6.9300427e-007    +1.7443012e-006
+8.4864000e+004    +6.6930488e-007    +1.8561899e-006
+8.4992000e+004    +6.5678012e-007    +1.9373265e-006
+8.5120000e+004    +6.4127812e-007    +2.0389934e-006
+8.5248000e+004    +6.2433037e-007    +1.9656520e-006
+8.5376000e+004    +6.8143220e-007    +1.7903238e-006
+8.5504000e+004    +6.6189682e-007    +1.7703973e-006
+8.5632000e+004    +6.5805631e-007    +1.7828306e-006
+8.5760000e+004    +6.4594627e-007    +1.8128080e-006
+8.5888000e+004    +6.4286007e-007    +1.9285701e-006
+8.6016000e+004    +6.6074375e-007    +1.8847190e-006
+8.6144000e+004    +6.1589805e-007    +1.8589657e-006
+8.6272000e+004    +5.7418555e-007    +1.8454562e-006
+8.6400000e+004    +6.2668397e-007    +1.9303814e-006
+8.6528000e+004    +6.3961721e-007    +1.9285574e-006
+8.6656000e+004    +6.2935453e-007    +1.7342279e-006
+8.6784000e+004    +6.2442768e-007    +1.6909131e-006
+8.6912000e+004    +5.8994567e-007    +1.7827699e-006
+8.7040000e+004    +5.8224492e-007    +1.9358190e-006
+8.7168000e+004    +5.7327469e-007    +2.0009979e-006
+8.7296000e+004    +6.0584097e-007    +2.0209689e-006
+8.7424000e+004    +6.1365637e-007    +1.8627394e-006
+8.7552000e+004    +6.0295895e-007    +1.7603664e-006
+8.7680000e+004    +5.6954804e-007    +1.8936881e-006
+8.7808000e+004    +5.7434386e-007    +1.8626494e-006
+8.7936000e+004    +6.2232169e-007    +1.9493991e-006
+8.8064000e+004    +6.4426973e-007    +1.9492536e-006
+8.8192000e+004    +6.3806283e-007    +1.9281636e-006
+8.8320000e+004    +6.1826603e-007    +1.9390843e-006
+8.8448000e+004    +6.7708049e-007    +1.7707180e-006
+8.8576000e+004    +6.7029913e-007    +1.9825104e-006
+8.8704000e+004    +6.4608315e-007    +2.0610673e-006
+8.8832000e+004    +7.5175484e-007    +1.8239124e-006
+8.8960000e+004    +8.8144787e-007    +1.9069644e-006
+8.9088000e+004    +9.6705935e-007    +1.9573067e-006
+8.9216000e+004    +1.0482063e-006    +1.9419329e-006
+8.9344000e+004    +1.2069754e-006    +1.8415963e-006
+8.9472000e+004    +1.1908934e-006    +1.8192344e-006
+8.9600000e+004    +1.0277626e-006    +1.9162183e-006
+8.9728000e+004    +9.6429312e-007    +2.0324378e-006
+8.9856000e+004    +8.8020607e-007    +1.9750798e-006
+8.9984000e+004    +8.3808095e-007    +1.9206100e-006
+9.0112000e+004    +8.8615906e-007    +1.7432253e-006
+9.0240000e+004    +1.0026451e-006    +1.7691672e-006
+9.0368000e+004    +1.0067830e-006    +1.9872459e-006
+9.0496000e+004    +8.6799758e-007    +1.9957758e-006
+9.0624000e+004    +9.2712600e-007    +2.0093639e-006
+9.0752000e+004    +1.0644911e-006    +2.0653056e-006
+9.0880000e+004    +9.8383077e-007    +1.9265276e-006
+9.1008000e+004    +8.3177764e-007    +1.8147417e-006
+9.1136000e+004    +9.0931627e-007    +1.9443971e-006
+9.1264000e+004    +9.5436576e-007    +1.9145441e-006
+9.1392000e+004    +8.4255294e-007    +1.8385940e-006
+9.1520000e+004    +9.3636993e-007    +1.7644320e-006
+9.1648000e+004    +9.1574253e-007    +1.7476982e-006
+9.1776000e+004    +8.9789415e-007    +1.7918460e-006
+9.1904000e+004    +8.9302546e-007    +1.6682566e-006
+9.2032000e+004    +8.8323526e-007    +1.7599664e-006
+9.2160000e+004    +9.6722920e-007    +1.9466358e-006
+9.2288000e+004    +9.2601510e-007    +1.9643403e-006
+9.2416000e+004    +9.1380110e-007    +1.8226352e-006
+9.2544000e+004    +8.9382200e-007    +1.7465703e-006
+9.2672000e+004    +9.2028938e-007    +1.7251880e-006
+9.2800000e+004    +8.9987986e-007    +1.8227053e-006
+9.2928000e+004    +9.4161140e-007    +1.7866694e-006
+9.3056000e+004    +9.4072789e-007    +1.9231843e-006
+9.3184000e+004    +9.5544567e-007    +1.8167912e-006
+9.3312000e+004    +9.6585916e-007    +1.7767844e-006
+9.3440000e+004    +8.5031479e-007    +1.9268873e-006
+9.3568000e+004    +9.9658018e-007    +1.8862759e-006
+9.3696000e+004    +8.8386679e-007    +1.8692114e-006
+9.3824000e+004    +8.8004856e-007    +1.9907882e-006
+9.3952000e+004    +9.7643658e-007    +1.7776489e-006
+9.4080000e+004    +8.5065375e-007    +1.8202094e-006
+9.4208000e+004    +8.5500693e-007    +1.9225827e-006
+9.4336000e+004    +1.0064559e-006    +1.8924411e-006
+9.4464000e+004    +1.0576990e-006    +1.9204876e-006
+9.4592000e+004    +8.9437367e-007    +1.8612266e-006
+9.4720000e+004    +9.0366007e-007    +1.7000123e-006
+9.4848000e+004    +1.0125598e-006    +1.7412340e-006
+9.4976000e+004    +8.8398616e-007    +1.8012352e-006
+9.5104000e+004    +7.2242420e-007    +1.9716067e-006
+9.5232000e+004    +6.5284888e-007    +2.0079394e-006
+9.5360000e+004    +8.2631789e-007    +2.0028860e-006
+9.5488000e+004    +9.5504720e-007    +1.7678701e-006
+9.5616000e+004    +1.0513542e-006    +1.8392542e-006
+9.5744000e+004    +1.0306011e-006    +2.1197116e-006
+9.5872000e+004    +9.2020957e-007    +1.9753445e-006
+9.6000000e+004    +8.5920880e-007    +2.0179202e-006
+9.6128000e+004    +7.4434649e-007    +2.1733902e-006
+9.6256000e+004    +6.2871982e-007    +2.0230402e-006
+9.6384000e+004    +5.4559609e-007    +1.8227213e-006
+9.6512000e+004    +4.8805038e-007    +1.8928816e-006
+9.6640000e+004    +5.4479335e-007    +1.8652526e-006
+9.6768000e+004    +5.5561611e-007    +1.9867639e-006
+9.6896000e+004    +5.2512075e-007    +1.9882782e-006
+9.7024000e+004    +5.0157678e-007    +1.9086631e-006
+9.7152000e+004    +5.0860803e-007    +1.7854575e-006
+9.7280000e+004    +4.8286051e-007    +1.6899813e-006
+9.7408000e+004    +4.8419093e-007    +1.7963963e-006
+9.7536000e+004    +4.5980312e-007    +1.6955627e-006
+9.7664000e+004    +4.6199278e-007    +1.8002465e-006
+9.7792000e+004    +4.8435680e-007    +1.8572438e-006
+9.7920000e+004    +5.1269870e-007    +1.8145982e-006
+9.8048000e+004    +4.9965684e-007    +1.6501705e-006
+9.8176000e+004    +4.8473504e-007    +1.6416697e-006
+9.8304000e+004    +4.6390039e-007    +1.7661105e-006
+9.8432000e+004    +5.1679621e-007    +1.8794702e-006
+9.8560000e+004    +4.9685315e-007    +1.9176557e-006
+9.8688000e+004    +4.4345947e-007    +1.8669430e-006
+9.8816000e+004    +4.6761508e-007    +1.7271932e-006
+9.8944000e+004    +4.3411063e-007    +1.7711710e-006
+9.9072000e+004    +4.4933549e-007    +1.6917320e-006
+9.9200000e+004    +4.3830465e-007    +1.7239894e-006
+9.9328000e+004    +4.5889982e-007    +1.8601826e-006
+9.9456000e+004    +4.5766151e-007    +2.0030443e-006
+9.9584000e+004    +4.8464352e-007    +1.8639607e-006
+9.9712000e+004    +4.9864951e-007    +1.7275479e-006
+9.9840000e+004    +4.5865804e-007    +1.8032456e-006
+9.9968000e+004    +4.5735609e-007    +1.7967336e-006
+1.0009600e+005    +4.4645324e-007    +1.7628867e-006
+1.0022400e+005    +4.5675040e-007    +1.7793751e-006
+1.0035200e+005    +4.5371198e-007    +1.8871065e-006
+1.0048000e+005    +4.6821975e-007    +1.9136530e-006
+1.0060800e+005    +4.5370300e-007    +1.8680912e-006
+1.0073600e+005    +4.0986143e-007    +1.7949059e-006
+1.0086400e+005    +4.1680474e-007    +1.8252646e-006
+1.0099200e+005    +4.2016720e-007    +1.7777562e-006
+1.0112000e+005    +4.4781706e-007    +1.8282852e-006
+1.0124800e+005    +4.2775872e-007    +1.8054346e-006
+1.0137600e+005    +3.9376644e-007    +1.8820184e-006
+1.0150400e+005    +3.9068215e-007    +1.8663588e-006
+1.0163200e+005    +3.8910082e-007    +1.6891336e-006
+1.0176000e+005    +4.1000365e-007    +1.7309541e-006
+1.0188800e+005    +4.2787286e-007    +1.8070311e-006
+1.0201600e+005    +4.1691641e-007    +1.7962503e-006
+1.0214400e+005    +3.8058192e-007    +1.7256389e-006
+1.0227200e+005    +3.9423060e-007    +1.8151561e-006
