# Comments from moku data file:% Moku:Phasemeter 
# 
# % Ch 1 - DC coupling, 50 Ohm impedance, 1 V range
# 
# % Ch 1 bandwidth = 1.0000000000e+04 (Hz)
# 
# % Acquisition rate: 1.2500000000e+05 Hz
# 
# % External 10 MHz clock
# 
# % Acquired 2020-03-13 T 19:01:17 -0700
# 
# % Time, Set frequency 1 (Hz), Frequency 1 (Hz), Phase 1 (cyc), I 1 (V), Q 1 (V)
# 
# #########################################################
# ASD calculated by mokuReadFreqNoise.py
# Frequency [Hz]         Freq ASD1 [Hz/rtHz]      Freq ASDlb1 [Hz/rtHz]    Freq ASDub1 [Hz/rtHz]    
# 
0.000000000000000000e+00 4.416215990818916453e+02 2.432024683424074567e+02 5.948544904320424394e+02
1.000000000000000056e-01 3.630711578251004994e+02 1.849935452400095812e+02 5.653070080558645714e+02
2.000000000000000111e-01 1.383754286424747875e+02 5.158396565692289215e+01 2.613125840254739956e+02
3.000000000000000444e-01 1.102269290045816774e+02 2.729467524594627292e+01 1.923540053471350291e+02
4.000000000000000222e-01 9.845499335197406765e+01 5.037938996862958874e+01 1.107145767704551105e+02
5.000000000000000000e-01 7.404628617369485255e+01 4.378328332619614116e+01 9.899404982131805752e+01
6.000000000000000888e-01 5.667709130056853439e+01 4.217875559609977643e+01 9.874536837045353366e+01
7.000000000000000666e-01 6.115454681851055341e+01 2.772749680201399869e+01 8.822031704961605669e+01
8.000000000000000444e-01 4.640333173524182087e+01 1.867048807716911440e+01 8.408628471829800333e+01
9.000000000000000222e-01 4.999533014413483301e+01 3.450184550960054963e+01 6.132320812545997768e+01
1.000000000000000000e+00 4.205076345837769480e+01 1.567653998275718052e+01 5.214153042841216745e+01
1.100000000000000089e+00 3.391370600849723616e+01 2.469570688577716311e+01 6.716517895163279661e+01
1.200000000000000178e+00 3.216177511177606618e+01 1.707556630976081991e+01 5.000934471748782784e+01
1.300000000000000044e+00 2.383434277057942197e+01 1.367180006607274301e+01 5.304029451054402955e+01
1.400000000000000133e+00 3.184789211618664240e+01 1.575145193777314923e+01 4.846471278957924511e+01
1.500000000000000000e+00 2.752069672371515452e+01 1.562949703265256041e+01 4.155610897462943143e+01
1.600000000000000089e+00 1.827118216367597370e+01 1.123549699552031811e+01 3.271150256625581676e+01
1.700000000000000178e+00 1.992474664315366439e+01 1.098966249689178021e+01 4.204185624949597866e+01
1.800000000000000044e+00 2.035374422561842422e+01 1.160246463587283472e+01 2.996992356156207649e+01
1.900000000000000133e+00 2.585334050184543031e+01 1.896206334800481486e+01 3.879087694479459003e+01
2.000000000000000000e+00 3.013818531242034027e+01 1.875363985562814051e+01 5.892859389460672048e+01
2.100000000000000089e+00 2.145894148201371365e+01 6.937433438468528557e+00 3.224406707446595277e+01
2.200000000000000178e+00 2.084955083812784693e+01 9.944830599374277824e+00 3.489556230173545259e+01
2.300000000000000266e+00 1.877976951850305554e+01 9.764836047616713088e+00 4.635353876815951679e+01
2.400000000000000355e+00 2.497219409390717004e+01 1.433365988487834386e+01 4.901903668850447815e+01
2.500000000000000000e+00 2.209417419466760535e+01 1.427732534315563129e+01 3.045330244463347569e+01
2.600000000000000089e+00 2.501595753304320269e+01 9.703084924473634132e+00 3.695057420492274503e+01
2.700000000000000178e+00 1.618986330197570211e+01 6.239174149902942723e+00 4.059764409030841392e+01
2.800000000000000266e+00 3.070456085576016392e+01 1.387016964355569826e+01 3.968357094222218961e+01
2.900000000000000355e+00 2.286574044577276510e+01 1.803808328553780527e+01 3.884257153913713978e+01
3.000000000000000000e+00 2.217734438539845598e+01 1.471572422875125596e+01 3.012338636130574443e+01
3.100000000000000089e+00 2.330646833981771948e+01 1.139111961672609752e+01 3.423410642505917423e+01
3.200000000000000178e+00 2.016191906221496666e+01 9.536691198955676185e+00 3.905507062364497983e+01
3.300000000000000266e+00 2.785394235125540163e+01 7.213412984527807659e+00 3.626908697883975208e+01
3.400000000000000355e+00 1.569553867156533578e+01 9.147904812507855254e+00 3.663691151930135703e+01
3.500000000000000000e+00 2.380060262786254910e+01 1.646587185013775212e+01 4.275853800225502255e+01
3.600000000000000089e+00 2.601889616059627386e+01 1.473024987791274931e+01 3.862801769585657752e+01
3.700000000000000178e+00 1.688950761190480421e+01 1.009490385949827207e+01 3.144790238919418357e+01
3.800000000000000266e+00 1.875787251650332621e+01 9.007162803880822466e+00 2.848221129774193372e+01
3.900000000000000355e+00 1.476141533215438528e+01 8.540410031453449236e+00 2.605781068213525131e+01
4.000000000000000000e+00 2.104637650916514957e+01 1.423157202907150243e+01 3.402719294604766276e+01
4.100000000000000533e+00 1.207419301148331847e+01 6.860509024013446755e+00 2.331391419227013628e+01
4.200000000000000178e+00 1.273454584108119469e+01 8.864246372244855010e+00 1.605280814850005910e+01
4.299999999999999822e+00 1.339443244683623035e+01 6.520890645114371331e+00 2.768117402722748110e+01
4.400000000000000355e+00 2.005230155307386752e+01 1.122445260649347532e+01 2.384550307596300911e+01
4.500000000000000000e+00 1.669239104722877087e+01 1.264947507915794489e+01 2.607710713836842586e+01
4.600000000000000533e+00 1.650065533564048792e+01 1.004143906042004808e+01 2.289857425731433693e+01
4.700000000000000178e+00 1.563876956259298545e+01 1.380470379139459958e+01 2.577098334705774008e+01
4.800000000000000711e+00 1.669639198043536865e+01 1.199931776794025495e+01 2.465287101250653023e+01
4.900000000000000355e+00 9.816887947652368496e+00 6.933936312935888857e+00 1.990953266223624141e+01
5.000000000000000000e+00 1.372319240368936200e+01 7.858266442033864152e+00 2.001766933125268366e+01
5.100000000000000533e+00 1.370152617997953470e+01 8.147228521402380963e+00 2.200249808288171849e+01
5.200000000000000178e+00 1.679445979963619351e+01 7.184171472601292407e+00 2.617832990421106132e+01
5.300000000000000711e+00 1.742486166168117023e+01 1.628245553904660881e+01 2.463763091255810878e+01
5.400000000000000355e+00 1.840549780924284207e+01 1.359851473282433965e+01 2.610078777037864839e+01
5.500000000000000000e+00 1.468509826269107421e+01 1.014119094262027154e+01 2.725635629268093396e+01
5.600000000000000533e+00 1.371015167188698314e+01 6.922447267201476961e+00 2.638264962822287174e+01
5.700000000000000178e+00 1.917639779815749534e+01 1.374416751468035791e+01 2.223846962728920573e+01
5.800000000000000711e+00 1.261656435270024978e+01 8.968253516242734591e+00 2.338498813660729780e+01
5.900000000000000355e+00 2.182055082922698119e+01 1.256401512219602168e+01 2.758184676453604922e+01
6.000000000000000000e+00 1.524387079586721860e+01 9.853313133910022614e+00 2.283445336900314615e+01
6.100000000000000533e+00 1.596896024790777346e+01 1.242798647688451652e+01 2.710397923781531304e+01
6.200000000000000178e+00 1.557617986891745510e+01 8.273988973237013766e+00 1.995586479592371276e+01
6.300000000000000711e+00 9.508875150525273767e+00 7.973049644858138940e+00 1.920110034049553960e+01
6.400000000000000355e+00 1.541518769064751204e+01 1.105342258085122609e+01 2.008339000629039717e+01
6.500000000000000000e+00 1.854684670585725570e+01 1.122949291016152351e+01 3.223213076832670509e+01
6.600000000000000533e+00 2.034507566267426881e+01 1.344721793762974293e+01 3.002264298256946873e+01
6.700000000000000178e+00 2.195734917595929758e+01 1.193466120216840132e+01 3.336517212339173000e+01
6.800000000000000711e+00 2.508604791803753997e+01 1.668696001405945140e+01 3.105858522613838701e+01
6.900000000000000355e+00 2.276383600387612560e+01 1.555121594598666945e+01 3.501440484415592636e+01
7.000000000000000000e+00 1.797599925907070784e+01 1.398009736658256941e+01 2.605437345597693266e+01
7.100000000000000533e+00 1.395241969406953508e+01 7.088580302227192931e+00 2.356458872096000690e+01
7.200000000000000178e+00 2.137610547623301471e+01 1.214629444559863103e+01 2.755672276068496984e+01
7.300000000000000711e+00 1.787533393719388641e+01 1.584950342594070172e+01 2.581303564236742076e+01
7.400000000000000355e+00 2.121340904587207277e+01 6.233252783402834396e+00 3.086946127411286511e+01
7.500000000000000000e+00 1.533540717123236696e+01 1.049706502002509190e+01 2.848956205691504451e+01
7.600000000000000533e+00 1.313041860041703224e+01 6.597830416246205587e+00 2.538659973657478375e+01
7.700000000000000178e+00 1.554703946277162885e+01 1.261112257280744409e+01 1.919452948902632983e+01
7.800000000000000711e+00 9.687866981161420199e+00 6.627071558711597810e+00 2.047831780125859069e+01
7.900000000000000355e+00 1.280500984663559727e+01 8.343447261905247103e+00 2.102949643456564388e+01
8.000000000000000000e+00 1.617329735548211289e+01 7.532032800133478645e+00 1.985964266488187846e+01
8.099999999999999645e+00 1.502538316615981984e+01 1.103629131312082201e+01 2.222811269322729189e+01
8.200000000000001066e+00 1.332234134712994766e+01 1.031313011216780673e+01 2.564842681203505492e+01
8.300000000000000711e+00 2.039846326040452595e+01 5.655116829399308820e+00 2.883626805730962062e+01
8.400000000000000355e+00 9.887476000320448932e+00 7.977357625734027735e+00 2.143933451979519944e+01
8.500000000000000000e+00 9.635723163365359056e+00 3.849490396338393072e+00 1.618229611851424465e+01
8.599999999999999645e+00 1.093679984737875621e+01 7.493601800768400878e+00 2.010201423748421590e+01
8.700000000000001066e+00 1.339492725937263806e+01 6.257496165660898058e+00 2.515605677119243921e+01
8.800000000000000711e+00 1.841695050781491005e+01 1.525117065495502189e+01 2.638506613316262062e+01
8.900000000000000355e+00 1.396011419786238861e+01 9.879940568022655967e+00 2.192082636718247457e+01
9.000000000000000000e+00 1.452089609597280173e+01 6.375438232998933863e+00 2.017314017690346972e+01
9.099999999999999645e+00 1.519206543543100274e+01 8.076878360876378338e+00 2.397522089652596478e+01
9.200000000000001066e+00 1.553191954620960402e+01 6.006879912182328418e+00 2.511526119668705093e+01
9.300000000000000711e+00 1.959986099928915237e+01 6.964985713345757112e+00 3.232328351980152803e+01
9.400000000000000355e+00 1.796402219376624743e+01 9.994597135261637177e+00 2.353845893984652449e+01
9.500000000000000000e+00 1.384851541586815316e+01 9.147113842419395624e+00 2.409427059914343872e+01
9.600000000000001421e+00 2.049320780963379462e+01 8.894827905541617952e+00 2.836076561164219711e+01
9.700000000000001066e+00 1.355174953560685758e+01 1.052765292540433428e+01 2.451721841653625233e+01
9.800000000000000711e+00 1.123619571294407038e+01 8.170874101005443535e+00 2.330649941479650522e+01
9.900000000000000355e+00 1.240308089679466974e+01 8.855995247186232433e+00 2.042360461779444236e+01
1.000000000000000000e+01 1.223879262286574487e+01 5.574648808268189093e+00 2.077300769447474593e+01
1.000000000000000000e+01 1.411659703898254570e+01 8.302833727955844623e+00 2.404405162966340015e+01
1.100000000000000000e+01 1.445680335881695022e+01 8.156677766143218378e+00 2.327542089308751017e+01
1.200000000000000000e+01 1.181173297172763803e+01 5.926370684664813204e+00 2.217229375815833237e+01
1.300000000000000000e+01 1.270247471423992103e+01 5.945507981309940959e+00 2.216394809496068419e+01
1.400000000000000000e+01 1.271986390986935156e+01 5.786817777905913118e+00 2.331688281205027380e+01
1.500000000000000000e+01 1.111584521870719833e+01 5.227156278931383682e+00 2.134854524073714188e+01
1.600000000000000000e+01 1.082675105541457583e+01 4.744812559181413647e+00 1.911726895194842157e+01
1.700000000000000000e+01 1.008963602210890720e+01 4.347025494304645576e+00 1.965137758398675061e+01
1.800000000000000000e+01 9.857328959661398216e+00 3.076647573276849457e+00 1.963998927150340990e+01
1.900000000000000000e+01 8.193581352539554885e+00 2.822770890087223705e+00 2.047062061866733984e+01
2.000000000000000000e+01 8.358948392086235302e+00 2.676720283634340003e+00 1.635579379415870704e+01
2.100000000000000000e+01 8.532492510092271942e+00 2.232214009235926611e+00 1.583712620116911474e+01
2.200000000000000000e+01 6.746448590968065595e+00 2.494501523139768473e+00 1.748501067697672440e+01
2.300000000000000000e+01 6.123116535269425675e+00 1.653514854830224978e+00 1.530485761025508573e+01
2.400000000000000000e+01 5.967949188018397244e+00 1.734118846216148979e+00 1.472786665899137049e+01
2.500000000000000000e+01 5.596589313834049229e+00 1.522981803910853582e+00 1.517557938609920498e+01
2.600000000000000000e+01 4.485717109310042083e+00 1.459180896531144800e+00 1.439840211748040311e+01
2.700000000000000000e+01 3.667061655889692240e+00 1.120327959316580912e+00 1.257460818487354182e+01
2.800000000000000000e+01 3.396240809879840672e+00 1.135901773999297815e+00 1.130246345187837420e+01
2.900000000000000000e+01 2.683172838134706861e+00 8.798071106962312982e-01 9.613143500690709331e+00
3.000000000000000000e+01 2.255691820424985838e+00 7.288120891844757088e-01 9.599817970539110235e+00
3.100000000000000000e+01 2.574586967153333017e+00 5.153951798095417480e-01 1.071367722384819388e+01
3.200000000000000000e+01 2.181115855399078374e+00 5.241044159693983850e-01 9.789225883031052788e+00
3.300000000000000000e+01 1.821679259014561625e+00 6.496164508265401816e-01 9.171146199087695905e+00
3.400000000000000000e+01 1.386746465941029571e+00 5.426391714610252492e-01 7.204098439493077599e+00
3.500000000000000000e+01 1.259932287930875416e+00 4.441467478261576507e-01 5.326281405369241995e+00
3.600000000000000000e+01 1.087046876951112573e+00 3.811389344858306383e-01 5.357058105677563908e+00
3.700000000000000000e+01 9.917620818004756478e-01 3.146420497235333791e-01 4.547734658836474431e+00
3.800000000000000000e+01 9.837626715711271785e-01 3.769064627063320461e-01 4.927735601997423664e+00
3.900000000000000000e+01 8.450961298045986947e-01 3.333614461818825703e-01 3.754941370166465120e+00
4.000000000000000000e+01 7.722712206310498040e-01 3.136192682354002614e-01 3.283978374606453698e+00
4.100000000000000000e+01 6.904310410093660311e-01 3.009455191686962738e-01 2.415496885151934947e+00
4.200000000000000000e+01 6.475250863900298137e-01 3.081794742328713421e-01 2.399679233040547643e+00
4.300000000000000000e+01 6.187576875607577742e-01 3.251451423956560616e-01 2.151294616807350568e+00
4.400000000000000000e+01 5.060371846327735845e-01 2.769694143186559598e-01 1.545227883004704150e+00
4.500000000000000000e+01 5.154970103170332107e-01 1.998417763705222228e-01 1.618076678377201594e+00
4.600000000000000000e+01 4.651079766399180970e-01 1.963246709334053042e-01 1.669310290932407792e+00
4.700000000000000000e+01 4.707606729566978232e-01 2.199770683009307226e-01 1.119428395726839165e+00
4.800000000000000000e+01 4.509594436420372165e-01 1.973798472178195096e-01 1.224526119488212883e+00
4.900000000000000000e+01 4.538805906400955048e-01 2.433422184846551206e-01 8.896493805576637381e-01
5.000000000000000000e+01 4.108294100466796661e-01 1.764661259105284319e-01 8.871030587525111644e-01
5.100000000000000000e+01 3.737962093590501134e-01 1.823030543083323518e-01 7.876307443844574596e-01
5.200000000000000000e+01 3.452156533488546231e-01 1.894957187410928612e-01 6.518282001858088925e-01
5.300000000000000000e+01 3.355104755479159095e-01 1.867502077184297615e-01 7.500782898072299032e-01
5.400000000000000000e+01 3.233964077435968476e-01 1.821944151839808568e-01 6.582389301538363879e-01
5.500000000000000000e+01 3.416722528719823293e-01 1.851893983070183325e-01 6.231974621656702906e-01
5.600000000000000000e+01 3.306293804589265362e-01 1.757526623467694504e-01 5.937948015544138869e-01
5.700000000000000000e+01 3.301801577849644009e-01 1.518290323679335196e-01 5.465208699489925159e-01
5.800000000000000000e+01 3.275309610497962876e-01 1.280322530189083319e-01 5.646363766880133639e-01
5.900000000000000000e+01 3.035830173261559461e-01 1.436319436603698818e-01 5.054690117231660507e-01
6.000000000000000000e+01 2.860512982249973635e-01 1.495474195308693355e-01 4.833816455346859886e-01
6.100000000000000000e+01 2.915789520437288007e-01 1.505798011708154582e-01 4.967494154632181025e-01
6.200000000000000000e+01 2.744049888691167394e-01 1.270868168789929253e-01 5.176126342766972366e-01
6.300000000000000000e+01 2.649729950656168898e-01 1.223595804981898599e-01 4.692582657654875145e-01
6.400000000000000000e+01 2.396841644811032457e-01 1.093670456073770475e-01 3.886832985144372254e-01
6.500000000000000000e+01 2.245375750308298834e-01 1.230391921432206076e-01 3.660769755123871039e-01
6.600000000000000000e+01 2.547138658348134799e-01 1.093144084172772146e-01 3.832549297864017990e-01
6.700000000000000000e+01 2.306593666994819491e-01 1.277913575065943441e-01 4.003024690442812394e-01
6.800000000000000000e+01 2.406189609490426151e-01 1.081282847987043161e-01 3.922285227852964073e-01
6.900000000000000000e+01 1.989205787183116469e-01 1.079185134160018794e-01 3.418186312861600795e-01
7.000000000000000000e+01 2.042899387108620957e-01 9.430592142814292478e-02 3.579040817520042772e-01
7.100000000000000000e+01 2.014755458394545951e-01 8.523781007410524690e-02 3.429341281450686285e-01
7.200000000000000000e+01 1.978784017595473788e-01 9.624004676806195702e-02 3.165411335905335410e-01
7.300000000000000000e+01 2.011852352916006781e-01 8.898912076427141493e-02 3.646953569916407956e-01
7.400000000000000000e+01 1.901848994967324236e-01 8.508279134586069214e-02 3.195210419360264287e-01
7.500000000000000000e+01 1.795357110764829733e-01 9.300128763349503613e-02 3.253696980670878758e-01
7.600000000000000000e+01 1.880962799866518487e-01 8.960112510911885653e-02 3.235892867611203649e-01
7.700000000000000000e+01 1.717829195250537011e-01 8.483987466803115385e-02 3.043546158504532584e-01
7.800000000000000000e+01 1.607449914094629673e-01 8.106701138565640397e-02 2.732016607023876054e-01
7.900000000000000000e+01 1.644241252942734710e-01 9.884694685110155532e-02 2.874179691822046356e-01
8.000000000000000000e+01 1.770484391173214322e-01 8.665397344136313573e-02 2.815640818471505935e-01
8.100000000000000000e+01 1.687345658924944147e-01 8.080059801562325394e-02 2.746207229984883313e-01
8.200000000000000000e+01 1.819617509429126145e-01 8.434668074156204121e-02 2.917495363498273653e-01
8.300000000000000000e+01 1.758099156280942821e-01 8.793820049157748120e-02 2.893934055575737574e-01
8.400000000000000000e+01 1.413292321367607685e-01 7.469279501270829902e-02 3.084182150470172745e-01
8.500000000000000000e+01 1.619186720252465128e-01 8.533429583019798426e-02 2.920403271041088211e-01
8.600000000000000000e+01 1.882994020173392458e-01 8.735575257635200264e-02 2.922906004286530690e-01
8.700000000000000000e+01 1.532828861972075074e-01 7.772627949471092035e-02 3.027610186527792679e-01
8.800000000000000000e+01 1.532740885884333049e-01 7.656584096851153098e-02 2.602688286226890191e-01
8.900000000000000000e+01 1.591591490778233031e-01 7.570468009610227533e-02 2.906541769441572387e-01
9.000000000000000000e+01 1.742926161340783708e-01 8.711640572917707381e-02 2.995526865842386144e-01
9.100000000000000000e+01 1.714388692624131405e-01 7.457685851831280521e-02 3.137729140914417014e-01
9.200000000000000000e+01 1.700267798879651071e-01 7.903084144812706768e-02 3.004065688054441408e-01
9.300000000000000000e+01 1.610962166794432104e-01 7.688045592163496311e-02 3.216740382209555271e-01
9.400000000000000000e+01 1.684713512556328674e-01 7.266032927179633116e-02 2.973782432287298549e-01
9.500000000000000000e+01 1.736755913570105225e-01 8.440708723986575790e-02 3.264225483883455570e-01
9.600000000000000000e+01 1.775221787086024294e-01 1.002438032370269461e-01 3.081776427430699683e-01
9.700000000000000000e+01 1.707678827667359900e-01 8.805009170138194952e-02 3.749096450348880505e-01
9.800000000000000000e+01 2.019243700269583441e-01 9.743339757163321790e-02 3.684146849820415515e-01
9.900000000000000000e+01 2.250926537530715810e-01 7.769279413335557216e-02 3.890915768103629935e-01
1.000000000000000000e+02 2.066234871998913203e-01 7.523104100003608075e-02 3.313130477226490789e-01
1.000000000000000000e+02 2.049820853645559771e-01 9.727478318852517125e-02 3.743551587764814004e-01
1.100000000000000000e+02 2.500251291132414844e-01 1.192375835949137097e-01 4.489866029988293650e-01
1.200000000000000000e+02 2.327982673810749248e-01 1.062469435111511040e-01 4.749589796864518432e-01
1.300000000000000000e+02 2.772960491594632093e-01 1.294719011886956428e-01 4.722915538252712708e-01
1.400000000000000000e+02 2.452054556984405997e-01 1.127948600528822093e-01 4.417862806426036681e-01
1.500000000000000000e+02 1.778024089949843400e-01 7.801737376553752323e-02 3.656619243844667078e-01
1.600000000000000000e+02 1.735609775795771692e-01 8.752128467295669512e-02 3.242606861363065973e-01
1.700000000000000000e+02 1.117864344308944630e-01 4.848714568428515864e-02 2.432139965549597882e-01
1.800000000000000000e+02 6.020239640008310383e-02 2.796546438775482368e-02 1.443193298938339753e-01
1.900000000000000000e+02 4.863847556290355062e-02 2.306333153222828170e-02 9.293083722873166086e-02
2.000000000000000000e+02 6.520969245678151505e-02 2.937392581370786709e-02 1.248552458887385169e-01
2.100000000000000000e+02 9.360767181770396350e-02 4.464218979149064265e-02 1.688972566827258437e-01
2.200000000000000000e+02 9.651357366772257695e-02 3.950272267680167426e-02 1.945270456984144747e-01
2.300000000000000000e+02 9.268772868866033410e-02 4.200400128514716891e-02 1.951881825369447820e-01
2.400000000000000000e+02 1.106140002906722541e-01 5.294103305035932627e-02 1.927092077792003644e-01
2.500000000000000000e+02 6.572328372367898519e-02 3.029026908439114846e-02 1.307087978167090769e-01
2.600000000000000000e+02 3.887130478511770237e-02 1.978468522208918015e-02 7.712524610499361943e-02
2.700000000000000000e+02 3.212011996688936971e-02 1.582055858406814994e-02 5.549842397609278805e-02
2.800000000000000000e+02 3.197455542529760442e-02 1.492058237577348172e-02 5.172820624894913094e-02
2.900000000000000000e+02 2.980960591015197406e-02 1.415110106397179067e-02 4.934826968120420432e-02
3.000000000000000000e+02 3.003730812174377693e-02 1.470787869682371220e-02 4.989367434386081379e-02
3.100000000000000000e+02 3.349356707282177131e-02 1.746006592632923238e-02 5.437177802190085868e-02
3.200000000000000000e+02 3.293366612110935898e-02 1.668896088095380911e-02 5.526156594728397903e-02
3.300000000000000000e+02 3.386245363547039922e-02 1.628807072080528176e-02 5.620017811240915484e-02
3.400000000000000000e+02 3.523979848412977373e-02 1.855345881178458584e-02 5.815753734611776860e-02
3.500000000000000000e+02 4.245439843834682148e-02 2.205309515355956956e-02 6.677215543558634447e-02
3.600000000000000000e+02 6.022576391110467942e-02 3.439621432667155920e-02 9.027779664846517782e-02
3.700000000000000000e+02 4.484285061174112658e-02 2.290117338261462090e-02 7.209555688495070114e-02
3.800000000000000000e+02 4.432325420088437107e-02 2.358311647575899589e-02 7.436849155488484131e-02
3.900000000000000000e+02 5.700404932036470113e-02 2.907447028845499062e-02 9.276430833242492457e-02
4.000000000000000000e+02 5.144751585530049631e-02 2.435757098307048119e-02 8.229620643150688253e-02
4.100000000000000000e+02 4.236083371968379918e-02 2.020680805462474888e-02 6.809052950085792144e-02
4.200000000000000000e+02 5.207317859473693106e-02 2.721255433328506959e-02 8.470850886422912063e-02
4.300000000000000000e+02 4.953980868731479303e-02 2.506040827954945927e-02 7.973800644922630909e-02
4.400000000000000000e+02 3.763474812920898638e-02 1.946888077399379358e-02 6.163551186356557021e-02
4.500000000000000000e+02 3.916289596802655093e-02 2.006839334239425912e-02 6.216831111673298133e-02
4.600000000000000000e+02 3.217819225214291895e-02 1.674042855754614631e-02 5.392596264807596879e-02
4.700000000000000000e+02 3.243270077453837968e-02 1.648827730096745839e-02 5.111064394945282613e-02
4.800000000000000000e+02 4.196742239264220770e-02 2.285986972085706989e-02 6.347103674577264654e-02
4.900000000000000000e+02 2.923962678072452442e-02 1.504987558909523168e-02 4.917250418438249421e-02
5.000000000000000000e+02 2.640442916902971046e-02 1.381529271110745229e-02 4.283956119348177743e-02
5.100000000000000000e+02 2.791813835517014536e-02 1.421126887024660654e-02 4.379037739964521808e-02
5.200000000000000000e+02 2.864386633931687715e-02 1.358080640224077623e-02 4.708761317329912544e-02
5.300000000000000000e+02 2.931170502400485753e-02 1.424940297380747518e-02 4.723592645456552858e-02
5.400000000000000000e+02 3.321571200215055891e-02 1.642007638676511519e-02 5.462140882891676485e-02
5.500000000000000000e+02 3.697437437221777479e-02 1.889407304231516260e-02 5.905350033895468559e-02
5.600000000000000000e+02 3.864701093067051535e-02 1.857464751472709050e-02 6.052829535605319666e-02
5.700000000000000000e+02 4.169423312503208606e-02 2.091683090818535415e-02 6.842547566421788852e-02
5.800000000000000000e+02 3.898385304816118224e-02 1.920652429050193066e-02 6.505076775074650208e-02
5.900000000000000000e+02 3.191369482155252679e-02 1.614631918003064243e-02 5.451857990473033683e-02
6.000000000000000000e+02 3.329278912259746315e-02 1.663902243739826328e-02 5.301665702823291082e-02
6.100000000000000000e+02 2.877152284755976966e-02 1.368778253299424673e-02 4.565266025976394415e-02
6.200000000000000000e+02 5.369180175024896445e-02 2.598943104070032886e-02 9.003653463929610357e-02
6.300000000000000000e+02 2.139854360285028123e-01 1.107762151368233694e-01 3.523355249899148278e-01
6.400000000000000000e+02 2.328751074784060904e-01 1.192526656105339644e-01 3.693257242598232959e-01
6.500000000000000000e+02 1.531252467427544894e-01 7.785167274162155260e-02 2.518786656110902911e-01
6.600000000000000000e+02 1.537147836956695157e-01 7.754053184713669000e-02 2.432265169941569272e-01
6.700000000000000000e+02 1.211372913343111563e-01 6.053636080716755935e-02 2.002481855512666109e-01
6.800000000000000000e+02 1.147608782661521665e-01 5.482132943318678009e-02 1.866855207360724744e-01
6.900000000000000000e+02 1.046605547290122701e-01 5.354539142877570712e-02 1.764857354059115868e-01
7.000000000000000000e+02 6.210834908041824864e-02 2.990767476805900049e-02 1.092827883087918034e-01
7.100000000000000000e+02 4.531981116426769818e-02 2.383615322947717913e-02 7.394843628125408186e-02
7.200000000000000000e+02 6.137347530964361308e-02 3.001586176055162300e-02 9.906298121913106880e-02
7.300000000000000000e+02 4.819944223594486293e-02 2.284701900966957383e-02 7.664232179555506563e-02
7.400000000000000000e+02 2.485395698528870476e-02 1.310975130484962926e-02 4.113808499311615019e-02
7.500000000000000000e+02 2.518625899641053698e-02 1.285687339287525967e-02 4.145709731224198058e-02
7.600000000000000000e+02 2.793163507862611236e-02 1.300544360293422706e-02 4.603766718919694717e-02
7.700000000000000000e+02 3.272985126433784753e-02 1.758725046466575945e-02 5.422440676803463866e-02
7.800000000000000000e+02 5.215658075344937333e-02 2.717542204286211779e-02 8.574021612884596966e-02
7.900000000000000000e+02 1.354082495995120872e-01 6.873803836259960443e-02 2.185434603565946932e-01
8.000000000000000000e+02 2.635761372206124054e-01 1.288121015258089641e-01 4.097115519171783959e-01
8.100000000000000000e+02 2.001135364182193566e-01 9.806893814956420263e-02 3.153745079231243253e-01
8.200000000000000000e+02 1.262194043839748869e-01 6.575006129614416328e-02 2.047157451081756119e-01
8.300000000000000000e+02 1.541822267458721751e-01 7.979597881300436180e-02 2.478680103719934635e-01
8.400000000000000000e+02 3.749888326822911067e-01 2.408920403932987842e-01 5.168846512287835759e-01
8.500000000000000000e+02 3.411717815372985463e-01 1.913362421702944627e-01 4.875213576313860431e-01
8.600000000000000000e+02 2.022212388374042824e-01 1.072238321197168526e-01 3.229912556193060280e-01
8.700000000000000000e+02 1.514313284790187730e-01 7.854564795813168132e-02 2.429452098030718821e-01
8.800000000000000000e+02 9.805183501959414960e-02 5.227335752476889447e-02 1.572049114734541952e-01
8.900000000000000000e+02 6.297146909605161325e-02 3.159639486642235734e-02 1.044187645253147056e-01
9.000000000000000000e+02 6.536065035169338899e-02 3.219800321015203054e-02 1.060034153353238001e-01
9.100000000000000000e+02 8.544815112107298494e-02 4.464766435515534621e-02 1.402068832993693670e-01
9.200000000000000000e+02 7.781555559217766260e-02 3.946002662802503003e-02 1.285246590518108745e-01
9.300000000000000000e+02 5.798083892601758882e-02 2.815315455037117193e-02 9.340031440655875705e-02
9.400000000000000000e+02 4.365921282748291832e-02 2.327844848591679658e-02 7.257468793970128784e-02
9.500000000000000000e+02 4.275757066703519266e-02 2.149243364013619928e-02 6.901740398951797251e-02
9.600000000000000000e+02 4.744643331434945932e-02 2.410611403896575564e-02 7.521799867732353873e-02
9.700000000000000000e+02 5.249057201019086127e-02 2.823802493277206491e-02 8.779496847751791511e-02
9.800000000000000000e+02 6.723872865193440684e-02 3.421703431002414558e-02 1.109588713082759748e-01
9.900000000000000000e+02 8.244547199082764843e-02 4.138851080499542784e-02 1.334206020769907741e-01
1.000000000000000000e+03 1.268361923439756955e-01 6.069906941014029805e-02 2.090603950695202051e-01
1.000000000000000000e+03 1.121415213766435992e-01 5.651155564465236425e-02 1.823094827000531493e-01
1.100000000000000000e+03 9.902355974064652733e-02 4.908098982580359065e-02 1.614772265011748531e-01
1.200000000000000000e+03 6.921756698537770425e-02 3.442119978274726932e-02 1.123954658224671360e-01
1.300000000000000000e+03 4.964687323788941758e-02 2.466861464029106513e-02 8.204996835618685869e-02
1.400000000000000000e+03 3.826940406086955931e-02 1.911349924255311555e-02 6.279089187710504283e-02
1.500000000000000000e+03 4.481353089558442332e-02 2.291627791042736076e-02 7.354343247170060105e-02
1.600000000000000000e+03 4.257279412554959563e-02 2.129754434343633304e-02 7.027990748048901226e-02
1.700000000000000000e+03 2.572372718107837283e-02 1.283377525732278153e-02 4.167411246601492036e-02
1.800000000000000000e+03 2.304609670201653721e-02 1.146622951626112379e-02 3.713305041674002521e-02
1.900000000000000000e+03 2.250705860740839087e-02 1.140866410581913015e-02 3.654208253307084098e-02
2.000000000000000000e+03 2.122028085834029576e-02 1.069933010377506662e-02 3.496502232105298119e-02
2.100000000000000000e+03 2.152579408223124352e-02 1.067497984971184539e-02 3.492949994448772688e-02
2.200000000000000000e+03 2.086591061969747876e-02 1.037051247917511292e-02 3.436133184071322316e-02
2.300000000000000000e+03 2.065987675017055131e-02 1.042588156453139528e-02 3.381443875797641996e-02
2.400000000000000000e+03 2.064776308033283367e-02 1.047045961101869191e-02 3.409788340678890362e-02
2.500000000000000000e+03 2.092971188684894859e-02 1.039948325254244112e-02 3.384019813201134819e-02
2.600000000000000000e+03 2.118577396652775863e-02 1.046903051429298216e-02 3.417530808923800040e-02
2.700000000000000000e+03 2.103819770890244176e-02 1.033665785276459241e-02 3.453896104536716138e-02
2.800000000000000000e+03 2.170075649560971459e-02 1.068197716023227932e-02 3.518713387167921036e-02
2.900000000000000000e+03 2.210517913483323743e-02 1.115769747930453124e-02 3.577387622225947778e-02
3.000000000000000000e+03 2.272419794360630574e-02 1.147026387449794765e-02 3.703610093300309380e-02
3.100000000000000000e+03 2.285962061887970853e-02 1.143703445050288196e-02 3.726180504379027897e-02
3.200000000000000000e+03 2.445765735097576651e-02 1.217758049598218276e-02 3.961353043268330681e-02
3.300000000000000000e+03 2.912286967289823628e-02 1.450247419806653497e-02 4.757839441914028800e-02
3.400000000000000000e+03 2.810780391348633583e-02 1.407723144782347356e-02 4.636649470680991730e-02
3.500000000000000000e+03 3.532477645512868691e-02 1.784560644062077595e-02 5.667557937333556756e-02
3.600000000000000000e+03 5.090863025141036807e-02 3.091065216903204210e-02 7.096592489843664420e-02
3.700000000000000000e+03 3.547149031072621694e-02 1.774849582424986583e-02 5.849271214647770029e-02
3.800000000000000000e+03 2.887177352604509625e-02 1.446519861111626726e-02 4.729808757559446353e-02
3.900000000000000000e+03 2.767189367490451371e-02 1.372687778590349177e-02 4.550134112731982899e-02
4.000000000000000000e+03 2.507820760385189723e-02 1.278722686813292715e-02 4.104599764273084844e-02
4.100000000000000000e+03 2.474452111819722480e-02 1.226414969631299534e-02 4.055274398527337898e-02
4.200000000000000000e+03 2.477586351434189413e-02 1.246201876365790433e-02 4.086165367565010309e-02
4.300000000000000000e+03 2.502337855851694340e-02 1.268169376130247501e-02 4.098834034133293225e-02
4.400000000000000000e+03 2.497521468594228813e-02 1.243904598560031070e-02 4.125758780512208540e-02
4.500000000000000000e+03 2.562649275563953083e-02 1.300633496492450275e-02 4.209352752161170386e-02
4.600000000000000000e+03 2.856870031251978331e-02 1.397427211509913274e-02 4.794081356703504965e-02
4.700000000000000000e+03 4.911415478679508756e-02 2.307213595519737662e-02 8.178284582750701415e-02
4.800000000000000000e+03 7.284518098519708607e-02 4.489148413736652327e-02 9.845179035853045268e-02
4.900000000000000000e+03 4.826890035435466714e-02 2.276804801599523545e-02 8.239309682686228598e-02
5.000000000000000000e+03 2.997217528990565177e-02 1.462150675094654392e-02 4.999492862475151539e-02
5.100000000000000000e+03 2.781004867651594090e-02 1.393135068002133124e-02 4.496502308308156920e-02
5.200000000000000000e+03 2.796495871605859246e-02 1.388519977640894493e-02 4.558544071203915471e-02
5.300000000000000000e+03 2.846858519862309825e-02 1.431866169902042130e-02 4.711492757278150367e-02
5.400000000000000000e+03 2.903255146050014168e-02 1.461564866364103640e-02 4.751303443266237381e-02
5.500000000000000000e+03 2.981811042619179203e-02 1.482696091601276404e-02 4.800825812784154101e-02
5.600000000000000000e+03 2.980875862734041343e-02 1.497550339072789560e-02 4.859285103573672548e-02
5.700000000000000000e+03 3.021268996786834193e-02 1.520715550621958706e-02 4.929032624428626025e-02
5.800000000000000000e+03 3.055661096067262619e-02 1.525628500361068257e-02 4.927971698200950268e-02
5.900000000000000000e+03 3.172144912647243548e-02 1.575390617092285381e-02 5.189316591571092874e-02
6.000000000000000000e+03 3.302894095191705182e-02 1.617767021276652825e-02 5.341858661149378323e-02
6.100000000000000000e+03 3.234161874071174447e-02 1.629377725382844325e-02 5.278468580043596536e-02
6.200000000000000000e+03 3.214333903035400397e-02 1.589782944010224158e-02 5.262731614119925405e-02
6.300000000000000000e+03 3.258485406397879786e-02 1.634757190012059089e-02 5.310875060994800501e-02
6.400000000000000000e+03 3.289352599302540481e-02 1.650073648267623427e-02 5.351870912987193724e-02
6.500000000000000000e+03 3.317159805290968710e-02 1.651072201113284663e-02 5.453897486447691761e-02
6.600000000000000000e+03 3.370932239283532666e-02 1.666813536728642756e-02 5.563999161471143429e-02
6.700000000000000000e+03 3.428149596886252010e-02 1.703622121581100865e-02 5.601281861553197849e-02
6.800000000000000000e+03 3.511871207794973332e-02 1.721333366834519943e-02 5.706435868125901700e-02
6.900000000000000000e+03 3.716189981239421264e-02 1.843004750818364595e-02 6.034673509626235777e-02
7.000000000000000000e+03 4.499128520985647139e-02 2.138173662507748471e-02 8.527732912880707505e-02
7.100000000000000000e+03 8.218400366327972828e-02 3.243600498809939142e-02 1.444790836136379819e-01
7.200000000000000000e+03 1.124273598566388338e-01 5.379932389829610723e-02 1.591715505990055068e-01
7.300000000000000000e+03 7.837422186693902837e-02 3.257519108540415237e-02 1.436793470892075986e-01
7.400000000000000000e+03 4.497243394488016632e-02 2.174160800531169807e-02 8.476678675272264485e-02
7.500000000000000000e+03 3.901101849589740794e-02 1.944157347593438584e-02 6.576929332535512429e-02
7.600000000000000000e+03 3.856986552334876889e-02 1.918984890508404831e-02 6.311018863322867545e-02
7.700000000000000000e+03 3.941706032102872126e-02 1.949114616438029149e-02 6.361627638491847148e-02
7.800000000000000000e+03 3.962695728401652989e-02 2.022388016380918113e-02 6.489944283173801343e-02
7.900000000000000000e+03 4.005371797655767757e-02 2.007031543518527500e-02 6.538350964227683526e-02
8.000000000000000000e+03 4.148375917429341503e-02 2.037159801181352009e-02 6.793079223426350122e-02
8.100000000000000000e+03 4.614579062936584319e-02 2.258210884422513776e-02 8.292648212725579893e-02
8.200000000000000000e+03 6.706881264148069344e-02 2.943290322421522956e-02 3.097551446965529087e-01
8.300000000000000000e+03 2.626909803739767568e-01 5.148324728574561054e-02 4.981717558692232428e-01
8.400000000000000000e+03 3.822229149553464933e-01 1.065490252822303696e-01 5.276233914229462307e-01
8.500000000000000000e+03 2.338387369153612783e-01 5.007872432779568450e-02 5.028911217723593952e-01
8.600000000000000000e+03 6.699871461912669524e-02 2.986121620334475368e-02 2.884975485393002637e-01
8.700000000000000000e+03 4.927488909968862768e-02 2.379178509034519245e-02 8.765323045233558430e-02
8.800000000000000000e+03 4.524717289195089726e-02 2.271869639358968865e-02 7.518164120892113778e-02
8.900000000000000000e+03 4.483532175866507957e-02 2.253836631273584482e-02 7.325406650323178226e-02
9.000000000000000000e+03 4.567602321544649013e-02 2.254345997552275119e-02 7.391167613902824285e-02
9.100000000000000000e+03 4.565012999439261449e-02 2.322021003899831307e-02 7.439561801037326838e-02
9.200000000000000000e+03 4.628817422927433700e-02 2.308745898637597910e-02 7.579599838625936115e-02
9.300000000000000000e+03 5.010727958384559450e-02 2.442893905813987854e-02 8.572504425270843775e-02
9.400000000000000000e+03 6.226778193262128003e-02 2.945917186972691476e-02 1.377922053101782729e-01
9.500000000000000000e+03 1.006717367551766829e-01 3.999648348087460337e-02 1.885935982528272603e-01
9.600000000000000000e+03 1.276423265529323114e-01 5.044511531982705937e-02 2.024008037485298950e-01
9.700000000000000000e+03 9.529185323397813823e-02 3.917498703181915287e-02 1.905741446372958836e-01
9.800000000000000000e+03 6.316059799163210864e-02 3.024657987064774747e-02 1.326298316064321026e-01
9.900000000000000000e+03 5.266646417046703943e-02 2.607741419856910228e-02 9.053229981760425871e-02
1.000000000000000000e+04 4.994445786021343286e-02 2.451768857948407807e-02 8.233679057513484945e-02
1.010000000000000000e+04 4.947617888575320949e-02 2.461994481364289042e-02 8.095778774623309249e-02
1.020000000000000000e+04 5.010652016464831743e-02 2.475444322743542216e-02 8.152981801834809084e-02
1.030000000000000000e+04 5.070646787660008231e-02 2.521029310502582305e-02 8.248609382495268594e-02
1.040000000000000000e+04 5.264878130817877977e-02 2.545043120328270916e-02 8.738595406343346861e-02
1.050000000000000000e+04 5.852526791778047549e-02 2.845924807719008715e-02 1.137859301440134197e-01
1.060000000000000000e+04 8.036189252296002672e-02 3.476751794656771782e-02 3.188086177283145362e-01
1.070000000000000000e+04 1.778179936502825575e-01 5.028179575425272690e-02 3.982381085431390688e-01
1.080000000000000000e+04 2.439805652484069720e-01 6.416344235245906302e-02 4.166222345055769494e-01
1.090000000000000000e+04 1.598650740354034538e-01 4.771512618567652630e-02 3.973095584098463862e-01
1.100000000000000000e+04 7.938882428096685762e-02 3.548911956801963086e-02 2.951673116587965606e-01
1.110000000000000000e+04 6.162390798543964515e-02 2.941820793655278501e-02 1.152535927413601557e-01
1.120000000000000000e+04 5.585166421302951295e-02 2.776878925486871499e-02 9.314410069744809284e-02
1.130000000000000000e+04 5.379800182746044546e-02 2.707928531522260304e-02 8.736258531013012252e-02
1.140000000000000000e+04 5.364539150166414139e-02 2.649407368100778482e-02 8.630457789455261985e-02
1.150000000000000000e+04 5.344972648193068582e-02 2.689305921989163656e-02 8.760142377198160135e-02
1.160000000000000000e+04 5.406817555486655158e-02 2.700190155398616079e-02 8.777327527173731103e-02
1.170000000000000000e+04 5.467528979312279158e-02 2.775238154113002925e-02 8.979673633583525050e-02
1.180000000000000000e+04 5.651801390211470127e-02 2.864110379427559430e-02 9.162792913791888150e-02
1.190000000000000000e+04 5.717927443445662561e-02 2.857985916510059898e-02 9.429495749957586548e-02
1.200000000000000000e+04 5.805100868712088219e-02 2.931258000374178593e-02 9.583671234243736070e-02
1.210000000000000000e+04 6.153457251344922330e-02 3.086162317750558784e-02 1.008598738843318188e-01
1.220000000000000000e+04 6.058078846992946687e-02 2.974099863029652790e-02 9.905295199145480733e-02
1.230000000000000000e+04 5.677661360433979704e-02 2.815856005129664316e-02 9.295051937290631228e-02
1.240000000000000000e+04 5.596592346916694910e-02 2.788718781040709985e-02 9.107955109416519812e-02
1.250000000000000000e+04 5.578961822978166507e-02 2.765546785727076781e-02 9.061249542416484337e-02
1.260000000000000000e+04 5.616623540208148108e-02 2.763883202808058853e-02 9.096850802596422036e-02
1.270000000000000000e+04 5.646046926637740548e-02 2.808488327789187416e-02 9.058193426227502398e-02
1.280000000000000000e+04 5.681602883119755976e-02 2.865983065079195577e-02 9.235912026572357103e-02
1.290000000000000000e+04 5.945878674190937380e-02 3.012692905639756044e-02 9.665065937541800212e-02
1.300000000000000000e+04 6.303840894223097790e-02 3.222201134912568155e-02 1.042613006240739604e-01
1.310000000000000000e+04 6.676351320531248579e-02 3.315080874290619178e-02 1.112479341242216813e-01
1.320000000000000000e+04 6.937557362554992724e-02 3.461238298158014065e-02 1.131119891317987347e-01
1.330000000000000000e+04 6.631736904714936875e-02 3.386303784576497056e-02 1.104427621011884880e-01
1.340000000000000000e+04 6.250952024279110564e-02 3.119919812498117215e-02 1.028593668680466561e-01
1.350000000000000000e+04 5.871872032943901976e-02 2.890277897050142278e-02 9.588676619336243545e-02
1.360000000000000000e+04 5.687033048132423413e-02 2.776132215830592193e-02 9.357515228569193710e-02
1.370000000000000000e+04 5.673730973726331256e-02 2.822009751424623542e-02 9.236846616924043740e-02
1.380000000000000000e+04 5.731563932252614624e-02 2.892932002275751605e-02 9.236140739947229505e-02
1.390000000000000000e+04 5.881683920721939018e-02 2.971630381904051543e-02 9.518403018180186803e-02
1.400000000000000000e+04 5.937100815544543719e-02 2.934173742228619527e-02 9.648027845379088252e-02
1.410000000000000000e+04 5.849121962077328402e-02 2.909355644264490295e-02 9.480217717699518376e-02
1.420000000000000000e+04 5.944920372188219199e-02 2.976254225896753092e-02 9.612915910773435491e-02
1.430000000000000000e+04 6.019156602594624705e-02 3.011572275227120815e-02 9.894114446816243413e-02
1.440000000000000000e+04 6.021477895474511288e-02 3.000621480843164088e-02 9.953280408585626904e-02
1.450000000000000000e+04 5.990035517091674838e-02 2.972589414854416925e-02 9.775169747728884584e-02
1.460000000000000000e+04 5.804039529421730487e-02 2.935372329139999958e-02 9.553050943135965589e-02
1.470000000000000000e+04 5.645739188332973141e-02 2.819836886941361198e-02 9.254686345720179730e-02
1.480000000000000000e+04 5.558208427662210405e-02 2.845893241771660712e-02 9.083970054429227337e-02
1.490000000000000000e+04 5.559217535304897262e-02 2.787827075391324447e-02 8.966652773336861171e-02
1.500000000000000000e+04 5.500881942787852474e-02 2.723751566221669154e-02 8.920014994376394835e-02
1.510000000000000000e+04 5.452627647084985069e-02 2.731306637840267074e-02 8.987133810332394168e-02
1.520000000000000000e+04 5.446729307662012687e-02 2.685539571400907127e-02 8.957703478841376465e-02
1.530000000000000000e+04 5.528709716708801042e-02 2.706703071533400617e-02 9.104150919596036562e-02
1.540000000000000000e+04 5.706463273904197053e-02 2.850508688872972762e-02 9.304345348165524165e-02
1.550000000000000000e+04 5.919870366402812945e-02 2.921168894886115586e-02 9.655614293733513764e-02
1.560000000000000000e+04 5.884290334699997932e-02 2.958757752478162126e-02 9.646700322954482321e-02
1.570000000000000000e+04 5.831372731781438862e-02 2.913872020144608194e-02 9.523939562805255887e-02
1.580000000000000000e+04 5.704076241458930219e-02 2.795110513994010851e-02 9.350298341382137779e-02
1.590000000000000000e+04 6.049764628197350225e-02 3.027075382864108724e-02 9.782381338929165004e-02
1.600000000000000000e+04 5.854201115145970385e-02 2.930326193863789369e-02 9.450274636036253006e-02
1.610000000000000000e+04 5.350390900964735463e-02 2.648533310572249999e-02 8.636048671890059203e-02
1.620000000000000000e+04 5.322164296403449762e-02 2.673545673254026575e-02 8.611304317235615735e-02
1.630000000000000000e+04 5.324827690936642655e-02 2.660017024940039554e-02 8.676986295946881311e-02
1.640000000000000000e+04 5.315585875370952562e-02 2.663106022502135031e-02 8.560337160842865223e-02
1.650000000000000000e+04 5.380334694314769378e-02 2.691754469139188977e-02 8.705823367614998198e-02
1.660000000000000000e+04 5.415256765627226437e-02 2.646339285550347586e-02 8.851395847303432374e-02
1.670000000000000000e+04 5.364734645555298276e-02 2.690608370676901562e-02 8.857510252650861726e-02
1.680000000000000000e+04 5.448442343001595745e-02 2.714322626061407492e-02 8.888428478908715069e-02
1.690000000000000000e+04 5.418301218307852024e-02 2.691383433159456884e-02 8.761649393866093039e-02
1.700000000000000000e+04 5.256027314535729328e-02 2.626875012587719105e-02 8.568673278943947369e-02
1.710000000000000000e+04 5.204760852560910006e-02 2.562977682757389131e-02 8.464102437374454446e-02
1.720000000000000000e+04 5.162990575011588285e-02 2.552757097975473857e-02 8.416597028689143389e-02
1.730000000000000000e+04 5.140049166219922555e-02 2.548717370037116917e-02 8.352837675870336542e-02
1.740000000000000000e+04 5.119606499673125255e-02 2.551594780065945603e-02 8.277642517716941872e-02
1.750000000000000000e+04 5.029782129309644245e-02 2.535589063497087348e-02 8.247221239266910864e-02
1.760000000000000000e+04 5.055892294562203126e-02 2.462925781225805758e-02 8.185932746487539768e-02
1.770000000000000000e+04 4.984281560426807173e-02 2.444174621455345864e-02 8.170850650340517884e-02
1.780000000000000000e+04 5.003421322182646791e-02 2.497435049381455802e-02 8.179138137028171829e-02
1.790000000000000000e+04 5.028663137449502357e-02 2.484812913709536983e-02 8.186239686818144734e-02
1.800000000000000000e+04 5.472984731036287936e-02 2.711316289290094730e-02 8.905182598088696999e-02
1.810000000000000000e+04 5.722914142014868394e-02 2.835807784916308943e-02 9.216335490125539265e-02
1.820000000000000000e+04 5.000657096331845297e-02 2.515208604042356785e-02 8.201852686234729906e-02
1.830000000000000000e+04 5.034022436310432030e-02 2.560834790050149981e-02 8.148391255375947440e-02
1.840000000000000000e+04 5.030850892199630747e-02 2.500185015357550208e-02 8.166094447378692556e-02
1.850000000000000000e+04 4.962545475571972231e-02 2.507817241229201577e-02 8.176423362180916532e-02
1.860000000000000000e+04 4.968182788781939918e-02 2.446253939905057226e-02 8.112077480945217856e-02
1.870000000000000000e+04 4.974722413476032057e-02 2.481994972665073351e-02 8.040499224144168067e-02
1.880000000000000000e+04 4.882582737916769944e-02 2.414897878510558274e-02 7.938550545630555788e-02
1.890000000000000000e+04 4.908564258106867112e-02 2.394480179327635946e-02 7.970044959800305640e-02
1.900000000000000000e+04 4.880399037820339070e-02 2.474445905964349143e-02 8.065235331067109603e-02
1.910000000000000000e+04 5.629200905422233198e-02 2.821007169949920484e-02 9.085620284709625127e-02
1.920000000000000000e+04 5.937888416842052736e-02 3.029882034217360257e-02 9.566130335623114489e-02
1.930000000000000000e+04 5.359616583550839281e-02 2.678954902685003539e-02 8.825288692326056783e-02
1.940000000000000000e+04 5.414517035855103549e-02 2.708460386439087361e-02 9.041463112458068829e-02
1.950000000000000000e+04 5.447935122535197544e-02 2.707469027613515142e-02 8.972686691437514739e-02
1.960000000000000000e+04 5.321064251647973642e-02 2.677296676829857627e-02 8.866220189153610487e-02
1.970000000000000000e+04 5.028196301685860375e-02 2.473810264166840384e-02 8.289175842913272529e-02
1.980000000000000000e+04 4.812384498696010982e-02 2.398660847486941416e-02 7.882746263422968358e-02
1.990000000000000000e+04 4.770907069498927372e-02 2.404070133410041513e-02 7.808278356277087440e-02
2.000000000000000000e+04 4.754003871709628487e-02 2.350703258528588982e-02 7.812743674676862760e-02
2.010000000000000000e+04 4.768627210372135966e-02 2.380713892926563519e-02 7.904103983710487891e-02
2.020000000000000000e+04 4.772233313449313064e-02 2.413781872206309520e-02 7.878742933578673779e-02
2.030000000000000000e+04 4.817849008320528731e-02 2.393742071310884026e-02 7.819330319355174974e-02
2.040000000000000000e+04 4.801577732358296852e-02 2.407406488455662505e-02 7.872791762962262629e-02
2.050000000000000000e+04 4.801401874589051461e-02 2.414366424294012159e-02 7.944444306241442433e-02
2.060000000000000000e+04 4.958227211748621882e-02 2.489288033153097893e-02 8.098765186621421919e-02
2.070000000000000000e+04 6.900002719251269179e-02 3.470049909182976872e-02 1.092695401088538687e-01
2.080000000000000000e+04 7.920323149997967604e-01 7.377254836845794639e-01 8.504819025438767888e-01
2.090000000000000000e+04 1.216970327221113202e+00 1.172833224908238270e+00 1.259801157067838906e+00
2.100000000000000000e+04 4.591937555314868913e-01 4.033835155907322112e-01 5.114690338788797641e-01
2.110000000000000000e+04 5.240691417233744182e-02 2.608087876645889119e-02 8.480098241550486360e-02
2.120000000000000000e+04 4.637622995668006648e-02 2.337314016359368085e-02 7.605848986752429541e-02
2.130000000000000000e+04 4.550018692604936021e-02 2.253907629012977601e-02 7.431489681236978784e-02
2.140000000000000000e+04 4.613200566547740605e-02 2.321435525784774911e-02 7.483461186824937050e-02
2.150000000000000000e+04 4.696012894502928081e-02 2.298027184686278479e-02 7.568781094920612462e-02
2.160000000000000000e+04 4.551790198329582621e-02 2.255536898137060903e-02 7.382663247414483765e-02
2.170000000000000000e+04 4.476243218917633215e-02 2.240922652005312293e-02 7.347352649216136455e-02
2.180000000000000000e+04 4.491266476726074597e-02 2.284776295449474429e-02 7.353699583663125816e-02
2.190000000000000000e+04 4.450549549409990591e-02 2.252876824108521886e-02 7.277147305476666661e-02
2.200000000000000000e+04 4.468581027881769058e-02 2.234557026690862577e-02 7.243814186936374522e-02
2.210000000000000000e+04 4.387626453072692584e-02 2.224385809462016070e-02 7.184440955348384006e-02
2.220000000000000000e+04 4.345607735456347154e-02 2.184231557290370468e-02 7.095580396614664664e-02
2.230000000000000000e+04 4.411868795338565186e-02 2.186956773260918807e-02 7.163310575676434810e-02
2.240000000000000000e+04 4.479688085281928467e-02 2.186001451717659028e-02 7.281065815634560345e-02
2.250000000000000000e+04 4.503725751489248003e-02 2.184797772866375193e-02 7.254906949629075230e-02
2.260000000000000000e+04 4.481568718769170234e-02 2.272211506244981374e-02 7.296879937023967311e-02
2.270000000000000000e+04 4.409000823868428759e-02 2.174784593502010130e-02 7.202742221345510842e-02
2.280000000000000000e+04 4.394784214235070846e-02 2.178589163089816524e-02 7.113723645946783136e-02
2.290000000000000000e+04 4.382829474889798904e-02 2.218115325921415568e-02 7.191425450888108695e-02
2.300000000000000000e+04 4.440558749775868480e-02 2.217601513453656970e-02 7.277519260180652372e-02
2.310000000000000000e+04 4.414028377265891839e-02 2.176210495059174507e-02 7.176111134458298957e-02
2.320000000000000000e+04 4.329629999910486471e-02 2.176403576720414151e-02 7.088277074886695228e-02
2.330000000000000000e+04 4.324820215735010465e-02 2.125635010105656614e-02 7.082210394412817578e-02
2.340000000000000000e+04 4.304103559940144347e-02 2.167406581665401108e-02 7.070667936867770786e-02
2.350000000000000000e+04 4.246427827513997444e-02 2.108877179541627719e-02 6.910061189675169302e-02
2.360000000000000000e+04 4.234679190542327276e-02 2.119399470590374937e-02 6.853140511838201610e-02
2.370000000000000000e+04 4.369618020489680205e-02 2.196602190791234130e-02 7.130509475919810658e-02
2.380000000000000000e+04 4.558909970085270325e-02 2.285348138687462796e-02 7.409513352575984590e-02
2.390000000000000000e+04 4.557938750842518288e-02 2.284409916957415645e-02 7.383715119159775520e-02
2.400000000000000000e+04 4.413969626014321856e-02 2.169386244717061776e-02 7.254375011326680278e-02
2.410000000000000000e+04 4.354009832882073383e-02 2.177743192240927383e-02 7.041920807569394813e-02
2.420000000000000000e+04 4.405202518510144966e-02 2.216121995743700057e-02 7.162203976286668494e-02
2.430000000000000000e+04 4.251916043483752738e-02 2.127091213668133932e-02 6.948790184094216782e-02
2.440000000000000000e+04 4.158210090444276752e-02 2.099204948289879261e-02 6.718143867797823909e-02
2.450000000000000000e+04 4.171756295209844145e-02 2.065902353237258210e-02 6.729362058302310046e-02
2.460000000000000000e+04 4.065000370221198700e-02 2.028825329775758857e-02 6.638578420718650730e-02
2.470000000000000000e+04 4.017287557530149766e-02 1.985087659287421841e-02 6.599939970116622256e-02
2.480000000000000000e+04 3.967305047490583131e-02 1.979447184180639988e-02 6.496396024815015435e-02
2.490000000000000000e+04 3.999038968160963797e-02 1.980639818104693375e-02 6.535042959389719686e-02
2.500000000000000000e+04 3.968034972210581629e-02 1.995062196986303535e-02 6.588120355778066817e-02
2.510000000000000000e+04 3.982147800722823927e-02 2.017066624341583986e-02 6.458665342560664102e-02
2.520000000000000000e+04 3.978890139386144498e-02 2.003465333925375305e-02 6.577612166766565183e-02
2.530000000000000000e+04 3.995912712210962503e-02 1.990511768011004462e-02 6.549899994382910040e-02
2.540000000000000000e+04 4.022134682476142392e-02 2.028348619978556644e-02 6.529063548223930369e-02
2.550000000000000000e+04 4.036183753082362574e-02 2.001754532298651718e-02 6.549138962588431367e-02
2.560000000000000000e+04 4.028199385284537276e-02 2.007491368245255953e-02 6.579364205808990729e-02
2.570000000000000000e+04 4.064526751652487030e-02 2.010385116994470311e-02 6.644903425252743356e-02
2.580000000000000000e+04 4.007753306575479596e-02 1.991993250683238986e-02 6.464594891982827773e-02
2.590000000000000000e+04 3.958574610010962697e-02 2.000771449907624497e-02 6.480047738257808942e-02
2.600000000000000000e+04 3.935439113935490507e-02 1.961604606395041944e-02 6.425108868522659555e-02
2.610000000000000000e+04 3.917942319973313769e-02 1.943886443639281439e-02 6.367951012421509127e-02
2.620000000000000000e+04 3.918667921071172788e-02 1.945022282631168886e-02 6.401389888796522876e-02
2.630000000000000000e+04 3.940978293509982133e-02 1.982347507611467718e-02 6.432921934197308178e-02
2.640000000000000000e+04 3.905246743133067300e-02 1.939839416051974616e-02 6.426376710366035749e-02
2.650000000000000000e+04 3.934902481631965404e-02 1.985129189567131150e-02 6.426005715609349467e-02
2.660000000000000000e+04 3.917197518745822726e-02 1.972088417134150798e-02 6.441341204474590465e-02
2.670000000000000000e+04 3.922078289769053566e-02 1.970804801157252997e-02 6.390126019964462167e-02
2.680000000000000000e+04 3.967928659541255371e-02 2.000892390772626359e-02 6.444034874613600861e-02
2.690000000000000000e+04 3.979556131865363139e-02 1.986232802684191265e-02 6.371320158107672549e-02
2.700000000000000000e+04 3.944239855727562499e-02 1.955507421246636957e-02 6.521621388529814933e-02
2.710000000000000000e+04 4.006198277647187583e-02 1.994550030145404371e-02 6.402065409920751349e-02
2.720000000000000000e+04 3.981785197503635854e-02 1.998738907833898237e-02 6.563889205274600624e-02
2.730000000000000000e+04 4.025256409509074540e-02 1.998386491796659212e-02 6.621089289715159643e-02
2.740000000000000000e+04 4.152647375451715139e-02 2.089925890151785731e-02 6.798757319280158973e-02
2.750000000000000000e+04 5.398622673270468686e-02 2.725508693242388938e-02 8.461726918482616322e-02
2.760000000000000000e+04 3.061526860235876391e-01 2.616848482359996897e-01 3.478578961486688548e-01
2.770000000000000000e+04 1.364261392913972415e+00 1.321186174149746151e+00 1.407003071807950922e+00
2.780000000000000000e+04 1.284692809561713389e+00 1.242024811843836174e+00 1.328720710848440234e+00
2.790000000000000000e+04 2.319005120456738012e-01 1.922353954353794303e-01 2.744056151186355375e-01
2.800000000000000000e+04 5.109827290449994036e-02 2.643937730171896233e-02 8.031208659077185286e-02
2.810000000000000000e+04 4.035254913769008300e-02 2.023830862248746434e-02 6.574323335288974335e-02
2.820000000000000000e+04 3.924818419239669426e-02 1.949602546790103058e-02 6.418164420485165944e-02
2.830000000000000000e+04 3.934564960387734039e-02 1.946792306014473797e-02 6.456051391961994956e-02
2.840000000000000000e+04 3.895991231143071387e-02 1.925425930967353261e-02 6.398099085874461855e-02
2.850000000000000000e+04 3.869010528588215370e-02 1.955268972299783331e-02 6.392981415699783287e-02
2.860000000000000000e+04 3.914727575179782065e-02 1.955785899670807459e-02 6.313424977782206016e-02
2.870000000000000000e+04 4.137069246207649570e-02 2.094099809288669373e-02 6.739818618567421094e-02
2.880000000000000000e+04 4.008417570915129985e-02 2.013100896085933192e-02 6.575217724865335678e-02
2.890000000000000000e+04 3.723102002087076007e-02 1.876841413065756872e-02 6.076802341267506513e-02
2.900000000000000000e+04 3.681229029345541720e-02 1.821069611144133724e-02 6.056473719593908484e-02
2.910000000000000000e+04 3.653442143561047573e-02 1.792560897525324534e-02 5.986251007580985217e-02
2.920000000000000000e+04 3.604342670952390137e-02 1.796242474643192436e-02 5.909658459117782259e-02
2.930000000000000000e+04 3.683444005808787086e-02 1.841151984855620219e-02 5.984218616479355934e-02
2.940000000000000000e+04 3.653759211058678347e-02 1.822245921448760117e-02 5.985960220853881603e-02
2.950000000000000000e+04 3.601912026488977153e-02 1.774038450174356477e-02 5.880677293838678515e-02
2.960000000000000000e+04 3.546866028865625770e-02 1.784169388930198843e-02 5.836542118983897159e-02
2.970000000000000000e+04 3.547548750785178839e-02 1.751072677622789522e-02 5.777035851942136785e-02
2.980000000000000000e+04 3.913891984172986754e-02 1.955867206280656120e-02 6.369941446320162570e-02
2.990000000000000000e+04 4.993594024131756126e-02 2.534809792788475860e-02 8.196945154485724139e-02
3.000000000000000000e+04 4.110744461161928293e-02 2.060202629961630644e-02 6.763365047189714985e-02
3.010000000000000000e+04 3.955117864670185113e-02 1.988230884721060507e-02 6.402208100455444861e-02
3.020000000000000000e+04 4.229918390526899580e-02 2.136608247508975378e-02 6.886114088941296119e-02
3.030000000000000000e+04 3.679096227341208808e-02 1.827492976003458960e-02 5.930706207006465613e-02
3.040000000000000000e+04 5.220696598581570091e-02 2.639391330253357607e-02 8.509230895506432468e-02
3.050000000000000000e+04 7.667325134508824747e-02 3.783139271138388077e-02 1.259734769775872620e-01
3.060000000000000000e+04 5.838813411752143134e-02 2.871763121704517738e-02 9.615983563193022943e-02
3.070000000000000000e+04 7.824096231527925827e-02 3.880888528169623014e-02 1.285926658331634775e-01
3.080000000000000000e+04 5.046618321261993334e-02 2.521030485162720908e-02 8.236866733000672292e-02
3.090000000000000000e+04 5.855277841323342641e-02 3.167396328324370569e-02 8.784474436539944919e-02
3.100000000000000000e+04 1.485568340850194069e-01 1.173024271810437641e-01 1.780797166932840681e-01
3.110000000000000000e+04 1.078097671111203082e-01 7.740053696173494757e-02 1.382870984400019210e-01
3.120000000000000000e+04 3.617901801954346436e-02 1.852454540859590354e-02 5.960236350040573616e-02
3.130000000000000000e+04 3.515660521292190976e-02 1.748265358570284811e-02 5.685720585418170547e-02
3.140000000000000000e+04 3.457106717590586326e-02 1.738265485895960916e-02 5.583941874586996479e-02
3.150000000000000000e+04 3.441776903746916749e-02 1.718548123458764343e-02 5.584280306189828846e-02
3.160000000000000000e+04 3.463489392205579970e-02 1.734256794666964516e-02 5.575324778998846931e-02
3.170000000000000000e+04 3.453438437076086082e-02 1.744512450145499841e-02 5.597185769809143868e-02
3.180000000000000000e+04 3.471661281187796155e-02 1.746758225568410122e-02 5.660806416920594053e-02
3.190000000000000000e+04 3.716682424761823950e-02 1.865642726839081972e-02 6.030190397113834033e-02
3.200000000000000000e+04 3.482430239396534094e-02 1.707466039304761374e-02 5.690203933627703548e-02
3.210000000000000000e+04 3.383846422304400553e-02 1.696019972691615793e-02 5.499687368789861475e-02
3.220000000000000000e+04 3.365986446019772482e-02 1.666962151452238208e-02 5.508637703767185756e-02
3.230000000000000000e+04 3.335600369400563980e-02 1.656622451537469176e-02 5.439557614642839822e-02
3.240000000000000000e+04 3.354057403674891302e-02 1.674652303117055499e-02 5.487766442467485739e-02
3.250000000000000000e+04 3.436949171564786937e-02 1.712373089113010394e-02 5.544713851860122444e-02
3.260000000000000000e+04 3.393948859226992437e-02 1.674879621484492986e-02 5.521352958407017841e-02
3.270000000000000000e+04 3.332594021152939651e-02 1.650021882173115934e-02 5.484983452575067225e-02
3.280000000000000000e+04 3.351345601377684474e-02 1.691517180602279333e-02 5.486028615274046033e-02
3.290000000000000000e+04 3.324925617410661588e-02 1.633974310014000772e-02 5.487059314064852977e-02
3.300000000000000000e+04 3.625009597336789624e-02 1.799460365308663823e-02 5.913809083680798134e-02
3.310000000000000000e+04 7.026505063918885019e-02 4.323286344525761188e-02 9.801377002099991020e-02
3.320000000000000000e+04 6.339723115533109354e-02 3.692171210525638236e-02 9.095981127057668758e-02
3.330000000000000000e+04 3.418209710865941636e-02 1.712314808832051186e-02 5.566920508999850109e-02
3.340000000000000000e+04 3.274729045180469617e-02 1.641727777638253907e-02 5.353614194004398946e-02
3.350000000000000000e+04 3.333141211300134910e-02 1.625942784547968270e-02 5.324997263614598270e-02
3.360000000000000000e+04 3.279292855372876320e-02 1.602662357204803767e-02 5.394481651440179854e-02
3.370000000000000000e+04 3.232364886639355755e-02 1.583915456869747912e-02 5.302300529708405680e-02
3.380000000000000000e+04 3.254731435597295330e-02 1.650158369771220074e-02 5.332742789776000886e-02
3.390000000000000000e+04 3.242337017690016809e-02 1.602419550637743800e-02 5.343655454845162855e-02
3.400000000000000000e+04 3.250834305199408469e-02 1.590547291814603525e-02 5.324538437401934304e-02
3.410000000000000000e+04 3.279479239166825655e-02 1.635133693572530383e-02 5.307492613110419838e-02
3.420000000000000000e+04 3.250434154917575258e-02 1.600567320533303334e-02 5.313942973556610994e-02
3.430000000000000000e+04 3.221628572840724847e-02 1.637088118529715988e-02 5.281509479123942113e-02
3.440000000000000000e+04 3.250284202492085411e-02 1.629679786699050892e-02 5.292134638151398812e-02
3.450000000000000000e+04 3.293053339664740037e-02 1.684131258464630770e-02 5.423737483643276125e-02
3.460000000000000000e+04 3.726568360580756467e-02 1.865145015862190031e-02 6.004599765395338129e-02
3.470000000000000000e+04 3.364090941622471798e-02 1.657745026781315412e-02 5.556927433768982239e-02
3.480000000000000000e+04 3.236331356287713845e-02 1.616517940045916757e-02 5.203773794405481407e-02
3.490000000000000000e+04 3.205337543281985835e-02 1.597438029892383690e-02 5.191037521718468162e-02
3.500000000000000000e+04 3.202216016738428095e-02 1.568841526037234244e-02 5.259900788057422782e-02
3.510000000000000000e+04 3.219713598542911503e-02 1.618378512966675911e-02 5.222376020401513913e-02
3.520000000000000000e+04 3.215931743703166062e-02 1.594868822299040298e-02 5.221530933025542859e-02
3.530000000000000000e+04 3.181847070544065875e-02 1.595539258127473548e-02 5.137478456284587380e-02
3.540000000000000000e+04 3.163983843252386741e-02 1.586887705148807767e-02 5.148284874508395059e-02
3.550000000000000000e+04 3.136465639511513276e-02 1.605035906633097212e-02 5.125560293117141508e-02
3.560000000000000000e+04 3.150384203922377419e-02 1.589791885933553722e-02 5.153998178782680933e-02
3.570000000000000000e+04 3.165943369322310463e-02 1.576335541896187187e-02 5.150001503732363345e-02
3.580000000000000000e+04 3.150926597646976079e-02 1.553236458713105027e-02 5.139140412317728945e-02
3.590000000000000000e+04 3.213107730250982369e-02 1.587856080268507455e-02 5.198989211376086467e-02
3.600000000000000000e+04 3.160328233974431938e-02 1.584257721592945492e-02 5.164207313893681706e-02
3.610000000000000000e+04 3.133904549618553304e-02 1.564919101889831327e-02 5.149801215258104775e-02
3.620000000000000000e+04 3.175958747544494615e-02 1.592360201124378566e-02 5.147941505820925051e-02
3.630000000000000000e+04 3.226208543237944759e-02 1.614834609257634335e-02 5.244572420319065786e-02
3.640000000000000000e+04 3.204818505430450520e-02 1.590433569197042749e-02 5.266889964609231672e-02
3.650000000000000000e+04 3.194449914003767710e-02 1.604012783182884663e-02 5.234053524500630744e-02
3.660000000000000000e+04 3.186494529112982033e-02 1.601074677347301412e-02 5.178482137267019503e-02
3.670000000000000000e+04 3.178414300901967471e-02 1.624106748652924884e-02 5.141449278363405956e-02
3.680000000000000000e+04 3.171869962510523444e-02 1.580622230321779981e-02 5.127125719792400421e-02
3.690000000000000000e+04 3.167923030312262689e-02 1.585707247688547886e-02 5.186758308774774839e-02
3.700000000000000000e+04 4.626252577336916610e-02 2.277090140299217400e-02 7.499057306511160148e-02
3.710000000000000000e+04 6.953997712256251851e-02 3.426224207070158873e-02 1.133139423764275427e-01
3.720000000000000000e+04 5.211206532667388147e-02 2.588356171257892233e-02 8.327481454535902439e-02
3.730000000000000000e+04 7.067267317599527920e-02 3.502621168013531766e-02 1.167274307058392829e-01
3.740000000000000000e+04 4.805188921530215151e-02 2.393135828199607559e-02 7.835491761075791262e-02
3.750000000000000000e+04 3.403720788912707740e-02 1.690133910751115062e-02 5.549883921360027755e-02
3.760000000000000000e+04 7.621610239770021389e-02 5.106731812020651184e-02 1.019898656442218138e-01
3.770000000000000000e+04 7.248167208181970078e-02 4.752428574210104673e-02 9.792669752382426873e-02
3.780000000000000000e+04 3.246062535050726894e-02 1.602039024220882832e-02 5.304954982995016555e-02
3.790000000000000000e+04 3.115221530442681061e-02 1.555130098857927454e-02 5.110762666720548159e-02
3.800000000000000000e+04 3.099809517137153483e-02 1.558298846749580843e-02 5.118370543192451994e-02
3.810000000000000000e+04 3.171969455626381940e-02 1.572471379013364381e-02 5.317019221360394510e-02
3.820000000000000000e+04 4.085705466850687861e-02 2.011288552861025675e-02 6.873202889102364432e-02
3.830000000000000000e+04 4.983218561159604570e-02 2.432571110647677864e-02 8.420000915196425295e-02
3.840000000000000000e+04 4.093567753759035782e-02 2.027260428921239324e-02 7.376302326160169565e-02
3.850000000000000000e+04 3.701597567642136294e-02 1.766741538940202333e-02 7.932454765563297372e-02
3.860000000000000000e+04 3.935685222097215497e-02 1.870121268092986636e-02 1.527763893636062409e-01
3.870000000000000000e+04 3.998500067474764635e-02 1.839336095244067937e-02 2.803768871067122137e-01
3.880000000000000000e+04 4.015727873744007886e-02 1.866189389559939210e-02 2.991053426564750928e-01
3.890000000000000000e+04 4.033217056546468948e-02 1.879230277769622023e-02 2.765198948713271654e-01
3.900000000000000000e+04 3.928004676044527521e-02 1.836292059116156894e-02 2.535616376874666456e-01
3.910000000000000000e+04 4.489156163862541293e-02 2.125648722520307593e-02 2.171648642903335202e-01
3.920000000000000000e+04 8.646742014275161925e-02 5.673588697666493569e-02 1.477951780834550199e-01
3.930000000000000000e+04 6.900350706207618312e-02 4.188605773848168290e-02 1.105683132857288031e-01
3.940000000000000000e+04 3.300041257519657073e-02 1.584211862120423267e-02 6.011428009185071364e-02
3.950000000000000000e+04 3.123551768796599057e-02 1.539972412902882934e-02 5.392525313988443675e-02
3.960000000000000000e+04 3.062057407922747290e-02 1.521800032605040605e-02 5.182035619057353409e-02
3.970000000000000000e+04 3.036632249597645203e-02 1.512339968412626696e-02 5.081784203302011638e-02
3.980000000000000000e+04 3.005233333100879381e-02 1.479246614864119028e-02 5.113088125351572533e-02
3.990000000000000000e+04 3.032361115921714673e-02 1.506678131163179980e-02 5.146609216680221588e-02
4.000000000000000000e+04 3.076404558981251508e-02 1.510493820198466168e-02 5.201064231934645482e-02
4.010000000000000000e+04 3.077750586760773233e-02 1.532881637386263214e-02 5.322835784485999144e-02
4.020000000000000000e+04 3.063035055664250356e-02 1.504440392371848324e-02 5.334101095190773439e-02
4.030000000000000000e+04 3.097152218145822131e-02 1.534129493668619747e-02 5.411072040869914501e-02
4.040000000000000000e+04 3.116378022272362630e-02 1.538372759414836054e-02 5.457669857091396876e-02
4.050000000000000000e+04 3.097952749818192950e-02 1.500135704824218964e-02 5.487157524819803733e-02
4.060000000000000000e+04 3.103172362434106907e-02 1.543751816936844712e-02 5.451693248107251921e-02
4.070000000000000000e+04 3.126653743909900418e-02 1.505794614238657216e-02 5.602295951891255593e-02
4.080000000000000000e+04 3.150994545883142872e-02 1.527297140133747691e-02 5.671391686811627642e-02
4.090000000000000000e+04 3.149836133041437197e-02 1.527999742915090060e-02 5.787686882798592780e-02
4.100000000000000000e+04 3.172412509242804324e-02 1.542110715123980354e-02 5.810056239908710507e-02
4.110000000000000000e+04 3.116822345565273961e-02 1.528303780264616066e-02 5.587408984278057628e-02
4.120000000000000000e+04 3.072336691328002647e-02 1.525721078118675092e-02 5.423066663552186806e-02
4.130000000000000000e+04 3.063535250833359855e-02 1.492713255105861808e-02 5.359463610382027982e-02
4.140000000000000000e+04 3.038531073875932326e-02 1.498609835733933325e-02 5.246314051194905098e-02
4.150000000000000000e+04 2.998054305990716789e-02 1.481752326295142884e-02 5.105432888833207061e-02
4.160000000000000000e+04 3.202672593577855775e-02 1.622893637823252105e-02 5.362037204520918310e-02
4.170000000000000000e+04 8.503260484458324830e-02 5.898317073987238701e-02 1.112566597241552296e-01
4.180000000000000000e+04 1.001806326266341390e-01 7.406183576837488403e-02 1.267362821402861217e-01
4.190000000000000000e+04 3.881418786151084183e-02 1.970745036458446814e-02 6.240556555864771454e-02
4.200000000000000000e+04 2.995634399878828111e-02 1.494513933175186694e-02 4.995776578493779652e-02
4.210000000000000000e+04 2.970448479618814641e-02 1.474714996255524664e-02 4.998523050362513320e-02
4.220000000000000000e+04 2.939921343755275834e-02 1.468406573187360821e-02 4.934054034063602850e-02
4.230000000000000000e+04 2.955298445983164241e-02 1.483456676660253014e-02 4.909419972405701382e-02
4.240000000000000000e+04 2.973061653175799665e-02 1.472599504603398606e-02 4.958995918961955213e-02
4.250000000000000000e+04 2.981250640337985980e-02 1.479245765631503548e-02 5.027347605590453544e-02
4.260000000000000000e+04 3.016066970657679119e-02 1.484729763918797227e-02 5.100753428266592560e-02
4.270000000000000000e+04 3.007010977758167725e-02 1.494349305926011111e-02 5.074411817813900133e-02
4.280000000000000000e+04 2.983246070034694178e-02 1.480176582315039999e-02 5.096429623066517367e-02
4.290000000000000000e+04 2.984761710989606090e-02 1.490055420974948676e-02 5.138433808419472920e-02
4.300000000000000000e+04 3.088166133953176851e-02 1.514150645489227912e-02 5.262997476372537758e-02
4.310000000000000000e+04 3.248814866248639355e-02 1.602654202743253320e-02 5.593401394099806190e-02
4.320000000000000000e+04 3.373119352888233335e-02 1.654539765779563035e-02 5.825614491984105331e-02
4.330000000000000000e+04 3.467057992003486772e-02 1.710819678570547897e-02 5.939604242730206485e-02
4.340000000000000000e+04 3.370422567414455700e-02 1.644605076813509051e-02 5.893057343856782093e-02
4.350000000000000000e+04 3.237270559180483592e-02 1.574399665326794984e-02 5.590296892875807472e-02
4.360000000000000000e+04 3.110904823223230309e-02 1.553819359333147819e-02 5.274376200416933114e-02
4.370000000000000000e+04 3.053260518487158071e-02 1.489624773193142654e-02 5.184037295394895023e-02
4.380000000000000000e+04 2.975864827648657882e-02 1.496520785079349242e-02 5.003643687411279267e-02
4.390000000000000000e+04 3.042098447984735443e-02 1.494957937130294255e-02 5.081028846177342018e-02
4.400000000000000000e+04 2.965086174122537332e-02 1.463335528048711164e-02 4.974979828870201848e-02
4.410000000000000000e+04 2.991032391675232938e-02 1.450630884007487846e-02 5.117645554080154507e-02
4.420000000000000000e+04 4.410875545989295654e-02 2.217130991044869229e-02 7.331595633449738969e-02
4.430000000000000000e+04 4.562113578885727827e-02 2.308763051194440488e-02 7.658775048002615382e-02
4.440000000000000000e+04 3.073646531264848103e-02 1.520742625844219084e-02 5.140901224544040110e-02
4.450000000000000000e+04 2.856086865607666489e-02 1.403106272634908891e-02 4.797090721114005002e-02
4.460000000000000000e+04 2.809897201807512110e-02 1.368244872460495573e-02 4.704755958866087967e-02
4.470000000000000000e+04 2.829420555897021669e-02 1.385136348737831154e-02 4.675676457108270123e-02
4.480000000000000000e+04 2.812075081915966362e-02 1.400920694541954621e-02 4.665506150301772931e-02
4.490000000000000000e+04 2.839882267885679781e-02 1.414825029475035370e-02 4.731406324774133088e-02
4.500000000000000000e+04 2.824633088244645623e-02 1.385741975775046410e-02 4.737182097915548784e-02
4.510000000000000000e+04 2.820391486205367157e-02 1.411538834278256230e-02 4.684253571507241559e-02
4.520000000000000000e+04 2.831966220089412317e-02 1.410583554906155723e-02 4.690318401562870720e-02
4.530000000000000000e+04 4.786516237865694884e-02 2.388464527245143937e-02 7.941806421363448165e-02
4.540000000000000000e+04 1.082791173932571849e-01 5.224028110616747711e-02 1.785523939764518120e-01
4.550000000000000000e+04 1.077195847138384260e-01 5.334027255509879439e-02 1.809363733910329675e-01
4.560000000000000000e+04 5.185528979983312220e-02 2.579547951225126881e-02 8.672421284574201306e-02
4.570000000000000000e+04 2.815792951562546415e-02 1.401939182315254176e-02 4.646102133342194102e-02
4.580000000000000000e+04 2.773163786971307235e-02 1.381518861034697690e-02 4.549670798076945605e-02
4.590000000000000000e+04 2.751139590600630222e-02 1.345632584571656437e-02 4.548883553936491214e-02
4.600000000000000000e+04 2.749570116161162772e-02 1.359251564007559095e-02 4.577522193902288511e-02
4.610000000000000000e+04 2.798670021421633541e-02 1.410544016748693265e-02 4.652364796210609055e-02
4.620000000000000000e+04 2.815779880241447986e-02 1.394994010277576801e-02 4.800109800358039885e-02
4.630000000000000000e+04 2.928204420110418205e-02 1.434644436033667529e-02 4.979729132344720005e-02
4.640000000000000000e+04 3.303268541016297910e-02 1.617839843209341322e-02 5.717681185469733474e-02
4.650000000000000000e+04 6.591145530020438292e-02 3.925209401427749017e-02 9.732638825895156831e-02
4.660000000000000000e+04 5.774037668670825574e-02 3.209976306062846396e-02 8.992180682772271672e-02
4.670000000000000000e+04 3.157463146149376565e-02 1.538913463223499402e-02 5.805603830195731063e-02
4.680000000000000000e+04 3.129896948632980569e-02 1.520157000329878764e-02 5.893311049017157383e-02
4.690000000000000000e+04 3.261125322675816063e-02 1.598428807240555652e-02 6.341306056950016257e-02
4.700000000000000000e+04 8.763585628909710545e-02 4.403275431942933749e-02 1.576482044981112607e-01
4.710000000000000000e+04 2.599709776128450445e-01 1.339281677310581731e-01 4.348131384028093849e-01
4.720000000000000000e+04 2.416375613804982170e-01 1.209697634618218942e-01 3.928843966431955770e-01
4.730000000000000000e+04 2.423616266144168752e-01 1.205589364434342392e-01 3.918674481186024128e-01
4.740000000000000000e+04 1.291810456888156933e-01 6.383020498495754758e-02 2.204800590812954486e-01
4.750000000000000000e+04 3.140337445783657200e-02 1.507112582497096773e-02 6.434295307809073661e-02
4.760000000000000000e+04 3.034024557112079135e-02 1.452583537430199127e-02 6.175252860362483859e-02
4.770000000000000000e+04 2.934720281021357263e-02 1.467559270862429065e-02 5.781204538818517785e-02
4.780000000000000000e+04 2.914491861266436945e-02 1.442600715518724264e-02 5.472829428631158233e-02
4.790000000000000000e+04 2.862505963029688891e-02 1.417419404879768571e-02 5.142393226177963822e-02
4.800000000000000000e+04 2.938864500498316462e-02 1.451601784644778251e-02 5.116794683064571775e-02
4.810000000000000000e+04 3.786654070203672451e-02 1.921353054974637292e-02 6.155876231712893720e-02
4.820000000000000000e+04 3.349220911191064243e-02 1.657008559736850711e-02 5.574025345888005550e-02
4.830000000000000000e+04 2.698474839657505342e-02 1.335391406757179336e-02 4.596531841039783184e-02
4.840000000000000000e+04 2.674574364818158370e-02 1.315722216611413427e-02 4.463537353324287943e-02
4.850000000000000000e+04 5.655868438818274085e-02 3.570272035641557096e-02 7.883320650306044342e-02
4.860000000000000000e+04 1.623263063769633252e-01 1.396992620580460309e-01 1.850586889493532894e-01
4.870000000000000000e+04 1.207995707283602560e-01 9.883129357337055998e-02 1.429844622064031789e-01
4.880000000000000000e+04 2.796469780528276425e-02 1.386950426416690141e-02 4.583864887161120949e-02
4.890000000000000000e+04 3.193954467897191368e-02 1.584142527381210766e-02 5.258159460878731456e-02
4.900000000000000000e+04 4.833141783532036301e-02 2.389217453521252921e-02 8.009476239832709343e-02
4.910000000000000000e+04 3.958922239647630348e-02 1.976683313626342170e-02 6.438771606398806246e-02
4.920000000000000000e+04 6.191208486575169867e-02 3.063270956566660833e-02 1.000387948592282306e-01
4.930000000000000000e+04 5.405740372562903295e-02 2.742953944011727874e-02 8.743888977933002293e-02
4.940000000000000000e+04 2.683649257382659734e-02 1.317230249929012866e-02 4.407797822230503232e-02
4.950000000000000000e+04 2.731210778081489057e-02 1.359997667161748011e-02 4.468834594924878112e-02
4.960000000000000000e+04 4.572149150541057055e-02 2.407086728326093480e-02 6.981994085031217878e-02
4.970000000000000000e+04 8.770631994618387217e-02 6.555189950831470658e-02 1.093846526455854867e-01
4.980000000000000000e+04 5.355069489596388926e-02 3.291142585764601780e-02 7.490316549621911513e-02
4.990000000000000000e+04 2.576248598858879926e-02 1.295499174184619462e-02 4.160706092195221723e-02
5.000000000000000000e+04 2.529127061184499592e-02 1.261217252528571038e-02 4.149457860594375075e-02
5.010000000000000000e+04 2.510222176992397275e-02 1.253618174022206981e-02 4.111573702827214793e-02
5.020000000000000000e+04 2.515097892801750751e-02 1.248047601245501348e-02 4.095807799965278662e-02
5.030000000000000000e+04 2.516742608729190950e-02 1.245358849089275508e-02 4.088973022709469635e-02
5.040000000000000000e+04 2.500469909706600977e-02 1.252930922340854229e-02 4.089182769034235831e-02
5.050000000000000000e+04 2.506961124047205752e-02 1.260774642525356107e-02 4.114608372615059795e-02
5.060000000000000000e+04 2.536319859951728303e-02 1.253890039441645822e-02 4.147330588417671299e-02
5.070000000000000000e+04 2.573668461751597858e-02 1.259499262795809975e-02 4.160250222988881585e-02
5.080000000000000000e+04 2.524009853394540079e-02 1.261408185868008978e-02 4.128157600602262028e-02
5.090000000000000000e+04 2.514968110348133126e-02 1.261736289896619491e-02 4.115826169803939172e-02
5.100000000000000000e+04 2.542715788945212885e-02 1.237371910016370549e-02 4.091492452811989339e-02
5.110000000000000000e+04 2.562178042099228989e-02 1.241379111027107740e-02 4.154352637264434323e-02
5.120000000000000000e+04 2.543499162348097573e-02 1.282048543387502224e-02 4.149068517302993697e-02
5.130000000000000000e+04 2.565062444107891679e-02 1.286462645939078289e-02 4.156310982964822598e-02
5.140000000000000000e+04 2.562139387355623008e-02 1.283032337190434698e-02 4.153614115537560686e-02
5.150000000000000000e+04 2.538982765450488108e-02 1.275296557374126435e-02 4.133297595228156013e-02
5.160000000000000000e+04 2.491410170083852016e-02 1.234813728660353986e-02 4.125485884215759902e-02
5.170000000000000000e+04 2.537088924869188022e-02 1.270483057127617076e-02 4.165931046082750611e-02
5.180000000000000000e+04 2.566751838009017142e-02 1.305776621054630104e-02 4.189020324119331617e-02
5.190000000000000000e+04 2.635746391463923699e-02 1.317973785742612182e-02 4.304625174397362641e-02
5.200000000000000000e+04 2.566108092462273185e-02 1.283786084455697425e-02 4.199549158611683153e-02
5.210000000000000000e+04 2.526840283083530217e-02 1.256869290445996289e-02 4.136522081947284490e-02
5.220000000000000000e+04 2.531980725404975666e-02 1.259002063638105413e-02 4.113224751954405733e-02
5.230000000000000000e+04 2.517046847021452496e-02 1.246522429133599917e-02 4.111337136647942592e-02
5.240000000000000000e+04 2.523416808016134757e-02 1.260444380073190082e-02 4.133963078128408825e-02
5.250000000000000000e+04 2.579012228735312953e-02 1.287988742641415010e-02 4.201224582856161183e-02
5.260000000000000000e+04 2.606731036926234271e-02 1.306526033260538809e-02 4.198120658532068089e-02
5.270000000000000000e+04 2.584908877449939094e-02 1.284741421082831632e-02 4.238321138886683159e-02
5.280000000000000000e+04 2.600705935059714063e-02 1.318458004198394193e-02 4.253909193110412545e-02
5.290000000000000000e+04 2.631719153140096509e-02 1.296454016076255787e-02 4.233888711108279440e-02
5.300000000000000000e+04 2.616628774810459204e-02 1.312836097222114598e-02 4.303716782420422687e-02
5.310000000000000000e+04 2.622259646959662974e-02 1.325032593155734545e-02 4.300388463359729879e-02
5.320000000000000000e+04 2.689671722983879090e-02 1.352115179080594191e-02 4.340391785596443841e-02
5.330000000000000000e+04 2.677293641290494700e-02 1.345501307137382876e-02 4.376244335429654853e-02
5.340000000000000000e+04 2.660120625290504984e-02 1.351757190701563353e-02 4.329144617517827892e-02
5.350000000000000000e+04 2.695007907494940610e-02 1.338685351963015899e-02 4.376648591324910909e-02
5.360000000000000000e+04 2.708869924850168184e-02 1.334438734346410187e-02 4.363417796420259592e-02
5.370000000000000000e+04 2.684151740611145226e-02 1.328658504906318760e-02 4.355587714136306687e-02
5.380000000000000000e+04 2.674288660403106171e-02 1.322532365594611577e-02 4.350051386472586490e-02
5.390000000000000000e+04 2.679112106311926089e-02 1.351648423385565061e-02 4.371969275170784625e-02
5.400000000000000000e+04 2.711856594188656946e-02 1.343364570146821091e-02 4.460191259414470616e-02
5.410000000000000000e+04 2.755986226488613480e-02 1.376122510357582693e-02 4.447770212392240796e-02
5.420000000000000000e+04 2.863138136564924441e-02 1.436178126770670804e-02 4.654437328295141230e-02
5.430000000000000000e+04 2.864131763990603041e-02 1.439161909712910643e-02 4.742927337536270022e-02
5.440000000000000000e+04 2.933944131433727925e-02 1.453463396667523458e-02 4.801011020197604867e-02
5.450000000000000000e+04 2.995779623677447684e-02 1.509581705801264079e-02 4.932918774330286027e-02
5.460000000000000000e+04 3.223264412518594274e-02 1.595495943880051448e-02 5.252530505064705035e-02
5.470000000000000000e+04 3.593894504463695377e-02 1.809270161433466223e-02 5.814532892560928673e-02
5.480000000000000000e+04 3.385959055632989378e-02 1.712467050926080869e-02 5.432694088555900525e-02
5.490000000000000000e+04 3.306374431026323085e-02 1.655952737844136949e-02 5.360584234251291463e-02
5.500000000000000000e+04 6.132292866341910315e-02 3.021552663936747860e-02 9.917000261912468917e-02
5.510000000000000000e+04 3.762093700732186963e-01 1.846928840723489618e-01 6.290028195959947999e-01
5.520000000000000000e+04 4.673801713701703497e-01 2.288529282131580300e-01 7.889135412818062409e-01
5.530000000000000000e+04 1.432908971067602955e-01 7.089410103458387846e-02 2.376698171534598614e-01
5.540000000000000000e+04 5.516322380934083336e-01 4.925815564399499968e-01 6.050853488638977540e-01
5.550000000000000000e+04 1.029193354446327646e+00 6.938678007325259633e-01 1.364508930984705826e+00
5.560000000000000000e+04 1.052269345300809622e+00 5.299920439434558928e-01 1.674151845387112258e+00
5.570000000000000000e+04 8.718171499313603912e-01 4.397166395913608694e-01 1.414728113037525770e+00
5.580000000000000000e+04 2.367132218677019395e-01 1.203212961219638083e-01 3.876631052355951068e-01
5.590000000000000000e+04 4.512495141034096602e-02 2.250777268201053366e-02 7.392681246820859142e-02
5.600000000000000000e+04 3.706343200892794204e-02 1.852024770283574109e-02 6.172901997490350817e-02
5.610000000000000000e+04 3.684738539634202503e-02 1.811505017034677548e-02 6.263888552201538062e-02
5.620000000000000000e+04 3.778274097395104697e-02 1.870927847624981669e-02 6.426993287704238500e-02
5.630000000000000000e+04 3.923836516421901066e-02 1.922824789894930081e-02 6.736223773177205110e-02
5.640000000000000000e+04 4.101837151843832491e-02 1.998481828636809385e-02 7.096686923655627643e-02
5.650000000000000000e+04 4.270680938264346388e-02 2.068386950481133219e-02 7.463527772649297676e-02
5.660000000000000000e+04 4.451584324275825039e-02 2.156469503763263143e-02 7.876828839300667462e-02
5.670000000000000000e+04 4.636733062535915162e-02 2.260616929050020957e-02 8.265173778081794098e-02
5.680000000000000000e+04 4.927920997868922431e-02 2.356889198303073474e-02 8.739013466426583110e-02
5.690000000000000000e+04 6.426916821719480533e-02 3.158789095907305750e-02 1.088631772703838735e-01
5.700000000000000000e+04 6.539199631450001715e-02 3.160242257347800621e-02 1.125958597464717936e-01
5.710000000000000000e+04 5.672923199283302215e-02 2.690526759869257822e-02 1.042349638763084702e-01
5.720000000000000000e+04 6.075648597913727023e-02 2.878271062021728680e-02 1.112516481951556502e-01
5.730000000000000000e+04 6.524259187816895678e-02 3.016797968160035356e-02 1.204417042455798587e-01
5.740000000000000000e+04 6.907250928100243381e-02 3.191730406750346166e-02 1.274778686248947968e-01
5.750000000000000000e+04 7.261965872732045746e-02 3.332870562398773662e-02 1.335964428076687194e-01
5.760000000000000000e+04 7.541511356852649561e-02 3.476064360242434037e-02 1.385748182192648725e-01
5.770000000000000000e+04 7.900435324712588858e-02 3.704930951142240692e-02 1.428965012818056435e-01
5.780000000000000000e+04 8.308121026275827603e-02 3.895113992787142126e-02 1.472118487239846563e-01
5.790000000000000000e+04 8.525020096071962705e-02 4.005111488950041654e-02 1.496381089593221692e-01
5.800000000000000000e+04 8.760040203102145706e-02 4.109834740410617249e-02 1.543177208624325614e-01
5.810000000000000000e+04 9.108338257811474103e-02 4.309601584255565859e-02 1.592616353868406276e-01
5.820000000000000000e+04 9.625306199673144825e-02 4.485793710181069927e-02 1.641536455497943081e-01
5.830000000000000000e+04 9.913022643953296742e-02 4.767873406144784026e-02 1.691154089002753214e-01
5.840000000000000000e+04 1.027996538047754732e-01 4.914833836117240423e-02 1.744968313907744040e-01
5.850000000000000000e+04 1.040851409812289102e-01 5.028918313838561666e-02 1.764266421094684567e-01
5.860000000000000000e+04 1.056220407989281601e-01 5.157393117573407654e-02 1.763702200406280785e-01
5.870000000000000000e+04 1.070348018450990174e-01 5.249086152576386971e-02 1.754005506468952758e-01
5.880000000000000000e+04 1.055417064280962519e-01 5.238849617066194259e-02 1.752690181872514075e-01
5.890000000000000000e+04 1.051502835284857523e-01 5.144277348140519068e-02 1.726347473251679809e-01
5.900000000000000000e+04 1.048483400191338316e-01 5.168644676461168347e-02 1.729863004262129078e-01
5.910000000000000000e+04 1.055205099950500547e-01 5.283051407749353445e-02 1.734054838439475499e-01
5.920000000000000000e+04 1.066860238238627745e-01 5.158367313435718166e-02 1.753371387427232753e-01
5.930000000000000000e+04 1.078641038656902446e-01 5.351782752237247559e-02 1.792404832313866936e-01
5.940000000000000000e+04 1.084695156004406441e-01 5.249932203258252800e-02 1.818476963708753613e-01
5.950000000000000000e+04 1.078137690450370889e-01 5.279391113527159146e-02 1.828674275192934129e-01
5.960000000000000000e+04 1.101704850682105746e-01 5.403465904017656918e-02 1.860489578316283921e-01
5.970000000000000000e+04 1.088374199378474710e-01 5.297063006746648844e-02 1.860228899794064694e-01
5.980000000000000000e+04 1.088569256093059323e-01 5.314279960470819075e-02 1.870865546191222140e-01
5.990000000000000000e+04 1.083701509178862515e-01 5.170551498733227946e-02 1.870110326384896160e-01
6.000000000000000000e+04 1.088349678370451740e-01 5.286354053729273861e-02 1.878655881140132156e-01
6.010000000000000000e+04 1.112197727669803349e-01 5.463555888241655722e-02 1.895645149745086300e-01
6.020000000000000000e+04 1.157292138258185082e-01 5.595189901061863730e-02 1.965195506578381601e-01
6.030000000000000000e+04 1.179810483562804269e-01 5.760878468537475317e-02 2.015287445257911703e-01
6.040000000000000000e+04 1.213712472658174529e-01 5.985135485086372220e-02 2.086807408990176416e-01
6.050000000000000000e+04 1.249837281260402361e-01 6.236866519782235940e-02 2.134296330810735443e-01
6.060000000000000000e+04 1.242010087844204191e-01 6.048572774552747611e-02 2.172426157245279932e-01
6.070000000000000000e+04 1.247575086020645124e-01 5.995689031180535811e-02 2.163479405564502356e-01
6.080000000000000000e+04 1.265057360565379763e-01 6.291384371587574464e-02 2.174951961162717995e-01
6.090000000000000000e+04 1.278741582226620432e-01 6.268406692714287298e-02 2.147860312408219896e-01
6.100000000000000000e+04 1.282701684542558451e-01 6.428337146115505052e-02 2.157130884412649108e-01
6.110000000000000000e+04 1.282383892369974854e-01 6.225874421283389415e-02 2.146225591187692627e-01
6.120000000000000000e+04 1.274471810224021839e-01 6.397962465805491494e-02 2.121314631123031313e-01
6.130000000000000000e+04 1.289737473753128083e-01 6.408910116559009273e-02 2.075608007637144425e-01
6.140000000000000000e+04 1.267178218750496521e-01 6.275091096145109237e-02 2.055409359413699899e-01
6.150000000000000000e+04 1.264348402423590978e-01 6.284386206847450418e-02 2.040298879806131671e-01
6.160000000000000000e+04 1.244978241109615524e-01 6.186646424486274415e-02 2.046470339888039058e-01
6.170000000000000000e+04 1.283738430546548792e-01 6.381268295446874961e-02 2.085928663927604232e-01
6.180000000000000000e+04 1.313081868972742483e-01 6.560239969350786793e-02 2.102383772991127109e-01
6.190000000000000000e+04 1.304584121325406132e-01 6.326239859844859370e-02 2.142596119592926895e-01
6.200000000000000000e+04 1.204573886390800652e-01 5.577941732305378986e-02 2.135457389062510036e-01
6.210000000000000000e+04 1.215234016320384941e-01 5.697520321658294806e-02 2.100800808409967746e-01
6.220000000000000000e+04 1.252216638111421920e-01 6.008177159621172492e-02 2.097664552286425954e-01
6.230000000000000000e+04 1.239309964094257449e-01 5.901259937670162714e-02 2.053006493645253006e-01
6.240000000000000000e+04 1.172275916406910617e-01 5.452124220742636529e-02 2.026389418226504924e-01
6.250000000000000000e+04 6.502010176755823601e-02 1.896476828819838173e-02 1.440579694236532038e-01
