# Comments from moku data file:% Moku:Phasemeter 
# 
# % Ch 1 - DC coupling, 50 Ohm impedance, 1 V range
# 
# % Ch 1 bandwidth = 1.0000000000e+04 (Hz)
# 
# % Acquisition rate: 1.2500000000e+05 Hz
# 
# % External 10 MHz clock
# 
# % Acquired 2020-02-16 T 03:00:28 -0800
# 
# % Time, Set frequency 1 (Hz), Frequency 1 (Hz), Phase 1 (cyc), I 1 (V), Q 1 (V)
# 
# #########################################################
# ASD calculated by mokuReadFreqNoise.py
# Frequency [Hz]         Freq ASD1 [Hz/rtHz]      Freq ASDlb1 [Hz/rtHz]    Freq ASDub1 [Hz/rtHz]    
# 
0.000000000000000000e+00 2.391702771478810519e+02 1.061390785238820769e+02 4.104137537826618427e+02
1.000000000000000056e-01 2.435008276449696609e+02 4.892266562484454084e+01 4.122651138510877331e+02
2.000000000000000111e-01 2.452376184952224492e+02 9.021465385686713034e+01 3.726787149416749685e+02
3.000000000000000444e-01 2.819001985507629797e+02 8.222726791050557438e+01 4.253425607775792514e+02
4.000000000000000222e-01 1.929398692538552496e+02 1.138301441320139986e+02 2.338318154328644880e+02
5.000000000000000000e-01 1.047471395942849313e+02 5.888767584731751015e+01 1.546878206785965801e+02
6.000000000000000888e-01 7.544350408783293460e+01 4.894016278157842947e+01 1.338457923199676429e+02
7.000000000000000666e-01 6.456506554726431091e+01 4.397711197495460311e+01 7.792070799549759386e+01
8.000000000000000444e-01 5.975801498629856212e+01 2.485706285995944853e+01 7.080116427008741198e+01
9.000000000000000222e-01 3.726840489454504990e+01 2.306306805977774843e+01 5.982680965602629186e+01
1.000000000000000000e+00 4.311265480215606516e+01 3.087824010682858145e+01 8.468459396656417937e+01
1.100000000000000089e+00 4.098740102082641101e+01 3.418770913187039184e+01 7.148033701693600506e+01
1.200000000000000178e+00 2.924298238921070237e+01 2.102864419729362666e+01 3.553816206578246550e+01
1.300000000000000044e+00 2.334067211666643260e+01 1.430465575507960629e+01 4.339252970917130625e+01
1.400000000000000133e+00 2.099749601580763780e+01 1.698378828140738506e+01 3.208444952833457364e+01
1.500000000000000000e+00 2.711748811043965901e+01 1.795722177849004453e+01 4.298790283163911141e+01
1.600000000000000089e+00 2.248127245464117863e+01 1.472669325443158073e+01 3.614110911084369349e+01
1.700000000000000178e+00 1.558655260515926244e+01 9.328000008943375221e+00 2.188469547919309832e+01
1.800000000000000044e+00 1.813807264526505492e+01 8.291667883549429519e+00 2.571596804919436963e+01
1.900000000000000133e+00 2.038224934433485203e+01 1.301061554837288625e+01 2.989839644077583003e+01
2.000000000000000000e+00 2.182467743858939357e+01 1.108771555874651327e+01 3.784589198564572854e+01
2.100000000000000089e+00 1.600857166054938219e+01 7.556427435222522249e+00 3.014934441539924137e+01
2.200000000000000178e+00 1.150607204438439979e+01 7.685531966814426852e+00 2.462100654683520773e+01
2.300000000000000266e+00 2.166193497198974782e+01 1.237490536493073812e+01 3.287669409113584607e+01
2.400000000000000355e+00 2.904223233838958151e+01 1.945858321393873069e+01 3.955224782713357001e+01
2.500000000000000000e+00 2.730613604539226458e+01 1.402394838397699850e+01 4.659815437530161830e+01
2.600000000000000089e+00 2.742986622741131697e+01 1.506699480484985187e+01 3.748346508677683886e+01
2.700000000000000178e+00 3.762831088492369958e+01 1.236758949417639997e+01 4.928923604302290329e+01
2.800000000000000266e+00 1.995882321183245622e+01 1.235169633834694913e+01 5.982789197806926751e+01
2.900000000000000355e+00 2.721087515395105427e+01 1.722823842435851915e+01 5.145775758281172330e+01
3.000000000000000000e+00 2.185864634987218480e+01 1.329175436517153308e+01 2.573435955147407128e+01
3.100000000000000089e+00 2.106997182532423096e+01 9.579116862232178065e+00 2.532612812621673726e+01
3.200000000000000178e+00 2.481227174455966278e+01 6.518295509360694240e+00 3.552795536703865054e+01
3.300000000000000266e+00 2.750632563952391152e+01 1.190389904776567676e+01 4.007859461486442854e+01
3.400000000000000355e+00 3.160085539222748352e+01 1.128287984913538722e+01 4.869128114985456790e+01
3.500000000000000000e+00 3.014942659841751293e+01 1.510505959481890059e+01 5.272497337982210297e+01
3.600000000000000089e+00 3.313360153548002529e+01 1.533028320802415934e+01 5.225481201954616495e+01
3.700000000000000178e+00 2.391269979774782328e+01 1.048816727692223338e+01 3.445339018011160448e+01
3.800000000000000266e+00 1.547713277376340990e+01 6.264789402757541481e+00 2.599983946058626572e+01
3.900000000000000355e+00 1.762705839720394962e+01 9.561453993809042373e+00 3.115228199689459387e+01
4.000000000000000000e+00 1.451870655514469632e+01 4.757673580184336615e+00 2.947253722907221274e+01
4.100000000000000533e+00 1.670795969720844099e+01 9.282530276689477944e+00 3.317531754152572177e+01
4.200000000000000178e+00 1.577893552908112795e+01 7.673044614031736543e+00 3.353185020536544414e+01
4.299999999999999822e+00 2.106158656729986589e+01 1.295737795956236837e+01 2.564074333094167457e+01
4.400000000000000355e+00 1.835188481392575355e+01 1.382874196940884559e+01 2.474097769677144143e+01
4.500000000000000000e+00 1.198436773401108013e+01 7.251712840935506499e+00 1.566239113115855375e+01
4.600000000000000533e+00 1.446005457367601998e+01 1.054203632509452149e+01 2.133606159178637185e+01
4.700000000000000178e+00 1.773925121388212034e+01 1.175835625377881044e+01 3.170763729968238565e+01
4.800000000000000711e+00 1.934032620900069688e+01 1.481736331019852848e+01 2.837216435283075455e+01
4.900000000000000355e+00 1.401651988121848191e+01 8.067028238886917890e+00 3.133827008748809817e+01
5.000000000000000000e+00 1.408188026048469332e+01 5.617287406875043132e+00 2.388477047487944560e+01
5.100000000000000533e+00 1.400271794594437047e+01 1.095698130989179830e+01 2.406297946058117887e+01
5.200000000000000178e+00 1.821852756059365674e+01 8.132632927169936465e+00 2.832617283447743262e+01
5.300000000000000711e+00 1.441003862083688070e+01 8.541605622699151468e+00 3.323695191305603203e+01
5.400000000000000355e+00 9.063555324811741087e+00 5.316355879181863919e+00 3.106581067117058126e+01
5.500000000000000000e+00 1.727376919511969078e+01 1.096446988847142201e+01 2.378601524908376774e+01
5.600000000000000533e+00 1.644540110776748776e+01 5.032631879897822458e+00 2.282278657581836612e+01
5.700000000000000178e+00 1.435901015616531495e+01 6.966708539606335293e+00 1.989671854979360788e+01
5.800000000000000711e+00 1.302008787803237233e+01 6.989838247904669899e+00 2.166342946270397718e+01
5.900000000000000355e+00 1.225796153309408254e+01 8.158106648375973435e+00 1.991161615432298859e+01
6.000000000000000000e+00 1.655744280307444427e+01 1.092312905363812092e+01 1.931386526104215307e+01
6.100000000000000533e+00 1.707278524140741283e+01 4.390178340966205184e+00 2.860337181756443670e+01
6.200000000000000178e+00 1.643191147171985378e+01 9.472483340125361195e+00 2.695178603429823028e+01
6.300000000000000711e+00 2.034797007124318569e+01 1.266967383566985816e+01 2.703736608863241742e+01
6.400000000000000355e+00 1.804165657480443841e+01 1.388645989719252327e+01 2.384586342181403040e+01
6.500000000000000000e+00 1.914574913116313581e+01 7.902270127095501806e+00 2.732405622032474213e+01
6.600000000000000533e+00 1.526774972233764949e+01 8.390694555471219118e+00 2.501323154992592279e+01
6.700000000000000178e+00 1.442392717065068197e+01 4.655389854981227593e+00 2.393338040338357331e+01
6.800000000000000711e+00 1.248140286038782243e+01 1.031555404001341536e+01 2.281994416644499424e+01
6.900000000000000355e+00 2.221542570003962425e+01 1.207449017537749825e+01 2.538517176914583473e+01
7.000000000000000000e+00 1.700370519852612716e+01 9.573256286703120566e+00 2.338091467296937864e+01
7.100000000000000533e+00 7.864106735563783701e+00 4.106344467936841269e+00 2.178916131066687711e+01
7.200000000000000178e+00 1.374658896472019975e+01 6.901152040887156502e+00 3.486672472221331986e+01
7.300000000000000711e+00 1.512831815286936354e+01 1.113829077526890998e+01 2.888453297317672863e+01
7.400000000000000355e+00 1.296078366160720030e+01 8.262935595393155808e+00 1.506206884386909195e+01
7.500000000000000000e+00 1.521018747477435440e+01 6.283112387150764810e+00 2.941870997921119724e+01
7.600000000000000533e+00 2.193397722706428610e+01 1.017874866677006018e+01 3.029750658029242416e+01
7.700000000000000178e+00 1.454493179905967004e+01 8.187069924287806444e+00 2.162229060919617396e+01
7.800000000000000711e+00 9.740940765350764252e+00 5.792346608892835924e+00 1.984668768514357495e+01
7.900000000000000355e+00 1.710793430574151230e+01 1.019117495273828311e+01 2.467239820539185757e+01
8.000000000000000000e+00 2.041208542983351037e+01 1.292867766129060669e+01 2.572132944915941266e+01
8.099999999999999645e+00 1.419882345977684324e+01 1.071986328275085398e+01 2.427845099858573974e+01
8.200000000000001066e+00 1.564944235500502501e+01 9.171597493616818753e+00 3.295483953479401862e+01
8.300000000000000711e+00 1.924556187143208064e+01 9.560719302773854622e+00 2.437663060073905186e+01
8.400000000000000355e+00 1.565177282073876341e+01 9.227511635498489184e+00 2.036834588651678857e+01
8.500000000000000000e+00 1.039010600422026087e+01 5.517054184795372684e+00 1.751459373807972497e+01
8.599999999999999645e+00 1.126861829026819706e+01 8.875796819767620249e+00 1.600562175622451733e+01
8.700000000000001066e+00 1.615241981079764599e+01 1.209703448404927428e+01 2.480801790851716149e+01
8.800000000000000711e+00 1.593534789813368668e+01 1.165457718447555990e+01 2.797482642176596457e+01
8.900000000000000355e+00 2.372911075156444483e+01 9.693548261935889698e+00 3.115181181890752882e+01
9.000000000000000000e+00 1.973501025004381404e+01 8.600948441256136334e+00 2.723876917359926608e+01
9.099999999999999645e+00 1.457539037889435107e+01 7.957271785685655630e+00 2.372611062058194165e+01
9.200000000000001066e+00 1.186353193138947404e+01 7.033642544985058365e+00 1.465676300411222144e+01
9.300000000000000711e+00 1.694506747534164859e+01 1.002913129564653261e+01 2.512112307894864216e+01
9.400000000000000355e+00 1.316704872872823451e+01 9.053582030361052801e+00 2.318758058273103373e+01
9.500000000000000000e+00 1.442820207795069898e+01 3.909963164348471576e+00 2.238091635487303677e+01
9.600000000000001421e+00 7.477687910063434806e+00 6.387011156693790603e+00 2.466131872828383109e+01
9.700000000000001066e+00 1.641798850493172424e+01 8.168040090426243793e+00 1.904458111777997331e+01
9.800000000000000711e+00 1.659350582327924428e+01 6.562282946484369717e+00 2.555230795926311771e+01
9.900000000000000355e+00 1.525104180920683561e+01 1.144616668248398028e+01 3.489243968230079673e+01
1.000000000000000000e+01 1.563230110779450754e+01 6.706071125034596569e+00 2.105086623702448989e+01
1.000000000000000000e+01 1.455727322931446466e+01 7.514570007605907875e+00 2.457505904613469383e+01
1.100000000000000000e+01 1.393689469875287124e+01 6.342198582905785642e+00 2.880937425218886716e+01
1.200000000000000000e+01 1.246840258007895841e+01 5.758672332136256955e+00 2.174095295023520080e+01
1.300000000000000000e+01 1.164664838787721912e+01 5.253848854510331456e+00 2.117861820267410522e+01
1.400000000000000000e+01 1.193713111187974718e+01 5.142355151467602248e+00 2.014918080067522155e+01
1.500000000000000000e+01 1.186445052568744707e+01 5.588554223768743334e+00 2.001918526576448443e+01
1.600000000000000000e+01 9.723604097699777071e+00 4.294701914735138182e+00 1.717603575708126940e+01
1.700000000000000000e+01 8.502452223179457036e+00 4.226895479087924734e+00 1.900133090001754610e+01
1.800000000000000000e+01 9.546967179101285339e+00 3.177471973438639186e+00 1.777519326775736985e+01
1.900000000000000000e+01 9.440065347258762785e+00 3.662340131151337275e+00 1.631470721959046699e+01
2.000000000000000000e+01 8.570122774372126884e+00 2.647481955959110511e+00 1.653768631896208774e+01
2.100000000000000000e+01 7.717981509733452761e+00 2.573939310422589610e+00 1.794674577879928279e+01
2.200000000000000000e+01 6.600865711459772633e+00 1.908955542564271468e+00 1.671060918036942056e+01
2.300000000000000000e+01 6.590641391677521277e+00 1.740853121144121829e+00 1.527380981717350750e+01
2.400000000000000000e+01 5.677563350856609681e+00 1.352991777244316518e+00 1.377030567980946429e+01
2.500000000000000000e+01 5.136579308284671797e+00 9.304463311379249646e-01 1.442085669575055462e+01
2.600000000000000000e+01 5.217314841704652650e+00 1.235387158561285226e+00 1.408397666247812552e+01
2.700000000000000000e+01 4.879203992810122514e+00 9.407450944486016597e-01 1.301519564248867056e+01
2.800000000000000000e+01 4.384482751072374285e+00 9.990123597276425738e-01 1.361175104403472780e+01
2.900000000000000000e+01 3.276973742073536755e+00 8.298016899262132817e-01 1.359115505631207377e+01
3.000000000000000000e+01 2.872841089415759441e+00 7.128931294964402365e-01 1.267718736886172515e+01
3.100000000000000000e+01 2.788431900361524551e+00 4.393309532636330839e-01 1.278349009581135043e+01
3.200000000000000000e+01 2.305970179924031527e+00 5.084964630766196647e-01 1.070343773785354635e+01
3.300000000000000000e+01 1.881064946571442853e+00 4.138510956889841497e-01 1.054868417388082058e+01
3.400000000000000000e+01 1.754990780622655899e+00 4.740989147709471219e-01 8.230245145463271683e+00
3.500000000000000000e+01 1.568015298619144460e+00 3.362642658523297134e-01 9.916472371865772573e+00
3.600000000000000000e+01 1.374076670132900357e+00 3.520413748853036262e-01 9.524355346202661110e+00
3.700000000000000000e+01 1.049329320610936422e+00 3.259168111075630425e-01 9.524756238997362345e+00
3.800000000000000000e+01 7.971400422422685317e-01 2.264651222425110577e-01 9.124327327743960936e+00
3.900000000000000000e+01 8.823216532015959457e-01 2.214818863793457659e-01 6.344373996248654279e+00
4.000000000000000000e+01 8.001311722859257847e-01 2.157723640780466468e-01 6.544103269582262961e+00
4.100000000000000000e+01 7.284960465943506325e-01 2.157639883338736408e-01 5.256806554574748880e+00
4.200000000000000000e+01 5.269657665660633095e-01 1.692946840478764259e-01 5.117973467801370191e+00
4.300000000000000000e+01 4.738540710617526464e-01 1.777221187513110534e-01 4.276547340212912829e+00
4.400000000000000000e+01 4.679662144345410613e-01 1.729873008159931447e-01 6.138077865283614543e+00
4.500000000000000000e+01 4.160421484382468837e-01 2.027367548751793369e-01 3.498880057855497050e+00
4.600000000000000000e+01 4.047148738792306077e-01 2.098073275872276988e-01 3.395370304249541338e+00
4.700000000000000000e+01 4.338641015495990905e-01 1.681463353910127856e-01 2.810651453945093525e+00
4.800000000000000000e+01 3.857063694690238687e-01 1.291502518867053417e-01 2.855973147480679319e+00
4.900000000000000000e+01 3.720230076685085430e-01 1.217842401307540900e-01 2.090363167453205051e+00
5.000000000000000000e+01 3.608653942774434631e-01 1.735278678618343839e-01 1.398196378263960593e+00
5.100000000000000000e+01 3.673543545385830611e-01 1.544198847348088044e-01 1.453882735668594384e+00
5.200000000000000000e+01 3.471373306292409033e-01 1.686462762350685596e-01 1.454215166654124980e+00
5.300000000000000000e+01 3.286913040451071577e-01 1.573674054367844577e-01 1.217129484558665542e+00
5.400000000000000000e+01 3.224150274687240803e-01 1.211873120093804185e-01 9.328854459052805526e-01
5.500000000000000000e+01 2.893283934656901146e-01 1.290605793239709698e-01 1.041228691684912722e+00
5.600000000000000000e+01 2.900760547674637313e-01 9.996072257778176873e-02 6.302181100288691828e-01
5.700000000000000000e+01 2.724103078947244239e-01 1.314008528755871430e-01 5.177651840881397627e-01
5.800000000000000000e+01 2.659447078768202855e-01 1.252865307641220505e-01 5.717726336079066440e-01
5.900000000000000000e+01 2.528674585795582797e-01 1.296604713188996283e-01 5.012969504827584633e-01
6.000000000000000000e+01 2.452536511250057727e-01 1.176485519665535773e-01 4.610494020307420726e-01
6.100000000000000000e+01 2.417313912472031368e-01 1.249469356300311612e-01 4.323729556976799726e-01
6.200000000000000000e+01 2.355242031931597535e-01 1.023062255407031634e-01 4.650260774219764359e-01
6.300000000000000000e+01 2.310235181667577853e-01 1.078924254773186708e-01 4.145329200384667012e-01
6.400000000000000000e+01 2.265726606729188686e-01 9.346293128299093533e-02 4.213229609921912977e-01
6.500000000000000000e+01 2.029183216237642196e-01 1.016579886776099728e-01 3.877217008583443980e-01
6.600000000000000000e+01 1.979630270645359180e-01 1.074070251398614589e-01 3.836765826939247392e-01
6.700000000000000000e+01 2.028695664682701738e-01 1.001825499627935628e-01 3.428605423006457209e-01
6.800000000000000000e+01 1.703210244952033381e-01 8.780802006254312397e-02 3.080233690339704844e-01
6.900000000000000000e+01 1.784250503356922812e-01 7.463757378003509080e-02 2.836271494993186093e-01
7.000000000000000000e+01 1.524746724186998303e-01 6.750254319738674402e-02 2.550391952904791371e-01
7.100000000000000000e+01 1.476673583210119378e-01 7.425140236520136328e-02 2.728538445458371098e-01
7.200000000000000000e+01 1.560193042985757450e-01 9.322620336489845227e-02 2.502711411417170018e-01
7.300000000000000000e+01 1.592085807194627278e-01 8.259853200197447842e-02 2.649672019196807060e-01
7.400000000000000000e+01 1.511843711403719481e-01 6.966188116632951455e-02 2.568154084229689604e-01
7.500000000000000000e+01 1.666861685281691152e-01 7.493040632512652788e-02 2.668779746897070315e-01
7.600000000000000000e+01 1.434369864629559954e-01 7.843249711868631457e-02 2.509380070014727293e-01
7.700000000000000000e+01 1.597123015059423445e-01 7.562680614291500403e-02 2.546704007159529271e-01
7.800000000000000000e+01 1.534625774673817611e-01 8.965256550520549206e-02 2.593937959925393666e-01
7.900000000000000000e+01 1.387178133180955175e-01 7.117268625350643696e-02 2.475323123935428415e-01
8.000000000000000000e+01 1.376678792551584429e-01 7.502275506112700276e-02 2.557715782185108755e-01
8.100000000000000000e+01 1.439140209692582328e-01 5.819566870296685734e-02 2.378971356802924153e-01
8.200000000000000000e+01 1.348990185012166609e-01 6.291392036509009522e-02 2.433565324110219807e-01
8.300000000000000000e+01 1.471906250580720943e-01 6.435684024080570720e-02 2.509850965468800599e-01
8.400000000000000000e+01 1.334237513633960981e-01 7.401649417623760996e-02 2.643944256610241683e-01
8.500000000000000000e+01 1.436552888777455905e-01 7.401008238565243147e-02 2.680923021225768421e-01
8.600000000000000000e+01 1.633495842974527490e-01 8.596138743523873416e-02 2.857185595982092985e-01
8.700000000000000000e+01 1.529560449276670120e-01 7.124063504341428266e-02 3.070542038205801294e-01
8.800000000000000000e+01 1.317738674908261187e-01 7.170806222763534410e-02 2.815840108080224224e-01
8.900000000000000000e+01 1.424197913019224215e-01 7.033578109875829321e-02 2.576152665056726243e-01
9.000000000000000000e+01 1.416164024635161445e-01 7.625221459952140346e-02 2.481810675923023790e-01
9.100000000000000000e+01 1.482341033606797975e-01 7.806345687557413038e-02 2.794683943061815889e-01
9.200000000000000000e+01 1.560159897168941212e-01 7.305613863255873419e-02 2.754834188548692664e-01
9.300000000000000000e+01 1.546923841387960741e-01 7.178810883654221375e-02 3.083416836571314934e-01
9.400000000000000000e+01 1.642039557925795701e-01 7.748780670813762428e-02 2.950508523550389173e-01
9.500000000000000000e+01 1.465910214049896965e-01 7.569864555323176092e-02 2.836852487995347172e-01
9.600000000000000000e+01 1.569642068383950428e-01 8.193331947644666435e-02 2.675061134138556618e-01
9.700000000000000000e+01 1.398062457041618079e-01 6.426910995941151339e-02 2.510524092539387353e-01
9.800000000000000000e+01 1.436078357266015737e-01 6.277535825826664750e-02 2.610403609136154324e-01
9.900000000000000000e+01 1.796341340268083064e-01 7.648488292720972970e-02 3.149581392115103351e-01
1.000000000000000000e+02 1.753483474446014823e-01 7.909017369101367656e-02 3.410894344882563489e-01
1.000000000000000000e+02 1.776633178718584338e-01 7.827559258319276292e-02 3.330938030283867035e-01
1.100000000000000000e+02 2.195082382398072518e-01 1.041693314301121720e-01 3.886698796354057794e-01
1.200000000000000000e+02 2.216211742493344738e-01 1.079243369713748374e-01 4.129974177761166487e-01
1.300000000000000000e+02 2.321456035341456781e-01 1.052744915151282851e-01 4.222012050522043203e-01
1.400000000000000000e+02 2.401610730141888472e-01 1.112511936259534123e-01 4.308372517565974280e-01
1.500000000000000000e+02 1.916240744446796596e-01 7.730084917373462872e-02 3.998139092419313312e-01
1.600000000000000000e+02 1.952339462829922878e-01 8.800703754930562506e-02 3.749098094988945196e-01
1.700000000000000000e+02 1.280629110697099615e-01 4.766048870590735426e-02 2.745012258062530797e-01
1.800000000000000000e+02 6.671782896193656498e-02 2.903227009552935764e-02 2.129012130533856351e-01
1.900000000000000000e+02 5.284103037314156343e-02 2.424845791254960636e-02 1.344011997449316709e-01
2.000000000000000000e+02 6.737361810776988646e-02 3.173882088996569928e-02 1.432149282916756472e-01
2.100000000000000000e+02 9.306075503244434777e-02 4.324578204198027687e-02 1.630421054200851538e-01
2.200000000000000000e+02 9.125211985206249654e-02 3.839178953461139937e-02 1.910651307524925679e-01
2.300000000000000000e+02 8.908484145348678773e-02 3.949706169660037458e-02 1.919458581511706008e-01
2.400000000000000000e+02 9.708562212228008526e-02 4.645256200315723422e-02 1.740044617418655959e-01
2.500000000000000000e+02 6.293939322017509663e-02 3.094620431024433516e-02 1.297130310197781577e-01
2.600000000000000000e+02 4.249816427345175923e-02 2.038214292586177159e-02 8.855856924640936878e-02
2.700000000000000000e+02 3.397421658351462703e-02 1.565344121621854712e-02 6.234661943819024693e-02
2.800000000000000000e+02 3.312849680491331689e-02 1.573452840537721206e-02 5.650586724377908154e-02
2.900000000000000000e+02 3.695757079964090419e-02 1.892261566449541729e-02 5.992437941251418237e-02
3.000000000000000000e+02 3.616190643272805538e-02 1.788708934949488974e-02 5.987519353786393411e-02
3.100000000000000000e+02 3.039403982763024675e-02 1.533856705207618971e-02 4.996403531124887776e-02
3.200000000000000000e+02 2.789176800083717489e-02 1.374215518512751991e-02 4.580008102932878883e-02
3.300000000000000000e+02 2.870847029922137320e-02 1.451477864974808768e-02 4.702877623607610441e-02
3.400000000000000000e+02 3.131256708491268748e-02 1.530888656422133877e-02 5.078760463516078516e-02
3.500000000000000000e+02 3.062431150455879880e-02 1.539349538512143657e-02 5.183765540718880682e-02
3.600000000000000000e+02 3.655962800692231368e-02 1.878201686442591833e-02 5.845835204423385084e-02
3.700000000000000000e+02 4.307313038420960971e-02 2.215109889719385841e-02 7.157204812873300959e-02
3.800000000000000000e+02 6.384886611247780897e-02 3.128514050908239030e-02 1.013309861789356697e-01
3.900000000000000000e+02 8.353713735079640323e-02 4.090826069891503880e-02 1.342213427489046540e-01
4.000000000000000000e+02 7.000316776178024114e-02 3.500415362219551352e-02 1.134031365706031913e-01
4.100000000000000000e+02 5.155787306523492569e-02 2.713968874481081581e-02 8.537310509557714810e-02
4.200000000000000000e+02 4.382841076359984822e-02 2.179701120515262214e-02 6.990911014946497859e-02
4.300000000000000000e+02 3.764592757651225724e-02 1.790253154513740327e-02 6.146489836261766898e-02
4.400000000000000000e+02 3.327022833117650180e-02 1.663073655257319913e-02 5.408292592123496723e-02
4.500000000000000000e+02 2.966538210347321319e-02 1.524840252638044041e-02 4.958114089858626367e-02
4.600000000000000000e+02 2.854016774944845292e-02 1.443073848933634599e-02 4.482521444870671279e-02
4.700000000000000000e+02 2.985245482506682091e-02 1.480649109357139170e-02 4.900256797875771064e-02
4.800000000000000000e+02 3.888450198339192532e-02 2.017585048116618540e-02 6.209071366006022052e-02
4.900000000000000000e+02 2.937598247579145672e-02 1.456491028245741025e-02 4.860239109618012809e-02
5.000000000000000000e+02 2.475583158044099286e-02 1.291527739375749467e-02 3.977844940654930855e-02
5.100000000000000000e+02 2.467785332754430724e-02 1.246984245066672971e-02 4.040253559846761211e-02
5.200000000000000000e+02 2.567011448363688136e-02 1.335917093981824413e-02 4.324001509729263892e-02
5.300000000000000000e+02 2.966314132452060881e-02 1.516603252771882987e-02 4.803259949717559457e-02
5.400000000000000000e+02 2.987845051987823505e-02 1.498788141515552778e-02 5.112605132876003183e-02
5.500000000000000000e+02 3.201696915780453262e-02 1.596611748810692830e-02 5.414858185308190491e-02
5.600000000000000000e+02 3.499051612327445243e-02 1.657199068358013519e-02 5.929609412020539483e-02
5.700000000000000000e+02 3.584008368544408518e-02 1.787197978881431212e-02 5.862918681968801865e-02
5.800000000000000000e+02 3.391587676450350669e-02 1.770259030738345271e-02 5.225698745476040075e-02
5.900000000000000000e+02 2.961278598843505167e-02 1.454413670533422943e-02 4.664418793835310023e-02
6.000000000000000000e+02 2.825976916336557163e-02 1.367067090154642540e-02 4.633608298439399753e-02
6.100000000000000000e+02 2.781010140390965599e-02 1.399584053340690790e-02 4.721021959116272759e-02
6.200000000000000000e+02 6.355168762136521876e-02 3.232812058201602751e-02 1.043174608116554103e-01
6.300000000000000000e+02 2.629509066715592369e-01 1.330246724669044700e-01 4.241932197214164924e-01
6.400000000000000000e+02 2.775276163016238140e-01 1.386016899880998521e-01 4.344073187148678183e-01
6.500000000000000000e+02 1.573862074966953239e-01 8.398476216065309252e-02 2.566529310006611664e-01
6.600000000000000000e+02 1.483921593911027847e-01 7.595911556033345391e-02 2.399597270174218533e-01
6.700000000000000000e+02 1.190648205293519946e-01 5.899715531154926806e-02 1.940102877177148633e-01
6.800000000000000000e+02 1.133058210621818440e-01 5.509425201298778774e-02 1.883036705745312345e-01
6.900000000000000000e+02 9.799989831844090060e-02 4.850671687404049109e-02 1.608794284588626056e-01
7.000000000000000000e+02 6.837007702846371882e-02 3.253706054536969344e-02 1.117926674720237518e-01
7.100000000000000000e+02 4.710152703636643484e-02 2.454614352341658728e-02 7.830183543031217497e-02
7.200000000000000000e+02 6.550438146969347897e-02 3.224972556812868985e-02 1.020855437782537956e-01
7.300000000000000000e+02 4.959380563685529542e-02 2.553096048676060242e-02 7.869175831760766293e-02
7.400000000000000000e+02 2.374084700486309499e-02 1.205190018283465274e-02 3.920544962715417220e-02
7.500000000000000000e+02 2.169888310389727140e-02 1.112550816456200041e-02 3.690801005229615156e-02
7.600000000000000000e+02 2.398991512383608429e-02 1.207993333087694146e-02 3.986373791577218356e-02
7.700000000000000000e+02 3.164309868862608122e-02 1.641098068589993964e-02 5.128353293272494562e-02
7.800000000000000000e+02 5.512669652501214768e-02 2.735132572640701712e-02 9.324786068340459866e-02
7.900000000000000000e+02 1.421302910685197374e-01 6.728693951252483207e-02 2.263333124830707310e-01
8.000000000000000000e+02 2.388938119395533355e-01 1.201177984174430363e-01 3.885479929558003920e-01
8.100000000000000000e+02 1.795854215191443892e-01 9.557383472410822811e-02 2.970047757681908429e-01
8.200000000000000000e+02 1.094264180688700877e-01 5.220235243598960601e-02 1.774826612043273744e-01
8.300000000000000000e+02 1.438971970272208412e-01 7.665005115722882401e-02 2.375252803633757515e-01
8.400000000000000000e+02 3.676525184047748640e-01 2.434007585171785448e-01 4.951229044099072496e-01
8.500000000000000000e+02 3.388849464775500198e-01 1.969122903247356726e-01 4.839489569590131879e-01
8.600000000000000000e+02 2.023795617516379042e-01 9.738187035083148424e-02 3.258679039949330392e-01
8.700000000000000000e+02 1.598184804247087254e-01 7.409711873001378901e-02 2.533027017195311759e-01
8.800000000000000000e+02 1.061498044298006121e-01 5.313917397307738044e-02 1.693608202967769871e-01
8.900000000000000000e+02 7.049852640540656135e-02 3.367658632290967263e-02 1.142278237563265769e-01
9.000000000000000000e+02 6.493753291711661102e-02 3.122199139813514393e-02 1.007288984736924575e-01
9.100000000000000000e+02 8.162291279369537911e-02 4.207983483101648825e-02 1.281031303199491322e-01
9.200000000000000000e+02 8.232050209225240389e-02 4.261245996583492429e-02 1.282358603171959155e-01
9.300000000000000000e+02 6.116020568527294476e-02 3.105057695113443844e-02 1.024254893149864898e-01
9.400000000000000000e+02 5.111298318981852967e-02 2.622221447011601619e-02 8.731155744625340720e-02
9.500000000000000000e+02 5.282687160632714568e-02 2.707243844347169068e-02 8.440683433365943344e-02
9.600000000000000000e+02 5.321024938214733574e-02 2.619197151966419501e-02 8.896406328321010415e-02
9.700000000000000000e+02 6.538818164483692352e-02 3.203086125208196022e-02 1.080261429366159848e-01
9.800000000000000000e+02 8.396469511273618735e-02 4.368372951937691401e-02 1.428878748995731085e-01
9.900000000000000000e+02 8.858316874499012894e-02 4.426515156776796023e-02 1.412800062340281992e-01
1.000000000000000000e+03 1.117500209947127621e-01 5.493133506566483942e-02 1.807657708069451141e-01
1.000000000000000000e+03 1.167540376753900405e-01 5.929343019583290658e-02 1.893713230200674280e-01
1.100000000000000000e+03 1.023712531204384601e-01 5.012518878108328246e-02 1.657753766886937985e-01
1.200000000000000000e+03 7.168920118240972028e-02 3.554092284028752963e-02 1.165350100631448865e-01
1.300000000000000000e+03 5.502720172798677284e-02 2.742204866955184200e-02 9.003406963373455918e-02
1.400000000000000000e+03 4.575224020874527758e-02 2.258483365604708332e-02 7.458269519242152756e-02
1.500000000000000000e+03 5.829394635123313212e-02 2.873603759208021718e-02 9.431664318103163969e-02
1.600000000000000000e+03 4.533005440597796115e-02 2.230523436567631579e-02 7.477307292321673515e-02
1.700000000000000000e+03 2.383050154957698855e-02 1.199070253759129505e-02 3.875078208408801878e-02
1.800000000000000000e+03 2.132331126079961559e-02 1.067333348654778309e-02 3.462276604958005460e-02
1.900000000000000000e+03 2.162372583887777269e-02 1.092441174468716629e-02 3.509616938255834262e-02
2.000000000000000000e+03 2.099419604182237858e-02 1.040567626026425892e-02 3.412039207375420352e-02
2.100000000000000000e+03 2.118178296162548727e-02 1.067433937306164551e-02 3.504167628672350682e-02
2.200000000000000000e+03 2.053408095159965988e-02 1.040962432557415371e-02 3.365738692527538850e-02
2.300000000000000000e+03 2.033707566555192914e-02 1.003104291374380501e-02 3.351380554038028980e-02
2.400000000000000000e+03 2.089716392399986258e-02 1.029176425375369353e-02 3.409674658032828959e-02
2.500000000000000000e+03 2.069088574895778382e-02 1.023192282573237924e-02 3.391867478986163031e-02
2.600000000000000000e+03 2.107646852955626440e-02 1.061905707999433353e-02 3.430625163849772286e-02
2.700000000000000000e+03 2.336251080400393240e-02 1.181277752459860761e-02 3.842424213438122571e-02
2.800000000000000000e+03 2.842360956380099446e-02 1.427950307000577963e-02 4.608850641975389267e-02
2.900000000000000000e+03 2.836241671451786295e-02 1.378009181668739952e-02 4.588909347983493453e-02
3.000000000000000000e+03 2.337834865394929074e-02 1.153060062443299338e-02 3.811180893174780787e-02
3.100000000000000000e+03 2.204728475441608895e-02 1.096927427679928076e-02 3.584501878575441919e-02
3.200000000000000000e+03 2.286075956633591005e-02 1.140552501783378969e-02 3.772523450780794485e-02
3.300000000000000000e+03 3.062305465342151853e-02 1.525508673755441268e-02 4.930988712266918400e-02
3.400000000000000000e+03 2.949188633639208967e-02 1.464304686127499214e-02 4.742111451960173002e-02
3.500000000000000000e+03 2.788199687459073581e-02 1.374827056612991892e-02 4.615441879233208450e-02
3.600000000000000000e+03 3.889227080550852061e-02 2.131924945986265335e-02 5.734346835283755939e-02
3.700000000000000000e+03 3.291403501814192667e-02 1.695035719368474109e-02 5.248611178700099411e-02
3.800000000000000000e+03 2.311097301350080110e-02 1.142774788907746294e-02 3.814370912918457757e-02
3.900000000000000000e+03 2.281042980468820161e-02 1.143962277435664303e-02 3.736007108924019327e-02
4.000000000000000000e+03 2.224699471488984087e-02 1.109812438337932743e-02 3.623274100144295573e-02
4.100000000000000000e+03 2.197179035158691382e-02 1.081884377853397153e-02 3.584627711628692037e-02
4.200000000000000000e+03 2.225423587735306935e-02 1.107734743726510908e-02 3.595631334181861871e-02
4.300000000000000000e+03 2.213536899468523250e-02 1.103594432464136653e-02 3.589833906567940769e-02
4.400000000000000000e+03 2.207569477899500726e-02 1.091106933686224710e-02 3.598174825075378669e-02
4.500000000000000000e+03 2.231950620577724531e-02 1.134160225699014889e-02 3.615022836170114773e-02
4.600000000000000000e+03 2.456457757223835109e-02 1.189129805319259076e-02 4.243680929796767726e-02
4.700000000000000000e+03 4.324922713211189901e-02 1.788036370293752397e-02 9.382756421904060729e-02
4.800000000000000000e+03 9.123773020439682191e-02 4.826332328617392864e-02 1.203521426618290868e-01
4.900000000000000000e+03 8.068809769988297131e-02 3.185330080193395780e-02 1.185391903870279956e-01
5.000000000000000000e+03 3.228070998513966200e-02 1.472839726345456790e-02 7.109424896729080179e-02
5.100000000000000000e+03 2.379719807971581932e-02 1.183272965257064699e-02 3.985221306141557146e-02
5.200000000000000000e+03 2.364633051217953849e-02 1.188566940375027255e-02 3.877597070096819309e-02
5.300000000000000000e+03 2.381768983264407127e-02 1.201382489188048373e-02 3.873595990399432420e-02
5.400000000000000000e+03 2.419418938213301062e-02 1.209195593881973521e-02 3.930299026936051598e-02
5.500000000000000000e+03 2.468950348934421946e-02 1.237436329631015110e-02 4.006345670587553587e-02
5.600000000000000000e+03 2.492921336035878316e-02 1.229279683755529415e-02 4.078719707672613659e-02
5.700000000000000000e+03 2.539907553020478645e-02 1.272347270482881466e-02 4.136639129804776938e-02
5.800000000000000000e+03 2.596278207911793812e-02 1.303677369241518225e-02 4.258805266354984131e-02
5.900000000000000000e+03 2.695167847594194879e-02 1.354201202450422414e-02 4.386602196980395746e-02
6.000000000000000000e+03 2.760406048586590971e-02 1.417982529636374438e-02 4.539837223927272597e-02
6.100000000000000000e+03 2.748218306541885120e-02 1.401069964253149301e-02 4.540421313618066973e-02
6.200000000000000000e+03 2.740296159670833898e-02 1.367211757748825612e-02 4.499791000186196405e-02
6.300000000000000000e+03 2.750430306201832181e-02 1.349547090974909970e-02 4.504820226980879583e-02
6.400000000000000000e+03 2.786996309497953919e-02 1.400015336905914391e-02 4.563245005500579654e-02
6.500000000000000000e+03 2.831099069622781961e-02 1.426774624882549102e-02 4.641505213438146954e-02
6.600000000000000000e+03 2.867345546105321691e-02 1.421371388815436190e-02 4.691253275707541609e-02
6.700000000000000000e+03 2.951120198676267584e-02 1.469037317365981879e-02 4.801293620567856357e-02
6.800000000000000000e+03 2.994372709599524285e-02 1.519979912591568061e-02 4.896426643048436278e-02
6.900000000000000000e+03 3.115793455596478981e-02 1.545957426028902668e-02 5.137568125558000798e-02
7.000000000000000000e+03 3.469688975574380940e-02 1.749299419144750845e-02 6.153248704208470060e-02
7.100000000000000000e+03 4.972954218863805814e-02 2.287197248067057709e-02 1.019660988566915838e-01
7.200000000000000000e+03 7.429638173840698301e-02 3.216182291488234313e-02 1.204490699033046869e-01
7.300000000000000000e+03 7.592787552661238448e-02 3.117389540050929941e-02 1.223646418039784911e-01
7.400000000000000000e+03 4.917882795873739638e-02 2.225899152753502835e-02 1.033842340239193164e-01
7.500000000000000000e+03 3.676261112915044094e-02 1.793278909241586075e-02 6.365991858888145338e-02
7.600000000000000000e+03 3.437516825926564129e-02 1.716210405865317354e-02 5.564437318225865653e-02
7.700000000000000000e+03 3.432404397522513528e-02 1.728192465136791159e-02 5.587102151053761900e-02
7.800000000000000000e+03 3.461624915364912985e-02 1.691839147509796928e-02 5.669467329483011270e-02
7.900000000000000000e+03 3.602732867619024004e-02 1.757180224862286630e-02 5.811037440281482253e-02
8.000000000000000000e+03 3.691751808111900374e-02 1.855322422902139570e-02 6.059018583900104699e-02
8.100000000000000000e+03 3.896619931454767954e-02 1.893143876809557508e-02 6.709325982414715561e-02
8.200000000000000000e+03 4.745025661594069050e-02 2.283786186527422823e-02 1.285928955568344245e-01
8.300000000000000000e+03 7.692240986865005181e-02 2.907089004145707589e-02 2.931618642054448776e-01
8.400000000000000000e+03 1.817047197019986127e-01 4.514334106706144323e-02 3.242804137255247410e-01
8.500000000000000000e+03 1.915190967816529921e-01 4.677816609079417376e-02 3.296816547668345310e-01
8.600000000000000000e+03 8.978386956203296410e-02 3.264133946569713202e-02 3.094985844315344958e-01
8.700000000000000000e+03 5.303863033115107511e-02 2.475694526603101561e-02 1.458033285179310690e-01
8.800000000000000000e+03 4.460430909438349578e-02 2.195153563727436641e-02 7.630351498524447218e-02
8.900000000000000000e+03 4.231297193083202735e-02 2.178075426155906547e-02 6.961860090304763937e-02
9.000000000000000000e+03 4.251590922678961937e-02 2.124787978861756785e-02 6.951969612168384938e-02
9.100000000000000000e+03 4.326354127588478288e-02 2.119907507306551323e-02 7.084028878298412324e-02
9.200000000000000000e+03 4.417050212582299129e-02 2.225148669571630836e-02 7.298773094163295283e-02
9.300000000000000000e+03 4.623034639869583184e-02 2.283069419662929825e-02 7.692899826865873258e-02
9.400000000000000000e+03 5.179282451453709468e-02 2.476530593128334692e-02 9.561036839732846293e-02
9.500000000000000000e+03 6.547923751460033026e-02 2.989117815052476021e-02 1.370914291921525308e-01
9.600000000000000000e+03 8.281088403609321302e-02 3.593025706531112473e-02 1.528310682812527854e-01
9.700000000000000000e+03 8.757960044992819937e-02 3.706253256227347304e-02 1.575524902256207893e-01
9.800000000000000000e+03 7.343956002609157430e-02 3.254531489867354410e-02 1.475743820617798074e-01
9.900000000000000000e+03 5.686198607398109534e-02 2.708415342806279671e-02 1.093424634257686712e-01
1.000000000000000000e+04 5.097986510391402937e-02 2.534021545180236215e-02 8.542462067573787510e-02
1.010000000000000000e+04 4.930256894280857227e-02 2.447637627652521006e-02 8.089511505968256799e-02
1.020000000000000000e+04 4.969993630877041907e-02 2.459453476350954501e-02 8.095019527189045716e-02
1.030000000000000000e+04 5.040610575556885020e-02 2.475591346561043307e-02 8.256120804043534656e-02
1.040000000000000000e+04 5.217064006620243666e-02 2.590883745308725228e-02 8.693343511584782080e-02
1.050000000000000000e+04 5.637063305858779072e-02 2.757960891409327875e-02 1.000691301642649411e-01
1.060000000000000000e+04 6.682344666207074013e-02 3.111184142682184642e-02 2.065632804902471920e-01
1.070000000000000000e+04 9.173605892094663372e-02 3.808301176659995013e-02 3.650530972722894618e-01
1.080000000000000000e+04 1.485552939163745922e-01 4.693196474264696438e-02 3.913127969553288343e-01
1.090000000000000000e+04 1.718216758286974233e-01 5.001758665724333197e-02 4.018293320177614425e-01
1.100000000000000000e+04 1.189876021710621345e-01 4.276122938583828276e-02 3.916869925412458930e-01
1.110000000000000000e+04 7.730352735315032531e-02 3.531684996699893664e-02 3.025985807706802477e-01
1.120000000000000000e+04 6.337150400615745860e-02 3.099410193576012176e-02 1.194756484622427201e-01
1.130000000000000000e+04 5.784203244461424975e-02 2.879750482582311283e-02 9.663628725384346141e-02
1.140000000000000000e+04 5.671055472750283211e-02 2.831108685391971538e-02 9.250170660825114688e-02
1.150000000000000000e+04 5.694422846459105264e-02 2.821505461763685121e-02 9.254320168286121751e-02
1.160000000000000000e+04 5.791565596204079763e-02 2.886706436130411640e-02 9.415293236516365794e-02
1.170000000000000000e+04 5.831398710274744712e-02 2.853173849487412178e-02 9.405248841393441805e-02
1.180000000000000000e+04 5.943673069717469309e-02 2.937614555489785270e-02 9.573487390072001058e-02
1.190000000000000000e+04 5.985446260389536144e-02 2.996808579780349535e-02 9.679962739474115563e-02
1.200000000000000000e+04 6.128923815674038739e-02 3.110475638564934656e-02 9.993016843965375762e-02
1.210000000000000000e+04 6.689563190689008787e-02 3.460177772552311404e-02 1.086018340022189554e-01
1.220000000000000000e+04 6.269476936756927798e-02 3.121559583757928594e-02 1.034647035320307440e-01
1.230000000000000000e+04 6.027342518326930104e-02 2.956241787270952326e-02 9.921076078993157354e-02
1.240000000000000000e+04 6.090631890329632064e-02 3.030010848971695023e-02 9.895716458227259149e-02
1.250000000000000000e+04 6.072365122359709572e-02 2.975286617826349012e-02 9.885465209432806044e-02
1.260000000000000000e+04 6.026688196865543495e-02 3.036310590201483570e-02 9.850789279170862889e-02
1.270000000000000000e+04 6.053205247955125573e-02 3.069556026381391536e-02 9.923987667666540891e-02
1.280000000000000000e+04 6.130651785623042471e-02 3.020325291723876052e-02 9.892403133143155836e-02
1.290000000000000000e+04 6.260767816474009650e-02 3.111843249294936331e-02 1.020529784911175519e-01
1.300000000000000000e+04 6.471586512797042334e-02 3.183450768206827486e-02 1.056596970238539851e-01
1.310000000000000000e+04 6.664679109690570258e-02 3.327549658482601563e-02 1.100032421202105509e-01
1.320000000000000000e+04 6.882712205301583230e-02 3.444792410050091097e-02 1.118297206433438301e-01
1.330000000000000000e+04 6.935461361813000103e-02 3.472873078595937330e-02 1.135090687077418420e-01
1.340000000000000000e+04 6.848778229634146231e-02 3.384659868316051978e-02 1.129034073891519580e-01
1.350000000000000000e+04 6.697350593210488201e-02 3.311780877415608504e-02 1.097025038636315758e-01
1.360000000000000000e+04 6.515327486029336146e-02 3.297040692224702946e-02 1.059341253306111397e-01
1.370000000000000000e+04 1.815028194041987397e-01 1.277323743668741518e-01 2.356503085461132407e-01
1.380000000000000000e+04 4.453846918780392516e-01 3.870027600284805525e-01 5.035068109001560321e-01
1.390000000000000000e+04 2.832978853095121097e-01 2.295044125693687098e-01 3.388906469310608571e-01
1.400000000000000000e+04 6.486017708164162898e-02 3.200349980883954171e-02 1.051716991106328020e-01
1.410000000000000000e+04 6.316818241343408191e-02 3.109517816396224418e-02 1.040608020581899329e-01
1.420000000000000000e+04 6.481201535642515388e-02 3.212032399319244419e-02 1.069725815591112544e-01
1.430000000000000000e+04 6.685690872248446770e-02 3.360008849650006346e-02 1.097983553054608652e-01
1.440000000000000000e+04 6.733355405668377258e-02 3.331873672496636629e-02 1.112534327009346014e-01
1.450000000000000000e+04 6.847787242918239314e-02 3.422161999940231958e-02 1.114766990099803207e-01
1.460000000000000000e+04 6.755938706491707024e-02 3.316277240325443687e-02 1.105142516905184419e-01
1.470000000000000000e+04 6.621055523117497232e-02 3.315313502634244236e-02 1.095116649032875228e-01
1.480000000000000000e+04 6.454740015764469374e-02 3.174209910289636782e-02 1.064573580729846342e-01
1.490000000000000000e+04 6.332568273310155982e-02 3.152257387928251997e-02 1.025486059107435649e-01
1.500000000000000000e+04 6.274387553102427073e-02 3.155857194585744846e-02 1.025072396416524673e-01
1.510000000000000000e+04 6.208682770914608628e-02 3.101346580785523457e-02 1.015001567257689669e-01
1.520000000000000000e+04 6.161068977201985403e-02 3.088938463299122777e-02 1.014758569120524923e-01
1.530000000000000000e+04 6.266581097209687756e-02 3.133961298551134894e-02 1.019524169373660083e-01
1.540000000000000000e+04 6.349084110404631942e-02 3.194734842381070916e-02 1.032352404815194552e-01
1.550000000000000000e+04 6.559518375203166052e-02 3.363930887004065728e-02 1.082258838295625247e-01
1.560000000000000000e+04 6.480765844490912753e-02 3.287029985867619131e-02 1.056240418039037926e-01
1.570000000000000000e+04 6.570123480407541461e-02 3.321137172754168310e-02 1.062654698089058186e-01
1.580000000000000000e+04 6.937424656072416207e-02 3.483657208455889082e-02 1.128257376619600516e-01
1.590000000000000000e+04 6.449895131281241367e-02 3.196225896736916428e-02 1.052519339633034567e-01
1.600000000000000000e+04 6.191404415219809582e-02 3.083505497515135613e-02 1.006900264089550245e-01
1.610000000000000000e+04 6.091253718308695803e-02 3.023968081556295887e-02 9.861878496367659785e-02
1.620000000000000000e+04 6.009627566956753097e-02 2.959780602877881694e-02 9.883657332936206241e-02
1.630000000000000000e+04 6.030607650422002003e-02 3.020171373952363833e-02 9.778067502506636310e-02
1.640000000000000000e+04 6.001430731778781280e-02 2.974764002036395238e-02 9.710971120485913100e-02
1.650000000000000000e+04 5.976491245315090212e-02 2.992497129183129337e-02 9.667656017746342756e-02
1.660000000000000000e+04 6.007083827053515124e-02 2.990399638870498006e-02 9.685390438427136928e-02
1.670000000000000000e+04 6.026487852579404808e-02 3.033179521993916578e-02 9.792679781933921745e-02
1.680000000000000000e+04 5.943651013837755737e-02 2.925827515813295837e-02 9.730800348821501411e-02
1.690000000000000000e+04 5.909274217132837181e-02 2.904187742016671805e-02 9.657517892697782547e-02
1.700000000000000000e+04 5.867635408930930996e-02 2.913317182245269213e-02 9.587172346821896951e-02
1.710000000000000000e+04 5.866424956698324672e-02 2.955661340307838211e-02 9.624816094698693258e-02
1.720000000000000000e+04 5.867332792202403086e-02 2.890883240099374751e-02 9.630760767020610236e-02
1.730000000000000000e+04 5.818487668445353200e-02 2.901545071555728869e-02 9.490091826996754909e-02
1.740000000000000000e+04 5.742582183737995200e-02 2.896359151461299838e-02 9.381687578574471331e-02
1.750000000000000000e+04 5.683484953853704807e-02 2.852515522296094133e-02 9.279228815442529255e-02
1.760000000000000000e+04 5.580671324852606169e-02 2.792372191803452197e-02 9.061256473500262087e-02
1.770000000000000000e+04 5.609013349355862488e-02 2.757594187503435365e-02 9.105179775278926524e-02
1.780000000000000000e+04 5.627900643917099072e-02 2.755190264391673902e-02 9.174251815945108635e-02
1.790000000000000000e+04 5.600370766746905205e-02 2.781042037988212812e-02 9.124299999713082754e-02
1.800000000000000000e+04 5.579077296066754788e-02 2.776189677664084657e-02 9.147385205326789837e-02
1.810000000000000000e+04 6.224697538490272380e-02 3.058334422312946818e-02 1.000173029816583403e-01
1.820000000000000000e+04 6.058345116454992574e-02 3.060392864194455553e-02 9.763303599607385530e-02
1.830000000000000000e+04 5.428748771508631193e-02 2.730259728959357618e-02 8.876330312811514522e-02
1.840000000000000000e+04 5.447179563163036947e-02 2.725355125277012860e-02 8.889123950479407843e-02
1.850000000000000000e+04 5.413676573332995567e-02 2.732369236836720491e-02 8.829949069889379831e-02
1.860000000000000000e+04 5.326706237033665414e-02 2.693779932081646553e-02 8.670600046467955013e-02
1.870000000000000000e+04 5.296076848534399945e-02 2.611899583327849730e-02 8.661472100632967852e-02
1.880000000000000000e+04 5.309900436657431083e-02 2.645411308099210670e-02 8.650306216156466999e-02
1.890000000000000000e+04 5.285222208337837790e-02 2.642090007157697762e-02 8.551027676653256970e-02
1.900000000000000000e+04 5.198247322416543748e-02 2.598139139456755523e-02 8.576208925562185670e-02
1.910000000000000000e+04 5.581429454599047546e-02 2.787231475132281519e-02 9.163033393600618359e-02
1.920000000000000000e+04 6.724127164328691508e-02 3.436391044517576876e-02 1.059678492462668847e-01
1.930000000000000000e+04 5.644913889999217393e-02 2.766743401394521421e-02 9.193531760774130424e-02
1.940000000000000000e+04 5.382997915822515522e-02 2.709977695896873331e-02 8.773994925043539228e-02
1.950000000000000000e+04 5.266645651637309050e-02 2.614615727696487785e-02 8.506799980132555283e-02
1.960000000000000000e+04 5.127974381102094054e-02 2.520883691968584320e-02 8.362847984358669218e-02
1.970000000000000000e+04 5.122527555496166063e-02 2.499772487518739025e-02 8.353405854533603458e-02
1.980000000000000000e+04 5.109486890701417372e-02 2.533260809194046170e-02 8.272309416673652438e-02
1.990000000000000000e+04 4.952880816195690677e-02 2.511519568606343511e-02 8.119369009003933602e-02
2.000000000000000000e+04 4.949483196420837589e-02 2.458840727218031263e-02 8.128559446796569665e-02
2.010000000000000000e+04 4.949385300749187255e-02 2.469420523760954000e-02 8.030737029825606166e-02
2.020000000000000000e+04 4.927821883362082378e-02 2.425566545006673652e-02 8.046632401491358999e-02
2.030000000000000000e+04 4.901572452932115992e-02 2.450813700298535777e-02 8.024758531079384527e-02
2.040000000000000000e+04 4.907664828736593016e-02 2.419025152274980814e-02 7.997426967210989612e-02
2.050000000000000000e+04 4.932128113463927349e-02 2.431703527386357838e-02 7.992001904761060482e-02
2.060000000000000000e+04 4.945268150495408382e-02 2.480392073260685379e-02 8.102323137972641809e-02
2.070000000000000000e+04 5.494673048959088091e-02 2.718695156273949823e-02 8.886156987168894461e-02
2.080000000000000000e+04 2.506932715401079537e-01 2.017961007138916463e-01 3.027599086919486315e-01
2.090000000000000000e+04 9.717893284753221783e-01 9.240725143960306642e-01 1.018799084337736138e+00
2.100000000000000000e+04 8.409632157543623920e-01 7.909049509688428348e-01 8.920125728816865607e-01
2.110000000000000000e+04 1.348948158325449231e-01 8.864915542192250419e-02 1.804022224126231311e-01
2.120000000000000000e+04 5.123742584790690752e-02 2.529041708735183663e-02 8.262237397914075354e-02
2.130000000000000000e+04 4.835809414528651623e-02 2.398695990894484861e-02 7.886369093179144973e-02
2.140000000000000000e+04 4.947421819270429733e-02 2.477211093640964076e-02 8.069258540505927502e-02
2.150000000000000000e+04 4.929125177202590274e-02 2.383152619824371876e-02 8.095473692528254439e-02
2.160000000000000000e+04 4.685737615436002396e-02 2.352336402910393948e-02 7.692409173418687796e-02
2.170000000000000000e+04 4.687846897456154210e-02 2.348297119146398881e-02 7.624259999667123977e-02
2.180000000000000000e+04 4.718094783751304588e-02 2.327401291587244750e-02 7.671366552011227302e-02
2.190000000000000000e+04 4.630323348595146576e-02 2.332913355851359491e-02 7.615179920089021337e-02
2.200000000000000000e+04 4.579117164347906721e-02 2.255162099779330423e-02 7.467701066479345839e-02
2.210000000000000000e+04 4.544318168023148141e-02 2.257772485212588415e-02 7.483729840873880323e-02
2.220000000000000000e+04 4.575748867055298708e-02 2.266718415540552173e-02 7.512644965123835283e-02
2.230000000000000000e+04 4.590663946548351887e-02 2.276526454864314861e-02 7.591898217610437705e-02
2.240000000000000000e+04 4.648674864483368779e-02 2.309485036681713926e-02 7.504628299897021793e-02
2.250000000000000000e+04 4.619942530636921008e-02 2.296796621989162512e-02 7.502008086825957822e-02
2.260000000000000000e+04 4.614967258342096701e-02 2.272083285658551416e-02 7.475239580475227796e-02
2.270000000000000000e+04 4.605389664611084927e-02 2.253268412709191065e-02 7.499489861601536800e-02
2.280000000000000000e+04 4.592910360544887743e-02 2.341301827364917348e-02 7.459246936820058960e-02
2.290000000000000000e+04 4.564263267446887207e-02 2.286065965468068659e-02 7.390741728203356620e-02
2.300000000000000000e+04 4.522322552427085474e-02 2.295104105958583121e-02 7.308911610784393775e-02
2.310000000000000000e+04 4.480471235917422163e-02 2.232355373361501541e-02 7.276646051046119223e-02
2.320000000000000000e+04 4.423454341001026302e-02 2.197692514621672755e-02 7.263805561656004606e-02
2.330000000000000000e+04 4.406692148531225761e-02 2.207143251176367851e-02 7.199206304480744445e-02
2.340000000000000000e+04 4.395202340658704854e-02 2.201345813493284578e-02 7.139647047038430450e-02
2.350000000000000000e+04 4.330819385897270030e-02 2.137917762679019534e-02 7.143932222051592451e-02
2.360000000000000000e+04 4.292834234282064121e-02 2.118116827685573300e-02 7.029892577636573381e-02
2.370000000000000000e+04 4.618235207211503213e-02 2.281776168184419806e-02 7.526000656618313245e-02
2.380000000000000000e+04 4.804847588771543609e-02 2.411081612544269115e-02 7.776452836869654495e-02
2.390000000000000000e+04 4.868289913855095713e-02 2.393256372509611901e-02 7.955076605344366114e-02
2.400000000000000000e+04 4.994824767474471267e-02 2.524318927711171126e-02 8.225329148715973537e-02
2.410000000000000000e+04 4.746342217932836977e-02 2.383255723461785019e-02 7.767291507377092896e-02
2.420000000000000000e+04 4.740021744925587005e-02 2.337327699563233885e-02 7.825977238213194243e-02
2.430000000000000000e+04 4.715979822805494576e-02 2.360377165355445270e-02 7.790619335306109283e-02
2.440000000000000000e+04 4.576269705224961237e-02 2.267225742523891821e-02 7.572369793560387863e-02
2.450000000000000000e+04 4.361823954917201651e-02 2.144069776298431970e-02 7.255123126134382927e-02
2.460000000000000000e+04 4.311476445337900087e-02 2.163273420801995958e-02 7.050991339723769458e-02
2.470000000000000000e+04 4.251178137912314803e-02 2.092771858836844218e-02 7.004376496261548180e-02
2.480000000000000000e+04 4.189530411966888024e-02 2.052936393966472289e-02 6.956174933430479823e-02
2.490000000000000000e+04 4.161710663415701950e-02 2.074176074516094134e-02 6.864406894542236792e-02
2.500000000000000000e+04 4.127315017517772799e-02 2.051617999671373135e-02 6.841127021922233098e-02
2.510000000000000000e+04 4.115203909725614895e-02 2.033810352339264493e-02 6.767851617118057772e-02
2.520000000000000000e+04 4.137754138542532045e-02 2.056822394625360678e-02 6.799571820929334320e-02
2.530000000000000000e+04 4.163685406447025644e-02 2.041501037626261214e-02 6.815353825989657610e-02
2.540000000000000000e+04 4.132603633852474645e-02 2.051661130342249256e-02 6.901120068820577880e-02
2.550000000000000000e+04 4.140633999267569892e-02 2.068341725607002538e-02 6.915423820094855623e-02
2.560000000000000000e+04 4.178807745745759250e-02 2.062086576187815642e-02 6.984885921737721270e-02
2.570000000000000000e+04 4.250927401386404153e-02 2.149852743661675308e-02 7.213766962839526786e-02
2.580000000000000000e+04 4.231377250582505495e-02 2.088055036492314151e-02 7.083513939053878716e-02
2.590000000000000000e+04 4.206790155613004262e-02 2.071820889618820882e-02 7.231969343829051933e-02
2.600000000000000000e+04 4.211693924050063931e-02 2.064125418408451623e-02 7.113858791234557721e-02
2.610000000000000000e+04 4.163819410790480652e-02 2.058855142200783153e-02 7.130704364729764655e-02
2.620000000000000000e+04 4.146571907989086286e-02 2.036063560920572252e-02 7.064533529341085472e-02
2.630000000000000000e+04 4.146815267892342560e-02 2.026271872090330828e-02 6.978181306722865129e-02
2.640000000000000000e+04 4.102884843698513528e-02 2.005960612285132699e-02 6.895425769339236233e-02
2.650000000000000000e+04 4.054682741815956309e-02 2.040773600341750163e-02 6.731917304311732519e-02
2.660000000000000000e+04 4.023827794586704726e-02 2.014840338357016397e-02 6.614667517497517524e-02
2.670000000000000000e+04 3.988461220292330300e-02 1.979211032925553421e-02 6.628589263617479244e-02
2.680000000000000000e+04 4.048746423206956574e-02 2.022693215714495979e-02 6.699399778035423914e-02
2.690000000000000000e+04 4.043240207129472630e-02 1.980255675005596766e-02 6.638008633294686933e-02
2.700000000000000000e+04 3.947023282092463475e-02 1.957244297361648497e-02 6.454149283514250268e-02
2.710000000000000000e+04 3.907677275693172830e-02 1.918905133097612015e-02 6.444752944443010723e-02
2.720000000000000000e+04 3.938274620426299166e-02 1.955484946937896887e-02 6.502461561222300235e-02
2.730000000000000000e+04 4.028591670674373793e-02 1.972020056301021507e-02 6.579251129953696264e-02
2.740000000000000000e+04 4.063202839887063850e-02 2.042947261306753137e-02 6.688014123933221089e-02
2.750000000000000000e+04 4.270170120417924459e-02 2.136238505910592958e-02 7.029742267775057618e-02
2.760000000000000000e+04 6.133089341688686691e-01 5.668547605693605718e-01 6.573352596837217510e-01
2.770000000000000000e+04 1.363887681589367906e+00 1.329623210321823512e+00 1.398784116568840830e+00
2.780000000000000000e+04 7.578886142919646352e-01 7.157074213694535336e-01 8.046215803266301148e-01
2.790000000000000000e+04 4.326056938692831449e-02 2.173002821515133964e-02 7.173037701940176980e-02
2.800000000000000000e+04 3.792608923029821416e-02 1.880920478543822438e-02 6.146863174797385920e-02
2.810000000000000000e+04 3.723236174772334012e-02 1.861834461367995602e-02 6.028850467718779860e-02
2.820000000000000000e+04 3.696643239401496001e-02 1.817550713159104755e-02 6.046500700258519712e-02
2.830000000000000000e+04 3.686473718800403060e-02 1.793432318437121128e-02 6.065031069088955978e-02
2.840000000000000000e+04 3.680884630717838613e-02 1.813523032386943346e-02 6.146044411647227923e-02
2.850000000000000000e+04 3.736097215313101405e-02 1.873126639731501758e-02 6.169599586552138026e-02
2.860000000000000000e+04 3.767993880450204447e-02 1.885490700890201168e-02 6.205620761972934635e-02
2.870000000000000000e+04 4.009853844807537149e-02 2.007224415387477354e-02 6.682146892095115753e-02
2.880000000000000000e+04 4.744820255481769361e-02 2.364270860357523332e-02 7.697238445013138142e-02
2.890000000000000000e+04 3.953467792250108664e-02 1.961469369999681994e-02 6.699970892708519143e-02
2.900000000000000000e+04 3.707361032764015102e-02 1.848908225226596896e-02 6.404444530008734926e-02
2.910000000000000000e+04 3.794922973961852020e-02 1.898820634499580676e-02 6.553040784771509142e-02
2.920000000000000000e+04 3.870727053463615674e-02 1.898776304137032162e-02 6.905672808017772335e-02
2.930000000000000000e+04 3.959211461131197096e-02 1.934764755054553531e-02 7.212201543738112897e-02
2.940000000000000000e+04 4.000861183399936211e-02 1.943313234482439700e-02 7.471391396847328059e-02
2.950000000000000000e+04 3.936887180589437180e-02 1.906473481207902887e-02 7.583190561560256004e-02
2.960000000000000000e+04 3.989078462142568032e-02 1.910537677117241442e-02 7.754913741971154739e-02
2.970000000000000000e+04 3.920574860887474089e-02 1.929177197153996923e-02 7.497031305144767621e-02
2.980000000000000000e+04 4.259858404572933188e-02 2.062852844093130550e-02 7.938193448035912869e-02
2.990000000000000000e+04 5.289073240047657831e-02 2.630298772709544625e-02 9.310613892547510428e-02
3.000000000000000000e+04 4.351267915916808698e-02 2.116800781828316949e-02 7.564477995032248270e-02
3.010000000000000000e+04 4.149416990794809607e-02 2.082892376077659369e-02 7.227555912129998705e-02
3.020000000000000000e+04 4.433076935423290593e-02 2.162681531066876217e-02 7.562046049496515265e-02
3.030000000000000000e+04 3.772013936030604170e-02 1.861242637286872684e-02 6.469572256079178518e-02
3.040000000000000000e+04 5.554046213311032015e-02 2.775920293658333884e-02 9.265333788671251125e-02
3.050000000000000000e+04 8.299079616469351439e-02 4.158213522423944569e-02 1.346218462036608554e-01
3.060000000000000000e+04 6.221501860964234049e-02 3.108161107712982194e-02 1.023483345963956265e-01
3.070000000000000000e+04 8.336167629861557238e-02 4.129195397473310603e-02 1.374214616515841980e-01
3.080000000000000000e+04 5.429603977263144227e-02 2.706751480897336137e-02 9.161903164601728489e-02
3.090000000000000000e+04 6.282381727580362007e-02 3.108253372463742545e-02 1.136595967818048031e-01
3.100000000000000000e+04 1.917914028982439789e-01 1.535847200743013230e-01 2.310020402760152580e-01
3.110000000000000000e+04 1.774415404959648335e-01 1.120305843117911648e-01 2.226118477096269144e-01
3.120000000000000000e+04 4.982258821143560612e-02 2.451417978561606925e-02 8.967586910465406846e-02
3.130000000000000000e+04 3.949206407131060359e-02 1.936610749491704531e-02 7.113783459693960587e-02
3.140000000000000000e+04 3.851585621065910237e-02 1.874297422131688401e-02 6.961804657631918969e-02
3.150000000000000000e+04 3.911491552741688110e-02 1.919951816811286960e-02 7.078605733165509173e-02
3.160000000000000000e+04 4.121132952959558060e-02 2.003229704357352078e-02 7.343154014045147338e-02
3.170000000000000000e+04 3.890164581287511303e-02 1.919765636217270546e-02 6.831649689524246782e-02
3.180000000000000000e+04 3.691033167898478962e-02 1.853485021996601617e-02 6.308780517342778282e-02
3.190000000000000000e+04 3.538089967936142166e-02 1.734558347513702817e-02 5.924881273793933256e-02
3.200000000000000000e+04 3.402398025067680798e-02 1.697555123744477409e-02 5.684423308903244904e-02
3.210000000000000000e+04 3.415558609879888741e-02 1.676126197833107886e-02 5.534877422892507670e-02
3.220000000000000000e+04 3.393052786627593492e-02 1.675947340317476830e-02 5.462666400759836477e-02
3.230000000000000000e+04 3.373580683330320434e-02 1.707582318442603733e-02 5.524735034623778213e-02
3.240000000000000000e+04 3.423779838343488785e-02 1.738766331918652555e-02 5.526271934949455317e-02
3.250000000000000000e+04 3.402763120691024851e-02 1.713706424626230615e-02 5.575914513096678210e-02
3.260000000000000000e+04 3.417328281524339983e-02 1.700301207085951755e-02 5.514586356697331188e-02
3.270000000000000000e+04 3.347114557600976842e-02 1.684147472128911041e-02 5.481389925195589291e-02
3.280000000000000000e+04 3.399429508363518981e-02 1.706116572348199273e-02 5.532979216048308779e-02
3.290000000000000000e+04 3.406299057555737392e-02 1.709737661793990157e-02 5.542537405688028468e-02
3.300000000000000000e+04 3.799507494445562156e-02 1.909766471524512385e-02 6.185133833080140586e-02
3.310000000000000000e+04 9.220735706149060795e-02 6.386979682739866993e-02 1.203948811713995981e-01
3.320000000000000000e+04 8.737838656838158025e-02 5.865686492903156996e-02 1.157238249327560559e-01
3.330000000000000000e+04 3.670747295220937872e-02 1.861890723675720116e-02 5.969626454665023785e-02
3.340000000000000000e+04 3.431199280148807679e-02 1.737175210072517545e-02 5.628603868883772648e-02
3.350000000000000000e+04 3.473549070247810427e-02 1.726220928796488863e-02 5.680312409977985449e-02
3.360000000000000000e+04 3.401373613295319981e-02 1.698225297923046384e-02 5.486371544365156033e-02
3.370000000000000000e+04 3.327784365470775468e-02 1.634529048388659242e-02 5.453189777642191566e-02
3.380000000000000000e+04 3.379344337615512034e-02 1.676200472637553313e-02 5.487088250059229955e-02
3.390000000000000000e+04 3.381960860002154734e-02 1.683959794965393664e-02 5.499708371282879815e-02
3.400000000000000000e+04 3.293979789513643008e-02 1.645375786453214320e-02 5.487057390247835481e-02
3.410000000000000000e+04 3.369276443970738166e-02 1.683709007563607279e-02 5.478316165071527022e-02
3.420000000000000000e+04 3.348241435605170402e-02 1.672761674522699193e-02 5.459178968533560244e-02
3.430000000000000000e+04 3.373265681022830781e-02 1.682292929315050076e-02 5.494768669923627558e-02
3.440000000000000000e+04 3.620774268820603492e-02 1.823328477106503365e-02 5.884793371529382228e-02
3.450000000000000000e+04 3.803392566863882801e-02 1.920079460140145314e-02 6.164566638144360761e-02
3.460000000000000000e+04 3.459515010852649147e-02 1.732173843967055663e-02 5.622756526984040021e-02
3.470000000000000000e+04 3.528649196825962148e-02 1.732100227971450357e-02 5.690271116905739474e-02
3.480000000000000000e+04 3.460933650375731113e-02 1.735096496213913569e-02 5.607132883747798641e-02
3.490000000000000000e+04 3.362344452616469748e-02 1.684998350677787554e-02 5.476759350708800683e-02
3.500000000000000000e+04 3.378474688673981791e-02 1.687319525461323383e-02 5.524378826799169334e-02
3.510000000000000000e+04 3.399830124971869177e-02 1.694334544607294102e-02 5.476781863962461999e-02
3.520000000000000000e+04 3.367639835230849810e-02 1.699640528435609685e-02 5.454102452754250319e-02
3.530000000000000000e+04 3.425825585035527365e-02 1.699112923616535528e-02 5.542080690937799259e-02
3.540000000000000000e+04 3.419306983445575404e-02 1.705202714320031010e-02 5.600631842052919418e-02
3.550000000000000000e+04 3.436394344397847300e-02 1.715972797085662735e-02 5.607227307157781893e-02
3.560000000000000000e+04 3.456397837759128677e-02 1.708987974587794501e-02 5.607037036306758426e-02
3.570000000000000000e+04 3.478384569584138525e-02 1.725751312211068131e-02 5.665224288952935838e-02
3.580000000000000000e+04 3.532350149655451993e-02 1.764563822279293856e-02 5.726867633568497734e-02
3.590000000000000000e+04 3.533982617026660417e-02 1.788863425128916704e-02 5.746996636239413980e-02
3.600000000000000000e+04 3.524758936847749435e-02 1.739579149689009577e-02 5.719303497153337829e-02
3.610000000000000000e+04 3.475500603335335281e-02 1.719953181629681541e-02 5.620648334973688681e-02
3.620000000000000000e+04 3.455445947911467419e-02 1.720246113804245122e-02 5.665174302518208305e-02
3.630000000000000000e+04 3.506530701744247497e-02 1.697066868201122306e-02 5.669049157760280844e-02
3.640000000000000000e+04 3.494498157583373482e-02 1.739759906653326818e-02 5.680899638008841263e-02
3.650000000000000000e+04 3.433650162073095119e-02 1.719658301951103307e-02 5.555652783227125330e-02
3.660000000000000000e+04 3.483299523238871792e-02 1.734403338161026945e-02 5.603391236272286385e-02
3.670000000000000000e+04 3.507687084183183646e-02 1.747304089274360345e-02 5.688489420913801081e-02
3.680000000000000000e+04 3.511124682642745298e-02 1.762088028115676303e-02 5.724812945231155803e-02
3.690000000000000000e+04 3.530410965387621725e-02 1.737469437442993106e-02 5.723189756481304735e-02
3.700000000000000000e+04 4.826687491600818725e-02 2.384165698105527795e-02 7.863996901981534782e-02
3.710000000000000000e+04 7.090044972081173402e-02 3.542435368165002679e-02 1.139081293379918258e-01
3.720000000000000000e+04 5.391880521740539250e-02 2.691016285818157577e-02 8.804340194350654403e-02
3.730000000000000000e+04 7.415941777885781683e-02 3.705812200287778024e-02 1.233521596320527047e-01
3.740000000000000000e+04 5.249683211699643359e-02 2.623301245684049945e-02 8.555955423810909788e-02
3.750000000000000000e+04 3.938136009843444529e-02 1.948078723769334011e-02 6.382428765130106207e-02
3.760000000000000000e+04 7.522688649576607378e-02 4.577418274301505580e-02 1.048690014571237311e-01
3.770000000000000000e+04 6.848299304305194291e-02 4.000728646045788317e-02 9.861330539442314524e-02
3.780000000000000000e+04 3.856694523362584615e-02 1.884518511575827837e-02 6.279632614914092137e-02
3.790000000000000000e+04 3.770426552550098370e-02 1.888218622187967308e-02 6.172953730909122583e-02
3.800000000000000000e+04 3.755971994117126428e-02 1.869032031012445721e-02 6.183933855359453891e-02
3.810000000000000000e+04 3.850816616888799726e-02 1.903739049613563383e-02 6.340706969736023546e-02
3.820000000000000000e+04 4.495204260394403822e-02 2.247248403311819659e-02 7.430351006557246729e-02
3.830000000000000000e+04 5.128494775034436737e-02 2.530232510649661065e-02 8.412905051845490090e-02
3.840000000000000000e+04 4.441046102368365056e-02 2.186545484272010148e-02 7.291826329138918761e-02
3.850000000000000000e+04 3.932910197282378506e-02 1.967452919563253411e-02 6.415255579968717758e-02
3.860000000000000000e+04 3.772983126807110538e-02 1.902701232189737621e-02 6.185712507643174179e-02
3.870000000000000000e+04 3.748540944406716230e-02 1.910368294513990067e-02 6.202595536656136527e-02
3.880000000000000000e+04 3.805154415196641826e-02 1.891600685011817981e-02 6.182626416431735716e-02
3.890000000000000000e+04 3.802846559855675018e-02 1.897970314239494707e-02 6.200744390215295193e-02
3.900000000000000000e+04 3.783268805232365556e-02 1.923145490547968281e-02 6.207684823545615155e-02
3.910000000000000000e+04 4.475099466507916762e-02 2.226531015595741708e-02 7.271007751244469575e-02
3.920000000000000000e+04 7.742542699335716594e-02 4.654824710362544943e-02 1.094401088679157613e-01
3.930000000000000000e+04 5.933095770182705841e-02 3.153260378923787577e-02 9.268256398965100951e-02
3.940000000000000000e+04 3.909334382545719827e-02 1.966313058893992202e-02 6.433989242372896433e-02
3.950000000000000000e+04 3.876002231185693425e-02 1.894375472180581665e-02 6.333607318593212354e-02
3.960000000000000000e+04 3.919750977681246001e-02 1.925120250682268302e-02 6.398185517673102285e-02
3.970000000000000000e+04 3.960083960880356191e-02 1.927225492337688792e-02 6.558035715737942084e-02
3.980000000000000000e+04 3.948311007216506741e-02 1.994252570364700439e-02 6.506580513156243195e-02
3.990000000000000000e+04 3.918839299292629225e-02 1.945066529606647929e-02 6.492773644599865446e-02
4.000000000000000000e+04 3.965656849527019606e-02 1.978420816163579954e-02 6.571782487988943322e-02
4.010000000000000000e+04 3.978838923466608557e-02 1.968307110822973063e-02 6.586806105566525571e-02
4.020000000000000000e+04 3.911068776384510337e-02 1.952574161228172109e-02 6.532096280962229606e-02
4.030000000000000000e+04 3.959087930079997764e-02 1.991564325363281984e-02 6.466545913355238595e-02
4.040000000000000000e+04 3.879917629706140098e-02 1.954098636373599596e-02 6.380654724429564439e-02
4.050000000000000000e+04 3.922719315174037769e-02 1.975695944532142312e-02 6.378590875263615012e-02
4.060000000000000000e+04 3.909087019786863099e-02 1.961019585644181024e-02 6.433008882441822174e-02
4.070000000000000000e+04 3.936075254859084521e-02 1.941003828033094694e-02 6.442324976840065054e-02
4.080000000000000000e+04 3.935061807432916475e-02 1.936067552633733910e-02 6.422110899300699505e-02
4.090000000000000000e+04 3.905317541702177375e-02 1.927101949026029451e-02 6.429522220059716298e-02
4.100000000000000000e+04 3.905859714388569548e-02 1.971128289888184754e-02 6.356281981663940150e-02
4.110000000000000000e+04 3.854311418863857336e-02 1.905861652634462458e-02 6.354836501195158804e-02
4.120000000000000000e+04 3.836315715105378249e-02 1.916009050259486271e-02 6.276630929286637628e-02
4.130000000000000000e+04 3.873671566797211308e-02 1.910968890140490525e-02 6.283278291225485868e-02
4.140000000000000000e+04 4.910147522233177658e-02 2.504870334372343368e-02 7.662410461291659092e-02
4.150000000000000000e+04 1.011959860763085584e-01 6.855936429592261738e-02 1.337703750726245422e-01
4.160000000000000000e+04 7.728129873363523417e-02 4.266221187065186160e-02 1.137480031938594288e-01
4.170000000000000000e+04 3.225851065934177142e-01 2.838033719215957706e-01 3.625017978957834064e-01
4.180000000000000000e+04 4.623303136117926093e-01 3.936040332176730661e-01 5.301431589663754274e-01
4.190000000000000000e+04 1.849409757163578694e-01 9.049710952356415650e-02 2.560941939173160820e-01
4.200000000000000000e+04 5.260533673350660522e-02 2.707991203232626432e-02 8.273502998036250111e-02
4.210000000000000000e+04 4.384023976201801426e-02 2.200553840263505534e-02 7.048031649416278133e-02
4.220000000000000000e+04 4.527435619947085821e-02 2.250886965208088314e-02 7.390516461129727210e-02
4.230000000000000000e+04 4.759988060922448749e-02 2.369142827093689840e-02 7.867583672871360234e-02
4.240000000000000000e+04 4.361548338805538300e-02 2.158598859679773316e-02 7.178992118450720772e-02
4.250000000000000000e+04 4.351573246982057275e-02 2.174906107315993306e-02 7.070890673315163855e-02
4.260000000000000000e+04 4.221489892091163237e-02 2.080499464867683126e-02 6.951518987978637376e-02
4.270000000000000000e+04 3.977276497041144776e-02 1.989408575603874088e-02 6.590376745141948711e-02
4.280000000000000000e+04 4.035694330874853991e-02 1.961266452693732898e-02 6.572589381919770324e-02
4.290000000000000000e+04 4.203608639847884049e-02 2.077256821419825109e-02 6.895447366884285834e-02
4.300000000000000000e+04 4.207539639390194680e-02 2.098880500419593800e-02 6.901843722051122232e-02
4.310000000000000000e+04 4.063009363133229107e-02 2.024946293709023112e-02 6.665896763905809763e-02
4.320000000000000000e+04 3.979809785172682551e-02 1.954573081146345967e-02 6.550715417739157165e-02
4.330000000000000000e+04 4.229535824849264131e-02 2.066997610229934570e-02 6.888879341406621559e-02
4.340000000000000000e+04 4.412352981926712797e-02 2.195882662124756107e-02 7.388327706841349429e-02
4.350000000000000000e+04 4.468295576689958193e-02 2.184353417603674893e-02 7.236297346877398895e-02
4.360000000000000000e+04 4.078431007322800422e-02 2.039642749721467044e-02 6.761806484903996883e-02
4.370000000000000000e+04 4.035272803376432904e-02 2.016562898921537075e-02 6.585632419108990165e-02
4.380000000000000000e+04 4.404687325168565870e-02 2.184932571990276171e-02 7.251610663483921970e-02
4.390000000000000000e+04 4.906507377557398769e-02 2.400089067335902521e-02 8.411830829934197062e-02
4.400000000000000000e+04 5.139988261091681110e-02 2.461797406466518026e-02 9.357096131711317710e-02
4.410000000000000000e+04 5.109803049744712777e-02 2.426169930936850072e-02 9.407613576144410739e-02
4.420000000000000000e+04 5.915078620238326673e-02 2.840593658320924794e-02 9.986863854225529191e-02
4.430000000000000000e+04 5.802977250317052638e-02 2.894222010116991387e-02 9.625019477891959274e-02
4.440000000000000000e+04 4.397933738262478631e-02 2.191665411605893746e-02 7.337751265534925293e-02
4.450000000000000000e+04 4.012530742004186135e-02 2.001425343069320600e-02 6.534269015636932909e-02
4.460000000000000000e+04 3.742249831130137899e-02 1.881421214790025137e-02 6.176065735042878674e-02
4.470000000000000000e+04 3.627625883693104403e-02 1.776489844833446796e-02 5.977775611325217286e-02
4.480000000000000000e+04 3.608645344307665620e-02 1.794209471941685119e-02 5.924002384358702938e-02
4.490000000000000000e+04 3.676704143959961396e-02 1.821519453318969084e-02 6.020489749085530112e-02
4.500000000000000000e+04 3.689672942052255739e-02 1.862327223184380431e-02 6.037036624099297727e-02
4.510000000000000000e+04 3.659853639149677346e-02 1.801680468292861381e-02 5.929574824022357943e-02
4.520000000000000000e+04 3.591614185256550990e-02 1.788520499410539005e-02 5.925086514134483839e-02
4.530000000000000000e+04 5.358584931462036932e-02 2.699762082691073081e-02 8.705193495541350968e-02
4.540000000000000000e+04 1.120800451664016456e-01 5.610473436275838222e-02 1.810361609725627541e-01
4.550000000000000000e+04 1.125960725477799518e-01 5.599043997989894966e-02 1.833257141649555777e-01
4.560000000000000000e+04 5.672073781620101673e-02 2.843489526422171218e-02 9.265804206681445276e-02
4.570000000000000000e+04 3.434922789458826065e-02 1.705296542887234715e-02 5.558493477747557254e-02
4.580000000000000000e+04 3.354805459405457019e-02 1.671475831480455018e-02 5.459918117113195940e-02
4.590000000000000000e+04 3.267841881716151281e-02 1.677389141215500368e-02 5.367203092868252229e-02
4.600000000000000000e+04 3.315694305584589857e-02 1.661194972566134090e-02 5.321454420686651948e-02
4.610000000000000000e+04 3.259268620563335328e-02 1.603631238605874101e-02 5.281505925804656776e-02
4.620000000000000000e+04 3.183999547783486483e-02 1.596508359568017330e-02 5.188026794073211795e-02
4.630000000000000000e+04 3.209438172305915937e-02 1.622781362193899055e-02 5.209324971658644415e-02
4.640000000000000000e+04 3.500342137542952758e-02 1.696150407998913909e-02 5.917354930478407882e-02
4.650000000000000000e+04 5.427049570049883448e-02 2.727629143939381065e-02 8.657857047427608421e-02
4.660000000000000000e+04 5.562570175335924266e-02 2.863458230403070903e-02 8.835147231153651914e-02
4.670000000000000000e+04 3.502562687045203405e-02 1.708551953238786336e-02 5.702952882139654400e-02
4.680000000000000000e+04 3.253023890698666237e-02 1.624924221952231754e-02 5.329490611951282625e-02
4.690000000000000000e+04 3.341292615281372252e-02 1.677305504594922905e-02 5.511895536232236381e-02
4.700000000000000000e+04 7.846914325633390364e-02 3.945974144468519101e-02 1.275556380938438483e-01
4.710000000000000000e+04 2.410216093738912768e-01 1.212156768199026263e-01 3.952488272851445994e-01
4.720000000000000000e+04 2.315408501670369323e-01 1.166756079707940014e-01 3.749401308319794124e-01
4.730000000000000000e+04 2.596628033386160217e-01 1.245669387988171811e-01 4.286873278440347934e-01
4.740000000000000000e+04 1.347802567359337178e-01 6.577781941480377592e-02 2.218174959995129480e-01
4.750000000000000000e+04 3.140481443947046314e-02 1.548012710184465401e-02 5.181030243543270630e-02
4.760000000000000000e+04 3.128236750851028092e-02 1.540536185521595297e-02 5.176382665299245067e-02
4.770000000000000000e+04 3.149103847535981299e-02 1.559862853741847757e-02 5.197517922324615403e-02
4.780000000000000000e+04 3.093568936834841659e-02 1.549913950771454260e-02 5.129731346493090344e-02
4.790000000000000000e+04 3.040413409507793097e-02 1.518530498317194333e-02 5.026294752678126670e-02
4.800000000000000000e+04 3.180902160229923809e-02 1.563986039385735841e-02 5.209045918871008096e-02
4.810000000000000000e+04 3.760873684292419250e-02 1.891594361121913884e-02 5.968720309774046967e-02
4.820000000000000000e+04 3.133098083632129133e-02 1.573680807505561247e-02 5.084060211005760055e-02
4.830000000000000000e+04 2.907025529093684377e-02 1.445409640648007317e-02 4.720808829752604074e-02
4.840000000000000000e+04 2.946408625872930925e-02 1.443044572286421474e-02 4.799765270499449510e-02
4.850000000000000000e+04 3.384219125962088098e-02 1.708094281587107729e-02 5.416616352912029253e-02
4.860000000000000000e+04 8.726031907715656177e-02 6.363580242756866623e-02 1.116257111136177566e-01
4.870000000000000000e+04 8.320533545416128329e-02 6.013635686704690841e-02 1.073254815551350355e-01
4.880000000000000000e+04 3.063013709409713806e-02 1.544125172988975586e-02 5.029504952891245689e-02
4.890000000000000000e+04 3.401982372293735346e-02 1.718512690099936041e-02 5.571941740311509711e-02
4.900000000000000000e+04 5.053076616111026181e-02 2.481610998070520047e-02 8.268943890292497489e-02
4.910000000000000000e+04 4.222198431700720234e-02 2.136048706334900751e-02 6.926314197767984016e-02
4.920000000000000000e+04 6.301417870287610856e-02 3.149547323528850001e-02 1.034710134991497915e-01
4.930000000000000000e+04 5.518718636888812756e-02 2.782610321651036653e-02 9.002480585488441267e-02
4.940000000000000000e+04 2.876569979813558067e-02 1.422887516141425369e-02 4.751682987736637748e-02
4.950000000000000000e+04 2.950285685771660699e-02 1.477453737939691050e-02 4.803507825336319342e-02
4.960000000000000000e+04 4.416560715348008537e-02 2.273769579302246588e-02 6.944458214677515229e-02
4.970000000000000000e+04 8.978515549543493457e-02 6.631767938294112763e-02 1.135002375752459380e-01
4.980000000000000000e+04 6.127232233483819596e-02 3.838472456256423332e-02 8.504582581872777158e-02
4.990000000000000000e+04 2.839515694899813827e-02 1.378230005880444128e-02 4.660273894419151436e-02
5.000000000000000000e+04 2.791369560806721342e-02 1.412622740752478290e-02 4.573379008967268233e-02
5.010000000000000000e+04 2.783124880443546556e-02 1.373079859708492903e-02 4.554957743818490584e-02
5.020000000000000000e+04 2.776546383271201804e-02 1.388779528415830418e-02 4.483714579532062372e-02
5.030000000000000000e+04 2.740769159852879736e-02 1.368285734049354621e-02 4.496232499698252921e-02
5.040000000000000000e+04 2.775919623678821044e-02 1.358578209077209581e-02 4.499235735216735449e-02
5.050000000000000000e+04 2.778976371622306207e-02 1.385976396971318192e-02 4.534246024279409842e-02
5.060000000000000000e+04 2.752749825237156209e-02 1.387610343562950370e-02 4.552341454226791623e-02
5.070000000000000000e+04 2.797069504761458617e-02 1.411482742522350911e-02 4.575697633158500033e-02
5.080000000000000000e+04 2.795011429005611267e-02 1.398754925571928792e-02 4.529981043159791998e-02
5.090000000000000000e+04 2.788369952169874114e-02 1.412965327589062181e-02 4.546255172504663072e-02
5.100000000000000000e+04 2.797741219320930978e-02 1.399421923797302368e-02 4.562085899693003183e-02
5.110000000000000000e+04 2.828228556794201362e-02 1.380978855132228983e-02 4.564358104798362653e-02
5.120000000000000000e+04 2.809181932108352486e-02 1.382532730589108166e-02 4.580483307005375759e-02
5.130000000000000000e+04 2.837514433311201859e-02 1.406380331724239874e-02 4.644944697591159299e-02
5.140000000000000000e+04 2.828215160622406243e-02 1.442881174490229929e-02 4.583383906283450965e-02
5.150000000000000000e+04 2.822139516747837126e-02 1.414283297856287064e-02 4.591616199860566044e-02
5.160000000000000000e+04 2.805635008175636283e-02 1.397292431253088774e-02 4.583809192706499169e-02
5.170000000000000000e+04 2.789875609858911282e-02 1.386411273717305832e-02 4.556936516807471443e-02
5.180000000000000000e+04 2.799010027652274954e-02 1.399051453458357262e-02 4.561097847113994991e-02
5.190000000000000000e+04 2.835368211689826695e-02 1.443368953704534004e-02 4.626947169893907280e-02
5.200000000000000000e+04 2.894648640031138517e-02 1.419088990729427263e-02 4.696078891101238689e-02
5.210000000000000000e+04 2.857622742613720110e-02 1.426600119636554746e-02 4.655931302061409871e-02
5.220000000000000000e+04 2.852069286409408821e-02 1.438298767538092986e-02 4.618461306385057696e-02
5.230000000000000000e+04 2.857147216809427168e-02 1.422853906036833718e-02 4.584987615748473827e-02
5.240000000000000000e+04 2.822944783830335855e-02 1.417245937170600982e-02 4.619558066682635106e-02
5.250000000000000000e+04 2.837283555008910177e-02 1.418424378301849295e-02 4.627057597824197482e-02
5.260000000000000000e+04 2.817221934786141163e-02 1.408923612913459515e-02 4.678082890183206388e-02
5.270000000000000000e+04 2.895408718849035862e-02 1.460499620419425035e-02 4.718730350655254979e-02
5.280000000000000000e+04 2.923665659889372950e-02 1.458302464046345830e-02 4.777533507590023265e-02
5.290000000000000000e+04 2.965521879642745925e-02 1.479332934606998606e-02 4.842580489382358744e-02
5.300000000000000000e+04 2.985207844193657825e-02 1.444122495992336552e-02 4.829310037441023051e-02
5.310000000000000000e+04 2.968323435866900006e-02 1.474483786712947261e-02 4.893496644531721007e-02
5.320000000000000000e+04 3.005769182601298120e-02 1.480424494709868879e-02 4.949241619203241516e-02
5.330000000000000000e+04 3.013754287687660932e-02 1.475139147708956835e-02 4.904128620097058383e-02
5.340000000000000000e+04 3.027970611423039943e-02 1.490184504404332144e-02 4.950001028273656040e-02
5.350000000000000000e+04 3.037561539771370042e-02 1.504262233987377871e-02 4.925056155997770829e-02
5.360000000000000000e+04 3.124350839483588591e-02 1.541287869418556632e-02 5.056516476264732995e-02
5.370000000000000000e+04 3.240591829827473708e-02 1.596517628596977670e-02 5.320057893058403181e-02
5.380000000000000000e+04 3.388482307463223930e-02 1.661158404675632666e-02 5.496515889856365411e-02
5.390000000000000000e+04 3.364638618430194905e-02 1.671848204326444390e-02 5.453726395557771667e-02
5.400000000000000000e+04 3.372154634082277780e-02 1.639475723106496169e-02 5.434181180999693439e-02
5.410000000000000000e+04 3.395772232595846429e-02 1.697275766226396740e-02 5.572361592266424080e-02
5.420000000000000000e+04 3.836154389661628611e-02 1.953927587175440655e-02 6.162340210485904579e-02
5.430000000000000000e+04 3.536409160558089820e-02 1.773681731484383003e-02 5.703931099219349682e-02
5.440000000000000000e+04 3.411505058012256203e-02 1.738351282324918437e-02 5.573558350126817801e-02
5.450000000000000000e+04 3.713037272065324024e-02 1.835475088293656715e-02 5.984122522792868076e-02
5.460000000000000000e+04 4.474894694018425462e-02 2.191121893208291399e-02 7.164053751939521153e-02
5.470000000000000000e+04 7.432628929473608648e-02 3.894256914648298179e-02 1.118664784734634959e-01
5.480000000000000000e+04 7.664343552494957967e-02 3.699166235731897456e-02 1.160403840882767296e-01
5.490000000000000000e+04 8.706922788169446648e-02 5.724652162360577279e-02 1.182534737524083834e-01
5.500000000000000000e+04 1.388235523513144110e-01 8.995899322426839650e-02 1.889792475710772302e-01
5.510000000000000000e+04 4.018785960041091343e-01 2.026104093290987396e-01 6.437953814869358249e-01
5.520000000000000000e+04 6.162192402577914008e-01 3.106287722783099281e-01 9.448808498408480805e-01
5.530000000000000000e+04 1.236570258934923672e+00 9.060278924663982547e-01 1.522131229792657914e+00
5.540000000000000000e+04 5.143506132656262331e+00 4.322591157956308550e+00 5.835154910001055129e+00
5.550000000000000000e+04 1.880979646836342738e+02 1.824280880973659578e+02 1.908721596205764968e+02
5.560000000000000000e+04 3.349297049595483600e+02 3.246872722884202176e+02 3.397988054615094029e+02
5.570000000000000000e+04 1.481993933404409631e+02 1.440595899515893166e+02 1.505321068900588273e+02
5.580000000000000000e+04 3.799539997036762706e+00 3.570999714065489439e+00 4.004749547131059018e+00
5.590000000000000000e+04 1.002987847899419638e+00 9.600058524935886073e-01 1.045341079171839382e+00
5.600000000000000000e+04 4.106565056009781056e-01 3.781550099004915011e-01 4.430851921329009291e-01
5.610000000000000000e+04 2.097020248087978211e-01 1.799994933401089237e-01 2.402131797534439173e-01
5.620000000000000000e+04 1.233944358020244714e-01 9.341015882519612679e-02 1.526458448186858718e-01
5.630000000000000000e+04 8.104538817703615949e-02 5.247397152858025715e-02 1.105063390446492516e-01
5.640000000000000000e+04 5.957740638542343564e-02 3.298989421844179815e-02 8.894837703179245270e-02
5.650000000000000000e+04 4.938283857420412704e-02 2.517880761945777077e-02 7.836670626137356988e-02
5.660000000000000000e+04 4.419936986584260818e-02 2.196357369710883606e-02 7.130876457819500247e-02
5.670000000000000000e+04 4.189464981825088974e-02 2.061761464132430208e-02 6.845162033087158482e-02
5.680000000000000000e+04 4.229258705272841146e-02 2.116664986778330274e-02 6.991572905663162585e-02
5.690000000000000000e+04 5.759481687103416847e-02 2.876675764859031037e-02 9.457401865847352151e-02
5.700000000000000000e+04 5.755846045028024244e-02 2.911099082244043151e-02 9.438369539769472794e-02
5.710000000000000000e+04 4.446811202934029122e-02 2.201507090287672594e-02 7.598508015751123668e-02
5.720000000000000000e+04 4.615412021638224532e-02 2.249431836339032056e-02 7.878883207142252376e-02
5.730000000000000000e+04 4.831715893705892245e-02 2.366774982639318486e-02 8.306597583950318942e-02
5.740000000000000000e+04 5.098079321554154636e-02 2.481100891160686883e-02 8.850382326869560279e-02
5.750000000000000000e+04 5.274041036719330500e-02 2.527435715701836783e-02 9.202190236375355770e-02
5.760000000000000000e+04 5.461831370046295320e-02 2.630243680781985810e-02 9.638859364260959905e-02
5.770000000000000000e+04 5.669009589590896098e-02 2.725449505107470707e-02 1.007623726013855414e-01
5.780000000000000000e+04 6.152431116904145264e-02 2.927168469547484012e-02 1.075836092213820622e-01
5.790000000000000000e+04 6.287384331714115926e-02 3.004392693892332655e-02 1.125010204581279732e-01
5.800000000000000000e+04 6.447576926925308038e-02 3.112280190394429991e-02 1.187226397870160127e-01
5.810000000000000000e+04 6.796066759828858772e-02 3.192830860979349594e-02 1.244668579836999411e-01
5.820000000000000000e+04 7.227316287054570687e-02 3.410085871354532477e-02 1.320562937253308700e-01
5.830000000000000000e+04 7.605063914424695093e-02 3.488998085558549928e-02 1.402195130614619922e-01
5.840000000000000000e+04 7.935880914679892262e-02 3.674382279750642438e-02 1.441245126453797321e-01
5.850000000000000000e+04 8.179745721333328556e-02 3.840833108829578429e-02 1.471109724382972939e-01
5.860000000000000000e+04 8.355279409315323480e-02 3.885231995920691850e-02 1.501214010694594259e-01
5.870000000000000000e+04 8.544945507779773408e-02 3.957200955431790235e-02 1.526732615228417467e-01
5.880000000000000000e+04 8.726425886393704423e-02 3.991039995064243201e-02 1.554605708010505516e-01
5.890000000000000000e+04 8.947498785150868883e-02 4.132623096327394524e-02 1.561469176166380424e-01
5.900000000000000000e+04 9.063475395636945431e-02 4.274349975030834747e-02 1.567780526699481536e-01
5.910000000000000000e+04 9.269512652355015037e-02 4.361772559252997256e-02 1.628308220223344538e-01
5.920000000000000000e+04 9.639231419697576186e-02 4.632839469544042243e-02 1.665553288943975585e-01
5.930000000000000000e+04 9.939461675790292605e-02 4.784639107325742297e-02 1.702924810137943501e-01
5.940000000000000000e+04 1.008427605693346107e-01 4.888983892402724851e-02 1.720233056048437736e-01
5.950000000000000000e+04 1.028610156568717515e-01 5.023555255342674469e-02 1.734153930855051873e-01
5.960000000000000000e+04 1.035094400533476677e-01 5.076319046645132865e-02 1.702241292645760018e-01
5.970000000000000000e+04 1.026902177407783001e-01 4.975687473246005743e-02 1.688852050891277157e-01
5.980000000000000000e+04 1.014852249211025403e-01 4.974067866601098592e-02 1.683652449979616827e-01
5.990000000000000000e+04 1.015364561218463635e-01 5.060782574961128488e-02 1.669659203759918942e-01
6.000000000000000000e+04 1.019767306508036903e-01 5.107765648342948994e-02 1.665210673214244097e-01
6.010000000000000000e+04 1.015349225594197186e-01 5.043794606511628476e-02 1.682131739561144312e-01
6.020000000000000000e+04 1.036431644366961891e-01 5.225848783350672128e-02 1.704435518232145230e-01
6.030000000000000000e+04 1.092038039453920861e-01 5.500575342120407607e-02 1.738763859038741366e-01
6.040000000000000000e+04 1.123700872574062704e-01 5.657058595613479596e-02 1.827430561160278411e-01
6.050000000000000000e+04 1.174266361921987162e-01 5.751064635423823457e-02 1.923896697365624631e-01
6.060000000000000000e+04 1.217741536536455088e-01 5.992506235164535289e-02 2.004582880842568082e-01
6.070000000000000000e+04 1.273842520654258903e-01 6.297260566616805222e-02 2.108141068033508869e-01
6.080000000000000000e+04 1.328121233785174438e-01 6.595389795547312861e-02 2.230286448425954360e-01
6.090000000000000000e+04 1.382336169681146754e-01 7.001294028092233668e-02 2.297463207628950566e-01
6.100000000000000000e+04 1.439528171528348388e-01 7.114148850282166203e-02 2.364240746674713955e-01
6.110000000000000000e+04 1.436914264608982750e-01 6.949928196453510065e-02 2.459899321953769036e-01
6.120000000000000000e+04 1.466844023757180315e-01 7.044568595108725850e-02 2.443250700962814881e-01
6.130000000000000000e+04 1.479447787517565727e-01 7.289228744203166133e-02 2.444683268164581091e-01
6.140000000000000000e+04 1.462592202726330226e-01 7.426806688333063844e-02 2.403187618021959404e-01
6.150000000000000000e+04 1.433351948716779511e-01 7.244549490938630154e-02 2.389510376624347787e-01
6.160000000000000000e+04 1.404873408541824076e-01 6.885967092727680872e-02 2.373703638556710627e-01
6.170000000000000000e+04 1.436323546782201366e-01 7.054457566424394976e-02 2.330146781808219159e-01
6.180000000000000000e+04 1.419884221875342134e-01 7.074228996809105163e-02 2.275995815124828292e-01
6.190000000000000000e+04 1.384123790112771757e-01 6.815081671231444649e-02 2.256308018423338335e-01
6.200000000000000000e+04 1.317101357337353285e-01 6.355174282073690339e-02 2.216147060744193542e-01
6.210000000000000000e+04 1.282861024124930527e-01 6.364410720807991972e-02 2.132174512130901034e-01
6.220000000000000000e+04 1.296581083329705064e-01 6.516566864791589753e-02 2.150483918550379903e-01
6.230000000000000000e+04 1.297124792838355023e-01 6.582453044633286565e-02 2.141359632443582128e-01
6.240000000000000000e+04 1.261898485037381001e-01 6.145187205481199288e-02 2.103793977888584188e-01
6.250000000000000000e+04 7.148810905955785278e-02 2.081525942814578534e-02 1.510079331252503765e-01
