# North DC Val: 0.51648285 VoltsSouth DC Val: 0.51947913 Volts
# SR785 Measurement - Timestamp: Aug 26 2020 - 03:01:20
# Parameter File: /home/controls/Git/cit_ctnlab/ctn_scripts/TransRINSpecLong.yml
#---------- Measurement Setup ------------
# Start Frequency (Hz): 0.000000
# Frequency Span (Hz): 800.000000
# Frequency Resolution: 800
# Number of Averages: 100
# Averaging Mode: RMS
# Window function: Hanning
#---------- Measurement Parameters ----------
# Measurement Group:  "FFT" "FFT"
# Measurements:  "FFT 1" "FFT 2"
# View:  "Log Magnitude" "Log Magnitude"
# Unit:  "Vrms/rtHz" "Vrms/rtHz"
#---------- Input Parameters ----------
# Input Source: Analog
# Input Mode: Single ended, Single ended
# Input Grounding: Float, Float
# Input Coupling: AC, AC
# Input Range: -36.0dBVpk, -36.0dBVpk
# Auto Range: Off, Off
# Auto Range Mode: Tracking, Tracking
# Anti-Aliasing Filter: On, On
#---------- Source Parameters ----------
# Source Type: Sine
# Source Amplitude: 500.0mVpk
# Source On: 0

#---------- Measurement Data ----------
# [Freq(Hz) Display 0(Vrms/rtHz) Display 1(Vrms/rtHz) ]
+0.0000000e+000    +3.9504172e-004    +2.1325226e-004
+1.0000000e+000    +2.5812237e-004    +1.3040213e-004
+2.0000000e+000    +1.3947173e-004    +6.3795145e-005
+3.0000000e+000    +1.2103448e-004    +4.8472550e-005
+4.0000000e+000    +5.9554000e-005    +1.5592899e-005
+5.0000000e+000    +2.2737633e-005    +5.6694012e-006
+6.0000000e+000    +8.1959715e-006    +2.7748511e-006
+7.0000000e+000    +4.7852850e-006    +1.7850047e-006
+8.0000000e+000    +3.9107572e-006    +1.2695913e-006
+9.0000000e+000    +5.8241503e-006    +9.1591249e-007
+1.0000000e+001    +9.9756880e-006    +8.5259586e-007
+1.1000000e+001    +9.1574357e-006    +7.2694604e-007
+1.2000000e+001    +2.7270630e-006    +6.0509643e-007
+1.3000000e+001    +1.1795421e-006    +5.1777249e-007
+1.4000000e+001    +9.4528457e-007    +4.5884491e-007
+1.5000000e+001    +9.1835039e-007    +3.9946224e-007
+1.6000000e+001    +1.4817256e-006    +3.7711987e-007
+1.7000000e+001    +2.5340282e-006    +3.7132699e-007
+1.8000000e+001    +2.1340077e-006    +3.5345266e-007
+1.9000000e+001    +7.6709824e-007    +3.4133342e-007
+2.0000000e+001    +6.1619158e-007    +3.0991862e-007
+2.1000000e+001    +4.6402775e-007    +2.7822705e-007
+2.2000000e+001    +4.2504334e-007    +2.4799479e-007
+2.3000000e+001    +3.9838037e-007    +2.3686414e-007
+2.4000000e+001    +4.6431418e-007    +2.2080985e-007
+2.5000000e+001    +4.4590701e-007    +1.9559168e-007
+2.6000000e+001    +3.8785706e-007    +1.8518723e-007
+2.7000000e+001    +3.0919094e-007    +1.8674658e-007
+2.8000000e+001    +3.2006068e-007    +1.8987453e-007
+2.9000000e+001    +6.5808734e-007    +1.7922946e-007
+3.0000000e+001    +7.4725182e-007    +1.5864455e-007
+3.1000000e+001    +4.5228848e-007    +1.4597597e-007
+3.2000000e+001    +3.8303429e-007    +1.3891064e-007
+3.3000000e+001    +4.5865602e-007    +1.3786344e-007
+3.4000000e+001    +8.4738457e-007    +1.2317695e-007
+3.5000000e+001    +4.9032769e-007    +1.2914052e-007
+3.6000000e+001    +1.4398859e-007    +1.3538597e-007
+3.7000000e+001    +1.4714050e-007    +1.2943492e-007
+3.8000000e+001    +1.5442831e-007    +1.2251684e-007
+3.9000000e+001    +1.5463105e-007    +1.1089400e-007
+4.0000000e+001    +1.5150304e-007    +1.0229296e-007
+4.1000000e+001    +1.5019526e-007    +1.0745701e-007
+4.2000000e+001    +1.4398606e-007    +1.0702312e-007
+4.3000000e+001    +1.3731869e-007    +1.0078370e-007
+4.4000000e+001    +1.3101126e-007    +9.1295171e-008
+4.5000000e+001    +1.3890391e-007    +9.0402530e-008
+4.6000000e+001    +1.4374832e-007    +9.2270447e-008
+4.7000000e+001    +1.7184541e-007    +8.6430965e-008
+4.8000000e+001    +1.9059240e-007    +8.4623167e-008
+4.9000000e+001    +1.4619972e-007    +7.7893965e-008
+5.0000000e+001    +1.2094361e-007    +8.1273029e-008
+5.1000000e+001    +1.3144769e-007    +8.6223011e-008
+5.2000000e+001    +1.3741325e-007    +8.4401400e-008
+5.3000000e+001    +1.6020327e-007    +8.3157765e-008
+5.4000000e+001    +2.0603908e-007    +8.2379138e-008
+5.5000000e+001    +2.0601374e-007    +7.5627753e-008
+5.6000000e+001    +1.2683442e-007    +7.3013048e-008
+5.7000000e+001    +1.4100509e-007    +6.9498235e-008
+5.8000000e+001    +2.0184986e-007    +7.1912652e-008
+5.9000000e+001    +3.2323945e-007    +7.7636194e-008
+6.0000000e+001    +5.8748554e-007    +9.6117169e-008
+6.1000000e+001    +3.1506434e-007    +7.2054206e-008
+6.2000000e+001    +1.3395233e-007    +6.2210304e-008
+6.3000000e+001    +1.3561062e-007    +6.8554613e-008
+6.4000000e+001    +1.1969510e-007    +6.4865766e-008
+6.5000000e+001    +1.1477879e-007    +5.9351446e-008
+6.6000000e+001    +1.2173309e-007    +6.4386874e-008
+6.7000000e+001    +1.2986540e-007    +6.7731470e-008
+6.8000000e+001    +1.9374924e-007    +5.8663343e-008
+6.9000000e+001    +1.5710599e-007    +5.6125572e-008
+7.0000000e+001    +1.1409490e-007    +5.9327665e-008
+7.1000000e+001    +1.1048747e-007    +5.4280573e-008
+7.2000000e+001    +1.1177081e-007    +5.6156761e-008
+7.3000000e+001    +1.2782492e-007    +5.1851664e-008
+7.4000000e+001    +1.2963746e-007    +4.9859914e-008
+7.5000000e+001    +1.1754051e-007    +5.7675212e-008
+7.6000000e+001    +1.1665635e-007    +5.9621520e-008
+7.7000000e+001    +1.1286664e-007    +5.6616379e-008
+7.8000000e+001    +9.8518086e-008    +5.2476455e-008
+7.9000000e+001    +9.4785683e-008    +5.2758093e-008
+8.0000000e+001    +1.0684360e-007    +5.1346262e-008
+8.1000000e+001    +9.9199298e-008    +5.0757823e-008
+8.2000000e+001    +8.7205073e-008    +5.0732694e-008
+8.3000000e+001    +8.8688715e-008    +5.1004918e-008
+8.4000000e+001    +8.4287031e-008    +4.8559642e-008
+8.5000000e+001    +8.3935177e-008    +4.7416869e-008
+8.6000000e+001    +8.8331866e-008    +4.7029662e-008
+8.7000000e+001    +8.7381906e-008    +4.3982272e-008
+8.8000000e+001    +8.5203808e-008    +4.4042675e-008
+8.9000000e+001    +8.4030980e-008    +4.5831420e-008
+9.0000000e+001    +7.8588251e-008    +4.8407770e-008
+9.1000000e+001    +7.9413304e-008    +4.2842665e-008
+9.2000000e+001    +7.8986695e-008    +4.3615401e-008
+9.3000000e+001    +7.9782730e-008    +4.8525106e-008
+9.4000000e+001    +8.4289063e-008    +4.9864294e-008
+9.5000000e+001    +8.0920692e-008    +4.4467058e-008
+9.6000000e+001    +8.8042164e-008    +4.0726054e-008
+9.7000000e+001    +8.8206747e-008    +4.4138961e-008
+9.8000000e+001    +8.0104066e-008    +4.8684509e-008
+9.9000000e+001    +8.1983295e-008    +4.8175057e-008
+1.0000000e+002    +8.1476202e-008    +4.0658815e-008
+1.0100000e+002    +8.0764913e-008    +4.0857191e-008
+1.0200000e+002    +7.8112699e-008    +4.3737348e-008
+1.0300000e+002    +8.3318611e-008    +4.4020918e-008
+1.0400000e+002    +7.9897035e-008    +4.1045091e-008
+1.0500000e+002    +8.1380719e-008    +4.2509051e-008
+1.0600000e+002    +7.7939390e-008    +4.3500478e-008
+1.0700000e+002    +7.3909945e-008    +4.1473044e-008
+1.0800000e+002    +7.3874247e-008    +3.8522785e-008
+1.0900000e+002    +7.8744669e-008    +4.0766810e-008
+1.1000000e+002    +8.1418072e-008    +4.5175447e-008
+1.1100000e+002    +7.4725101e-008    +4.3246697e-008
+1.1200000e+002    +7.2313213e-008    +3.9285911e-008
+1.1300000e+002    +8.1959534e-008    +4.1506343e-008
+1.1400000e+002    +7.6848920e-008    +4.2166686e-008
+1.1500000e+002    +6.8771584e-008    +4.3406679e-008
+1.1600000e+002    +7.2756009e-008    +3.7616502e-008
+1.1700000e+002    +7.9448888e-008    +3.8690430e-008
+1.1800000e+002    +7.7573993e-008    +3.7307604e-008
+1.1900000e+002    +3.3160299e-007    +4.0035619e-008
+1.2000000e+002    +6.6604707e-007    +4.2886999e-008
+1.2100000e+002    +3.5791280e-007    +4.0524174e-008
+1.2200000e+002    +6.8741763e-008    +3.6663529e-008
+1.2300000e+002    +6.9682379e-008    +3.9467842e-008
+1.2400000e+002    +7.0288344e-008    +4.5488367e-008
+1.2500000e+002    +7.1107024e-008    +4.2097206e-008
+1.2600000e+002    +7.4661706e-008    +4.0738936e-008
+1.2700000e+002    +8.4888384e-008    +3.8415291e-008
+1.2800000e+002    +8.1906101e-008    +3.6212054e-008
+1.2900000e+002    +7.0107447e-008    +3.9834976e-008
+1.3000000e+002    +6.3940725e-008    +4.0364711e-008
+1.3100000e+002    +5.9533797e-008    +3.9437563e-008
+1.3200000e+002    +6.8148758e-008    +3.7531436e-008
+1.3300000e+002    +6.7684638e-008    +3.7775973e-008
+1.3400000e+002    +6.3248358e-008    +3.8004075e-008
+1.3500000e+002    +6.6114147e-008    +3.9488864e-008
+1.3600000e+002    +6.9764823e-008    +3.9289624e-008
+1.3700000e+002    +7.1124276e-008    +3.6384662e-008
+1.3800000e+002    +7.2292885e-008    +3.5757616e-008
+1.3900000e+002    +7.2481491e-008    +3.5257283e-008
+1.4000000e+002    +7.8078401e-008    +3.8525155e-008
+1.4100000e+002    +9.7664248e-008    +3.9677310e-008
+1.4200000e+002    +1.3263140e-007    +3.7491073e-008
+1.4300000e+002    +1.9742474e-007    +3.4621792e-008
+1.4400000e+002    +2.9051949e-007    +3.5472784e-008
+1.4500000e+002    +5.0347643e-007    +3.4985423e-008
+1.4600000e+002    +5.7838184e-007    +3.7314159e-008
+1.4700000e+002    +4.5263772e-007    +3.6960682e-008
+1.4800000e+002    +2.6691237e-007    +3.4808750e-008
+1.4900000e+002    +1.5818954e-007    +3.5023934e-008
+1.5000000e+002    +1.1036562e-007    +3.6072766e-008
+1.5100000e+002    +9.8285042e-008    +4.0142844e-008
+1.5200000e+002    +1.5676000e-007    +3.8284298e-008
+1.5300000e+002    +1.3077513e-007    +3.5995260e-008
+1.5400000e+002    +6.5304242e-008    +3.5616402e-008
+1.5500000e+002    +6.4555636e-008    +3.5737994e-008
+1.5600000e+002    +7.3275416e-008    +3.6820090e-008
+1.5700000e+002    +6.4915135e-008    +3.8919481e-008
+1.5800000e+002    +6.4102821e-008    +3.3455017e-008
+1.5900000e+002    +6.2812710e-008    +3.2918376e-008
+1.6000000e+002    +6.1114363e-008    +3.4629206e-008
+1.6100000e+002    +6.1801153e-008    +3.8232674e-008
+1.6200000e+002    +6.6204294e-008    +3.8653575e-008
+1.6300000e+002    +6.1030683e-008    +3.5377024e-008
+1.6400000e+002    +6.0165220e-008    +3.6158220e-008
+1.6500000e+002    +6.3797806e-008    +3.9546052e-008
+1.6600000e+002    +6.7158538e-008    +3.9292814e-008
+1.6700000e+002    +6.6799444e-008    +3.5259568e-008
+1.6800000e+002    +5.9833731e-008    +3.5649578e-008
+1.6900000e+002    +6.1837532e-008    +3.5814629e-008
+1.7000000e+002    +5.8917021e-008    +3.8644750e-008
+1.7100000e+002    +5.5122719e-008    +3.7259792e-008
+1.7200000e+002    +5.5235343e-008    +3.5732853e-008
+1.7300000e+002    +5.4970531e-008    +3.7822122e-008
+1.7400000e+002    +5.4800054e-008    +3.7679417e-008
+1.7500000e+002    +5.7757973e-008    +3.8653237e-008
+1.7600000e+002    +6.0365643e-008    +3.9881844e-008
+1.7700000e+002    +5.6615260e-008    +3.8590986e-008
+1.7800000e+002    +5.7423097e-008    +3.6713480e-008
+1.7900000e+002    +3.9903045e-007    +4.8895519e-008
+1.8000000e+002    +8.4205260e-007    +8.3456769e-008
+1.8100000e+002    +4.5068140e-007    +5.3764953e-008
+1.8200000e+002    +5.7057076e-008    +3.3697518e-008
+1.8300000e+002    +5.9350402e-008    +3.4334548e-008
+1.8400000e+002    +5.7214848e-008    +3.7415901e-008
+1.8500000e+002    +5.3046016e-008    +3.7107430e-008
+1.8600000e+002    +5.4752419e-008    +3.4090906e-008
+1.8700000e+002    +5.5387837e-008    +3.3990926e-008
+1.8800000e+002    +5.5538067e-008    +3.3749057e-008
+1.8900000e+002    +5.4128691e-008    +3.4787966e-008
+1.9000000e+002    +5.4611029e-008    +3.6069835e-008
+1.9100000e+002    +5.5310839e-008    +3.7939369e-008
+1.9200000e+002    +5.3154164e-008    +3.6933866e-008
+1.9300000e+002    +5.7144849e-008    +3.4755097e-008
+1.9400000e+002    +5.3100674e-008    +3.5557793e-008
+1.9500000e+002    +5.0150518e-008    +3.4286103e-008
+1.9600000e+002    +4.8841219e-008    +3.5599474e-008
+1.9700000e+002    +5.1625459e-008    +3.9838998e-008
+1.9800000e+002    +5.2509193e-008    +3.7025384e-008
+1.9900000e+002    +5.3418848e-008    +3.6948588e-008
+2.0000000e+002    +5.7589912e-008    +3.8378698e-008
+2.0100000e+002    +5.0171941e-008    +3.2871462e-008
+2.0200000e+002    +4.8715684e-008    +3.3550620e-008
+2.0300000e+002    +5.3575263e-008    +3.8885865e-008
+2.0400000e+002    +5.3446303e-008    +3.6084494e-008
+2.0500000e+002    +5.5539044e-008    +3.5754084e-008
+2.0600000e+002    +5.5166918e-008    +3.6061994e-008
+2.0700000e+002    +5.3560679e-008    +3.5038820e-008
+2.0800000e+002    +4.8862407e-008    +3.4532956e-008
+2.0900000e+002    +5.6553258e-008    +3.4965456e-008
+2.1000000e+002    +6.0984931e-008    +3.4763950e-008
+2.1100000e+002    +5.4125898e-008    +3.4314422e-008
+2.1200000e+002    +5.0914387e-008    +3.4182733e-008
+2.1300000e+002    +5.1121138e-008    +3.4608451e-008
+2.1400000e+002    +5.2651732e-008    +3.5846337e-008
+2.1500000e+002    +5.1538752e-008    +3.7719317e-008
+2.1600000e+002    +6.2234967e-008    +3.6222154e-008
+2.1700000e+002    +9.9431013e-008    +3.2697816e-008
+2.1800000e+002    +8.4828940e-008    +3.5803659e-008
+2.1900000e+002    +4.8240477e-008    +3.5544598e-008
+2.2000000e+002    +5.1230312e-008    +3.7806224e-008
+2.2100000e+002    +5.5059267e-008    +3.8180151e-008
+2.2200000e+002    +5.6934546e-008    +3.8431534e-008
+2.2300000e+002    +5.1920253e-008    +3.7124707e-008
+2.2400000e+002    +4.8163898e-008    +3.7419845e-008
+2.2500000e+002    +4.8821917e-008    +3.4852576e-008
+2.2600000e+002    +5.0731249e-008    +3.4386456e-008
+2.2700000e+002    +4.7965628e-008    +3.5236230e-008
+2.2800000e+002    +4.9156910e-008    +3.4966952e-008
+2.2900000e+002    +4.9694314e-008    +3.7471484e-008
+2.3000000e+002    +4.7661985e-008    +3.5019628e-008
+2.3100000e+002    +4.7789211e-008    +3.2199718e-008
+2.3200000e+002    +4.8891600e-008    +3.5919538e-008
+2.3300000e+002    +5.0273460e-008    +3.7255251e-008
+2.3400000e+002    +5.2448289e-008    +3.9750347e-008
+2.3500000e+002    +5.1427339e-008    +3.7452317e-008
+2.3600000e+002    +4.5614399e-008    +3.3465891e-008
+2.3700000e+002    +4.5210083e-008    +3.5825682e-008
+2.3800000e+002    +4.6629896e-008    +3.5264485e-008
+2.3900000e+002    +6.0255061e-008    +3.5090139e-008
+2.4000000e+002    +8.4189821e-008    +3.5859447e-008
+2.4100000e+002    +6.0954335e-008    +3.5665082e-008
+2.4200000e+002    +5.1668668e-008    +3.3619283e-008
+2.4300000e+002    +5.0003056e-008    +3.5977362e-008
+2.4400000e+002    +4.8460095e-008    +4.0092939e-008
+2.4500000e+002    +4.8891494e-008    +3.7550148e-008
+2.4600000e+002    +4.6138702e-008    +3.3802756e-008
+2.4700000e+002    +4.4011497e-008    +3.4539518e-008
+2.4800000e+002    +4.3089482e-008    +3.5836262e-008
+2.4900000e+002    +4.4201087e-008    +3.6462684e-008
+2.5000000e+002    +4.8671254e-008    +3.5498850e-008
+2.5100000e+002    +5.0158338e-008    +3.4690284e-008
+2.5200000e+002    +4.6942322e-008    +3.6642160e-008
+2.5300000e+002    +4.9946266e-008    +3.9969649e-008
+2.5400000e+002    +4.5010381e-008    +3.7762081e-008
+2.5500000e+002    +5.2191567e-008    +3.7768924e-008
+2.5600000e+002    +6.3168478e-008    +3.8899532e-008
+2.5700000e+002    +5.4420507e-008    +3.6072766e-008
+2.5800000e+002    +5.2568435e-008    +3.5426350e-008
+2.5900000e+002    +5.6016603e-008    +3.6892040e-008
+2.6000000e+002    +5.8236640e-008    +3.4709526e-008
+2.6100000e+002    +5.9055360e-008    +3.7321740e-008
+2.6200000e+002    +5.5102205e-008    +3.9338182e-008
+2.6300000e+002    +6.4257286e-008    +3.7738705e-008
+2.6400000e+002    +8.6626102e-008    +3.3084547e-008
+2.6500000e+002    +8.6830070e-008    +3.8372839e-008
+2.6600000e+002    +8.9261277e-008    +3.9328079e-008
+2.6700000e+002    +1.0927272e-007    +3.9737429e-008
+2.6800000e+002    +1.3105644e-007    +3.7246867e-008
+2.6900000e+002    +1.4634105e-007    +3.7070944e-008
+2.7000000e+002    +1.6981765e-007    +3.4684916e-008
+2.7100000e+002    +2.0328507e-007    +3.7744588e-008
+2.7200000e+002    +2.1735764e-007    +4.3766317e-008
+2.7300000e+002    +2.3878809e-007    +4.0409144e-008
+2.7400000e+002    +3.6989951e-007    +3.9459522e-008
+2.7500000e+002    +3.6569813e-007    +3.4400507e-008
+2.7600000e+002    +3.9231904e-007    +3.4866279e-008
+2.7700000e+002    +5.0019639e-007    +3.6960561e-008
+2.7800000e+002    +5.9758815e-007    +3.8113388e-008
+2.7900000e+002    +5.1855079e-007    +4.0107643e-008
+2.8000000e+002    +4.1982733e-007    +4.0212718e-008
+2.8100000e+002    +3.7062151e-007    +4.0948809e-008
+2.8200000e+002    +3.1759731e-007    +3.5251901e-008
+2.8300000e+002    +2.4056172e-007    +3.6564796e-008
+2.8400000e+002    +2.1086947e-007    +3.7300765e-008
+2.8500000e+002    +1.8583759e-007    +4.0778271e-008
+2.8600000e+002    +1.5424004e-007    +4.1521385e-008
+2.8700000e+002    +1.3800990e-007    +4.1755136e-008
+2.8800000e+002    +1.1523034e-007    +3.9441026e-008
+2.8900000e+002    +1.0985459e-007    +3.6273374e-008
+2.9000000e+002    +1.0437710e-007    +3.9885130e-008
+2.9100000e+002    +8.9011614e-008    +4.4526711e-008
+2.9200000e+002    +8.9233154e-008    +4.1013241e-008
+2.9300000e+002    +7.8706634e-008    +3.9707686e-008
+2.9400000e+002    +6.8062462e-008    +3.9910798e-008
+2.9500000e+002    +6.4074463e-008    +4.0852484e-008
+2.9600000e+002    +5.9695992e-008    +4.0833470e-008
+2.9700000e+002    +5.6709947e-008    +3.8711381e-008
+2.9800000e+002    +5.8593564e-008    +3.6591903e-008
+2.9900000e+002    +8.0578381e-008    +3.6501579e-008
+3.0000000e+002    +1.4794887e-007    +4.3181551e-008
+3.0100000e+002    +9.5580248e-008    +4.0678817e-008
+3.0200000e+002    +5.0137306e-008    +3.8466993e-008
+3.0300000e+002    +4.7395893e-008    +3.9601190e-008
+3.0400000e+002    +4.7917624e-008    +4.2519037e-008
+3.0500000e+002    +4.9844260e-008    +3.9717932e-008
+3.0600000e+002    +4.9548575e-008    +3.9403673e-008
+3.0700000e+002    +4.6509637e-008    +4.1297874e-008
+3.0800000e+002    +4.5893710e-008    +3.9662936e-008
+3.0900000e+002    +4.6447123e-008    +4.0848803e-008
+3.1000000e+002    +4.6625544e-008    +4.1868343e-008
+3.1100000e+002    +4.4136392e-008    +4.0587938e-008
+3.1200000e+002    +4.5258805e-008    +3.6957150e-008
+3.1300000e+002    +4.5415455e-008    +3.7839278e-008
+3.1400000e+002    +4.5121315e-008    +4.1714216e-008
+3.1500000e+002    +4.5471488e-008    +4.3726114e-008
+3.1600000e+002    +4.5399503e-008    +4.6578013e-008
+3.1700000e+002    +4.3694772e-008    +4.4148027e-008
+3.1800000e+002    +4.9899949e-008    +4.1453649e-008
+3.1900000e+002    +4.9318174e-008    +4.2322672e-008
+3.2000000e+002    +4.6793300e-008    +4.6054836e-008
+3.2100000e+002    +4.7454733e-008    +4.8332726e-008
+3.2200000e+002    +4.8785534e-008    +4.2013998e-008
+3.2300000e+002    +4.8818649e-008    +4.2960661e-008
+3.2400000e+002    +4.6077545e-008    +4.7050943e-008
+3.2500000e+002    +4.2788038e-008    +4.4451046e-008
+3.2600000e+002    +4.0238866e-008    +4.1481833e-008
+3.2700000e+002    +4.6954593e-008    +4.4568335e-008
+3.2800000e+002    +4.4843453e-008    +4.9151136e-008
+3.2900000e+002    +4.5358199e-008    +4.7145626e-008
+3.3000000e+002    +4.4473943e-008    +4.6244040e-008
+3.3100000e+002    +4.5831321e-008    +4.6966242e-008
+3.3200000e+002    +4.6909605e-008    +4.5544887e-008
+3.3300000e+002    +4.6557048e-008    +4.2732172e-008
+3.3400000e+002    +4.7854371e-008    +4.0691685e-008
+3.3500000e+002    +4.8276085e-008    +4.5760121e-008
+3.3600000e+002    +4.7697423e-008    +4.8308056e-008
+3.3700000e+002    +4.6864869e-008    +4.8397514e-008
+3.3800000e+002    +4.7373160e-008    +4.8835698e-008
+3.3900000e+002    +5.0982745e-008    +4.6829072e-008
+3.4000000e+002    +4.8519247e-008    +4.5341867e-008
+3.4100000e+002    +4.3754014e-008    +4.2975945e-008
+3.4200000e+002    +4.4143132e-008    +4.2047688e-008
+3.4300000e+002    +4.8049650e-008    +4.4178961e-008
+3.4400000e+002    +5.4040981e-008    +4.2964057e-008
+3.4500000e+002    +5.6968311e-008    +4.2992369e-008
+3.4600000e+002    +5.7584728e-008    +4.4490108e-008
+3.4700000e+002    +5.6878314e-008    +4.6120974e-008
+3.4800000e+002    +6.3678556e-008    +4.7599489e-008
+3.4900000e+002    +6.7945692e-008    +4.5019227e-008
+3.5000000e+002    +6.6240936e-008    +4.8279954e-008
+3.5100000e+002    +8.5147043e-008    +4.7418535e-008
+3.5200000e+002    +1.1015135e-007    +4.6816783e-008
+3.5300000e+002    +1.1291250e-007    +4.7793304e-008
+3.5400000e+002    +9.1038217e-008    +4.6283457e-008
+3.5500000e+002    +7.9584389e-008    +4.4780968e-008
+3.5600000e+002    +6.8793938e-008    +4.5283358e-008
+3.5700000e+002    +5.7810631e-008    +4.5923805e-008
+3.5800000e+002    +5.5629489e-008    +4.7697373e-008
+3.5900000e+002    +5.5267495e-008    +4.8313627e-008
+3.6000000e+002    +6.9327903e-008    +4.9703974e-008
+3.6100000e+002    +5.2183374e-008    +4.7233758e-008
+3.6200000e+002    +4.7693653e-008    +4.6723734e-008
+3.6300000e+002    +4.4977330e-008    +4.7780819e-008
+3.6400000e+002    +4.3164629e-008    +4.6463239e-008
+3.6500000e+002    +4.2577575e-008    +5.2501527e-008
+3.6600000e+002    +4.1061543e-008    +5.2049934e-008
+3.6700000e+002    +4.3141746e-008    +4.7817817e-008
+3.6800000e+002    +4.3103348e-008    +4.5636490e-008
+3.6900000e+002    +4.4129806e-008    +4.6276242e-008
+3.7000000e+002    +4.4385352e-008    +4.8826369e-008
+3.7100000e+002    +4.4971504e-008    +4.6526900e-008
+3.7200000e+002    +4.4041514e-008    +4.9358533e-008
+3.7300000e+002    +4.1401204e-008    +4.8749392e-008
+3.7400000e+002    +4.7996920e-008    +5.0156135e-008
+3.7500000e+002    +4.8250861e-008    +5.0477276e-008
+3.7600000e+002    +4.6160288e-008    +5.1487170e-008
+3.7700000e+002    +4.7405159e-008    +5.3994960e-008
+3.7800000e+002    +4.6663239e-008    +4.9970783e-008
+3.7900000e+002    +4.6025768e-008    +4.9765678e-008
+3.8000000e+002    +4.6678920e-008    +5.2534567e-008
+3.8100000e+002    +4.6406953e-008    +5.2545122e-008
+3.8200000e+002    +4.6419999e-008    +5.6083312e-008
+3.8300000e+002    +4.8191350e-008    +5.2537164e-008
+3.8400000e+002    +4.4378481e-008    +5.2513748e-008
+3.8500000e+002    +4.3309324e-008    +5.0884598e-008
+3.8600000e+002    +4.1764260e-008    +5.3618166e-008
+3.8700000e+002    +4.5232476e-008    +5.4714260e-008
+3.8800000e+002    +4.7373938e-008    +5.2805671e-008
+3.8900000e+002    +4.7375448e-008    +5.6797063e-008
+3.9000000e+002    +4.7181096e-008    +5.4792050e-008
+3.9100000e+002    +5.2555279e-008    +5.3516533e-008
+3.9200000e+002    +5.2699214e-008    +5.9637429e-008
+3.9300000e+002    +4.9239450e-008    +5.7469897e-008
+3.9400000e+002    +4.8754369e-008    +5.5127742e-008
+3.9500000e+002    +4.6517243e-008    +5.7893907e-008
+3.9600000e+002    +4.3746713e-008    +5.7266131e-008
+3.9700000e+002    +4.3150227e-008    +5.4101477e-008
+3.9800000e+002    +4.3189043e-008    +5.8437379e-008
+3.9900000e+002    +4.6267857e-008    +5.7507265e-008
+4.0000000e+002    +5.2389066e-008    +5.9282151e-008
+4.0100000e+002    +5.5035574e-008    +5.8332699e-008
+4.0200000e+002    +4.7512970e-008    +5.8546814e-008
+4.0300000e+002    +5.3125575e-008    +5.8799472e-008
+4.0400000e+002    +4.8160672e-008    +5.4012510e-008
+4.0500000e+002    +4.3414971e-008    +5.6443334e-008
+4.0600000e+002    +4.2673047e-008    +5.3082022e-008
+4.0700000e+002    +4.6926914e-008    +5.8233638e-008
+4.0800000e+002    +4.3810257e-008    +6.1168066e-008
+4.0900000e+002    +4.4182553e-008    +5.8375239e-008
+4.1000000e+002    +4.8332407e-008    +5.6809224e-008
+4.1100000e+002    +4.4892865e-008    +6.2647551e-008
+4.1200000e+002    +4.4063427e-008    +5.9454955e-008
+4.1300000e+002    +4.3680384e-008    +5.5871272e-008
+4.1400000e+002    +4.2478302e-008    +5.9829460e-008
+4.1500000e+002    +4.1707803e-008    +5.3004214e-008
+4.1600000e+002    +4.2062833e-008    +5.7309343e-008
+4.1700000e+002    +4.3816321e-008    +5.6590277e-008
+4.1800000e+002    +4.5284303e-008    +5.4548288e-008
+4.1900000e+002    +8.0995271e-008    +5.8099012e-008
+4.2000000e+002    +1.7624900e-007    +6.1581552e-008
+4.2100000e+002    +1.1348197e-007    +5.8438534e-008
+4.2200000e+002    +4.0655777e-008    +5.6083806e-008
+4.2300000e+002    +4.2952077e-008    +5.8671201e-008
+4.2400000e+002    +4.2183267e-008    +6.3841391e-008
+4.2500000e+002    +4.2845439e-008    +5.7632800e-008
+4.2600000e+002    +4.3161879e-008    +6.1194669e-008
+4.2700000e+002    +3.8927773e-008    +6.1933335e-008
+4.2800000e+002    +4.1131891e-008    +6.1578447e-008
+4.2900000e+002    +3.9714095e-008    +6.4851093e-008
+4.3000000e+002    +4.1965222e-008    +6.0834928e-008
+4.3100000e+002    +4.0357445e-008    +5.9966055e-008
+4.3200000e+002    +4.6493962e-008    +6.3062792e-008
+4.3300000e+002    +5.0074807e-008    +6.1190036e-008
+4.3400000e+002    +1.6897791e-007    +6.4348079e-008
+4.3500000e+002    +2.2810998e-007    +6.8300523e-008
+4.3600000e+002    +8.8156398e-008    +6.4092823e-008
+4.3700000e+002    +5.5241653e-008    +6.3441981e-008
+4.3800000e+002    +6.1491015e-008    +6.5360481e-008
+4.3900000e+002    +5.4820092e-008    +6.1095513e-008
+4.4000000e+002    +6.1611850e-008    +6.0346359e-008
+4.4100000e+002    +6.7809829e-008    +6.1212276e-008
+4.4200000e+002    +7.0435973e-008    +6.7515039e-008
+4.4300000e+002    +7.8361985e-008    +6.7142466e-008
+4.4400000e+002    +7.1082667e-008    +6.4939520e-008
+4.4500000e+002    +5.5945549e-008    +6.0896070e-008
+4.4600000e+002    +5.0027054e-008    +6.2124847e-008
+4.4700000e+002    +4.7064532e-008    +6.3740252e-008
+4.4800000e+002    +4.4953733e-008    +6.6475614e-008
+4.4900000e+002    +4.1512312e-008    +7.2316702e-008
+4.5000000e+002    +4.0975433e-008    +6.9913739e-008
+4.5100000e+002    +3.8487485e-008    +6.7894980e-008
+4.5200000e+002    +3.8766590e-008    +6.4928606e-008
+4.5300000e+002    +4.0919911e-008    +6.5634183e-008
+4.5400000e+002    +3.4815439e-008    +6.5137321e-008
+4.5500000e+002    +3.8515214e-008    +5.8742362e-008
+4.5600000e+002    +4.1609418e-008    +6.6287427e-008
+4.5700000e+002    +3.8688817e-008    +7.0168284e-008
+4.5800000e+002    +4.0468727e-008    +6.6490941e-008
+4.5900000e+002    +4.0535078e-008    +6.1757532e-008
+4.6000000e+002    +4.0578893e-008    +6.2385411e-008
+4.6100000e+002    +4.1341064e-008    +6.5598449e-008
+4.6200000e+002    +3.9990237e-008    +6.8723423e-008
+4.6300000e+002    +3.9019604e-008    +6.9691559e-008
+4.6400000e+002    +3.9133599e-008    +6.7053840e-008
+4.6500000e+002    +3.8378992e-008    +6.7653133e-008
+4.6600000e+002    +3.7649230e-008    +7.1733012e-008
+4.6700000e+002    +4.0132090e-008    +6.6135343e-008
+4.6800000e+002    +4.1204572e-008    +6.8746594e-008
+4.6900000e+002    +4.1298236e-008    +7.3454643e-008
+4.7000000e+002    +4.0685162e-008    +6.6943940e-008
+4.7100000e+002    +4.0807475e-008    +6.2077326e-008
+4.7200000e+002    +4.2311846e-008    +6.3552697e-008
+4.7300000e+002    +4.1907253e-008    +6.9621578e-008
+4.7400000e+002    +3.8467416e-008    +7.1548484e-008
+4.7500000e+002    +4.1781689e-008    +6.6895147e-008
+4.7600000e+002    +4.5915737e-008    +6.9757547e-008
+4.7700000e+002    +4.8759563e-008    +7.4045346e-008
+4.7800000e+002    +4.5574200e-008    +7.7773386e-008
+4.7900000e+002    +5.9835237e-008    +7.7899607e-008
+4.8000000e+002    +1.0845706e-007    +7.5620029e-008
+4.8100000e+002    +7.5498740e-008    +7.4009343e-008
+4.8200000e+002    +4.7988912e-008    +7.2599128e-008
+4.8300000e+002    +4.8193627e-008    +7.4209019e-008
+4.8400000e+002    +5.5094159e-008    +6.7154410e-008
+4.8500000e+002    +5.4916843e-008    +6.6016078e-008
+4.8600000e+002    +5.7924744e-008    +6.5709891e-008
+4.8700000e+002    +6.1346171e-008    +7.5261788e-008
+4.8800000e+002    +5.9622238e-008    +7.2602795e-008
+4.8900000e+002    +6.4595831e-008    +6.9259734e-008
+4.9000000e+002    +6.7486212e-008    +7.0916705e-008
+4.9100000e+002    +6.7916304e-008    +7.6447407e-008
+4.9200000e+002    +6.5714367e-008    +7.4325300e-008
+4.9300000e+002    +6.7793152e-008    +7.9519843e-008
+4.9400000e+002    +6.3420813e-008    +7.6534413e-008
+4.9500000e+002    +6.6986509e-008    +8.0233370e-008
+4.9600000e+002    +7.2917793e-008    +7.8553050e-008
+4.9700000e+002    +6.7158020e-008    +7.7237438e-008
+4.9800000e+002    +6.7983748e-008    +7.4154691e-008
+4.9900000e+002    +6.5667344e-008    +7.5391469e-008
+5.0000000e+002    +7.2403459e-008    +7.6635487e-008
+5.0100000e+002    +6.7290436e-008    +8.2695685e-008
+5.0200000e+002    +6.4301467e-008    +7.8747611e-008
+5.0300000e+002    +6.8719956e-008    +8.0430503e-008
+5.0400000e+002    +7.4101955e-008    +8.6245450e-008
+5.0500000e+002    +7.5548492e-008    +8.6144844e-008
+5.0600000e+002    +7.8508045e-008    +8.3009617e-008
+5.0700000e+002    +8.5475918e-008    +7.7652054e-008
+5.0800000e+002    +1.0302482e-007    +7.5343060e-008
+5.0900000e+002    +1.0798806e-007    +7.0644781e-008
+5.1000000e+002    +1.0982951e-007    +7.4791011e-008
+5.1100000e+002    +1.0764902e-007    +7.1827429e-008
+5.1200000e+002    +1.0289605e-007    +7.7550062e-008
+5.1300000e+002    +8.3675509e-008    +7.6644241e-008
+5.1400000e+002    +6.6637114e-008    +7.3467227e-008
+5.1500000e+002    +5.8714509e-008    +8.7839979e-008
+5.1600000e+002    +5.4432402e-008    +8.9054332e-008
+5.1700000e+002    +4.7548038e-008    +8.7253824e-008
+5.1800000e+002    +4.5218123e-008    +8.6987804e-008
+5.1900000e+002    +4.7531387e-008    +7.8937617e-008
+5.2000000e+002    +4.8602153e-008    +8.2330494e-008
+5.2100000e+002    +4.1975497e-008    +8.4808825e-008
+5.2200000e+002    +3.8737912e-008    +8.3336452e-008
+5.2300000e+002    +3.9318579e-008    +8.4377120e-008
+5.2400000e+002    +4.2481428e-008    +8.7865246e-008
+5.2500000e+002    +4.3238153e-008    +8.4781639e-008
+5.2600000e+002    +4.2604370e-008    +8.2781263e-008
+5.2700000e+002    +5.2135842e-008    +8.4350447e-008
+5.2800000e+002    +5.8511020e-008    +8.6437133e-008
+5.2900000e+002    +6.8203100e-008    +8.5114422e-008
+5.3000000e+002    +9.1120519e-008    +9.2531785e-008
+5.3100000e+002    +1.2169288e-007    +9.1383221e-008
+5.3200000e+002    +1.4307189e-007    +8.4119968e-008
+5.3300000e+002    +1.6245245e-007    +8.3918124e-008
+5.3400000e+002    +1.7039740e-007    +8.4264911e-008
+5.3500000e+002    +1.8354838e-007    +8.0220950e-008
+5.3600000e+002    +1.8847045e-007    +8.7639599e-008
+5.3700000e+002    +1.7426646e-007    +8.6356977e-008
+5.3800000e+002    +1.4260344e-007    +8.6742595e-008
+5.3900000e+002    +1.3295727e-007    +8.7240601e-008
+5.4000000e+002    +1.1565241e-007    +8.5979011e-008
+5.4100000e+002    +1.0533171e-007    +8.8637798e-008
+5.4200000e+002    +1.1039919e-007    +8.6645890e-008
+5.4300000e+002    +9.5788153e-008    +8.9848385e-008
+5.4400000e+002    +9.1386930e-008    +8.9677094e-008
+5.4500000e+002    +1.0502396e-007    +8.2929269e-008
+5.4600000e+002    +1.2140768e-007    +8.0166799e-008
+5.4700000e+002    +2.1314716e-007    +8.4408626e-008
+5.4800000e+002    +3.8944103e-007    +8.9212776e-008
+5.4900000e+002    +6.3735075e-007    +8.9533849e-008
+5.5000000e+002    +9.9965860e-007    +8.6843421e-008
+5.5100000e+002    +1.2916562e-006    +8.8446477e-008
+5.5200000e+002    +1.3169978e-006    +8.8330800e-008
+5.5300000e+002    +1.6308330e-006    +9.9775392e-008
+5.5400000e+002    +1.5186478e-006    +9.5303285e-008
+5.5500000e+002    +6.8400783e-007    +9.5877382e-008
+5.5600000e+002    +4.7378933e-007    +9.9654194e-008
+5.5700000e+002    +3.7035630e-007    +1.0342466e-007
+5.5800000e+002    +3.1486690e-007    +9.9180127e-008
+5.5900000e+002    +3.1321079e-007    +9.5586437e-008
+5.6000000e+002    +2.6799626e-007    +9.1324544e-008
+5.6100000e+002    +2.4483182e-007    +8.5644636e-008
+5.6200000e+002    +2.1279104e-007    +9.5077944e-008
+5.6300000e+002    +1.9153326e-007    +9.4671485e-008
+5.6400000e+002    +1.6332486e-007    +9.7737832e-008
+5.6500000e+002    +1.4071279e-007    +9.1421150e-008
+5.6600000e+002    +1.2230005e-007    +9.5385666e-008
+5.6700000e+002    +1.0722448e-007    +9.1775263e-008
+5.6800000e+002    +1.0131948e-007    +9.4291394e-008
+5.6900000e+002    +9.3082754e-008    +9.5118459e-008
+5.7000000e+002    +9.0541796e-008    +9.3635450e-008
+5.7100000e+002    +9.8289362e-008    +9.7885390e-008
+5.7200000e+002    +1.0402690e-007    +8.9284313e-008
+5.7300000e+002    +1.0960063e-007    +8.6278504e-008
+5.7400000e+002    +1.2199790e-007    +9.3188284e-008
+5.7500000e+002    +1.5152750e-007    +8.6225278e-008
+5.7600000e+002    +1.7159559e-007    +9.1333767e-008
+5.7700000e+002    +2.0611012e-007    +9.7361038e-008
+5.7800000e+002    +2.5305917e-007    +1.0369357e-007
+5.7900000e+002    +2.9501095e-007    +1.0572892e-007
+5.8000000e+002    +3.0705925e-007    +1.0400554e-007
+5.8100000e+002    +2.7243425e-007    +9.7898827e-008
+5.8200000e+002    +2.3612048e-007    +1.0443487e-007
+5.8300000e+002    +2.2155371e-007    +1.0003756e-007
+5.8400000e+002    +1.9279031e-007    +1.0281689e-007
+5.8500000e+002    +1.5772768e-007    +1.0127555e-007
+5.8600000e+002    +1.2226246e-007    +1.0108536e-007
+5.8700000e+002    +1.0185632e-007    +9.8191634e-008
+5.8800000e+002    +7.6032052e-008    +1.0228914e-007
+5.8900000e+002    +6.6248134e-008    +1.0543354e-007
+5.9000000e+002    +5.4372371e-008    +9.6349616e-008
+5.9100000e+002    +5.0338414e-008    +9.7336347e-008
+5.9200000e+002    +4.9601319e-008    +1.0383188e-007
+5.9300000e+002    +4.7633890e-008    +1.0585784e-007
+5.9400000e+002    +4.9071438e-008    +1.0358888e-007
+5.9500000e+002    +5.2915421e-008    +1.0895452e-007
+5.9600000e+002    +5.3496912e-008    +1.0461942e-007
+5.9700000e+002    +4.8056823e-008    +1.0657097e-007
+5.9800000e+002    +4.8741363e-008    +1.1258741e-007
+5.9900000e+002    +5.8147766e-008    +1.0893742e-007
+6.0000000e+002    +8.1919950e-008    +1.0728477e-007
+6.0100000e+002    +1.3649765e-007    +1.0631467e-007
+6.0200000e+002    +1.9704360e-007    +9.5844328e-008
+6.0300000e+002    +2.0440952e-007    +9.5229957e-008
+6.0400000e+002    +2.3694999e-007    +1.0485263e-007
+6.0500000e+002    +2.5388377e-007    +1.0884942e-007
+6.0600000e+002    +1.6716469e-007    +1.0615044e-007
+6.0700000e+002    +8.4121169e-008    +1.0864466e-007
+6.0800000e+002    +4.8848730e-008    +1.0592237e-007
+6.0900000e+002    +4.1579458e-008    +1.0460656e-007
+6.1000000e+002    +4.3692712e-008    +1.0997987e-007
+6.1100000e+002    +4.1801510e-008    +1.0046993e-007
+6.1200000e+002    +3.9357278e-008    +1.0271613e-007
+6.1300000e+002    +3.8010420e-008    +1.0480245e-007
+6.1400000e+002    +4.1343334e-008    +9.6546373e-008
+6.1500000e+002    +4.1678781e-008    +9.8815455e-008
+6.1600000e+002    +4.3352237e-008    +1.0400714e-007
+6.1700000e+002    +3.7199090e-008    +1.0166861e-007
+6.1800000e+002    +3.3222104e-008    +1.0870180e-007
+6.1900000e+002    +3.7698452e-008    +9.8443152e-008
+6.2000000e+002    +3.9268922e-008    +1.0168849e-007
+6.2100000e+002    +4.1053340e-008    +1.0601848e-007
+6.2200000e+002    +3.7465398e-008    +1.0480844e-007
+6.2300000e+002    +3.5671974e-008    +9.9613608e-008
+6.2400000e+002    +3.6879204e-008    +1.0181216e-007
+6.2500000e+002    +3.8870457e-008    +1.0236812e-007
+6.2600000e+002    +4.1360270e-008    +1.0482673e-007
+6.2700000e+002    +4.2123283e-008    +1.0059753e-007
+6.2800000e+002    +3.9654228e-008    +1.0364713e-007
+6.2900000e+002    +3.9890516e-008    +1.0373924e-007
+6.3000000e+002    +3.8217774e-008    +1.0779509e-007
+6.3100000e+002    +3.6034290e-008    +1.0860708e-007
+6.3200000e+002    +3.8966984e-008    +1.1334973e-007
+6.3300000e+002    +4.1157186e-008    +1.1858635e-007
+6.3400000e+002    +3.6693731e-008    +1.1918117e-007
+6.3500000e+002    +3.8889709e-008    +1.1901379e-007
+6.3600000e+002    +3.9015660e-008    +1.2338445e-007
+6.3700000e+002    +3.7821792e-008    +1.1746839e-007
+6.3800000e+002    +3.8393829e-008    +1.1769935e-007
+6.3900000e+002    +4.1009368e-008    +1.1478787e-007
+6.4000000e+002    +4.2091568e-008    +1.2234800e-007
+6.4100000e+002    +4.2238138e-008    +1.1873500e-007
+6.4200000e+002    +4.6911151e-008    +1.1326687e-007
+6.4300000e+002    +5.7885263e-008    +1.1272260e-007
+6.4400000e+002    +7.1961708e-008    +1.1431886e-007
+6.4500000e+002    +9.1185974e-008    +1.2222904e-007
+6.4600000e+002    +8.7712372e-008    +1.1048456e-007
+6.4700000e+002    +7.4638756e-008    +1.0267125e-007
+6.4800000e+002    +6.4069049e-008    +1.1035302e-007
+6.4900000e+002    +5.7783218e-008    +1.1147937e-007
+6.5000000e+002    +5.6554995e-008    +1.1575175e-007
+6.5100000e+002    +7.8164859e-008    +1.2283985e-007
+6.5200000e+002    +1.3285964e-007    +1.1603309e-007
+6.5300000e+002    +9.2975299e-008    +1.0545160e-007
+6.5400000e+002    +5.8980838e-008    +1.0603769e-007
+6.5500000e+002    +5.4719607e-008    +1.1308992e-007
+6.5600000e+002    +5.5188728e-008    +1.2032916e-007
+6.5700000e+002    +4.6214904e-008    +1.1372932e-007
+6.5800000e+002    +4.1666198e-008    +1.0767503e-007
+6.5900000e+002    +4.4946923e-008    +1.0330572e-007
+6.6000000e+002    +7.4594183e-008    +1.0344863e-007
+6.6100000e+002    +6.0551443e-008    +1.1448503e-007
+6.6200000e+002    +3.9068002e-008    +1.2422505e-007
+6.6300000e+002    +3.7197580e-008    +1.0951077e-007
+6.6400000e+002    +3.7875981e-008    +9.9847831e-008
+6.6500000e+002    +4.0237495e-008    +1.1299919e-007
+6.6600000e+002    +4.1895060e-008    +1.2103474e-007
+6.6700000e+002    +4.2188173e-008    +1.1998576e-007
+6.6800000e+002    +4.1108908e-008    +1.2199521e-007
+6.6900000e+002    +4.2057291e-008    +1.1968326e-007
+6.7000000e+002    +4.5703434e-008    +1.2671499e-007
+6.7100000e+002    +4.5866862e-008    +1.3187820e-007
+6.7200000e+002    +4.3828251e-008    +1.3362387e-007
+6.7300000e+002    +4.4156220e-008    +1.2441424e-007
+6.7400000e+002    +4.4384866e-008    +1.1731230e-007
+6.7500000e+002    +4.7646861e-008    +1.2145460e-007
+6.7600000e+002    +4.7180890e-008    +1.3130388e-007
+6.7700000e+002    +4.4437332e-008    +1.2614045e-007
+6.7800000e+002    +4.3620716e-008    +1.2684640e-007
+6.7900000e+002    +4.2309615e-008    +1.2156788e-007
+6.8000000e+002    +4.1133379e-008    +1.2363492e-007
+6.8100000e+002    +4.1891518e-008    +1.1840901e-007
+6.8200000e+002    +4.5838014e-008    +1.1390728e-007
+6.8300000e+002    +4.7926147e-008    +1.1873461e-007
+6.8400000e+002    +4.8871851e-008    +1.2748643e-007
+6.8500000e+002    +5.4304596e-008    +1.2349057e-007
+6.8600000e+002    +6.1683465e-008    +1.2983817e-007
+6.8700000e+002    +7.0790598e-008    +1.2773695e-007
+6.8800000e+002    +6.0449281e-008    +1.1736513e-007
+6.8900000e+002    +6.6457076e-008    +1.2170210e-007
+6.9000000e+002    +8.1851354e-008    +1.2836063e-007
+6.9100000e+002    +9.3716189e-008    +1.3474296e-007
+6.9200000e+002    +1.0677277e-007    +1.2517511e-007
+6.9300000e+002    +1.2138382e-007    +1.2347512e-007
+6.9400000e+002    +1.4082097e-007    +1.2610127e-007
+6.9500000e+002    +1.2093047e-007    +1.1565406e-007
+6.9600000e+002    +9.9012141e-008    +1.2952449e-007
+6.9700000e+002    +9.3552728e-008    +1.2076951e-007
+6.9800000e+002    +8.5079762e-008    +1.2918802e-007
+6.9900000e+002    +8.1478618e-008    +1.3487174e-007
+7.0000000e+002    +8.2637598e-008    +1.3654126e-007
+7.0100000e+002    +8.0181941e-008    +1.3284476e-007
+7.0200000e+002    +7.9504566e-008    +1.2344123e-007
+7.0300000e+002    +8.2855912e-008    +1.3059564e-007
+7.0400000e+002    +7.5202067e-008    +1.4211467e-007
+7.0500000e+002    +7.6385909e-008    +1.3879476e-007
+7.0600000e+002    +7.5184481e-008    +1.2825468e-007
+7.0700000e+002    +6.4820910e-008    +1.3504200e-007
+7.0800000e+002    +6.7543738e-008    +1.4236032e-007
+7.0900000e+002    +7.3804692e-008    +1.3222659e-007
+7.1000000e+002    +7.0245754e-008    +1.2793613e-007
+7.1100000e+002    +7.5373755e-008    +1.1847768e-007
+7.1200000e+002    +8.9711371e-008    +1.3141377e-007
+7.1300000e+002    +1.0176331e-007    +1.2451768e-007
+7.1400000e+002    +9.6459175e-008    +1.2285172e-007
+7.1500000e+002    +9.2879489e-008    +1.3334321e-007
+7.1600000e+002    +9.4144291e-008    +1.4513711e-007
+7.1700000e+002    +9.6117695e-008    +1.3651697e-007
+7.1800000e+002    +9.7578820e-008    +1.3556462e-007
+7.1900000e+002    +9.3564751e-008    +1.3682354e-007
+7.2000000e+002    +8.4634038e-008    +1.3703388e-007
+7.2100000e+002    +7.2003196e-008    +1.2674310e-007
+7.2200000e+002    +6.8133943e-008    +1.2848584e-007
+7.2300000e+002    +6.3951539e-008    +1.2587772e-007
+7.2400000e+002    +5.9116793e-008    +1.3501545e-007
+7.2500000e+002    +5.4455892e-008    +1.3567451e-007
+7.2600000e+002    +5.2754153e-008    +1.3722298e-007
+7.2700000e+002    +4.8087120e-008    +1.2815445e-007
+7.2800000e+002    +4.2521417e-008    +1.3678374e-007
+7.2900000e+002    +4.7645031e-008    +1.3530321e-007
+7.3000000e+002    +5.3941392e-008    +1.2745900e-007
+7.3100000e+002    +5.0731359e-008    +1.4213823e-007
+7.3200000e+002    +4.5566246e-008    +1.4112899e-007
+7.3300000e+002    +4.3424649e-008    +1.3793975e-007
+7.3400000e+002    +4.1510443e-008    +1.3929062e-007
+7.3500000e+002    +4.2399183e-008    +1.3999774e-007
+7.3600000e+002    +4.5123198e-008    +1.3289888e-007
+7.3700000e+002    +4.4793854e-008    +1.3124911e-007
+7.3800000e+002    +4.4823619e-008    +1.2330753e-007
+7.3900000e+002    +4.2550141e-008    +1.3083215e-007
+7.4000000e+002    +4.5017348e-008    +1.4321900e-007
+7.4100000e+002    +4.4345850e-008    +1.3908888e-007
+7.4200000e+002    +4.2958632e-008    +1.4055405e-007
+7.4300000e+002    +4.3325212e-008    +1.4090357e-007
+7.4400000e+002    +4.6510298e-008    +1.3082526e-007
+7.4500000e+002    +4.7260112e-008    +1.2698673e-007
+7.4600000e+002    +5.0747961e-008    +1.3447148e-007
+7.4700000e+002    +4.9237666e-008    +1.3552162e-007
+7.4800000e+002    +5.0409430e-008    +1.4421087e-007
+7.4900000e+002    +5.3562854e-008    +1.4701229e-007
+7.5000000e+002    +6.3206215e-008    +1.4309953e-007
+7.5100000e+002    +5.6225119e-008    +1.3572352e-007
+7.5200000e+002    +4.8912650e-008    +1.3699432e-007
+7.5300000e+002    +4.7516725e-008    +1.3726292e-007
+7.5400000e+002    +4.2444920e-008    +1.3880010e-007
+7.5500000e+002    +4.2564391e-008    +1.4609559e-007
+7.5600000e+002    +4.9624525e-008    +1.5021951e-007
+7.5700000e+002    +4.8192831e-008    +1.5202777e-007
+7.5800000e+002    +4.5205070e-008    +1.4368993e-007
+7.5900000e+002    +4.7335931e-008    +1.3210499e-007
+7.6000000e+002    +4.4168825e-008    +1.3679096e-007
+7.6100000e+002    +4.3756945e-008    +1.5795089e-007
+7.6200000e+002    +4.4918455e-008    +1.5257440e-007
+7.6300000e+002    +4.5815170e-008    +1.4442749e-007
+7.6400000e+002    +4.0485038e-008    +1.5646133e-007
+7.6500000e+002    +3.8374147e-008    +1.5382197e-007
+7.6600000e+002    +3.9505302e-008    +1.5328096e-007
+7.6700000e+002    +4.3316078e-008    +1.4192537e-007
+7.6800000e+002    +4.2243148e-008    +1.4988407e-007
+7.6900000e+002    +4.1001357e-008    +1.4541928e-007
+7.7000000e+002    +3.8417106e-008    +1.3860411e-007
+7.7100000e+002    +3.9947977e-008    +1.3691972e-007
+7.7200000e+002    +3.9093877e-008    +1.3683226e-007
+7.7300000e+002    +3.4109291e-008    +1.4815303e-007
+7.7400000e+002    +3.7618900e-008    +1.5097747e-007
+7.7500000e+002    +3.7736715e-008    +1.4516515e-007
+7.7600000e+002    +3.8853432e-008    +1.5135790e-007
+7.7700000e+002    +3.7315715e-008    +1.6003222e-007
+7.7800000e+002    +3.7745004e-008    +1.4941449e-007
+7.7900000e+002    +3.8210388e-008    +1.5075601e-007
+7.8000000e+002    +5.5822710e-008    +1.5012256e-007
+7.8100000e+002    +4.7351890e-008    +1.5659623e-007
+7.8200000e+002    +3.7541245e-008    +1.5972958e-007
+7.8300000e+002    +4.0072035e-008    +1.6585314e-007
+7.8400000e+002    +3.8042149e-008    +1.4730522e-007
+7.8500000e+002    +3.6870539e-008    +1.4414708e-007
+7.8600000e+002    +3.8750972e-008    +1.6385219e-007
+7.8700000e+002    +4.2275719e-008    +1.4941547e-007
+7.8800000e+002    +4.0452026e-008    +1.4818541e-007
+7.8900000e+002    +3.8587469e-008    +1.5550465e-007
+7.9000000e+002    +3.8175457e-008    +1.6136451e-007
+7.9100000e+002    +4.0510074e-008    +1.6050787e-007
+7.9200000e+002    +4.0261536e-008    +1.7934796e-007
+7.9300000e+002    +3.8047830e-008    +1.7526965e-007
+7.9400000e+002    +3.6613041e-008    +1.7560558e-007
+7.9500000e+002    +3.5930388e-008    +1.6257093e-007
+7.9600000e+002    +3.7780744e-008    +1.5532122e-007
+7.9700000e+002    +3.8065462e-008    +1.4672106e-007
+7.9800000e+002    +4.0130548e-008    +1.4653914e-007
+7.9900000e+002    +4.0014481e-008    +1.5297128e-007
#
#
# North DC Val: 0.51648285 VoltsSouth DC Val: 0.51848037 Volts
# SR785 Measurement - Timestamp: Aug 26 2020 - 03:00:31
# Parameter File: /home/controls/Git/cit_ctnlab/ctn_scripts/TransRINSpecShort.yml
#---------- Measurement Setup ------------
# Start Frequency (Hz): 0.000000
# Frequency Span (Hz): 102400.000000
# Frequency Resolution: 800
# Number of Averages: 100
# Averaging Mode: RMS
# Window function: Hanning
#---------- Measurement Parameters ----------
# Measurement Group:  "FFT" "FFT"
# Measurements:  "FFT 1" "FFT 2"
# View:  "Log Magnitude" "Log Magnitude"
# Unit:  "Vrms/rtHz" "Vrms/rtHz"
#---------- Input Parameters ----------
# Input Source: Analog
# Input Mode: Single ended, Single ended
# Input Grounding: Float, Float
# Input Coupling: AC, AC
# Input Range: -36.0dBVpk, -36.0dBVpk
# Auto Range: Off, Off
# Auto Range Mode: Tracking, Tracking
# Anti-Aliasing Filter: On, On
#---------- Source Parameters ----------
# Source Type: Sine
# Source Amplitude: 500.0mVpk
# Source On: 0

#---------- Measurement Data ----------
# [Freq(Hz) Display 0(Vrms/rtHz) Display 1(Vrms/rtHz) ]
+8.9600000e+002    +9.4207259e-008    +1.8010454e-007
+1.0240000e+003    +7.4500143e-008    +2.0362930e-007
+1.1520000e+003    +4.2667285e-008    +2.4284557e-007
+1.2800000e+003    +3.5026165e-008    +2.8284163e-007
+1.4080000e+003    +3.6652903e-008    +3.2317556e-007
+1.5360000e+003    +3.7546769e-008    +3.5725282e-007
+1.6640000e+003    +3.9485439e-008    +4.2037345e-007
+1.7920000e+003    +4.4680043e-008    +4.3154964e-007
+1.9200000e+003    +4.9053178e-008    +4.5076899e-007
+2.0480000e+003    +5.2692560e-008    +5.2964538e-007
+2.1760000e+003    +5.1796128e-008    +5.1971756e-007
+2.3040000e+003    +5.5207636e-008    +5.0136316e-007
+2.4320000e+003    +6.3753973e-008    +5.5991086e-007
+2.5600000e+003    +6.4699819e-008    +5.9536410e-007
+2.6880000e+003    +7.3434641e-008    +5.8628638e-007
+2.8160000e+003    +8.5242739e-008    +5.4910510e-007
+2.9440000e+003    +9.0268728e-008    +5.3771862e-007
+3.0720000e+003    +9.1643855e-008    +5.5049594e-007
+3.2000000e+003    +8.4894069e-008    +5.8674294e-007
+3.3280000e+003    +9.4626280e-008    +5.6342037e-007
+3.4560000e+003    +1.1522629e-007    +5.3557267e-007
+3.5840000e+003    +1.1373731e-007    +5.1527491e-007
+3.7120000e+003    +1.1656493e-007    +5.1231211e-007
+3.8400000e+003    +1.2632159e-007    +4.7732209e-007
+3.9680000e+003    +1.4297656e-007    +4.8887733e-007
+4.0960000e+003    +1.5291435e-007    +4.9938643e-007
+4.2240000e+003    +1.6219455e-007    +4.8558951e-007
+4.3520000e+003    +1.6567041e-007    +4.6194359e-007
+4.4800000e+003    +1.6831981e-007    +4.0739471e-007
+4.6080000e+003    +1.7377427e-007    +3.4893239e-007
+4.7360000e+003    +1.7654706e-007    +3.3769260e-007
+4.8640000e+003    +2.0265529e-007    +3.3187032e-007
+4.9920000e+003    +2.1769176e-007    +3.2464078e-007
+5.1200000e+003    +2.2543217e-007    +3.1757605e-007
+5.2480000e+003    +2.1304842e-007    +3.1642401e-007
+5.3760000e+003    +2.1899807e-007    +3.1110127e-007
+5.5040000e+003    +2.1603147e-007    +3.0282160e-007
+5.6320000e+003    +2.3886361e-007    +2.9206780e-007
+5.7600000e+003    +2.3580259e-007    +2.8629660e-007
+5.8880000e+003    +2.5935873e-007    +2.9116583e-007
+6.0160000e+003    +2.6407901e-007    +2.5131450e-007
+6.1440000e+003    +2.8229715e-007    +2.4152826e-007
+6.2720000e+003    +2.7457989e-007    +2.5544287e-007
+6.4000000e+003    +2.8675308e-007    +2.2867697e-007
+6.5280000e+003    +3.0696117e-007    +2.3482984e-007
+6.6560000e+003    +3.1752549e-007    +2.5100124e-007
+6.7840000e+003    +3.2707078e-007    +2.4340588e-007
+6.9120000e+003    +3.0275280e-007    +2.4086859e-007
+7.0400000e+003    +3.4017324e-007    +2.4048646e-007
+7.1680000e+003    +3.3007154e-007    +2.3675312e-007
+7.2960000e+003    +3.0797324e-007    +2.0712052e-007
+7.4240000e+003    +3.2513020e-007    +2.2241822e-007
+7.5520000e+003    +3.6332725e-007    +2.3528304e-007
+7.6800000e+003    +3.6165645e-007    +2.2756939e-007
+7.8080000e+003    +3.9246638e-007    +2.1924876e-007
+7.9360000e+003    +3.9058824e-007    +2.3835563e-007
+8.0640000e+003    +3.9444146e-007    +2.2026165e-007
+8.1920000e+003    +4.2402860e-007    +2.0781803e-007
+8.3200000e+003    +4.3654111e-007    +2.0692710e-007
+8.4480000e+003    +4.1694253e-007    +2.2993302e-007
+8.5760000e+003    +3.9468580e-007    +2.3660733e-007
+8.7040000e+003    +4.2537715e-007    +2.2765735e-007
+8.8320000e+003    +4.3689784e-007    +2.3789129e-007
+8.9600000e+003    +4.8639845e-007    +2.2231592e-007
+9.0880000e+003    +4.7044898e-007    +2.0077695e-007
+9.2160000e+003    +4.9431094e-007    +2.1720352e-007
+9.3440000e+003    +5.2237664e-007    +2.2889249e-007
+9.4720000e+003    +5.0200373e-007    +2.2412563e-007
+9.6000000e+003    +4.8217390e-007    +2.3675234e-007
+9.7280000e+003    +5.1149829e-007    +2.2387084e-007
+9.8560000e+003    +5.1867551e-007    +2.2129916e-007
+9.9840000e+003    +5.1099647e-007    +2.3710977e-007
+1.0112000e+004    +5.2131776e-007    +2.3671024e-007
+1.0240000e+004    +5.4172745e-007    +2.1305334e-007
+1.0368000e+004    +5.2225562e-007    +2.1413798e-007
+1.0496000e+004    +5.4672523e-007    +2.2117091e-007
+1.0624000e+004    +5.7418998e-007    +2.2400312e-007
+1.0752000e+004    +5.2228199e-007    +2.1199676e-007
+1.0880000e+004    +5.2776170e-007    +2.2299456e-007
+1.1008000e+004    +5.4705970e-007    +2.2197250e-007
+1.1136000e+004    +5.5985549e-007    +2.1796609e-007
+1.1264000e+004    +5.6810785e-007    +2.1933953e-007
+1.1392000e+004    +5.3257679e-007    +2.1652230e-007
+1.1520000e+004    +5.2334451e-007    +2.2561591e-007
+1.1648000e+004    +5.4207612e-007    +2.2510693e-007
+1.1776000e+004    +5.8289095e-007    +2.3349421e-007
+1.1904000e+004    +6.0176188e-007    +2.2316772e-007
+1.2032000e+004    +5.7897847e-007    +2.3353446e-007
+1.2160000e+004    +5.6826002e-007    +2.3971168e-007
+1.2288000e+004    +5.7716767e-007    +2.3667204e-007
+1.2416000e+004    +5.6519735e-007    +2.3315195e-007
+1.2544000e+004    +6.0070499e-007    +2.3996739e-007
+1.2672000e+004    +6.7261777e-007    +2.4527361e-007
+1.2800000e+004    +6.2698678e-007    +2.3806949e-007
+1.2928000e+004    +5.4129998e-007    +2.4058946e-007
+1.3056000e+004    +5.3405591e-007    +2.4813124e-007
+1.3184000e+004    +5.7476524e-007    +2.3530860e-007
+1.3312000e+004    +5.8978509e-007    +2.2003807e-007
+1.3440000e+004    +5.5087384e-007    +2.1778069e-007
+1.3568000e+004    +5.6391548e-007    +2.2982752e-007
+1.3696000e+004    +5.8088420e-007    +2.1643245e-007
+1.3824000e+004    +5.5284062e-007    +2.1412929e-007
+1.3952000e+004    +5.8510250e-007    +2.2933473e-007
+1.4080000e+004    +6.0909315e-007    +2.2973039e-007
+1.4208000e+004    +6.1200046e-007    +2.2781639e-007
+1.4336000e+004    +5.6946112e-007    +2.3974854e-007
+1.4464000e+004    +5.2381415e-007    +2.3697339e-007
+1.4592000e+004    +5.4877484e-007    +2.4355560e-007
+1.4720000e+004    +5.8669463e-007    +2.4085563e-007
+1.4848000e+004    +5.6867071e-007    +2.3454460e-007
+1.4976000e+004    +5.7305505e-007    +2.3366091e-007
+1.5104000e+004    +6.2104596e-007    +2.5629100e-007
+1.5232000e+004    +5.7870898e-007    +2.5098498e-007
+1.5360000e+004    +6.0715081e-007    +2.5886030e-007
+1.5488000e+004    +5.8706127e-007    +2.6055207e-007
+1.5616000e+004    +5.2151756e-007    +2.7043720e-007
+1.5744000e+004    +5.5499726e-007    +2.3864473e-007
+1.5872000e+004    +5.7198645e-007    +2.2578838e-007
+1.6000000e+004    +5.6026261e-007    +2.1737362e-007
+1.6128000e+004    +5.3332701e-007    +2.3564938e-007
+1.6256000e+004    +5.4037480e-007    +2.5284893e-007
+1.6384000e+004    +5.6774553e-007    +2.5284922e-007
+1.6512000e+004    +5.1345188e-007    +2.4070994e-007
+1.6640000e+004    +5.1199049e-007    +2.5247692e-007
+1.6768000e+004    +4.6118390e-007    +2.7569217e-007
+1.6896000e+004    +4.3894372e-007    +2.5874351e-007
+1.7024000e+004    +4.3393240e-007    +2.5166352e-007
+1.7152000e+004    +5.1114574e-007    +2.4997621e-007
+1.7280000e+004    +5.5357197e-007    +2.7073341e-007
+1.7408000e+004    +5.0352787e-007    +2.5851946e-007
+1.7536000e+004    +5.0891191e-007    +2.4507574e-007
+1.7664000e+004    +4.6010209e-007    +2.4862922e-007
+1.7792000e+004    +5.1398717e-007    +2.4869692e-007
+1.7920000e+004    +5.2165041e-007    +2.3139052e-007
+1.8048000e+004    +4.7514794e-007    +2.3840037e-007
+1.8176000e+004    +4.9881760e-007    +2.4744048e-007
+1.8304000e+004    +4.7108577e-007    +2.5802208e-007
+1.8432000e+004    +4.3866717e-007    +2.6092422e-007
+1.8560000e+004    +4.0234448e-007    +2.5095520e-007
+1.8688000e+004    +4.7613969e-007    +2.6572317e-007
+1.8816000e+004    +4.7040663e-007    +2.5695229e-007
+1.8944000e+004    +4.4066473e-007    +2.6390043e-007
+1.9072000e+004    +4.6158308e-007    +2.7298640e-007
+1.9200000e+004    +4.6064747e-007    +2.5467472e-007
+1.9328000e+004    +4.7173432e-007    +2.5096404e-007
+1.9456000e+004    +4.6852881e-007    +2.4940599e-007
+1.9584000e+004    +4.9063954e-007    +2.6983216e-007
+1.9712000e+004    +4.4612199e-007    +2.5017169e-007
+1.9840000e+004    +3.9413581e-007    +2.6317502e-007
+1.9968000e+004    +4.2336245e-007    +2.9284260e-007
+2.0096000e+004    +3.9818184e-007    +2.6282939e-007
+2.0224000e+004    +4.2986895e-007    +2.2737109e-007
+2.0352000e+004    +4.3977201e-007    +2.5506620e-007
+2.0480000e+004    +4.5761178e-007    +2.6386945e-007
+2.0608000e+004    +4.5538087e-007    +2.5552058e-007
+2.0736000e+004    +4.5930460e-007    +2.5719305e-007
+2.0864000e+004    +4.2868967e-007    +2.6896873e-007
+2.0992000e+004    +4.1415254e-007    +2.7264372e-007
+2.1120000e+004    +3.9749298e-007    +2.8570281e-007
+2.1248000e+004    +4.0447807e-007    +2.6170835e-007
+2.1376000e+004    +3.9012107e-007    +2.8149057e-007
+2.1504000e+004    +3.8273623e-007    +3.0540937e-007
+2.1632000e+004    +4.2828506e-007    +2.8204744e-007
+2.1760000e+004    +3.8781829e-007    +2.7541233e-007
+2.1888000e+004    +4.1025854e-007    +3.0023435e-007
+2.2016000e+004    +3.9967017e-007    +3.0495099e-007
+2.2144000e+004    +3.9801617e-007    +2.9085845e-007
+2.2272000e+004    +4.0387144e-007    +2.8444424e-007
+2.2400000e+004    +3.9529468e-007    +2.9427531e-007
+2.2528000e+004    +3.9893800e-007    +2.9944852e-007
+2.2656000e+004    +3.8425415e-007    +3.1682168e-007
+2.2784000e+004    +3.6672466e-007    +3.1481503e-007
+2.2912000e+004    +3.7098835e-007    +2.9506310e-007
+2.3040000e+004    +4.0282009e-007    +3.0531115e-007
+2.3168000e+004    +3.9699316e-007    +3.2410620e-007
+2.3296000e+004    +3.7707392e-007    +2.9761725e-007
+2.3424000e+004    +3.7340308e-007    +3.0056219e-007
+2.3552000e+004    +3.5425612e-007    +2.9166657e-007
+2.3680000e+004    +3.7218413e-007    +2.9537395e-007
+2.3808000e+004    +3.7026561e-007    +3.1953820e-007
+2.3936000e+004    +3.9462165e-007    +2.9184437e-007
+2.4064000e+004    +3.9605231e-007    +3.1017632e-007
+2.4192000e+004    +3.7640382e-007    +3.1138424e-007
+2.4320000e+004    +3.7063739e-007    +3.0830412e-007
+2.4448000e+004    +3.7302732e-007    +4.0384748e-007
+2.4576000e+004    +3.7045308e-007    +4.2738128e-007
+2.4704000e+004    +3.3701107e-007    +3.4439847e-007
+2.4832000e+004    +3.2222883e-007    +3.4718673e-007
+2.4960000e+004    +3.2371358e-007    +3.4467880e-007
+2.5088000e+004    +3.5830243e-007    +3.2784271e-007
+2.5216000e+004    +3.6760389e-007    +3.3656991e-007
+2.5344000e+004    +3.3085817e-007    +3.3947663e-007
+2.5472000e+004    +3.2630498e-007    +3.2825764e-007
+2.5600000e+004    +3.2997951e-007    +3.4079605e-007
+2.5728000e+004    +3.3422305e-007    +3.6274568e-007
+2.5856000e+004    +3.2175123e-007    +3.5998937e-007
+2.5984000e+004    +3.1059548e-007    +3.4273756e-007
+2.6112000e+004    +2.9812907e-007    +3.9228715e-007
+2.6240000e+004    +2.8417608e-007    +3.9259049e-007
+2.6368000e+004    +2.9024596e-007    +3.6042798e-007
+2.6496000e+004    +3.0375699e-007    +3.6829351e-007
+2.6624000e+004    +3.3827112e-007    +6.2675690e-007
+2.6752000e+004    +3.5309233e-007    +6.2190094e-007
+2.6880000e+004    +3.2579305e-007    +3.7489264e-007
+2.7008000e+004    +3.2624482e-007    +3.5360327e-007
+2.7136000e+004    +3.2420232e-007    +3.6225853e-007
+2.7264000e+004    +3.2901033e-007    +3.5825249e-007
+2.7392000e+004    +3.0169889e-007    +3.6436472e-007
+2.7520000e+004    +2.6682798e-007    +3.7947828e-007
+2.7648000e+004    +2.8918384e-007    +4.0492685e-007
+2.7776000e+004    +3.3059783e-007    +3.6982803e-007
+2.7904000e+004    +3.3207337e-007    +4.0013384e-007
+2.8032000e+004    +3.2205551e-007    +3.9167170e-007
+2.8160000e+004    +3.0714557e-007    +3.6623416e-007
+2.8288000e+004    +3.0863265e-007    +3.7723916e-007
+2.8416000e+004    +3.5145970e-007    +3.9837948e-007
+2.8544000e+004    +3.3237063e-007    +3.9978823e-007
+2.8672000e+004    +3.2115651e-007    +3.9538628e-007
+2.8800000e+004    +3.1082473e-007    +4.0245891e-007
+2.8928000e+004    +3.2933812e-007    +3.6619676e-007
+2.9056000e+004    +3.1940667e-007    +3.8892441e-007
+2.9184000e+004    +2.9692691e-007    +4.1160260e-007
+2.9312000e+004    +2.8785999e-007    +4.1713253e-007
+2.9440000e+004    +3.1581521e-007    +4.2553597e-007
+2.9568000e+004    +3.1362305e-007    +4.4087477e-007
+2.9696000e+004    +2.8293513e-007    +4.1285452e-007
+2.9824000e+004    +2.9227053e-007    +4.2494722e-007
+2.9952000e+004    +3.2776893e-007    +4.1285543e-007
+3.0080000e+004    +3.1873685e-007    +4.1115274e-007
+3.0208000e+004    +2.9780225e-007    +3.8513312e-007
+3.0336000e+004    +2.7876308e-007    +3.8825669e-007
+3.0464000e+004    +2.9336587e-007    +4.1619333e-007
+3.0592000e+004    +3.0050083e-007    +4.2961273e-007
+3.0720000e+004    +2.8210474e-007    +4.1096678e-007
+3.0848000e+004    +2.6126278e-007    +4.4409970e-007
+3.0976000e+004    +2.6801803e-007    +4.6389991e-007
+3.1104000e+004    +2.7851496e-007    +4.8814843e-007
+3.1232000e+004    +2.7808383e-007    +4.7524708e-007
+3.1360000e+004    +2.7218431e-007    +4.3281565e-007
+3.1488000e+004    +2.7275601e-007    +4.2407655e-007
+3.1616000e+004    +2.7329230e-007    +4.3554147e-007
+3.1744000e+004    +2.9881005e-007    +4.3906039e-007
+3.1872000e+004    +2.8777910e-007    +4.2630433e-007
+3.2000000e+004    +2.6638861e-007    +4.4750445e-007
+3.2128000e+004    +2.5393200e-007    +4.9210695e-007
+3.2256000e+004    +2.5255898e-007    +4.8436266e-007
+3.2384000e+004    +2.9014717e-007    +4.4387059e-007
+3.2512000e+004    +2.9030716e-007    +4.7736978e-007
+3.2640000e+004    +2.8411370e-007    +4.5510947e-007
+3.2768000e+004    +2.9502522e-007    +4.3932607e-007
+3.2896000e+004    +2.8680913e-007    +4.5253785e-007
+3.3024000e+004    +2.6356744e-007    +4.4892374e-007
+3.3152000e+004    +2.6428464e-007    +4.5464799e-007
+3.3280000e+004    +2.5694243e-007    +4.6216019e-007
+3.3408000e+004    +2.6097464e-007    +4.8937841e-007
+3.3536000e+004    +2.8336291e-007    +5.1209111e-007
+3.3664000e+004    +2.6631841e-007    +5.1410007e-007
+3.3792000e+004    +2.6516824e-007    +4.6463546e-007
+3.3920000e+004    +2.5231370e-007    +4.7382522e-007
+3.4048000e+004    +2.4323492e-007    +4.7936197e-007
+3.4176000e+004    +2.4788480e-007    +4.9084480e-007
+3.4304000e+004    +2.3896959e-007    +5.1951957e-007
+3.4432000e+004    +2.3896013e-007    +4.9631933e-007
+3.4560000e+004    +2.4721319e-007    +4.6673281e-007
+3.4688000e+004    +2.5314978e-007    +5.1228290e-007
+3.4816000e+004    +2.6244126e-007    +5.3108897e-007
+3.4944000e+004    +2.6302510e-007    +5.1753040e-007
+3.5072000e+004    +2.4065895e-007    +5.3198011e-007
+3.5200000e+004    +2.6209341e-007    +5.5183153e-007
+3.5328000e+004    +2.7160635e-007    +5.1968618e-007
+3.5456000e+004    +2.3314581e-007    +5.1192865e-007
+3.5584000e+004    +2.3797985e-007    +5.1939355e-007
+3.5712000e+004    +2.5569122e-007    +5.6418241e-007
+3.5840000e+004    +2.4609528e-007    +5.5656858e-007
+3.5968000e+004    +2.4249653e-007    +5.5045484e-007
+3.6096000e+004    +2.4392651e-007    +5.6332453e-007
+3.6224000e+004    +2.4326027e-007    +5.1492708e-007
+3.6352000e+004    +2.4790958e-007    +5.3756276e-007
+3.6480000e+004    +2.5346489e-007    +5.7698014e-007
+3.6608000e+004    +2.5790425e-007    +5.2391022e-007
+3.6736000e+004    +2.2855923e-007    +5.2309116e-007
+3.6864000e+004    +2.2234228e-007    +5.5296266e-007
+3.6992000e+004    +2.3885914e-007    +5.1892101e-007
+3.7120000e+004    +2.4122826e-007    +5.0464422e-007
+3.7248000e+004    +2.4429048e-007    +5.2550314e-007
+3.7376000e+004    +2.5386538e-007    +5.2875004e-007
+3.7504000e+004    +2.3356600e-007    +5.8411655e-007
+3.7632000e+004    +2.3120563e-007    +6.2184904e-007
+3.7760000e+004    +2.4212142e-007    +5.9624989e-007
+3.7888000e+004    +2.5590185e-007    +5.5811006e-007
+3.8016000e+004    +2.4339573e-007    +5.3063900e-007
+3.8144000e+004    +2.2808443e-007    +5.8235810e-007
+3.8272000e+004    +2.2245997e-007    +6.1145107e-007
+3.8400000e+004    +2.2087168e-007    +6.5398314e-007
+3.8528000e+004    +2.3035956e-007    +6.6429573e-007
+3.8656000e+004    +2.2721811e-007    +6.1734619e-007
+3.8784000e+004    +2.3580752e-007    +6.5839959e-007
+3.8912000e+004    +2.2436815e-007    +6.1471104e-007
+3.9040000e+004    +2.2968953e-007    +5.6464535e-007
+3.9168000e+004    +2.6732678e-007    +6.0581237e-007
+3.9296000e+004    +2.4064363e-007    +6.0286692e-007
+3.9424000e+004    +2.1055368e-007    +5.8243614e-007
+3.9552000e+004    +2.0543955e-007    +5.5133734e-007
+3.9680000e+004    +2.1885697e-007    +5.9095248e-007
+3.9808000e+004    +2.1669996e-007    +5.6950552e-007
+3.9936000e+004    +2.1055506e-007    +5.9911827e-007
+4.0064000e+004    +2.1852657e-007    +6.7754382e-007
+4.0192000e+004    +2.2207001e-007    +6.3238286e-007
+4.0320000e+004    +2.2776536e-007    +6.5426678e-007
+4.0448000e+004    +2.2129115e-007    +6.6136943e-007
+4.0576000e+004    +2.3096334e-007    +6.1647040e-007
+4.0704000e+004    +2.2175618e-007    +6.0898816e-007
+4.0832000e+004    +2.2311089e-007    +6.0418495e-007
+4.0960000e+004    +2.1409826e-007    +6.0697084e-007
+4.1088000e+004    +2.0768596e-007    +6.3477449e-007
+4.1216000e+004    +2.1699780e-007    +6.8902489e-007
+4.1344000e+004    +2.2380006e-007    +6.9436226e-007
+4.1472000e+004    +2.0932072e-007    +6.0832855e-007
+4.1600000e+004    +1.8931601e-007    +6.7231502e-007
+4.1728000e+004    +2.1075050e-007    +6.5206518e-007
+4.1856000e+004    +2.1828556e-007    +6.4873814e-007
+4.1984000e+004    +2.1126645e-007    +6.6451020e-007
+4.2112000e+004    +2.1420642e-007    +6.5058697e-007
+4.2240000e+004    +2.2082611e-007    +6.2292054e-007
+4.2368000e+004    +2.0932555e-007    +6.7643185e-007
+4.2496000e+004    +2.1585387e-007    +6.7145930e-007
+4.2624000e+004    +2.1230703e-007    +6.0030015e-007
+4.2752000e+004    +2.1057402e-007    +6.2623479e-007
+4.2880000e+004    +2.1480227e-007    +6.7467391e-007
+4.3008000e+004    +2.0254139e-007    +6.8908463e-007
+4.3136000e+004    +1.8964285e-007    +6.7725819e-007
+4.3264000e+004    +2.0468485e-007    +6.8145914e-007
+4.3392000e+004    +2.0207050e-007    +6.8339602e-007
+4.3520000e+004    +2.0838993e-007    +6.8702002e-007
+4.3648000e+004    +1.9346525e-007    +6.9792407e-007
+4.3776000e+004    +1.9460545e-007    +6.6672311e-007
+4.3904000e+004    +2.0624685e-007    +7.3381369e-007
+4.4032000e+004    +1.9950069e-007    +7.3998046e-007
+4.4160000e+004    +1.9353281e-007    +7.4075353e-007
+4.4288000e+004    +1.9548389e-007    +7.4143702e-007
+4.4416000e+004    +2.0374671e-007    +7.1370931e-007
+4.4544000e+004    +2.0054607e-007    +6.7297822e-007
+4.4672000e+004    +1.9247622e-007    +7.0168056e-007
+4.4800000e+004    +2.0073486e-007    +7.7103908e-007
+4.4928000e+004    +2.0048751e-007    +7.1449568e-007
+4.5056000e+004    +2.1227324e-007    +7.1561368e-007
+4.5184000e+004    +2.1363896e-007    +6.8930939e-007
+4.5312000e+004    +1.9432490e-007    +7.3538405e-007
+4.5440000e+004    +2.0436867e-007    +7.3950696e-007
+4.5568000e+004    +2.2167001e-007    +8.0621919e-007
+4.5696000e+004    +1.9897983e-007    +7.0452836e-007
+4.5824000e+004    +1.9942776e-007    +7.0736678e-007
+4.5952000e+004    +1.9524838e-007    +7.4208776e-007
+4.6080000e+004    +1.9652420e-007    +7.0157807e-007
+4.6208000e+004    +1.8569543e-007    +7.1189203e-007
+4.6336000e+004    +1.8564650e-007    +7.3584926e-007
+4.6464000e+004    +1.8604869e-007    +7.6198523e-007
+4.6592000e+004    +1.9321074e-007    +7.9009851e-007
+4.6720000e+004    +1.9833486e-007    +7.8295164e-007
+4.6848000e+004    +2.0692892e-007    +7.3911326e-007
+4.6976000e+004    +1.9665025e-007    +6.9777849e-007
+4.7104000e+004    +1.8008673e-007    +7.4918069e-007
+4.7232000e+004    +1.8911595e-007    +8.5861564e-007
+4.7360000e+004    +1.7807764e-007    +7.6680601e-007
+4.7488000e+004    +1.7619811e-007    +7.1181933e-007
+4.7616000e+004    +1.9790393e-007    +7.6795948e-007
+4.7744000e+004    +1.9785745e-007    +7.5425248e-007
+4.7872000e+004    +1.9082755e-007    +7.4179530e-007
+4.8000000e+004    +1.9362187e-007    +7.4449525e-007
+4.8128000e+004    +1.9038703e-007    +7.3850566e-007
+4.8256000e+004    +1.8963493e-007    +7.8438944e-007
+4.8384000e+004    +1.9173989e-007    +7.9876952e-007
+4.8512000e+004    +1.7519500e-007    +7.9822155e-007
+4.8640000e+004    +1.8613042e-007    +8.3426812e-007
+4.8768000e+004    +1.8575436e-007    +8.1406364e-007
+4.8896000e+004    +1.7203608e-007    +7.5428312e-007
+4.9024000e+004    +1.9928527e-007    +7.5257572e-007
+4.9152000e+004    +1.9335398e-007    +7.7447362e-007
+4.9280000e+004    +1.7547221e-007    +7.9644701e-007
+4.9408000e+004    +1.6491110e-007    +8.1662125e-007
+4.9536000e+004    +1.8392785e-007    +8.5367776e-007
+4.9664000e+004    +1.8809938e-007    +7.7473470e-007
+4.9792000e+004    +1.7011568e-007    +7.9431010e-007
+4.9920000e+004    +1.6748214e-007    +8.4617966e-007
+5.0048000e+004    +1.6370834e-007    +8.2192128e-007
+5.0176000e+004    +1.7300344e-007    +1.3982815e-006
+5.0304000e+004    +1.7510460e-007    +1.4016692e-006
+5.0432000e+004    +1.6563531e-007    +8.7012830e-007
+5.0560000e+004    +1.7078193e-007    +8.4145097e-007
+5.0688000e+004    +1.7351498e-007    +8.2115184e-007
+5.0816000e+004    +1.6333256e-007    +8.2732646e-007
+5.0944000e+004    +1.6431918e-007    +8.5157706e-007
+5.1072000e+004    +1.6677951e-007    +9.1682608e-007
+5.1200000e+004    +1.5633373e-007    +9.2238741e-007
+5.1328000e+004    +1.6705167e-007    +8.7906545e-007
+5.1456000e+004    +1.5270597e-007    +8.2170197e-007
+5.1584000e+004    +1.5944100e-007    +8.5469253e-007
+5.1712000e+004    +1.6412569e-007    +8.2301665e-007
+5.1840000e+004    +1.6475599e-007    +8.4654948e-007
+5.1968000e+004    +1.6486077e-007    +8.1719350e-007
+5.2096000e+004    +1.6519307e-007    +8.3334533e-007
+5.2224000e+004    +1.5611863e-007    +8.2161540e-007
+5.2352000e+004    +1.5163251e-007    +1.0379598e-006
+5.2480000e+004    +1.5452567e-007    +1.0803312e-006
+5.2608000e+004    +1.5791015e-007    +9.6679389e-007
+5.2736000e+004    +1.5403560e-007    +8.8370570e-007
+5.2864000e+004    +1.4387227e-007    +9.7524946e-007
+5.2992000e+004    +1.5413440e-007    +1.0141185e-006
+5.3120000e+004    +1.5856618e-007    +9.5237067e-007
+5.3248000e+004    +1.5630113e-007    +9.4171168e-007
+5.3376000e+004    +1.5634146e-007    +8.8700983e-007
+5.3504000e+004    +1.5927338e-007    +8.6649311e-007
+5.3632000e+004    +1.6726217e-007    +9.3012869e-007
+5.3760000e+004    +1.6382053e-007    +9.4122481e-007
+5.3888000e+004    +1.4575416e-007    +9.0734659e-007
+5.4016000e+004    +1.5801733e-007    +9.2586765e-007
+5.4144000e+004    +1.6360951e-007    +9.1115618e-007
+5.4272000e+004    +1.5219929e-007    +8.6637039e-007
+5.4400000e+004    +1.3780169e-007    +8.2193571e-007
+5.4528000e+004    +1.5979606e-007    +8.0379476e-007
+5.4656000e+004    +1.5113405e-007    +8.3976289e-007
+5.4784000e+004    +1.3641734e-007    +9.4543299e-007
+5.4912000e+004    +1.3801368e-007    +9.2530468e-007
+5.5040000e+004    +1.9476963e-007    +9.0830548e-007
+5.5168000e+004    +3.2806921e-007    +9.4353527e-007
+5.5296000e+004    +2.2197737e-007    +9.7013708e-007
+5.5424000e+004    +2.1060060e-007    +1.0296816e-006
+5.5552000e+004    +4.9501591e-007    +1.0264274e-006
+5.5680000e+004    +3.9354643e-007    +1.0364702e-006
+5.5808000e+004    +1.4706815e-007    +1.0478254e-006
+5.5936000e+004    +1.5463139e-007    +1.0837385e-006
+5.6064000e+004    +1.5042632e-007    +1.0188920e-006
+5.6192000e+004    +1.5691050e-007    +1.0623486e-006
+5.6320000e+004    +1.5157043e-007    +9.8857242e-007
+5.6448000e+004    +1.4332109e-007    +9.2007923e-007
+5.6576000e+004    +1.5085237e-007    +9.2862359e-007
+5.6704000e+004    +1.4841419e-007    +9.1817293e-007
+5.6832000e+004    +1.5522114e-007    +9.2900910e-007
+5.6960000e+004    +1.5639399e-007    +9.3435500e-007
+5.7088000e+004    +1.5639829e-007    +9.5948144e-007
+5.7216000e+004    +1.5189428e-007    +1.0058858e-006
+5.7344000e+004    +1.5217155e-007    +9.8535827e-007
+5.7472000e+004    +1.3611019e-007    +9.2673014e-007
+5.7600000e+004    +1.3764867e-007    +1.0134152e-006
+5.7728000e+004    +1.4851526e-007    +1.0641604e-006
+5.7856000e+004    +1.5004346e-007    +1.0874430e-006
+5.7984000e+004    +1.4048015e-007    +1.0273598e-006
+5.8112000e+004    +1.3117707e-007    +1.0135152e-006
+5.8240000e+004    +1.4264242e-007    +1.0487612e-006
+5.8368000e+004    +1.4479330e-007    +1.0346748e-006
+5.8496000e+004    +1.4864658e-007    +1.1050457e-006
+5.8624000e+004    +1.6297643e-007    +1.1140485e-006
+5.8752000e+004    +2.3110665e-007    +1.0698446e-006
+5.8880000e+004    +1.8148732e-007    +1.0427447e-006
+5.9008000e+004    +1.4956845e-007    +1.0764429e-006
+5.9136000e+004    +1.4885906e-007    +1.0277637e-006
+5.9264000e+004    +1.5040732e-007    +1.0149162e-006
+5.9392000e+004    +1.5664610e-007    +1.0123753e-006
+5.9520000e+004    +1.4234314e-007    +1.0025692e-006
+5.9648000e+004    +1.3702831e-007    +9.9222279e-007
+5.9776000e+004    +1.3802217e-007    +1.0195814e-006
+5.9904000e+004    +1.3802929e-007    +9.9658462e-007
+6.0032000e+004    +1.3960909e-007    +1.0956477e-006
+6.0160000e+004    +1.3880863e-007    +1.1217923e-006
+6.0288000e+004    +1.3454516e-007    +1.1219254e-006
+6.0416000e+004    +1.4199239e-007    +1.0791944e-006
+6.0544000e+004    +1.4721856e-007    +1.0808604e-006
+6.0672000e+004    +1.4589634e-007    +1.0958571e-006
+6.0800000e+004    +1.4205227e-007    +1.0558182e-006
+6.0928000e+004    +1.4168545e-007    +1.0982130e-006
+6.1056000e+004    +1.3101126e-007    +1.0241770e-006
+6.1184000e+004    +1.2817092e-007    +9.5781002e-007
+6.1312000e+004    +1.3289815e-007    +1.0250691e-006
+6.1440000e+004    +1.3181493e-007    +1.1018062e-006
+6.1568000e+004    +1.5780719e-007    +1.1352608e-006
+6.1696000e+004    +1.4678632e-007    +1.0535392e-006
+6.1824000e+004    +1.4388981e-007    +1.0098220e-006
+6.1952000e+004    +1.4024498e-007    +1.0860816e-006
+6.2080000e+004    +1.3429323e-007    +1.0593353e-006
+6.2208000e+004    +1.4196901e-007    +1.0495341e-006
+6.2336000e+004    +1.3874129e-007    +1.1921742e-006
+6.2464000e+004    +1.3381474e-007    +1.2343093e-006
+6.2592000e+004    +1.3735277e-007    +1.1781430e-006
+6.2720000e+004    +1.3422337e-007    +1.1069194e-006
+6.2848000e+004    +1.2830144e-007    +1.0878049e-006
+6.2976000e+004    +1.5035366e-007    +1.0936839e-006
+6.3104000e+004    +1.4363268e-007    +1.0813922e-006
+6.3232000e+004    +1.3413010e-007    +1.0762585e-006
+6.3360000e+004    +1.3471146e-007    +1.1235834e-006
+6.3488000e+004    +1.4307565e-007    +1.1413574e-006
+6.3616000e+004    +1.3980849e-007    +1.1500952e-006
+6.3744000e+004    +1.3250302e-007    +1.1489366e-006
+6.3872000e+004    +1.2597133e-007    +1.0745299e-006
+6.4000000e+004    +1.2488806e-007    +1.0961351e-006
+6.4128000e+004    +1.2178337e-007    +1.1153103e-006
+6.4256000e+004    +1.3153114e-007    +1.0553894e-006
+6.4384000e+004    +1.3458698e-007    +1.0363530e-006
+6.4512000e+004    +1.2826031e-007    +1.1064953e-006
+6.4640000e+004    +1.2331795e-007    +1.1516419e-006
+6.4768000e+004    +1.2441643e-007    +1.1009911e-006
+6.4896000e+004    +1.2679503e-007    +1.1477866e-006
+6.5024000e+004    +1.2162982e-007    +1.1226006e-006
+6.5152000e+004    +1.1663867e-007    +1.1347537e-006
+6.5280000e+004    +1.2595446e-007    +1.2190698e-006
+6.5408000e+004    +1.2512440e-007    +1.1846975e-006
+6.5536000e+004    +1.2506040e-007    +1.2063460e-006
+6.5664000e+004    +1.2418428e-007    +1.1233983e-006
+6.5792000e+004    +1.2787027e-007    +1.1149846e-006
+6.5920000e+004    +1.3138536e-007    +1.1357832e-006
+6.6048000e+004    +1.1873944e-007    +1.0915065e-006
+6.6176000e+004    +1.2640137e-007    +1.1647703e-006
+6.6304000e+004    +1.3907025e-007    +1.1942639e-006
+6.6432000e+004    +1.3223357e-007    +1.1640008e-006
+6.6560000e+004    +1.2834710e-007    +1.1745949e-006
+6.6688000e+004    +1.3360231e-007    +1.1486642e-006
+6.6816000e+004    +1.1006998e-007    +1.1748012e-006
+6.6944000e+004    +1.1751780e-007    +1.1955337e-006
+6.7072000e+004    +1.2531510e-007    +1.2022563e-006
+6.7200000e+004    +1.3321942e-007    +1.1447661e-006
+6.7328000e+004    +1.5776838e-007    +1.1213933e-006
+6.7456000e+004    +1.2736500e-007    +1.2362325e-006
+6.7584000e+004    +1.2218261e-007    +1.2671111e-006
+6.7712000e+004    +1.2395324e-007    +1.2574525e-006
+6.7840000e+004    +1.2924875e-007    +1.3226536e-006
+6.7968000e+004    +1.2292404e-007    +1.2284484e-006
+6.8096000e+004    +1.1388864e-007    +1.2345045e-006
+6.8224000e+004    +1.1636264e-007    +1.1590283e-006
+6.8352000e+004    +1.1418940e-007    +1.2757451e-006
+6.8480000e+004    +1.7774732e-007    +1.3035983e-006
+6.8608000e+004    +2.2323168e-007    +1.1721729e-006
+6.8736000e+004    +1.3551700e-007    +1.2758081e-006
+6.8864000e+004    +1.2046559e-007    +1.2983076e-006
+6.8992000e+004    +1.2470855e-007    +1.2418346e-006
+6.9120000e+004    +1.1454815e-007    +1.2260862e-006
+6.9248000e+004    +1.1606419e-007    +1.2378949e-006
+6.9376000e+004    +1.1837469e-007    +1.3022922e-006
+6.9504000e+004    +1.1951978e-007    +1.2683081e-006
+6.9632000e+004    +1.1165870e-007    +1.2136477e-006
+6.9760000e+004    +1.1019707e-007    +1.2992857e-006
+6.9888000e+004    +1.2055941e-007    +1.2322835e-006
+7.0016000e+004    +1.3572711e-007    +1.3019019e-006
+7.0144000e+004    +7.7500266e-007    +1.3248541e-006
+7.0272000e+004    +1.2255331e-006    +1.4782612e-006
+7.0400000e+004    +4.8738315e-007    +1.3912004e-006
+7.0528000e+004    +1.2365392e-007    +1.4063849e-006
+7.0656000e+004    +2.9617544e-007    +1.3698980e-006
+7.0784000e+004    +5.7741295e-007    +1.2707389e-006
+7.0912000e+004    +3.1254677e-007    +1.3585428e-006
+7.1040000e+004    +1.1373768e-007    +1.2342781e-006
+7.1168000e+004    +1.1252636e-007    +1.2205685e-006
+7.1296000e+004    +1.0877439e-007    +1.2132680e-006
+7.1424000e+004    +1.0955912e-007    +1.3672444e-006
+7.1552000e+004    +1.1476153e-007    +1.2609946e-006
+7.1680000e+004    +1.1738059e-007    +1.2631647e-006
+7.1808000e+004    +1.2003596e-007    +1.3781804e-006
+7.1936000e+004    +1.2433885e-007    +1.3405016e-006
+7.2064000e+004    +1.1192665e-007    +1.2128085e-006
+7.2192000e+004    +1.0642539e-007    +1.3345174e-006
+7.2320000e+004    +1.0511290e-007    +1.3639038e-006
+7.2448000e+004    +1.1090788e-007    +1.2629304e-006
+7.2576000e+004    +1.0428867e-007    +1.3612214e-006
+7.2704000e+004    +1.1460451e-007    +1.3836797e-006
+7.2832000e+004    +1.1288733e-007    +1.3531746e-006
+7.2960000e+004    +1.2112541e-007    +1.3132118e-006
+7.3088000e+004    +1.1977727e-007    +1.2863532e-006
+7.3216000e+004    +1.1643113e-007    +1.2865410e-006
+7.3344000e+004    +1.1414226e-007    +1.2570108e-006
+7.3472000e+004    +1.1125780e-007    +1.2725820e-006
+7.3600000e+004    +1.0954926e-007    +1.2655761e-006
+7.3728000e+004    +1.2032123e-007    +1.3567600e-006
+7.3856000e+004    +1.2315598e-007    +1.3178367e-006
+7.3984000e+004    +1.1143091e-007    +1.2497818e-006
+7.4112000e+004    +1.0904356e-007    +1.3202741e-006
+7.4240000e+004    +1.1596572e-007    +1.2603773e-006
+7.4368000e+004    +1.2758278e-007    +1.2458894e-006
+7.4496000e+004    +1.2758936e-007    +1.1744337e-006
+7.4624000e+004    +1.1719567e-007    +1.1762830e-006
+7.4752000e+004    +1.0880019e-007    +1.3328950e-006
+7.4880000e+004    +1.1116988e-007    +1.3420967e-006
+7.5008000e+004    +1.1065354e-007    +1.3578434e-006
+7.5136000e+004    +1.0807963e-007    +1.3277768e-006
+7.5264000e+004    +1.0885564e-007    +1.2819893e-006
+7.5392000e+004    +9.8960406e-008    +1.3284272e-006
+7.5520000e+004    +1.0278134e-007    +1.4142340e-006
+7.5648000e+004    +1.1404981e-007    +1.3635804e-006
+7.5776000e+004    +1.1688623e-007    +1.2741269e-006
+7.5904000e+004    +1.0532420e-007    +1.3046622e-006
+7.6032000e+004    +1.0789716e-007    +1.4035465e-006
+7.6160000e+004    +1.1155736e-007    +1.3892726e-006
+7.6288000e+004    +1.0492311e-007    +1.3668661e-006
+7.6416000e+004    +1.0806314e-007    +1.3818791e-006
+7.6544000e+004    +1.0046629e-007    +1.3333780e-006
+7.6672000e+004    +9.7490258e-008    +1.3404399e-006
+7.6800000e+004    +1.0538100e-007    +5.0297090e-006
+7.6928000e+004    +1.0981600e-007    +9.0639669e-006
+7.7056000e+004    +1.0697859e-007    +4.4322774e-006
+7.7184000e+004    +1.1358132e-007    +1.4323550e-006
+7.7312000e+004    +1.1417435e-007    +1.3212806e-006
+7.7440000e+004    +1.0610920e-007    +1.3465468e-006
+7.7568000e+004    +2.4287252e-007    +1.4144453e-006
+7.7696000e+004    +4.4434603e-007    +1.5117802e-006
+7.7824000e+004    +2.4838556e-007    +1.5204663e-006
+7.7952000e+004    +1.1370172e-007    +1.3692694e-006
+7.8080000e+004    +1.1081841e-007    +1.3485767e-006
+7.8208000e+004    +1.3362607e-007    +1.4139964e-006
+7.8336000e+004    +2.4246913e-007    +1.3726955e-006
+7.8464000e+004    +1.8826198e-007    +1.4698065e-006
+7.8592000e+004    +1.1935573e-007    +1.4002295e-006
+7.8720000e+004    +1.1804646e-007    +1.3080399e-006
+7.8848000e+004    +1.0572775e-007    +1.2128111e-006
+7.8976000e+004    +1.0655026e-007    +1.3249545e-006
+7.9104000e+004    +1.1103472e-007    +1.3032176e-006
+7.9232000e+004    +1.1466581e-007    +1.3361713e-006
+7.9360000e+004    +1.5778571e-007    +1.3935012e-006
+7.9488000e+004    +2.7760640e-007    +1.4266373e-006
+7.9616000e+004    +1.8272537e-007    +1.4747126e-006
+7.9744000e+004    +1.1899380e-007    +1.3127044e-006
+7.9872000e+004    +1.2561334e-007    +1.2862401e-006
+8.0000000e+004    +1.1575315e-007    +1.3397292e-006
+8.0128000e+004    +1.2629303e-007    +1.4446491e-006
+8.0256000e+004    +1.2911741e-007    +1.4232688e-006
+8.0384000e+004    +1.2387406e-007    +1.4313017e-006
+8.0512000e+004    +1.2387665e-007    +1.3914693e-006
+8.0640000e+004    +1.2652843e-007    +1.3558292e-006
+8.0768000e+004    +1.3900431e-007    +1.3993734e-006
+8.0896000e+004    +1.4410610e-007    +1.4182739e-006
+8.1024000e+004    +1.3576749e-007    +1.3838255e-006
+8.1152000e+004    +1.2168887e-007    +1.3616758e-006
+8.1280000e+004    +1.3711711e-007    +1.4872461e-006
+8.1408000e+004    +1.3612289e-007    +1.5085171e-006
+8.1536000e+004    +1.3520000e-007    +1.4220739e-006
+8.1664000e+004    +1.3633169e-007    +1.3355992e-006
+8.1792000e+004    +1.3243698e-007    +1.3665855e-006
+8.1920000e+004    +1.3349073e-007    +1.3060998e-006
+8.2048000e+004    +1.3237535e-007    +1.4497624e-006
+8.2176000e+004    +1.3541333e-007    +1.4518428e-006
+8.2304000e+004    +1.3127720e-007    +1.3173217e-006
+8.2432000e+004    +1.3160596e-007    +1.2563127e-006
+8.2560000e+004    +1.3452744e-007    +1.3552934e-006
+8.2688000e+004    +1.3995256e-007    +1.4051362e-006
+8.2816000e+004    +1.3523191e-007    +1.3380753e-006
+8.2944000e+004    +1.2750492e-007    +1.2905307e-006
+8.3072000e+004    +1.4121377e-007    +1.4205523e-006
+8.3200000e+004    +1.3011059e-007    +1.4742350e-006
+8.3328000e+004    +1.2339841e-007    +1.4536819e-006
+8.3456000e+004    +1.2009740e-007    +1.3308462e-006
+8.3584000e+004    +1.1441504e-007    +1.4790908e-006
+8.3712000e+004    +1.2674896e-007    +1.3159744e-006
+8.3840000e+004    +1.3424179e-007    +1.2816923e-006
+8.3968000e+004    +1.3726969e-007    +1.3677969e-006
+8.4096000e+004    +1.4065748e-007    +1.4134082e-006
+8.4224000e+004    +1.4003079e-007    +1.4584957e-006
+8.4352000e+004    +1.4534378e-007    +1.3944425e-006
+8.4480000e+004    +1.5017201e-007    +1.4259075e-006
+8.4608000e+004    +1.4476215e-007    +1.3890499e-006
+8.4736000e+004    +1.5223706e-007    +1.4631117e-006
+8.4864000e+004    +1.7676314e-007    +1.5101461e-006
+8.4992000e+004    +1.9353452e-007    +1.5892977e-006
+8.5120000e+004    +2.2065088e-007    +1.6008687e-006
+8.5248000e+004    +2.4416525e-007    +1.3741280e-006
+8.5376000e+004    +2.9567798e-007    +1.2980224e-006
+8.5504000e+004    +3.3877996e-007    +1.4686483e-006
+8.5632000e+004    +3.7456596e-007    +1.4960967e-006
+8.5760000e+004    +3.9980799e-007    +1.3125804e-006
+8.5888000e+004    +4.3908881e-007    +1.3535357e-006
+8.6016000e+004    +4.5254330e-007    +1.4079964e-006
+8.6144000e+004    +4.3169274e-007    +1.5067956e-006
+8.6272000e+004    +4.1769624e-007    +1.4198803e-006
+8.6400000e+004    +3.6107002e-007    +1.4160192e-006
+8.6528000e+004    +3.3123837e-007    +1.3693461e-006
+8.6656000e+004    +3.6650528e-007    +1.3959360e-006
+8.6784000e+004    +4.1491353e-007    +1.4214354e-006
+8.6912000e+004    +4.2594453e-007    +1.3971121e-006
+8.7040000e+004    +4.3693814e-007    +1.2957954e-006
+8.7168000e+004    +4.1857862e-007    +1.4249888e-006
+8.7296000e+004    +3.9600363e-007    +1.4072128e-006
+8.7424000e+004    +3.9514106e-007    +1.3286066e-006
+8.7552000e+004    +4.0918022e-007    +1.3656301e-006
+8.7680000e+004    +3.9137595e-007    +1.4511942e-006
+8.7808000e+004    +4.2735172e-007    +1.5274051e-006
+8.7936000e+004    +4.6473292e-007    +1.4835912e-006
+8.8064000e+004    +4.4431869e-007    +1.5255782e-006
+8.8192000e+004    +4.4104954e-007    +1.4928100e-006
+8.8320000e+004    +4.4538396e-007    +1.4364293e-006
+8.8448000e+004    +4.0307580e-007    +1.3963944e-006
+8.8576000e+004    +4.0862440e-007    +1.4408980e-006
+8.8704000e+004    +4.4257612e-007    +1.3123297e-006
+8.8832000e+004    +4.2033469e-007    +1.3277331e-006
+8.8960000e+004    +4.1606631e-007    +1.2847653e-006
+8.9088000e+004    +4.5651376e-007    +1.3719225e-006
+8.9216000e+004    +4.2201796e-007    +1.3494491e-006
+8.9344000e+004    +4.4453438e-007    +1.3654711e-006
+8.9472000e+004    +4.6115758e-007    +1.4021772e-006
+8.9600000e+004    +4.1167490e-007    +1.3814102e-006
+8.9728000e+004    +4.3176291e-007    +1.3689372e-006
+8.9856000e+004    +3.9984837e-007    +1.4031983e-006
+8.9984000e+004    +4.3723952e-007    +1.3915304e-006
+9.0112000e+004    +4.3093314e-007    +1.3769945e-006
+9.0240000e+004    +4.3869366e-007    +1.3924994e-006
+9.0368000e+004    +4.3202135e-007    +1.2795874e-006
+9.0496000e+004    +4.1529637e-007    +1.3366217e-006
+9.0624000e+004    +4.3372043e-007    +1.3796960e-006
+9.0752000e+004    +4.4431283e-007    +1.3885177e-006
+9.0880000e+004    +4.5090908e-007    +1.4096329e-006
+9.1008000e+004    +4.6063280e-007    +1.3746380e-006
+9.1136000e+004    +4.4196284e-007    +1.3920760e-006
+9.1264000e+004    +4.4483318e-007    +1.4739145e-006
+9.1392000e+004    +4.3361379e-007    +1.4158079e-006
+9.1520000e+004    +4.5453368e-007    +1.4747401e-006
+9.1648000e+004    +4.4645373e-007    +1.4406702e-006
+9.1776000e+004    +4.7129117e-007    +1.3805733e-006
+9.1904000e+004    +4.4532578e-007    +1.3348604e-006
+9.2032000e+004    +4.8708358e-007    +1.2717132e-006
+9.2160000e+004    +4.5556942e-007    +1.3620840e-006
+9.2288000e+004    +4.7631013e-007    +1.3016003e-006
+9.2416000e+004    +5.1828272e-007    +1.3528048e-006
+9.2544000e+004    +4.5203382e-007    +1.4438594e-006
+9.2672000e+004    +4.9587760e-007    +1.3325086e-006
+9.2800000e+004    +4.9311620e-007    +1.3814315e-006
+9.2928000e+004    +4.4136684e-007    +1.4055806e-006
+9.3056000e+004    +5.0918300e-007    +1.4599665e-006
+9.3184000e+004    +5.3184988e-007    +1.4277498e-006
+9.3312000e+004    +4.2397693e-007    +1.4395254e-006
+9.3440000e+004    +4.3922768e-007    +1.3773862e-006
+9.3568000e+004    +5.4556790e-007    +1.3059133e-006
+9.3696000e+004    +5.1590382e-007    +1.4212528e-006
+9.3824000e+004    +3.9539668e-007    +1.4807661e-006
+9.3952000e+004    +3.9470530e-007    +1.5463411e-006
+9.4080000e+004    +4.8943218e-007    +1.5158590e-006
+9.4208000e+004    +5.3940090e-007    +1.4417431e-006
+9.4336000e+004    +4.8316861e-007    +1.3366907e-006
+9.4464000e+004    +5.3307991e-007    +1.3415560e-006
+9.4592000e+004    +4.6142753e-007    +1.3854080e-006
+9.4720000e+004    +5.0410148e-007    +1.3908217e-006
+9.4848000e+004    +6.6592202e-007    +1.3250170e-006
+9.4976000e+004    +6.8820225e-007    +1.4131149e-006
+9.5104000e+004    +6.8327751e-007    +1.4527836e-006
+9.5232000e+004    +6.2486043e-007    +1.3384265e-006
+9.5360000e+004    +5.7832722e-007    +1.3320376e-006
+9.5488000e+004    +4.8769039e-007    +1.4285919e-006
+9.5616000e+004    +3.8991166e-007    +1.3702139e-006
+9.5744000e+004    +3.3329189e-007    +1.3881169e-006
+9.5872000e+004    +2.7840736e-007    +1.3796641e-006
+9.6000000e+004    +2.4440047e-007    +1.4476692e-006
+9.6128000e+004    +2.3415940e-007    +1.6440615e-006
+9.6256000e+004    +2.2866290e-007    +1.5138382e-006
+9.6384000e+004    +1.9511229e-007    +1.3542760e-006
+9.6512000e+004    +2.1093084e-007    +1.3619346e-006
+9.6640000e+004    +2.3716575e-007    +1.2904910e-006
+9.6768000e+004    +2.3149495e-007    +1.3841385e-006
+9.6896000e+004    +2.2190622e-007    +1.4253581e-006
+9.7024000e+004    +2.7051948e-007    +1.5124543e-006
+9.7152000e+004    +2.3290352e-007    +1.3280596e-006
+9.7280000e+004    +1.8816775e-007    +1.2914790e-006
+9.7408000e+004    +1.8636149e-007    +1.2909742e-006
+9.7536000e+004    +2.1302738e-007    +1.3660409e-006
+9.7664000e+004    +2.0942555e-007    +1.4351572e-006
+9.7792000e+004    +2.4008571e-007    +1.4121982e-006
+9.7920000e+004    +3.1791060e-007    +1.3628440e-006
+9.8048000e+004    +2.8433712e-007    +1.3157432e-006
+9.8176000e+004    +2.6135086e-007    +1.3167751e-006
+9.8304000e+004    +2.5343843e-007    +1.3614142e-006
+9.8432000e+004    +2.5361993e-007    +1.3849670e-006
+9.8560000e+004    +2.4410468e-007    +1.4189529e-006
+9.8688000e+004    +2.4292825e-007    +1.3526711e-006
+9.8816000e+004    +2.3042179e-007    +1.2340707e-006
+9.8944000e+004    +2.0872517e-007    +1.4321600e-006
+9.9072000e+004    +2.1030785e-007    +1.3977673e-006
+9.9200000e+004    +2.0990575e-007    +1.2220059e-006
+9.9328000e+004    +1.9864389e-007    +1.2877678e-006
+9.9456000e+004    +1.8397451e-007    +1.3629697e-006
+9.9584000e+004    +1.7823648e-007    +1.3236458e-006
+9.9712000e+004    +1.7379335e-007    +1.3549900e-006
+9.9840000e+004    +1.8367479e-007    +1.3591023e-006
+9.9968000e+004    +1.8071462e-007    +1.4236471e-006
+1.0009600e+005    +1.7349460e-007    +1.4147869e-006
+1.0022400e+005    +1.7815353e-007    +1.3091952e-006
+1.0035200e+005    +1.8601050e-007    +1.3508308e-006
+1.0048000e+005    +1.7311385e-007    +1.4537154e-006
+1.0060800e+005    +1.6427967e-007    +1.4293843e-006
+1.0073600e+005    +1.6152350e-007    +1.3425077e-006
+1.0086400e+005    +1.5171211e-007    +1.3643951e-006
+1.0099200e+005    +1.6235366e-007    +1.2561871e-006
+1.0112000e+005    +1.6362981e-007    +1.2247810e-006
+1.0124800e+005    +1.6828730e-007    +1.1970587e-006
+1.0137600e+005    +1.7140410e-007    +1.1890812e-006
+1.0150400e+005    +1.6503408e-007    +1.2671486e-006
+1.0163200e+005    +1.8233958e-007    +1.3177470e-006
+1.0176000e+005    +1.7994502e-007    +1.3519702e-006
+1.0188800e+005    +1.7784318e-007    +1.5044664e-006
+1.0201600e+005    +1.6907441e-007    +1.4550967e-006
+1.0214400e+005    +1.6330800e-007    +1.3412407e-006
+1.0227200e+005    +1.8082915e-007    +1.3673884e-006
