0.000000000000000000e+00 5.176974799999999738e-02
1.600000000000000000e+01 3.525492099999999462e-02
3.200000000000000000e+01 1.144861700000000121e-02
4.800000000000000000e+01 7.751414199999999942e-03
6.400000000000000000e+01 9.007734699999998818e-03
8.000000000000000000e+01 6.230272400000000377e-03
9.600000000000000000e+01 4.595083699999999612e-03
1.120000000000000000e+02 5.135347699999999981e-03
1.280000000000000000e+02 5.108001499999999771e-03
1.440000000000000000e+02 4.374205700000000606e-03
1.600000000000000000e+02 5.128715700000000509e-03
1.760000000000000000e+02 6.738847299999999735e-03
1.920000000000000000e+02 5.809135499999999730e-03
2.080000000000000000e+02 4.027740900000000013e-03
2.240000000000000000e+02 4.096045399999999684e-03
2.400000000000000000e+02 4.195108000000000344e-03
2.560000000000000000e+02 3.849724599999999886e-03
2.720000000000000000e+02 3.928850200000000292e-03
2.880000000000000000e+02 5.341491900000000168e-03
3.040000000000000000e+02 5.990537800000000045e-03
3.200000000000000000e+02 4.535122600000000143e-03
3.360000000000000000e+02 4.081607599999999454e-03
3.520000000000000000e+02 4.203609899999999518e-03
3.680000000000000000e+02 4.083866799999999637e-03
3.840000000000000000e+02 3.956915899999999958e-03
4.000000000000000000e+02 4.051718900000000033e-03
4.160000000000000000e+02 4.215261499999999398e-03
4.320000000000000000e+02 4.100045299999999747e-03
4.480000000000000000e+02 4.059235399999999716e-03
4.640000000000000000e+02 4.234549599999999983e-03
4.800000000000000000e+02 4.386055500000000419e-03
4.960000000000000000e+02 4.291196100000000194e-03
5.120000000000000000e+02 4.290772300000000525e-03
5.280000000000000000e+02 4.233419999999999891e-03
5.440000000000000000e+02 4.081643499999999987e-03
5.600000000000000000e+02 4.110173400000000088e-03
5.760000000000000000e+02 4.195867899999999699e-03
5.920000000000000000e+02 4.229104000000000023e-03
6.080000000000000000e+02 4.269957599999999777e-03
6.240000000000000000e+02 4.319141700000000104e-03
6.400000000000000000e+02 4.412413499999999315e-03
6.560000000000000000e+02 4.405423600000000529e-03
6.720000000000000000e+02 4.144596000000000391e-03
6.880000000000000000e+02 4.253299700000000121e-03
7.040000000000000000e+02 4.488315900000000407e-03
7.200000000000000000e+02 4.451102099999999784e-03
7.360000000000000000e+02 4.333196599999999434e-03
7.520000000000000000e+02 4.447550500000000372e-03
7.680000000000000000e+02 4.573239500000000381e-03
7.840000000000000000e+02 4.469103299999999980e-03
8.000000000000000000e+02 4.321333099999999719e-03
8.160000000000000000e+02 4.337875899999999590e-03
8.320000000000000000e+02 4.402077600000000104e-03
8.480000000000000000e+02 4.196347199999999646e-03
8.640000000000000000e+02 4.188567800000000084e-03
8.800000000000000000e+02 4.428055499999999922e-03
8.960000000000000000e+02 7.806957000000000653e-03
9.120000000000000000e+02 1.296971100000000009e-02
9.280000000000000000e+02 1.139959700000000090e-02
9.440000000000000000e+02 6.224508499999999861e-03
9.600000000000000000e+02 4.761469899999999818e-03
9.760000000000000000e+02 4.610041700000000291e-03
9.920000000000000000e+02 4.693819799999999522e-03
1.008000000000000000e+03 4.737627900000000204e-03
1.024000000000000000e+03 4.787544600000000553e-03
1.040000000000000000e+03 4.633572600000000069e-03
1.056000000000000000e+03 4.302669799999999690e-03
1.072000000000000000e+03 4.289504899999999413e-03
1.088000000000000000e+03 4.340362899999999392e-03
1.104000000000000000e+03 4.395779300000000368e-03
1.120000000000000000e+03 4.413256600000000154e-03
1.136000000000000000e+03 4.607800300000000106e-03
1.152000000000000000e+03 4.618025700000000233e-03
1.168000000000000000e+03 4.670260300000000399e-03
1.184000000000000000e+03 4.862638899999999730e-03
1.200000000000000000e+03 5.046624700000000227e-03
1.216000000000000000e+03 4.852350699999999871e-03
1.232000000000000000e+03 4.585064699999999611e-03
1.248000000000000000e+03 4.697764299999999775e-03
1.264000000000000000e+03 4.954661600000000166e-03
1.280000000000000000e+03 4.842637299999999999e-03
1.296000000000000000e+03 4.668639999999999943e-03
1.312000000000000000e+03 5.010499999999999329e-03
1.328000000000000000e+03 4.973623600000000138e-03
1.344000000000000000e+03 4.633618100000000406e-03
1.360000000000000000e+03 4.607319599999999682e-03
1.376000000000000000e+03 4.719384400000000215e-03
1.392000000000000000e+03 4.678574399999999717e-03
1.408000000000000000e+03 4.568301399999999575e-03
1.424000000000000000e+03 4.533435000000000589e-03
1.440000000000000000e+03 4.773257799999999773e-03
1.456000000000000000e+03 4.937392500000000253e-03
1.472000000000000000e+03 4.896691699999999696e-03
1.488000000000000000e+03 4.798417200000000202e-03
1.504000000000000000e+03 4.521256399999999676e-03
1.520000000000000000e+03 4.511155600000000404e-03
1.536000000000000000e+03 4.872317300000000677e-03
1.552000000000000000e+03 5.065165600000000150e-03
1.568000000000000000e+03 5.014060700000000544e-03
1.584000000000000000e+03 4.841435800000000109e-03
1.600000000000000000e+03 4.666472300000000170e-03
1.616000000000000000e+03 4.646216900000000628e-03
1.632000000000000000e+03 4.772539800000000394e-03
1.648000000000000000e+03 4.699471900000000077e-03
1.664000000000000000e+03 4.702295000000000433e-03
1.680000000000000000e+03 4.920556400000000545e-03
1.696000000000000000e+03 4.906476099999999493e-03
1.712000000000000000e+03 5.115842199999999854e-03
1.728000000000000000e+03 5.224483199999999453e-03
1.744000000000000000e+03 5.190201599999999527e-03
1.760000000000000000e+03 5.268880200000000159e-03
1.776000000000000000e+03 5.259228099999999941e-03
1.792000000000000000e+03 4.963994799999999624e-03
1.808000000000000000e+03 4.833988899999999873e-03
1.824000000000000000e+03 4.852292000000000237e-03
1.840000000000000000e+03 5.069049200000000019e-03
1.856000000000000000e+03 5.070095499999999894e-03
1.872000000000000000e+03 5.048963899999999935e-03
1.888000000000000000e+03 4.963002499999999949e-03
1.904000000000000000e+03 4.873371400000000610e-03
1.920000000000000000e+03 5.220681500000000190e-03
1.936000000000000000e+03 5.161979100000000167e-03
1.952000000000000000e+03 5.063080599999999522e-03
1.968000000000000000e+03 5.409874599999999617e-03
1.984000000000000000e+03 5.044841100000000030e-03
2.000000000000000000e+03 4.754443600000000762e-03
2.016000000000000000e+03 4.936931900000000178e-03
2.032000000000000000e+03 4.894993300000000797e-03
2.048000000000000000e+03 4.861602999999999931e-03
2.064000000000000000e+03 4.678379400000000007e-03
2.080000000000000000e+03 4.755200700000000030e-03
2.096000000000000000e+03 5.187705899999999794e-03
2.112000000000000000e+03 5.342054900000000467e-03
2.128000000000000000e+03 5.287685800000000574e-03
2.144000000000000000e+03 5.121434200000000297e-03
2.160000000000000000e+03 5.019883200000000226e-03
2.176000000000000000e+03 4.980831800000000073e-03
2.192000000000000000e+03 5.128940799999999640e-03
2.208000000000000000e+03 5.168115000000000035e-03
2.224000000000000000e+03 5.109426200000000313e-03
2.240000000000000000e+03 5.073564800000000298e-03
2.256000000000000000e+03 5.145772299999999515e-03
2.272000000000000000e+03 5.302801999999999689e-03
2.288000000000000000e+03 5.355967900000000413e-03
2.304000000000000000e+03 5.265445000000000542e-03
2.320000000000000000e+03 4.800345799999999538e-03
2.336000000000000000e+03 4.701892499999999787e-03
2.352000000000000000e+03 4.781366900000000308e-03
2.368000000000000000e+03 4.710511300000000227e-03
2.384000000000000000e+03 4.835841999999999918e-03
2.400000000000000000e+03 5.063820000000000127e-03
2.416000000000000000e+03 5.030156400000000173e-03
2.432000000000000000e+03 5.089269999999999905e-03
2.448000000000000000e+03 4.952790700000000122e-03
2.464000000000000000e+03 4.741395500000000415e-03
2.480000000000000000e+03 4.831787000000000581e-03
2.496000000000000000e+03 4.898918199999999570e-03
2.512000000000000000e+03 5.024437999999999994e-03
2.528000000000000000e+03 4.984891299999999643e-03
2.544000000000000000e+03 4.886777299999999803e-03
2.560000000000000000e+03 4.906502899999999959e-03
2.576000000000000000e+03 4.888182999999999938e-03
2.592000000000000000e+03 4.865741600000000021e-03
2.608000000000000000e+03 4.863850800000000564e-03
2.624000000000000000e+03 4.772817599999999716e-03
2.640000000000000000e+03 4.814644900000000609e-03
2.656000000000000000e+03 4.873536899999999367e-03
2.672000000000000000e+03 4.728751700000000460e-03
2.688000000000000000e+03 4.599904499999999882e-03
2.704000000000000000e+03 4.641857200000000169e-03
2.720000000000000000e+03 4.595447100000000368e-03
2.736000000000000000e+03 4.509863200000000308e-03
2.752000000000000000e+03 4.776591999999999644e-03
2.768000000000000000e+03 5.006199899999999245e-03
2.784000000000000000e+03 4.959059000000000036e-03
2.800000000000000000e+03 4.591271100000000535e-03
2.816000000000000000e+03 4.522974499999999655e-03
2.832000000000000000e+03 4.936969600000000458e-03
2.848000000000000000e+03 4.736062699999999889e-03
2.864000000000000000e+03 4.637700399999999945e-03
2.880000000000000000e+03 4.787881199999999976e-03
2.896000000000000000e+03 4.746119400000000169e-03
2.912000000000000000e+03 4.629992400000000445e-03
2.928000000000000000e+03 4.760968299999999639e-03
2.944000000000000000e+03 5.061590900000000233e-03
2.960000000000000000e+03 5.005798799999999944e-03
2.976000000000000000e+03 4.749111699999999242e-03
2.992000000000000000e+03 4.760863699999999532e-03
3.008000000000000000e+03 4.818457899999999822e-03
3.024000000000000000e+03 4.704722399999999860e-03
3.040000000000000000e+03 4.678322999999999857e-03
3.056000000000000000e+03 4.631807300000000474e-03
3.072000000000000000e+03 4.549975500000000110e-03
3.088000000000000000e+03 4.449635999999999869e-03
3.104000000000000000e+03 4.494869700000000100e-03
3.120000000000000000e+03 4.519023199999999685e-03
3.136000000000000000e+03 4.573737000000000462e-03
3.152000000000000000e+03 4.536895600000000195e-03
3.168000000000000000e+03 4.423492600000000427e-03
3.184000000000000000e+03 4.420108800000000122e-03
3.200000000000000000e+03 4.452871499999999476e-03
3.216000000000000000e+03 4.602657999999999923e-03
3.232000000000000000e+03 4.561845800000000409e-03
3.248000000000000000e+03 4.499753200000000501e-03
3.264000000000000000e+03 4.420312499999999763e-03
3.280000000000000000e+03 4.301337899999999569e-03
3.296000000000000000e+03 4.097673800000000734e-03
3.312000000000000000e+03 3.953723499999999870e-03
3.328000000000000000e+03 4.131070900000000448e-03
3.344000000000000000e+03 4.331056100000000263e-03
3.360000000000000000e+03 4.410655500000000041e-03
3.376000000000000000e+03 4.387187300000000394e-03
3.392000000000000000e+03 4.419424400000000058e-03
3.408000000000000000e+03 4.486970699999999652e-03
3.424000000000000000e+03 4.480152700000000071e-03
3.440000000000000000e+03 4.429820800000000384e-03
3.456000000000000000e+03 4.409130300000000356e-03
3.472000000000000000e+03 4.404475500000000314e-03
3.488000000000000000e+03 4.287480399999999900e-03
3.504000000000000000e+03 4.363455900000000331e-03
3.520000000000000000e+03 4.505478000000000260e-03
3.536000000000000000e+03 4.524866700000000456e-03
3.552000000000000000e+03 4.345951800000000080e-03
3.568000000000000000e+03 4.331346199999999876e-03
3.584000000000000000e+03 4.417265699999999885e-03
3.600000000000000000e+03 4.456852800000000135e-03
3.616000000000000000e+03 4.385179199999999534e-03
3.632000000000000000e+03 4.451991599999999966e-03
3.648000000000000000e+03 4.648033200000000267e-03
3.664000000000000000e+03 4.564892200000000150e-03
3.680000000000000000e+03 4.226281799999999540e-03
3.696000000000000000e+03 3.960862600000000094e-03
3.712000000000000000e+03 4.045291500000000075e-03
3.728000000000000000e+03 4.065564600000000015e-03
3.744000000000000000e+03 4.111039699999999297e-03
3.760000000000000000e+03 4.323340399999999438e-03
3.776000000000000000e+03 4.342379300000000046e-03
3.792000000000000000e+03 4.245606300000000395e-03
3.808000000000000000e+03 4.234907500000000165e-03
3.824000000000000000e+03 4.291559000000000346e-03
3.840000000000000000e+03 4.215400200000000291e-03
3.856000000000000000e+03 4.039623500000000603e-03
3.872000000000000000e+03 4.091159999999999936e-03
3.888000000000000000e+03 4.207410300000000505e-03
3.904000000000000000e+03 4.352718399999999481e-03
3.920000000000000000e+03 4.393583800000000657e-03
3.936000000000000000e+03 4.191162099999999613e-03
3.952000000000000000e+03 4.199817800000000059e-03
3.968000000000000000e+03 4.635857299999999841e-03
3.984000000000000000e+03 4.664525899999999968e-03
4.000000000000000000e+03 4.428376500000000097e-03
4.016000000000000000e+03 4.337471199999999930e-03
4.032000000000000000e+03 4.144268100000000031e-03
4.048000000000000000e+03 3.955617099999999414e-03
4.064000000000000000e+03 4.145333200000000246e-03
4.080000000000000000e+03 4.248893699999999919e-03
4.096000000000000000e+03 4.175917199999999545e-03
4.112000000000000000e+03 4.218849900000000083e-03
4.128000000000000000e+03 4.253131900000000146e-03
4.144000000000000000e+03 3.956142299999999834e-03
4.160000000000000000e+03 3.892469500000000134e-03
4.176000000000000000e+03 4.170652099999999987e-03
4.192000000000000000e+03 4.318601000000000037e-03
4.208000000000000000e+03 4.253117800000000108e-03
4.224000000000000000e+03 4.060741999999999997e-03
4.240000000000000000e+03 3.936804200000000413e-03
4.256000000000000000e+03 3.997719899999999278e-03
4.272000000000000000e+03 4.065149399999999809e-03
4.288000000000000000e+03 4.173776199999999770e-03
4.304000000000000000e+03 4.164314800000000830e-03
4.320000000000000000e+03 4.132903500000000008e-03
4.336000000000000000e+03 3.958723499999999666e-03
4.352000000000000000e+03 4.063712399999999843e-03
4.368000000000000000e+03 4.278733300000000378e-03
4.384000000000000000e+03 4.261924500000000005e-03
4.400000000000000000e+03 4.099077600000000654e-03
4.416000000000000000e+03 3.987444399999999847e-03
4.432000000000000000e+03 4.051154099999999987e-03
4.448000000000000000e+03 4.235200300000000265e-03
4.464000000000000000e+03 4.186737900000000144e-03
4.480000000000000000e+03 4.047512900000000378e-03
4.496000000000000000e+03 3.953497999999999735e-03
4.512000000000000000e+03 3.919943999999999859e-03
4.528000000000000000e+03 3.964795699999999930e-03
4.544000000000000000e+03 4.299090499999999940e-03
4.560000000000000000e+03 4.265679300000000188e-03
4.576000000000000000e+03 4.206190600000000480e-03
4.592000000000000000e+03 4.301418399999999698e-03
4.608000000000000000e+03 4.300691199999999784e-03
4.624000000000000000e+03 4.310864799999999594e-03
4.640000000000000000e+03 4.199702700000000274e-03
4.656000000000000000e+03 4.087186400000000601e-03
4.672000000000000000e+03 4.057189899999999981e-03
4.688000000000000000e+03 3.971775600000000510e-03
4.704000000000000000e+03 4.094264999999999710e-03
4.720000000000000000e+03 4.504038799999999544e-03
4.736000000000000000e+03 4.460646799999999808e-03
4.752000000000000000e+03 4.117404399999999992e-03
4.768000000000000000e+03 3.961897600000000019e-03
4.784000000000000000e+03 3.958049499999999679e-03
4.800000000000000000e+03 4.177866199999999766e-03
4.816000000000000000e+03 4.133271400000000130e-03
4.832000000000000000e+03 4.143017100000000175e-03
4.848000000000000000e+03 4.088793500000000025e-03
4.864000000000000000e+03 3.975414499999999768e-03
4.880000000000000000e+03 4.084499299999999784e-03
4.896000000000000000e+03 4.123254299999999477e-03
4.912000000000000000e+03 4.136608400000000088e-03
4.928000000000000000e+03 4.149900599999999974e-03
4.944000000000000000e+03 4.097219500000000639e-03
4.960000000000000000e+03 4.040488400000000202e-03
4.976000000000000000e+03 3.903785899999999767e-03
4.992000000000000000e+03 4.037752199999999556e-03
5.008000000000000000e+03 4.193307200000000352e-03
5.024000000000000000e+03 4.082894099999999707e-03
5.040000000000000000e+03 4.046695299999999995e-03
5.056000000000000000e+03 3.889141699999999844e-03
5.072000000000000000e+03 3.831028599999999982e-03
5.088000000000000000e+03 3.903597200000000038e-03
5.104000000000000000e+03 3.874620700000000299e-03
5.120000000000000000e+03 3.680210499999999902e-03
5.136000000000000000e+03 3.616568399999999829e-03
5.152000000000000000e+03 3.731051300000000088e-03
5.168000000000000000e+03 3.920339600000000320e-03
5.184000000000000000e+03 4.146999299999999840e-03
5.200000000000000000e+03 4.155996999999999816e-03
5.216000000000000000e+03 4.090216900000000558e-03
5.232000000000000000e+03 4.036772699999999908e-03
5.248000000000000000e+03 3.998580300000000379e-03
5.264000000000000000e+03 4.134151799999999377e-03
5.280000000000000000e+03 4.187979399999999797e-03
5.296000000000000000e+03 4.292143299999999669e-03
5.312000000000000000e+03 4.332911000000000054e-03
5.328000000000000000e+03 4.255728999999999762e-03
5.344000000000000000e+03 4.197485399999999200e-03
5.360000000000000000e+03 4.191033400000000395e-03
5.376000000000000000e+03 4.093797500000000318e-03
5.392000000000000000e+03 4.057140800000000151e-03
5.408000000000000000e+03 4.033277000000000043e-03
5.424000000000000000e+03 3.910855899999999413e-03
5.440000000000000000e+03 3.787219800000000362e-03
5.456000000000000000e+03 3.882166299999999931e-03
5.472000000000000000e+03 3.929907100000000313e-03
5.488000000000000000e+03 3.748975600000000082e-03
5.504000000000000000e+03 3.922544200000000099e-03
5.520000000000000000e+03 4.162938699999999513e-03
5.536000000000000000e+03 4.219869000000000224e-03
5.552000000000000000e+03 4.067202999999999270e-03
5.568000000000000000e+03 4.001311899999999457e-03
5.584000000000000000e+03 4.164991399999999969e-03
5.600000000000000000e+03 4.215233699999999459e-03
5.616000000000000000e+03 4.201773700000000465e-03
5.632000000000000000e+03 4.313388199999999666e-03
5.648000000000000000e+03 4.243457599999999295e-03
5.664000000000000000e+03 3.989984599999999576e-03
5.680000000000000000e+03 4.016321299999999449e-03
5.696000000000000000e+03 4.049530600000000174e-03
5.712000000000000000e+03 3.970720599999999836e-03
5.728000000000000000e+03 4.041442500000000729e-03
5.744000000000000000e+03 4.102260800000000207e-03
5.760000000000000000e+03 3.977540500000000499e-03
5.776000000000000000e+03 3.951094200000000549e-03
5.792000000000000000e+03 3.907692600000000141e-03
5.808000000000000000e+03 4.024655499999999983e-03
5.824000000000000000e+03 4.055764699999999702e-03
5.840000000000000000e+03 4.015293599999999845e-03
5.856000000000000000e+03 4.085876300000000107e-03
5.872000000000000000e+03 4.236469999999999993e-03
5.888000000000000000e+03 4.261882600000000028e-03
5.904000000000000000e+03 4.270379600000000567e-03
5.920000000000000000e+03 4.200459000000000137e-03
5.936000000000000000e+03 4.185386400000000277e-03
5.952000000000000000e+03 4.270801599999999622e-03
5.968000000000000000e+03 4.171567999999999631e-03
5.984000000000000000e+03 3.965949400000000000e-03
6.000000000000000000e+03 3.857166999999999887e-03
6.016000000000000000e+03 3.799377100000000083e-03
6.032000000000000000e+03 3.820942300000000017e-03
6.048000000000000000e+03 3.979934699999999881e-03
6.064000000000000000e+03 4.190702399999999411e-03
6.080000000000000000e+03 4.125780800000000172e-03
6.096000000000000000e+03 3.962106300000000497e-03
6.112000000000000000e+03 3.836150899999999850e-03
6.128000000000000000e+03 3.885074399999999782e-03
6.144000000000000000e+03 4.008189100000000143e-03
6.160000000000000000e+03 4.062333999999999910e-03
6.176000000000000000e+03 4.015677399999999751e-03
6.192000000000000000e+03 4.074045599999999434e-03
6.208000000000000000e+03 4.118254800000000285e-03
6.224000000000000000e+03 4.209217000000000340e-03
6.240000000000000000e+03 4.428741199999999996e-03
6.256000000000000000e+03 4.350768900000000390e-03
6.272000000000000000e+03 4.191033400000000395e-03
6.288000000000000000e+03 4.165673100000000413e-03
6.304000000000000000e+03 4.088434299999999834e-03
6.320000000000000000e+03 4.085248299999999326e-03
6.336000000000000000e+03 4.233461799999999400e-03
6.352000000000000000e+03 4.285739100000000683e-03
6.368000000000000000e+03 4.139079499999999238e-03
6.384000000000000000e+03 4.085512999999999818e-03
6.400000000000000000e+03 3.916613900000000086e-03
6.416000000000000000e+03 3.833536099999999835e-03
6.432000000000000000e+03 3.970328199999999599e-03
6.448000000000000000e+03 4.049632899999999931e-03
6.464000000000000000e+03 4.100455000000000245e-03
6.480000000000000000e+03 4.051745699999999631e-03
6.496000000000000000e+03 4.030851000000000225e-03
6.512000000000000000e+03 4.003777599999999368e-03
6.528000000000000000e+03 4.128572500000000228e-03
6.544000000000000000e+03 4.201671799999999977e-03
6.560000000000000000e+03 4.211019600000000078e-03
6.576000000000000000e+03 4.274455899999999794e-03
6.592000000000000000e+03 4.182354599999999444e-03
6.608000000000000000e+03 3.961414700000000580e-03
6.624000000000000000e+03 3.796416400000000076e-03
6.640000000000000000e+03 3.971117199999999771e-03
6.656000000000000000e+03 4.105279899999999746e-03
6.672000000000000000e+03 3.942609099999999298e-03
6.688000000000000000e+03 3.914949999999999507e-03
6.704000000000000000e+03 4.193555899999999725e-03
6.720000000000000000e+03 4.302004099999999498e-03
6.736000000000000000e+03 4.360275900000000135e-03
6.752000000000000000e+03 4.356983499999999773e-03
6.768000000000000000e+03 4.222135400000000260e-03
6.784000000000000000e+03 4.176609300000000066e-03
6.800000000000000000e+03 4.366485000000000678e-03
6.816000000000000000e+03 4.325909200000000246e-03
6.832000000000000000e+03 4.173029500000000579e-03
6.848000000000000000e+03 4.067015200000000281e-03
6.864000000000000000e+03 4.086535700000000319e-03
6.880000000000000000e+03 4.137244100000000459e-03
6.896000000000000000e+03 4.167653999999999803e-03
6.912000000000000000e+03 4.165142399999999419e-03
6.928000000000000000e+03 4.297651200000000490e-03
6.944000000000000000e+03 4.204755000000000124e-03
6.960000000000000000e+03 4.268785699999999572e-03
6.976000000000000000e+03 4.359337700000000260e-03
6.992000000000000000e+03 4.450217599999999572e-03
7.008000000000000000e+03 4.556454300000000249e-03
7.024000000000000000e+03 4.337847300000000246e-03
7.040000000000000000e+03 4.101905199999999509e-03
7.056000000000000000e+03 4.173528900000000007e-03
7.072000000000000000e+03 4.333463000000000072e-03
7.088000000000000000e+03 4.375526299999999910e-03
7.104000000000000000e+03 4.219234100000000126e-03
7.120000000000000000e+03 4.007009899999999618e-03
7.136000000000000000e+03 4.096792099999999742e-03
7.152000000000000000e+03 4.226225899999999994e-03
7.168000000000000000e+03 4.082997299999999337e-03
7.184000000000000000e+03 4.013685199999999544e-03
7.200000000000000000e+03 4.292986899999999377e-03
7.216000000000000000e+03 4.288737300000000467e-03
7.232000000000000000e+03 4.207645800000000581e-03
7.248000000000000000e+03 4.157626299999999872e-03
7.264000000000000000e+03 4.292336600000000099e-03
7.280000000000000000e+03 4.327120700000000077e-03
7.296000000000000000e+03 4.238307600000000390e-03
7.312000000000000000e+03 4.114891899999999735e-03
7.328000000000000000e+03 4.027608200000000298e-03
7.344000000000000000e+03 4.047810300000000312e-03
7.360000000000000000e+03 4.073571300000000325e-03
7.376000000000000000e+03 4.060657400000000639e-03
7.392000000000000000e+03 4.293882700000000406e-03
7.408000000000000000e+03 4.404668700000000277e-03
7.424000000000000000e+03 4.138057199999999741e-03
7.440000000000000000e+03 4.137016700000000109e-03
7.456000000000000000e+03 4.298104200000000576e-03
7.472000000000000000e+03 4.309454700000000561e-03
7.488000000000000000e+03 4.379583099999999861e-03
7.504000000000000000e+03 4.396401899999999308e-03
7.520000000000000000e+03 4.243774599999999841e-03
7.536000000000000000e+03 4.303227300000000283e-03
7.552000000000000000e+03 4.310377299999999454e-03
7.568000000000000000e+03 4.150520499999999294e-03
7.584000000000000000e+03 4.240351199999999911e-03
7.600000000000000000e+03 4.353655199999999746e-03
7.616000000000000000e+03 4.274253999999999901e-03
7.632000000000000000e+03 4.261555200000000272e-03
7.648000000000000000e+03 4.194062499999999874e-03
7.664000000000000000e+03 4.076694500000000235e-03
7.680000000000000000e+03 4.051643399999999874e-03
7.696000000000000000e+03 4.080514399999999632e-03
7.712000000000000000e+03 4.268944799999999616e-03
7.728000000000000000e+03 4.291233800000000473e-03
7.744000000000000000e+03 4.184591499999999395e-03
7.760000000000000000e+03 4.189036599999999486e-03
7.776000000000000000e+03 4.280895199999999907e-03
7.792000000000000000e+03 4.216548399999999787e-03
7.808000000000000000e+03 4.323701399999999376e-03
7.824000000000000000e+03 4.465169699999999540e-03
7.840000000000000000e+03 4.631227999999999387e-03
7.856000000000000000e+03 4.735625700000000056e-03
7.872000000000000000e+03 4.675668200000000080e-03
7.888000000000000000e+03 4.617458200000000568e-03
7.904000000000000000e+03 4.423818199999999569e-03
7.920000000000000000e+03 4.332991899999999452e-03
7.936000000000000000e+03 4.532972099999999296e-03
7.952000000000000000e+03 4.450373999999999997e-03
7.968000000000000000e+03 4.386955900000000415e-03
7.984000000000000000e+03 4.340582100000000415e-03
8.000000000000000000e+03 4.147745999999999898e-03
8.016000000000000000e+03 4.270782500000000481e-03
8.032000000000000000e+03 4.315444099999999478e-03
8.048000000000000000e+03 4.324850099999999475e-03
8.064000000000000000e+03 4.423443899999999866e-03
8.080000000000000000e+03 4.381434800000000296e-03
8.096000000000000000e+03 4.165297899999999970e-03
8.112000000000000000e+03 4.075530800000000224e-03
8.128000000000000000e+03 4.092413300000000143e-03
8.144000000000000000e+03 4.055519600000000689e-03
8.160000000000000000e+03 4.028930599999999349e-03
8.176000000000000000e+03 4.176527000000000191e-03
8.192000000000000000e+03 4.233303600000000097e-03
8.208000000000000000e+03 4.280110300000000700e-03
8.224000000000000000e+03 4.443577399999999906e-03
8.240000000000000000e+03 4.581335800000000021e-03
8.256000000000000000e+03 4.554383799999999795e-03
8.272000000000000000e+03 4.294424800000000084e-03
8.288000000000000000e+03 4.213382900000000632e-03
8.304000000000000000e+03 4.173144100000000627e-03
8.320000000000000000e+03 4.245070199999999294e-03
8.336000000000000000e+03 4.345230999999999746e-03
8.352000000000000000e+03 4.334119699999999797e-03
8.368000000000000000e+03 4.294217399999999615e-03
8.384000000000000000e+03 4.299699399999999845e-03
8.400000000000000000e+03 4.327282099999999604e-03
8.416000000000000000e+03 4.360476899999999288e-03
8.432000000000000000e+03 4.401705199999999749e-03
8.448000000000000000e+03 4.480423299999999540e-03
8.464000000000000000e+03 4.451263100000000042e-03
8.480000000000000000e+03 4.391760700000000434e-03
8.496000000000000000e+03 4.456040599999999859e-03
8.512000000000000000e+03 4.492171199999999733e-03
8.528000000000000000e+03 4.431786200000000127e-03
8.544000000000000000e+03 4.388892599999999478e-03
8.560000000000000000e+03 4.232471800000000076e-03
8.576000000000000000e+03 4.269132200000000203e-03
8.592000000000000000e+03 4.387519799999999720e-03
8.608000000000000000e+03 4.306403800000000587e-03
8.624000000000000000e+03 4.480226399999999616e-03
8.640000000000000000e+03 4.524419600000000215e-03
8.656000000000000000e+03 4.325063900000000391e-03
8.672000000000000000e+03 4.357289500000000038e-03
8.688000000000000000e+03 4.489306299999999868e-03
8.704000000000000000e+03 4.591230699999999769e-03
8.720000000000000000e+03 4.553158800000000131e-03
8.736000000000000000e+03 4.742082600000000099e-03
8.752000000000000000e+03 4.914175000000000661e-03
8.768000000000000000e+03 4.715748199999999710e-03
8.784000000000000000e+03 4.347268700000000291e-03
8.800000000000000000e+03 4.165352899999999643e-03
8.816000000000000000e+03 4.284243000000000079e-03
8.832000000000000000e+03 4.464635399999999921e-03
8.848000000000000000e+03 4.439744300000000345e-03
8.864000000000000000e+03 4.608498300000000471e-03
8.880000000000000000e+03 4.614255000000000266e-03
8.896000000000000000e+03 4.393839400000000214e-03
8.912000000000000000e+03 4.349698899999999806e-03
8.928000000000000000e+03 4.522894900000000266e-03
8.944000000000000000e+03 4.582769600000000630e-03
8.960000000000000000e+03 4.397092200000000083e-03
8.976000000000000000e+03 4.363489600000000114e-03
8.992000000000000000e+03 4.343561599999999460e-03
9.008000000000000000e+03 4.287466299999999862e-03
9.024000000000000000e+03 4.494035700000000196e-03
9.040000000000000000e+03 4.570122700000000052e-03
9.056000000000000000e+03 4.732486099999999758e-03
9.072000000000000000e+03 4.635414400000000164e-03
9.088000000000000000e+03 4.466027800000000290e-03
9.104000000000000000e+03 4.671101100000000020e-03
9.120000000000000000e+03 4.741775699999999961e-03
9.136000000000000000e+03 4.436323299999999498e-03
9.152000000000000000e+03 4.296471599999999828e-03
9.168000000000000000e+03 4.541166599999999463e-03
9.184000000000000000e+03 4.773482900000000639e-03
9.200000000000000000e+03 4.855186000000000050e-03
9.216000000000000000e+03 4.636539400000000422e-03
9.232000000000000000e+03 4.384683099999999931e-03
9.248000000000000000e+03 4.423973199999999516e-03
9.264000000000000000e+03 4.344644400000000073e-03
9.280000000000000000e+03 4.268658800000000100e-03
9.296000000000000000e+03 4.359576900000000296e-03
9.312000000000000000e+03 4.349216899999999372e-03
9.328000000000000000e+03 4.206929600000000082e-03
9.344000000000000000e+03 4.303100000000000674e-03
9.360000000000000000e+03 4.374556299999999599e-03
9.376000000000000000e+03 4.383908199999999797e-03
9.392000000000000000e+03 4.506438000000000631e-03
9.408000000000000000e+03 4.620632799999999790e-03
9.424000000000000000e+03 4.618680099999999608e-03
9.440000000000000000e+03 4.610634300000000275e-03
9.456000000000000000e+03 4.595391600000000090e-03
9.472000000000000000e+03 4.443206299999999560e-03
9.488000000000000000e+03 4.497708200000000503e-03
9.504000000000000000e+03 4.581768700000000624e-03
9.520000000000000000e+03 4.545820999999999369e-03
9.536000000000000000e+03 4.651652899999999917e-03
9.552000000000000000e+03 4.836399500000000511e-03
9.568000000000000000e+03 4.821257299999999468e-03
9.584000000000000000e+03 4.675062399999999931e-03
9.600000000000000000e+03 4.529385000000000355e-03
9.616000000000000000e+03 4.236534999999999607e-03
9.632000000000000000e+03 4.281553200000000510e-03
9.648000000000000000e+03 4.281938800000000163e-03
9.664000000000000000e+03 4.405655500000000245e-03
9.680000000000000000e+03 4.465959100000000716e-03
9.696000000000000000e+03 4.409091200000000467e-03
9.712000000000000000e+03 4.572576899999999944e-03
9.728000000000000000e+03 4.707409099999999673e-03
9.744000000000000000e+03 4.820008099999999358e-03
9.760000000000000000e+03 4.804089299999999771e-03
9.776000000000000000e+03 4.767941399999999635e-03
9.792000000000000000e+03 4.790652399999999547e-03
9.808000000000000000e+03 4.597107400000000586e-03
9.824000000000000000e+03 4.389143199999999932e-03
9.840000000000000000e+03 4.288092400000000429e-03
9.856000000000000000e+03 4.218122700000000169e-03
9.872000000000000000e+03 4.312616499999999756e-03
9.888000000000000000e+03 4.587890099999999451e-03
9.904000000000000000e+03 4.782537900000000640e-03
9.920000000000000000e+03 4.720286100000000221e-03
9.936000000000000000e+03 4.436206399999999966e-03
9.952000000000000000e+03 4.287508500000000375e-03
9.968000000000000000e+03 4.416106500000000108e-03
9.984000000000000000e+03 4.660466399999999530e-03
1.000000000000000000e+04 4.738455099999999524e-03
1.001600000000000000e+04 4.735256399999999456e-03
1.003200000000000000e+04 4.723510799999999614e-03
1.004800000000000000e+04 4.577318599999999696e-03
1.006400000000000000e+04 4.472406999999999425e-03
1.008000000000000000e+04 4.502283400000000289e-03
1.009600000000000000e+04 4.548152399999999887e-03
1.011200000000000000e+04 4.537443599999999716e-03
1.012800000000000000e+04 4.556339300000000064e-03
1.014400000000000000e+04 4.668322599999999260e-03
1.016000000000000000e+04 4.600262900000000668e-03
1.017600000000000000e+04 4.650800300000000609e-03
1.019200000000000000e+04 4.804178799999999500e-03
1.020800000000000000e+04 4.753676400000000218e-03
1.022400000000000000e+04 4.733073600000000172e-03
1.024000000000000000e+04 4.900699000000000548e-03
1.025600000000000000e+04 4.823475600000000016e-03
1.027200000000000000e+04 4.603082300000000196e-03
1.028800000000000000e+04 4.607071799999999315e-03
1.030400000000000000e+04 4.777059099999999767e-03
1.032000000000000000e+04 4.898966799999999663e-03
1.033600000000000000e+04 4.888140200000000088e-03
1.035200000000000000e+04 4.828922999999999723e-03
1.036800000000000000e+04 4.811532100000000776e-03
1.038400000000000000e+04 4.721291600000000060e-03
1.040000000000000000e+04 4.635984600000000316e-03
1.041600000000000000e+04 4.639121000000000390e-03
1.043200000000000000e+04 4.459231599999999469e-03
1.044800000000000000e+04 4.395016700000000526e-03
1.046400000000000000e+04 4.357270400000000030e-03
1.048000000000000000e+04 4.349904400000000060e-03
1.049600000000000000e+04 4.693639799999999723e-03
1.051200000000000000e+04 4.989063699999999983e-03
1.052800000000000000e+04 4.947746700000000067e-03
1.054400000000000000e+04 4.803519499999999755e-03
1.056000000000000000e+04 4.849607599999999907e-03
1.057600000000000000e+04 4.813989600000000493e-03
1.059200000000000000e+04 4.582075700000000362e-03
1.060800000000000000e+04 4.479311400000000713e-03
1.062400000000000000e+04 4.574806600000000043e-03
1.064000000000000000e+04 4.616068999999999554e-03
1.065600000000000000e+04 4.577675600000000004e-03
1.067200000000000000e+04 4.881077099999999759e-03
1.068800000000000000e+04 5.136334499999999949e-03
1.070400000000000000e+04 5.133278999999999273e-03
1.072000000000000000e+04 5.082524700000000395e-03
1.073600000000000000e+04 4.789595100000000258e-03
1.075200000000000000e+04 4.547283400000000191e-03
1.076800000000000000e+04 4.670865599999999944e-03
1.078400000000000000e+04 4.647671199999999989e-03
1.080000000000000000e+04 4.593651299999999479e-03
1.081600000000000000e+04 4.533564199999999544e-03
1.083200000000000000e+04 4.534121700000000137e-03
1.084800000000000000e+04 4.618431400000000235e-03
1.086400000000000000e+04 4.916614200000000642e-03
1.088000000000000000e+04 5.080627500000000490e-03
1.089600000000000000e+04 4.882690500000000031e-03
1.091200000000000000e+04 4.654841199999999908e-03
1.092800000000000000e+04 4.747771500000000193e-03
1.094400000000000000e+04 4.767255599999999961e-03
1.096000000000000000e+04 4.479134500000000671e-03
1.097600000000000000e+04 4.612522800000000249e-03
1.099200000000000000e+04 4.812958699999999798e-03
1.100800000000000000e+04 4.837923400000000186e-03
1.102400000000000000e+04 4.829336800000000318e-03
1.104000000000000000e+04 4.910555599999999812e-03
1.105600000000000000e+04 4.880321300000000501e-03
1.107200000000000000e+04 4.737960800000000534e-03
1.108800000000000000e+04 4.836755100000000342e-03
1.110400000000000000e+04 4.892054199999999915e-03
1.112000000000000000e+04 4.854056000000000690e-03
1.113600000000000000e+04 4.822061800000000155e-03
1.115200000000000000e+04 4.677752700000000104e-03
1.116800000000000000e+04 4.521916699999999761e-03
1.118400000000000000e+04 4.550135099999999891e-03
1.120000000000000000e+04 4.589920500000000542e-03
1.121600000000000000e+04 4.703642800000000339e-03
1.123200000000000000e+04 4.715582700000000085e-03
1.124800000000000000e+04 4.956457400000000187e-03
1.126400000000000000e+04 5.210436500000000318e-03
1.128000000000000000e+04 4.948034500000000196e-03
1.129600000000000000e+04 4.789847500000000459e-03
1.131200000000000000e+04 4.711587300000000256e-03
1.132800000000000000e+04 4.758710499999999934e-03
1.134400000000000000e+04 4.890405799999999852e-03
1.136000000000000000e+04 4.892107900000000446e-03
1.137600000000000000e+04 4.926805599999999584e-03
1.139200000000000000e+04 5.152341599999999723e-03
1.140800000000000000e+04 5.005100800000000447e-03
1.142400000000000000e+04 4.980405299999999917e-03
1.144000000000000000e+04 5.084578299999999856e-03
1.145600000000000000e+04 4.978666299999999316e-03
1.147200000000000000e+04 4.679854099999999385e-03
1.148800000000000000e+04 4.713393099999999350e-03
1.150400000000000000e+04 4.865762999999999512e-03
1.152000000000000000e+04 4.993590200000000076e-03
1.153600000000000000e+04 5.094480499999999926e-03
1.155200000000000000e+04 4.945232400000000063e-03
1.156800000000000000e+04 4.842185700000000391e-03
1.158400000000000000e+04 4.939951899999999591e-03
1.160000000000000000e+04 4.982029600000000003e-03
1.161600000000000000e+04 5.054632299999999544e-03
1.163200000000000000e+04 4.978387600000000121e-03
1.164800000000000000e+04 4.871787499999999556e-03
1.166400000000000000e+04 4.878307200000000197e-03
1.168000000000000000e+04 4.885001499999999663e-03
1.169600000000000000e+04 4.860775800000000611e-03
1.171200000000000000e+04 4.891312999999999564e-03
1.172800000000000000e+04 4.830853400000000540e-03
1.174400000000000000e+04 4.916436000000000590e-03
1.176000000000000000e+04 4.958862999999999986e-03
1.177600000000000000e+04 4.871648800000000397e-03
1.179200000000000000e+04 4.923436800000000058e-03
1.180800000000000000e+04 4.854290600000000025e-03
1.182400000000000000e+04 4.806363000000000128e-03
1.184000000000000000e+04 4.798796499999999875e-03
1.185600000000000000e+04 4.810227400000000389e-03
1.187200000000000000e+04 4.892650400000000260e-03
1.188800000000000000e+04 5.000080399999999765e-03
1.190400000000000000e+04 5.008091200000000173e-03
1.192000000000000000e+04 5.206999500000000086e-03
1.193600000000000000e+04 5.268006599999999762e-03
1.195200000000000000e+04 5.225165799999999770e-03
1.196800000000000000e+04 5.371951800000000082e-03
1.198400000000000000e+04 5.816347300000000026e-03
1.200000000000000000e+04 6.327169100000000143e-03
1.201600000000000000e+04 5.532067899999999760e-03
1.203200000000000000e+04 4.943131400000000050e-03
1.204800000000000000e+04 4.949550700000000282e-03
1.206400000000000000e+04 5.160250600000000111e-03
1.208000000000000000e+04 5.468909399999999366e-03
1.209600000000000000e+04 5.343714700000000081e-03
1.211200000000000000e+04 4.972383999999999832e-03
1.212800000000000000e+04 4.895095599999999686e-03
1.214400000000000000e+04 4.949572499999999910e-03
1.216000000000000000e+04 4.886229799999999152e-03
1.217600000000000000e+04 4.747500500000000588e-03
1.219200000000000000e+04 4.608665200000000572e-03
1.220800000000000000e+04 4.811273399999999728e-03
1.222400000000000000e+04 5.148722700000000346e-03
1.224000000000000000e+04 5.209109499999999698e-03
1.225600000000000000e+04 5.189711400000000634e-03
1.227200000000000000e+04 5.165669799999999742e-03
1.228800000000000000e+04 5.116089099999999480e-03
1.230400000000000000e+04 5.185849699999999993e-03
1.232000000000000000e+04 5.025127400000000029e-03
1.233600000000000000e+04 4.715033800000000691e-03
1.235200000000000000e+04 5.003348200000000412e-03
1.236800000000000000e+04 5.272549100000000107e-03
1.238400000000000000e+04 4.947339200000000319e-03
1.240000000000000000e+04 4.784759300000000076e-03
1.241600000000000000e+04 4.928044700000000153e-03
1.243200000000000000e+04 5.048608700000000241e-03
1.244800000000000000e+04 5.146122900000000243e-03
1.246400000000000000e+04 5.388616499999999455e-03
1.248000000000000000e+04 5.293448300000000613e-03
1.249600000000000000e+04 4.903217799999999918e-03
1.251200000000000000e+04 4.785663400000000033e-03
1.252800000000000000e+04 4.989879899999999889e-03
1.254400000000000000e+04 5.260123099999999829e-03
1.256000000000000000e+04 5.427485099999999722e-03
1.257600000000000000e+04 5.226273099999999630e-03
1.259200000000000000e+04 5.007975699999999385e-03
1.260800000000000000e+04 4.890319800000000015e-03
1.262400000000000000e+04 4.931811900000000227e-03
1.264000000000000000e+04 4.985898199999999961e-03
1.265600000000000000e+04 4.947453400000000230e-03
1.267200000000000000e+04 4.929640899999999763e-03
1.268800000000000000e+04 5.045355899999999505e-03
1.270400000000000000e+04 4.913014899999999276e-03
1.272000000000000000e+04 4.645252800000000161e-03
1.273600000000000000e+04 4.526133599999999230e-03
1.275200000000000000e+04 4.743535600000000317e-03
1.276800000000000000e+04 4.891635400000000217e-03
1.278400000000000000e+04 4.985942299999999820e-03
1.280000000000000000e+04 5.454654899999999626e-03
1.292800000000000000e+04 5.345675200000000321e-03
1.305600000000000000e+04 5.263681899999999962e-03
1.318400000000000000e+04 5.291449300000000688e-03
1.331200000000000000e+04 5.367423900000000379e-03
1.344000000000000000e+04 5.333539299999999657e-03
1.356800000000000000e+04 5.216664700000000002e-03
1.369600000000000000e+04 5.237371199999999415e-03
1.382400000000000000e+04 5.192162000000000166e-03
1.395200000000000000e+04 5.455403900000000035e-03
1.408000000000000000e+04 5.375344199999999850e-03
1.420800000000000000e+04 5.259285899999999701e-03
1.433600000000000000e+04 5.262728300000000040e-03
1.446400000000000000e+04 5.378780300000000208e-03
1.459200000000000000e+04 5.374335200000000118e-03
1.472000000000000000e+04 5.394606900000000448e-03
1.484800000000000000e+04 5.632583499999999771e-03
1.497600000000000000e+04 5.806993199999999945e-03
1.510400000000000000e+04 5.651799699999999690e-03
1.523200000000000000e+04 5.402852399999999791e-03
1.536000000000000000e+04 5.326218299999999420e-03
1.548800000000000000e+04 5.345692400000000115e-03
1.561600000000000000e+04 5.342289600000000270e-03
1.574400000000000000e+04 5.447724099999999743e-03
1.587200000000000000e+04 5.436932499999999960e-03
1.600000000000000000e+04 5.389823399999999452e-03
1.612800000000000000e+04 5.610111200000000159e-03
1.625600000000000000e+04 5.907961199999999836e-03
1.638400000000000000e+04 5.782516799999999971e-03
1.651200000000000000e+04 5.834089700000000440e-03
1.664000000000000000e+04 5.936467499999999696e-03
1.676800000000000000e+04 5.932597099999999991e-03
1.689600000000000000e+04 5.560481900000000671e-03
1.702400000000000000e+04 5.696900200000000469e-03
1.715200000000000000e+04 6.096886399999999415e-03
1.728000000000000000e+04 6.137419399999999997e-03
1.740800000000000000e+04 5.653463199999999265e-03
1.753600000000000000e+04 5.754693100000000429e-03
1.766400000000000000e+04 5.914575000000000041e-03
1.779200000000000000e+04 6.091305700000000656e-03
1.792000000000000000e+04 6.226716299999999864e-03
1.804800000000000000e+04 6.402417999999999998e-03
1.817600000000000000e+04 6.414133199999999882e-03
1.830400000000000000e+04 6.050419399999999726e-03
1.843200000000000000e+04 5.877604100000000283e-03
1.856000000000000000e+04 6.299442199999999784e-03
1.868800000000000000e+04 6.233830399999999369e-03
1.881600000000000000e+04 6.217623199999999448e-03
1.894400000000000000e+04 6.275108700000000400e-03
1.907200000000000000e+04 6.301925600000000093e-03
1.920000000000000000e+04 6.180807299999999636e-03
1.932800000000000000e+04 5.991393199999999440e-03
1.945600000000000000e+04 6.410627099999999939e-03
1.958400000000000000e+04 6.855107600000000245e-03
1.971200000000000000e+04 6.984154399999999499e-03
1.984000000000000000e+04 6.644292199999999628e-03
1.996800000000000000e+04 6.350352099999999680e-03
2.009600000000000000e+04 6.335573699999999531e-03
2.022400000000000000e+04 6.427266699999999860e-03
2.035200000000000000e+04 6.755307799999999731e-03
2.048000000000000000e+04 6.622646700000000067e-03
2.060800000000000000e+04 6.415830699999999776e-03
2.073600000000000000e+04 6.491513899999999844e-03
2.086400000000000000e+04 6.403697600000000066e-03
2.099200000000000000e+04 6.469776100000000467e-03
2.112000000000000000e+04 6.450844500000000453e-03
2.124800000000000000e+04 6.380095799999999963e-03
2.137600000000000000e+04 6.373346900000000093e-03
2.150400000000000000e+04 6.597506400000000513e-03
2.163200000000000000e+04 6.708513399999999419e-03
2.176000000000000000e+04 6.811479599999999829e-03
2.188800000000000000e+04 6.643015700000000183e-03
2.201600000000000000e+04 6.354166999999999975e-03
2.214400000000000000e+04 6.577471599999999870e-03
2.227200000000000000e+04 6.522634999999999718e-03
2.240000000000000000e+04 6.550661099999999758e-03
2.252800000000000000e+04 6.519377600000000016e-03
2.265600000000000000e+04 6.596007099999999686e-03
2.278400000000000000e+04 6.810941200000000112e-03
2.291200000000000000e+04 6.667399699999999874e-03
2.304000000000000000e+04 6.608707299999999792e-03
2.316800000000000000e+04 6.684478199999999842e-03
2.329600000000000000e+04 6.654513499999999658e-03
2.342400000000000000e+04 6.766977500000000145e-03
2.355200000000000000e+04 6.948968800000000084e-03
2.368000000000000000e+04 7.223385599999999906e-03
2.380800000000000000e+04 6.935667900000000267e-03
2.393600000000000000e+04 7.186395599999999273e-03
2.406400000000000000e+04 7.803760999999999337e-03
2.419200000000000000e+04 7.770544499999999626e-03
2.432000000000000000e+04 7.436219200000000057e-03
2.444800000000000000e+04 6.966218300000000252e-03
2.457600000000000000e+04 6.715234599999999818e-03
2.470400000000000000e+04 6.588428700000000145e-03
2.483200000000000000e+04 6.705243799999999893e-03
2.496000000000000000e+04 7.159366800000000614e-03
2.508800000000000000e+04 7.320601500000000102e-03
2.521600000000000000e+04 7.604858199999999999e-03
2.534400000000000000e+04 7.596246200000000143e-03
2.547200000000000000e+04 7.393746300000000188e-03
2.560000000000000000e+04 7.309004600000000226e-03
2.572800000000000000e+04 7.167876899999999982e-03
2.585600000000000000e+04 7.232051800000000030e-03
2.598400000000000000e+04 7.534132200000000744e-03
2.611200000000000000e+04 7.504765600000000252e-03
2.624000000000000000e+04 7.503274000000000749e-03
2.636800000000000000e+04 7.207707300000000365e-03
2.649600000000000000e+04 7.012330599999999983e-03
2.662400000000000000e+04 7.102392400000000043e-03
2.675200000000000000e+04 6.833022299999999896e-03
2.688000000000000000e+04 6.777640500000000311e-03
2.700800000000000000e+04 6.584819899999999442e-03
2.713600000000000000e+04 6.776301200000000267e-03
2.726400000000000000e+04 7.308578899999999476e-03
2.739200000000000000e+04 7.826636600000000735e-03
2.752000000000000000e+04 7.879154499999999062e-03
2.764800000000000000e+04 7.369432300000000081e-03
2.777600000000000000e+04 7.259466200000000077e-03
2.790400000000000000e+04 7.497698799999999962e-03
2.803200000000000000e+04 7.706667000000000378e-03
2.816000000000000000e+04 7.491511000000000177e-03
2.828800000000000000e+04 7.495205000000000443e-03
2.841600000000000000e+04 8.040878099999999168e-03
2.854400000000000000e+04 8.089981700000000234e-03
2.867200000000000000e+04 8.027055599999999291e-03
2.880000000000000000e+04 8.250206500000000984e-03
2.892800000000000000e+04 8.303878500000000384e-03
2.905600000000000000e+04 7.820100099999999568e-03
2.918400000000000000e+04 7.738267399999999331e-03
2.931200000000000000e+04 8.000685699999999373e-03
2.944000000000000000e+04 7.830290099999999767e-03
2.956800000000000000e+04 7.909377900000000294e-03
2.969600000000000000e+04 8.104650999999999175e-03
2.982400000000000000e+04 9.376785800000000601e-03
2.995200000000000000e+04 1.360425100000000123e-02
3.008000000000000000e+04 1.284282900000000005e-02
3.020800000000000000e+04 9.212153600000000039e-03
3.033600000000000000e+04 8.248493899999998977e-03
3.046400000000000000e+04 8.139304600000001055e-03
3.059200000000000000e+04 8.108816499999999330e-03
3.072000000000000000e+04 7.928862899999999936e-03
3.084800000000000000e+04 7.682066100000000883e-03
3.097600000000000000e+04 7.658123599999999524e-03
3.110400000000000000e+04 7.917815300000000459e-03
3.123200000000000000e+04 7.842292699999999644e-03
3.136000000000000000e+04 7.764693700000001135e-03
3.148800000000000000e+04 7.680860099999999892e-03
3.161600000000000000e+04 7.687625800000000287e-03
3.174400000000000000e+04 7.962634300000000220e-03
3.187200000000000000e+04 8.027813200000000898e-03
3.200000000000000000e+04 7.900360300000000904e-03
3.212800000000000000e+04 7.708325000000000246e-03
3.225600000000000000e+04 8.038079600000001129e-03
3.238400000000000000e+04 8.201111999999999985e-03
3.251200000000000000e+04 8.373221099999999736e-03
3.264000000000000000e+04 8.454274399999999606e-03
3.276800000000000000e+04 9.062305300000000202e-03
3.289600000000000000e+04 9.213337799999998801e-03
3.302400000000000000e+04 8.759746400000000682e-03
3.315200000000000000e+04 8.292991000000001292e-03
3.328000000000000000e+04 7.869220999999999161e-03
3.340800000000000000e+04 8.177158599999999680e-03
3.353600000000000000e+04 8.370463500000001333e-03
3.366400000000000000e+04 8.119721300000000419e-03
3.379200000000000000e+04 8.242528600000000039e-03
3.392000000000000000e+04 8.231512800000000130e-03
3.404800000000000000e+04 8.134695200000000015e-03
3.417600000000000000e+04 8.119507599999999103e-03
3.430400000000000000e+04 8.593852700000001454e-03
3.443200000000000000e+04 8.995173600000001476e-03
3.456000000000000000e+04 8.680509399999999584e-03
3.468800000000000000e+04 8.585496300000000289e-03
3.481600000000000000e+04 8.757419000000000661e-03
3.494400000000000000e+04 8.395969399999999791e-03
3.507200000000000000e+04 8.739936700000000905e-03
3.520000000000000000e+04 9.004807899999999962e-03
3.532800000000000000e+04 8.986683500000000255e-03
3.545600000000000000e+04 8.762006499999999004e-03
3.558400000000000000e+04 8.489313600000001139e-03
3.571200000000000000e+04 8.618382700000001492e-03
3.584000000000000000e+04 8.986180499999999599e-03
3.596800000000000000e+04 9.156510700000000322e-03
3.609600000000000000e+04 8.856065500000001242e-03
3.622400000000000000e+04 8.972979199999999919e-03
3.635200000000000000e+04 9.098965199999999726e-03
3.648000000000000000e+04 9.110151000000000360e-03
3.660800000000000000e+04 9.279427999999999288e-03
3.673600000000000000e+04 9.218224500000000293e-03
3.686400000000000000e+04 8.798891899999999530e-03
3.699200000000000000e+04 8.751306299999999164e-03
3.712000000000000000e+04 9.142888300000000593e-03
3.724800000000000000e+04 9.442264900000000433e-03
3.737600000000000000e+04 9.147185699999999323e-03
3.750400000000000000e+04 8.731112800000001214e-03
3.763200000000000000e+04 8.513722599999998947e-03
3.776000000000000000e+04 8.487440000000000609e-03
3.788800000000000000e+04 8.886094299999999432e-03
3.801600000000000000e+04 9.561907999999999172e-03
3.814400000000000000e+04 9.336771699999999591e-03
3.827200000000000000e+04 9.020482099999999406e-03
3.840000000000000000e+04 9.333860399999999516e-03
3.852800000000000000e+04 9.406989200000000217e-03
3.865600000000000000e+04 9.389076700000000344e-03
3.878400000000000000e+04 9.379123199999998828e-03
3.891200000000000000e+04 9.328860899999999456e-03
3.904000000000000000e+04 9.856504200000001242e-03
3.916800000000000000e+04 9.906966600000000761e-03
3.929600000000000000e+04 9.438886100000000098e-03
3.942400000000000000e+04 9.478485499999999772e-03
3.955200000000000000e+04 9.464259200000000108e-03
3.968000000000000000e+04 9.004095800000000427e-03
3.980800000000000000e+04 8.865891699999999681e-03
3.993600000000000000e+04 9.305219499999999727e-03
4.006400000000000000e+04 9.503359299999999954e-03
4.019200000000000000e+04 9.076664400000000049e-03
4.032000000000000000e+04 9.101143400000000910e-03
4.044800000000000000e+04 9.561519600000000299e-03
4.057600000000000000e+04 9.581834100000000479e-03
4.070400000000000000e+04 9.779300900000001059e-03
4.083200000000000000e+04 1.024640400000000062e-02
4.096000000000000000e+04 1.021371800000000010e-02
4.108800000000000000e+04 1.007204300000000101e-02
4.121600000000000000e+04 9.682131299999998872e-03
4.134400000000000000e+04 9.571960600000000222e-03
4.147200000000000000e+04 1.031357299999999949e-02
4.160000000000000000e+04 1.029707599999999876e-02
4.172800000000000000e+04 9.999923299999999640e-03
4.185600000000000000e+04 9.997310400000000707e-03
4.198400000000000000e+04 9.741385800000000247e-03
4.211200000000000000e+04 1.030293400000000144e-02
4.224000000000000000e+04 1.287592400000000040e-02
4.236800000000000000e+04 1.803599999999999995e-02
4.249600000000000000e+04 2.164056099999999913e-02
4.262400000000000000e+04 2.194127599999999914e-02
4.275200000000000000e+04 2.117297099999999876e-02
4.288000000000000000e+04 1.639596299999999951e-02
4.300800000000000000e+04 1.208094399999999971e-02
4.313600000000000000e+04 1.101959800000000024e-02
4.326400000000000000e+04 1.040569400000000005e-02
4.339200000000000000e+04 9.981155000000000235e-03
4.352000000000000000e+04 1.001387699999999915e-02
4.364800000000000000e+04 1.017063499999999905e-02
4.377600000000000000e+04 1.067413500000000126e-02
4.390400000000000000e+04 1.058102000000000001e-02
4.403200000000000000e+04 1.094875699999999993e-02
4.416000000000000000e+04 1.095129400000000031e-02
4.428800000000000000e+04 1.047937100000000121e-02
4.441600000000000000e+04 1.049281799999999924e-02
4.454400000000000000e+04 1.058440199999999970e-02
4.467200000000000000e+04 1.054778799999999891e-02
4.480000000000000000e+04 1.050827900000000058e-02
4.492800000000000000e+04 1.019438200000000010e-02
4.505600000000000000e+04 1.034123999999999981e-02
4.518400000000000000e+04 1.047230899999999909e-02
4.531200000000000000e+04 1.060083499999999943e-02
4.544000000000000000e+04 1.071358700000000011e-02
4.556800000000000000e+04 1.070890600000000067e-02
4.569600000000000000e+04 1.105843100000000051e-02
4.582400000000000000e+04 1.105623399999999985e-02
4.595200000000000000e+04 1.090991299999999851e-02
4.608000000000000000e+04 1.061695600000000031e-02
4.620800000000000000e+04 1.058902800000000033e-02
4.633600000000000000e+04 1.099526999999999970e-02
4.646400000000000000e+04 1.116489000000000023e-02
4.659200000000000000e+04 1.138596299999999895e-02
4.672000000000000000e+04 1.129433700000000151e-02
4.684800000000000000e+04 1.094779499999999975e-02
4.697600000000000000e+04 1.118183199999999919e-02
4.710400000000000000e+04 1.131550000000000090e-02
4.723200000000000000e+04 1.115109399999999855e-02
4.736000000000000000e+04 1.174820600000000062e-02
4.748800000000000000e+04 1.238771900000000016e-02
4.761600000000000000e+04 1.272463300000000082e-02
4.774400000000000000e+04 1.200100000000000125e-02
4.787200000000000000e+04 1.128013400000000069e-02
4.800000000000000000e+04 1.126499800000000003e-02
4.812800000000000000e+04 1.134874599999999983e-02
4.825600000000000000e+04 1.146776400000000008e-02
4.838400000000000000e+04 1.116772199999999972e-02
4.851200000000000000e+04 1.084214500000000095e-02
4.864000000000000000e+04 1.111059399999999968e-02
4.876800000000000000e+04 1.157837899999999975e-02
4.889600000000000000e+04 1.215206300000000114e-02
4.902400000000000000e+04 1.259274900000000030e-02
4.915200000000000000e+04 1.240346600000000014e-02
4.928000000000000000e+04 1.213872799999999967e-02
4.940800000000000000e+04 1.186179899999999926e-02
4.953600000000000000e+04 1.146109300000000032e-02
4.966400000000000000e+04 1.173651300000000050e-02
4.979200000000000000e+04 1.200140799999999987e-02
4.992000000000000000e+04 1.253549999999999977e-02
5.004800000000000000e+04 1.295145400000000113e-02
5.017600000000000000e+04 1.261080499999999924e-02
5.030400000000000000e+04 1.180184599999999952e-02
5.043200000000000000e+04 1.219723200000000056e-02
5.056000000000000000e+04 1.221741700000000125e-02
5.068800000000000000e+04 1.205967299999999992e-02
5.081600000000000000e+04 1.208938300000000042e-02
5.094400000000000000e+04 1.223504199999999979e-02
5.107200000000000000e+04 1.186900299999999950e-02
5.120000000000000000e+04 1.176384999999999931e-02
5.132800000000000000e+04 1.179174300000000036e-02
5.145600000000000000e+04 1.235540499999999986e-02
5.158400000000000000e+04 1.325203299999999987e-02
5.171200000000000000e+04 1.294236999999999992e-02
5.184000000000000000e+04 1.240757999999999965e-02
5.196800000000000000e+04 1.200024899999999929e-02
5.209600000000000000e+04 1.190169200000000017e-02
5.222400000000000000e+04 1.240509999999999877e-02
5.235200000000000000e+04 1.302356499999999910e-02
5.248000000000000000e+04 1.303858800000000026e-02
5.260800000000000000e+04 1.314349899999999946e-02
5.273600000000000000e+04 1.266532399999999864e-02
5.286400000000000000e+04 1.223996000000000112e-02
5.299200000000000000e+04 1.301644600000000096e-02
5.312000000000000000e+04 1.380753699999999994e-02
5.324800000000000000e+04 1.381477100000000000e-02
5.337600000000000000e+04 1.325059300000000148e-02
5.350400000000000000e+04 1.306803999999999952e-02
5.363200000000000000e+04 1.268094999999999986e-02
5.376000000000000000e+04 1.337738999999999942e-02
5.388800000000000000e+04 1.350157500000000003e-02
5.401600000000000000e+04 1.309359000000000044e-02
5.414400000000000000e+04 1.263102299999999990e-02
5.427200000000000000e+04 1.245680099999999998e-02
5.440000000000000000e+04 1.357713699999999954e-02
5.452800000000000000e+04 1.426341300000000083e-02
5.465600000000000000e+04 1.353768999999999979e-02
5.478400000000000000e+04 1.266670099999999896e-02
5.491200000000000000e+04 1.309850800000000003e-02
5.504000000000000000e+04 1.309012600000000054e-02
5.516800000000000000e+04 1.297857100000000125e-02
5.529600000000000000e+04 1.372149899999999985e-02
5.542400000000000000e+04 1.471304900000000061e-02
5.555200000000000000e+04 1.455854199999999897e-02
5.568000000000000000e+04 1.410510700000000041e-02
5.580800000000000000e+04 1.387088499999999947e-02
5.593600000000000000e+04 1.299328599999999972e-02
5.606400000000000000e+04 1.271489899999999999e-02
5.619200000000000000e+04 1.349198700000000042e-02
5.632000000000000000e+04 1.341946299999999953e-02
5.644800000000000000e+04 1.389075799999999958e-02
5.657600000000000000e+04 1.403098099999999966e-02
5.670400000000000000e+04 1.342683200000000139e-02
5.683200000000000000e+04 1.316110200000000091e-02
5.696000000000000000e+04 1.366612499999999945e-02
5.708800000000000000e+04 1.390705600000000097e-02
5.721600000000000000e+04 1.387338200000000007e-02
5.734400000000000000e+04 1.439667600000000061e-02
5.747200000000000000e+04 1.497192699999999946e-02
5.760000000000000000e+04 1.519630100000000060e-02
5.772800000000000000e+04 1.552787599999999775e-02
5.785600000000000000e+04 1.514764300000000057e-02
5.798400000000000000e+04 1.507425999999999905e-02
5.811200000000000000e+04 1.515752499999999982e-02
5.824000000000000000e+04 1.505180100000000007e-02
5.836800000000000000e+04 1.477092999999999982e-02
5.849600000000000000e+04 1.448023699999999997e-02
5.862400000000000000e+04 1.371704099999999926e-02
5.875200000000000000e+04 1.422005200000000039e-02
5.888000000000000000e+04 1.449571500000000103e-02
5.900800000000000000e+04 1.455502600000000042e-02
5.913600000000000000e+04 1.442659900000000002e-02
5.926400000000000000e+04 1.445393299999999867e-02
5.939200000000000000e+04 1.490446800000000058e-02
5.952000000000000000e+04 1.569851199999999780e-02
5.964800000000000000e+04 1.539186100000000147e-02
5.977600000000000000e+04 1.517782600000000016e-02
5.990400000000000000e+04 1.532880399999999969e-02
6.003200000000000000e+04 1.504276399999999840e-02
6.016000000000000000e+04 1.391709200000000070e-02
6.028800000000000000e+04 1.478819599999999998e-02
6.041600000000000000e+04 1.576369700000000013e-02
6.054400000000000000e+04 1.538221500000000116e-02
6.067200000000000000e+04 1.480294700000000033e-02
6.080000000000000000e+04 1.497737000000000027e-02
6.092800000000000000e+04 1.583850500000000272e-02
6.105600000000000000e+04 1.629988000000000270e-02
6.118400000000000000e+04 1.624449600000000063e-02
6.131200000000000000e+04 1.594770599999999899e-02
6.144000000000000000e+04 1.557226599999999954e-02
6.156800000000000000e+04 1.520180799999999895e-02
6.169600000000000000e+04 1.508270399999999886e-02
6.182400000000000000e+04 1.499229200000000081e-02
6.195200000000000000e+04 1.544286399999999886e-02
6.208000000000000000e+04 1.548274499999999915e-02
6.220800000000000000e+04 1.526020400000000117e-02
6.233600000000000000e+04 1.602051999999999990e-02
6.246400000000000000e+04 1.597209800000000054e-02
6.259200000000000000e+04 1.587886599999999843e-02
6.272000000000000000e+04 1.610153199999999826e-02
6.284800000000000000e+04 1.689254199999999997e-02
6.297600000000000000e+04 1.725352700000000114e-02
6.310400000000000000e+04 1.595366100000000092e-02
6.323200000000000000e+04 1.566120399999999802e-02
6.336000000000000000e+04 1.595663899999999816e-02
6.348800000000000000e+04 1.594021299999999822e-02
6.361600000000000000e+04 1.621555599999999903e-02
6.374400000000000000e+04 1.658667999999999948e-02
6.387200000000000000e+04 1.685178700000000002e-02
6.400000000000000000e+04 1.688512400000000135e-02
6.412800000000000000e+04 1.721534099999999859e-02
6.425600000000000000e+04 1.703169599999999895e-02
6.438400000000000000e+04 1.680978299999999828e-02
6.451200000000000000e+04 1.678449699999999892e-02
6.464000000000000000e+04 1.647259700000000202e-02
6.476800000000000000e+04 1.650473099999999818e-02
6.489600000000000000e+04 1.686400199999999946e-02
6.502400000000000000e+04 1.722632800000000255e-02
6.515200000000000000e+04 1.657031500000000213e-02
6.528000000000000000e+04 1.604519999999999905e-02
6.540800000000000000e+04 1.652712699999999910e-02
6.553600000000000000e+04 1.651131100000000074e-02
6.566400000000000000e+04 1.671109200000000031e-02
6.579200000000000000e+04 1.649661500000000267e-02
6.592000000000000000e+04 1.649444100000000205e-02
6.604800000000000000e+04 1.672418000000000168e-02
6.617600000000000000e+04 1.711167700000000222e-02
6.630400000000000000e+04 1.801357799999999884e-02
6.643200000000000000e+04 1.837133100000000116e-02
6.656000000000000000e+04 1.746568300000000268e-02
6.668800000000000000e+04 1.627504199999999998e-02
6.681600000000000000e+04 1.627822199999999844e-02
6.694400000000000000e+04 1.701547299999999971e-02
6.707200000000000000e+04 1.784553900000000054e-02
6.720000000000000000e+04 2.061651100000000056e-02
6.732800000000000000e+04 2.223310499999999953e-02
6.745600000000000000e+04 1.895772600000000113e-02
6.758400000000000000e+04 1.801260799999999940e-02
6.771200000000000000e+04 1.746535800000000027e-02
6.784000000000000000e+04 1.712483399999999850e-02
6.796800000000000000e+04 1.734557400000000249e-02
6.809600000000000000e+04 1.733649200000000196e-02
6.822400000000000000e+04 1.712302900000000142e-02
6.835200000000000000e+04 1.721961399999999767e-02
6.848000000000000000e+04 1.746203999999999812e-02
6.860800000000000000e+04 1.856143000000000029e-02
6.873600000000000000e+04 1.874744299999999905e-02
6.886400000000000000e+04 1.790555900000000145e-02
6.899200000000000000e+04 1.735616599999999926e-02
6.912000000000000000e+04 1.803728800000000201e-02
6.924800000000000000e+04 1.730080100000000107e-02
6.937600000000000000e+04 1.800047000000000105e-02
6.950400000000000000e+04 1.903976799999999858e-02
6.963200000000000000e+04 1.870094100000000217e-02
6.976000000000000000e+04 1.802590300000000284e-02
6.988800000000000000e+04 1.755585399999999921e-02
7.001600000000000000e+04 1.801377600000000218e-02
7.014400000000000000e+04 2.618816900000000072e-02
7.027200000000000000e+04 3.031426200000000154e-02
7.040000000000000000e+04 2.257457499999999950e-02
7.052800000000000000e+04 1.904957599999999862e-02
7.065600000000000000e+04 2.110072799999999915e-02
7.078400000000000000e+04 2.187051500000000009e-02
7.091200000000000000e+04 2.069334600000000135e-02
7.104000000000000000e+04 2.001219899999999788e-02
7.116800000000000000e+04 1.921215199999999970e-02
7.129600000000000000e+04 1.872816799999999990e-02
7.142400000000000000e+04 1.893970899999999902e-02
7.155200000000000000e+04 1.932170899999999941e-02
7.168000000000000000e+04 1.918304200000000084e-02
7.180800000000000000e+04 1.858279900000000054e-02
7.193600000000000000e+04 1.957156200000000068e-02
7.206400000000000000e+04 2.022578299999999718e-02
7.219200000000000000e+04 1.984302599999999972e-02
7.232000000000000000e+04 2.013606499999999813e-02
7.244800000000000000e+04 2.054819600000000121e-02
7.257600000000000000e+04 2.049544900000000239e-02
7.270400000000000000e+04 1.867506799999999953e-02
7.283200000000000000e+04 1.829126400000000152e-02
7.296000000000000000e+04 1.877059499999999756e-02
7.308800000000000000e+04 1.920738599999999990e-02
7.321600000000000000e+04 1.915143400000000190e-02
7.334400000000000000e+04 1.911217399999999914e-02
7.347200000000000000e+04 1.942144099999999762e-02
7.360000000000000000e+04 1.972877899999999837e-02
7.372800000000000000e+04 2.051195000000000102e-02
7.385600000000000000e+04 2.062735800000000189e-02
7.398400000000000000e+04 1.995460299999999784e-02
7.411200000000000000e+04 1.945576000000000250e-02
7.424000000000000000e+04 1.946347200000000249e-02
7.436800000000000000e+04 1.993879100000000085e-02
7.449600000000000000e+04 2.028139899999999857e-02
7.462400000000000000e+04 2.023735600000000148e-02
7.475200000000000000e+04 1.951776399999999995e-02
7.488000000000000000e+04 1.950069200000000003e-02
7.500800000000000000e+04 2.008885300000000027e-02
7.513600000000000000e+04 1.997463899999999890e-02
7.526400000000000000e+04 1.955105099999999985e-02
7.539200000000000000e+04 2.028890399999999997e-02
7.552000000000000000e+04 1.999348800000000023e-02
7.564800000000000000e+04 1.981711599999999920e-02
7.577600000000000000e+04 1.955442200000000186e-02
7.590400000000000000e+04 1.961618200000000284e-02
7.603200000000000000e+04 1.977534199999999784e-02
7.616000000000000000e+04 2.035758699999999990e-02
7.628800000000000000e+04 2.083915399999999862e-02
7.641600000000000000e+04 2.057953499999999949e-02
7.654400000000000000e+04 2.002206699999999756e-02
7.667200000000000000e+04 2.002164899999999900e-02
7.680000000000000000e+04 1.994006199999999798e-02
7.692800000000000000e+04 2.100424700000000020e-02
7.705600000000000000e+04 2.167834800000000006e-02
7.718400000000000000e+04 2.066507799999999992e-02
7.731200000000000000e+04 2.112741099999999872e-02
7.744000000000000000e+04 2.221358400000000149e-02
7.756800000000000000e+04 2.176592499999999847e-02
7.769600000000000000e+04 1.939831800000000120e-02
7.782400000000000000e+04 1.886203399999999974e-02
7.795200000000000000e+04 1.904045700000000022e-02
7.808000000000000000e+04 1.965913199999999930e-02
7.820800000000000000e+04 2.089125000000000010e-02
7.833600000000000000e+04 2.185277700000000031e-02
7.846400000000000000e+04 2.128401100000000198e-02
7.859200000000000000e+04 2.025202599999999936e-02
7.872000000000000000e+04 1.974702700000000033e-02
7.884800000000000000e+04 1.926180800000000179e-02
7.897600000000000000e+04 1.969735200000000130e-02
7.910400000000000000e+04 2.047776800000000036e-02
7.923200000000000000e+04 2.079670799999999709e-02
7.936000000000000000e+04 2.091406200000000062e-02
7.948800000000000000e+04 2.074794599999999975e-02
7.961600000000000000e+04 2.133232200000000078e-02
7.974400000000000000e+04 2.165983800000000070e-02
7.987200000000000000e+04 2.153666899999999787e-02
8.000000000000000000e+04 2.100473100000000218e-02
8.012800000000000000e+04 2.056284400000000026e-02
8.025600000000000000e+04 2.051699599999999915e-02
8.038400000000000000e+04 2.141304699999999755e-02
8.051200000000000000e+04 2.241465500000000208e-02
8.064000000000000000e+04 2.226278400000000074e-02
8.076800000000000000e+04 2.153208200000000100e-02
8.089600000000000000e+04 2.219871200000000239e-02
8.102400000000000000e+04 2.247249000000000121e-02
8.115200000000000000e+04 2.235473600000000005e-02
8.128000000000000000e+04 2.212393899999999872e-02
8.140800000000000000e+04 2.303818300000000027e-02
8.153600000000000000e+04 2.201518899999999751e-02
8.166400000000000000e+04 2.133679700000000110e-02
8.179200000000000000e+04 2.228623799999999988e-02
8.192000000000000000e+04 2.271869200000000213e-02
8.204800000000000000e+04 2.152636100000000080e-02
8.217600000000000000e+04 2.015854099999999857e-02
8.230400000000000000e+04 1.955547500000000272e-02
8.243200000000000000e+04 2.083585999999999772e-02
8.256000000000000000e+04 2.280478699999999997e-02
8.268800000000000000e+04 2.307111599999999915e-02
8.281600000000000000e+04 2.164362599999999914e-02
8.294400000000000000e+04 2.085277300000000153e-02
8.307200000000000000e+04 2.063936300000000085e-02
8.320000000000000000e+04 2.087370900000000071e-02
8.332800000000000000e+04 2.207250099999999784e-02
8.345600000000000000e+04 2.254683199999999929e-02
8.358400000000000000e+04 2.142151200000000019e-02
8.371200000000000000e+04 2.063082299999999952e-02
8.384000000000000000e+04 2.077263199999999921e-02
8.396800000000000000e+04 2.151792399999999730e-02
8.409600000000000000e+04 2.229025100000000051e-02
8.422400000000000000e+04 2.320300900000000013e-02
8.435200000000000000e+04 2.334698500000000065e-02
8.448000000000000000e+04 2.229965100000000019e-02
8.460800000000000000e+04 2.214914500000000203e-02
8.473600000000000000e+04 2.212823900000000094e-02
8.486400000000000000e+04 2.160298000000000079e-02
8.499200000000000000e+04 2.074578200000000081e-02
8.512000000000000000e+04 2.196434300000000076e-02
8.524800000000000000e+04 2.247019400000000236e-02
8.537600000000000000e+04 2.177350299999999961e-02
8.550400000000000000e+04 2.099075900000000119e-02
8.563200000000000000e+04 2.143965299999999949e-02
8.576000000000000000e+04 2.165389399999999992e-02
8.588800000000000000e+04 2.159437099999999762e-02
8.601600000000000000e+04 2.164353099999999711e-02
8.614400000000000000e+04 2.187601399999999918e-02
8.627200000000000000e+04 2.178512500000000240e-02
8.640000000000000000e+04 2.187745699999999946e-02
8.652800000000000000e+04 2.209835100000000219e-02
8.665600000000000000e+04 2.253260199999999880e-02
8.678400000000000000e+04 2.235866299999999737e-02
8.691200000000000000e+04 2.181353399999999901e-02
8.704000000000000000e+04 2.262290900000000007e-02
8.716800000000000000e+04 2.319213300000000019e-02
8.729600000000000000e+04 2.262032599999999963e-02
8.742400000000000000e+04 2.254789600000000130e-02
8.755200000000000000e+04 2.208961799999999837e-02
8.768000000000000000e+04 2.176640399999999961e-02
8.780800000000000000e+04 2.188540700000000255e-02
8.793600000000000000e+04 2.269515599999999758e-02
8.806400000000000000e+04 2.367229699999999840e-02
8.819200000000000000e+04 2.329163000000000067e-02
8.832000000000000000e+04 2.359023000000000023e-02
8.844800000000000000e+04 2.359691300000000061e-02
8.857600000000000000e+04 2.344851200000000122e-02
8.870400000000000000e+04 2.250696199999999841e-02
8.883200000000000000e+04 2.158742599999999984e-02
8.896000000000000000e+04 2.059818500000000149e-02
8.908800000000000000e+04 2.112861699999999884e-02
8.921600000000000000e+04 2.186784900000000170e-02
8.934400000000000000e+04 2.219793200000000008e-02
8.947200000000000000e+04 2.144412600000000085e-02
8.960000000000000000e+04 2.292934400000000081e-02
8.972800000000000000e+04 2.291743799999999831e-02
8.985600000000000000e+04 2.309430399999999953e-02
8.998400000000000000e+04 2.246311499999999878e-02
9.011200000000000000e+04 2.195052700000000093e-02
9.024000000000000000e+04 2.231579099999999802e-02
9.036800000000000000e+04 2.267124699999999854e-02
9.049600000000000000e+04 2.316592099999999904e-02
9.062400000000000000e+04 2.380342100000000169e-02
9.075200000000000000e+04 2.284174999999999747e-02
9.088000000000000000e+04 2.182488999999999957e-02
9.100800000000000000e+04 2.207366599999999873e-02
9.113600000000000000e+04 2.273179200000000066e-02
9.126400000000000000e+04 2.367721000000000062e-02
9.139200000000000000e+04 2.349526000000000045e-02
9.152000000000000000e+04 2.282222199999999965e-02
9.164800000000000000e+04 2.218728299999999862e-02
9.177600000000000000e+04 2.195158799999999757e-02
9.190400000000000000e+04 2.277306000000000122e-02
9.203200000000000000e+04 2.339288900000000004e-02
9.216000000000000000e+04 2.373900699999999947e-02
9.228800000000000000e+04 2.392436700000000194e-02
9.241600000000000000e+04 2.444458399999999837e-02
9.254400000000000000e+04 2.355927199999999916e-02
9.267200000000000000e+04 2.229585699999999879e-02
9.280000000000000000e+04 2.261595500000000009e-02
9.292800000000000000e+04 2.341285499999999978e-02
9.305600000000000000e+04 2.445414099999999868e-02
9.318400000000000000e+04 2.464508399999999766e-02
9.331200000000000000e+04 2.356938800000000014e-02
9.344000000000000000e+04 2.243666700000000042e-02
9.356800000000000000e+04 2.253059799999999890e-02
9.369600000000000000e+04 2.253955399999999984e-02
9.382400000000000000e+04 2.200547400000000056e-02
9.395200000000000000e+04 2.233964600000000120e-02
9.408000000000000000e+04 2.374369800000000058e-02
9.420800000000000000e+04 2.365405799999999864e-02
9.433600000000000000e+04 2.267513100000000115e-02
9.446400000000000000e+04 2.192593499999999709e-02
9.459200000000000000e+04 2.166571399999999911e-02
9.472000000000000000e+04 2.179754100000000014e-02
9.484800000000000000e+04 2.222993100000000138e-02
9.497600000000000000e+04 2.230376599999999918e-02
9.510400000000000000e+04 2.245828199999999955e-02
9.523200000000000000e+04 2.257249299999999903e-02
9.536000000000000000e+04 2.273922999999999917e-02
9.548800000000000000e+04 2.367330999999999949e-02
9.561600000000000000e+04 2.417168800000000020e-02
9.574400000000000000e+04 2.299820200000000231e-02
9.587200000000000000e+04 2.178952500000000056e-02
9.600000000000000000e+04 2.152383199999999969e-02
9.612800000000000000e+04 2.244898900000000252e-02
9.625600000000000000e+04 2.195139500000000202e-02
9.638400000000000000e+04 2.260689299999999943e-02
9.651200000000000000e+04 2.330040499999999973e-02
9.664000000000000000e+04 2.323518299999999953e-02
9.676800000000000000e+04 2.189362699999999884e-02
9.689600000000000000e+04 2.131064499999999959e-02
9.702400000000000000e+04 2.815993900000000189e-02
9.715200000000000000e+04 4.548527099999999379e-02
9.728000000000000000e+04 4.813852099999999662e-02
9.740800000000000000e+04 3.404875000000000262e-02
9.753600000000000000e+04 2.491052099999999797e-02
9.766400000000000000e+04 2.300557599999999980e-02
9.779200000000000000e+04 2.303284599999999918e-02
9.792000000000000000e+04 2.263118199999999969e-02
9.804800000000000000e+04 2.236700999999999967e-02
9.817600000000000000e+04 2.281969000000000011e-02
9.830400000000000000e+04 2.322401099999999927e-02
9.843200000000000000e+04 2.251150900000000246e-02
9.856000000000000000e+04 2.126492699999999944e-02
9.868800000000000000e+04 2.034219300000000147e-02
9.881600000000000000e+04 2.023777800000000140e-02
9.894400000000000000e+04 2.096162600000000056e-02
9.907200000000000000e+04 2.153955399999999895e-02
9.920000000000000000e+04 2.230729099999999993e-02
9.932800000000000000e+04 2.274841999999999836e-02
9.945600000000000000e+04 2.294515999999999917e-02
9.958400000000000000e+04 2.322834699999999988e-02
9.971200000000000000e+04 2.364712400000000200e-02
9.984000000000000000e+04 2.316210499999999881e-02
9.996800000000000000e+04 2.277391099999999738e-02
1.000960000000000000e+05 2.229730099999999854e-02
1.002240000000000000e+05 2.297962400000000058e-02
1.003520000000000000e+05 2.400662199999999830e-02
1.004800000000000000e+05 2.450071399999999983e-02
1.006080000000000000e+05 2.358233000000000204e-02
1.007360000000000000e+05 2.193681899999999976e-02
1.008640000000000000e+05 2.278979399999999864e-02
1.009920000000000000e+05 2.373045899999999889e-02
1.011200000000000000e+05 2.320889500000000022e-02
1.012480000000000000e+05 2.262574200000000077e-02
1.013760000000000000e+05 2.244161999999999893e-02
1.015040000000000000e+05 2.215556599999999807e-02
1.016320000000000000e+05 2.232012999999999706e-02
1.017600000000000000e+05 2.294080199999999972e-02
1.018880000000000000e+05 2.275936300000000120e-02
1.020160000000000000e+05 2.272245900000000041e-02
1.021440000000000000e+05 2.282876299999999845e-02
1.022720000000000000e+05 2.309950300000000040e-02
